{"ok":true,"updatedAt":"2026-06-18T07:11:16.011Z","usedDate":"20260618","quoteUpdatedAt":"2026-06-18T07:11:15.479Z","source":"institution-page","page":13,"pageSize":25,"totalPages":14,"totalCount":326,"count":25,"rows":[{"code":"9910","name":"豐泰","close":72.6,"change":-0.20000000000000284,"percent":-0.27,"tradeVolume":4745000,"value":344487000,"foreign":-2140319,"trust":-455111,"dealer":0,"total":-2584414,"foreignStreak":0,"trustStreak":0,"jointStreak":0,"fiveDayPctSum":-10.12,"fiveDayAvgVolume":10608364},{"code":"3019","name":"亞光","close":160.5,"change":2,"percent":1.26,"tradeVolume":7976000,"value":1280148000,"foreign":-2732157,"trust":0,"dealer":0,"total":-2649893,"foreignStreak":0,"trustStreak":0,"jointStreak":0,"fiveDayPctSum":8.35,"fiveDayAvgVolume":16329004},{"code":"6207","name":"雷科","close":165.5,"change":1.5,"percent":0.91,"tradeVolume":29362000,"value":4859411000,"foreign":-2604170,"trust":0,"dealer":-105256,"total":-2709426,"foreignStreak":0,"trustStreak":0,"jointStreak":0,"fiveDayPctSum":4.57,"fiveDayAvgVolume":29868369},{"code":"2406","name":"國碩","close":34.85,"change":-1.3500000000000014,"percent":-3.73,"tradeVolume":17487000,"value":609421950,"foreign":-2994991,"trust":0,"dealer":0,"total":-3003493,"foreignStreak":0,"trustStreak":0,"jointStreak":0,"fiveDayPctSum":1.83,"fiveDayAvgVolume":53632261},{"code":"1907","name":"永豐餘","close":28.2,"change":0.6999999999999993,"percent":2.55,"tradeVolume":5977000,"value":168551400,"foreign":-2859823,"trust":-9798,"dealer":0,"total":-3011852,"foreignStreak":0,"trustStreak":0,"jointStreak":0,"fiveDayPctSum":5.31,"fiveDayAvgVolume":3899222},{"code":"3711","name":"日月光投控","close":613,"change":18,"percent":3.03,"tradeVolume":34149000,"value":20933337000,"foreign":-846515,"trust":-2247330,"dealer":0,"total":-3242066,"foreignStreak":0,"trustStreak":0,"jointStreak":0,"fiveDayPctSum":10.23,"fiveDayAvgVolume":18687917},{"code":"3576","name":"聯合再生","close":18,"change":-1.1499999999999986,"percent":-6.01,"tradeVolume":39217000,"value":705906000,"foreign":-3280073,"trust":0,"dealer":0,"total":-3288934,"foreignStreak":0,"trustStreak":0,"jointStreak":0,"fiveDayPctSum":5.96,"fiveDayAvgVolume":54546746},{"code":"6016","name":"康和證","close":28.8,"change":0.05000000000000071,"percent":0.17,"tradeVolume":7847000,"value":225993600,"foreign":-3305000,"trust":0,"dealer":0,"total":-3305000,"foreignStreak":0,"trustStreak":0,"jointStreak":0,"fiveDayPctSum":0.87,"fiveDayAvgVolume":7932397},{"code":"2308","name":"台達電","close":2150,"change":-5,"percent":-0.23,"tradeVolume":10395000,"value":22349250000,"foreign":-1912610,"trust":-1336027,"dealer":0,"total":-3356399,"foreignStreak":0,"trustStreak":0,"jointStreak":0,"fiveDayPctSum":1.41,"fiveDayAvgVolume":11089532},{"code":"5483","name":"中美晶","close":181,"change":-1.5,"percent":-0.82,"tradeVolume":21784000,"value":3942904000,"foreign":-3563534,"trust":228000,"dealer":-148391,"total":-3483925,"foreignStreak":0,"trustStreak":3,"jointStreak":0,"fiveDayPctSum":-4.11,"fiveDayAvgVolume":22287131},{"code":"1409","name":"新纖","close":25.6,"change":-2.349999999999998,"percent":-8.41,"tradeVolume":39806000,"value":1019033600,"foreign":-3486800,"trust":0,"dealer":0,"total":-3788804,"foreignStreak":0,"trustStreak":0,"jointStreak":0,"fiveDayPctSum":9.71,"fiveDayAvgVolume":13196350},{"code":"8046","name":"南電","close":874,"change":-11,"percent":-1.24,"tradeVolume":17148000,"value":14987352000,"foreign":-1637366,"trust":-2327000,"dealer":0,"total":-3867225,"foreignStreak":0,"trustStreak":0,"jointStreak":0,"fiveDayPctSum":4.77,"fiveDayAvgVolume":15287999},{"code":"6209","name":"今國光","close":97.1,"change":1.3999999999999915,"percent":1.46,"tradeVolume":30588000,"value":2970094800,"foreign":-3900382,"trust":0,"dealer":0,"total":-4206897,"foreignStreak":0,"trustStreak":0,"jointStreak":0,"fiveDayPctSum":17.37,"fiveDayAvgVolume":39720186},{"code":"2327","name":"國巨*","close":1080,"change":96,"percent":9.76,"tradeVolume":90472000,"value":97709760000,"foreign":-6305815,"trust":2939196,"dealer":0,"total":-4722049,"foreignStreak":0,"trustStreak":7,"jointStreak":0,"fiveDayPctSum":17.39,"fiveDayAvgVolume":77938551},{"code":"2402","name":"毅嘉","close":70,"change":-0.9000000000000057,"percent":-1.27,"tradeVolume":7688000,"value":538160000,"foreign":-5278000,"trust":0,"dealer":0,"total":-5365068,"foreignStreak":0,"trustStreak":0,"jointStreak":0,"fiveDayPctSum":17.74,"fiveDayAvgVolume":11717631},{"code":"6239","name":"力成","close":363.5,"change":18.5,"percent":5.36,"tradeVolume":60643000,"value":22043730500,"foreign":-5789066,"trust":-131000,"dealer":0,"total":-5366572,"foreignStreak":0,"trustStreak":0,"jointStreak":0,"fiveDayPctSum":13.89,"fiveDayAvgVolume":51937943},{"code":"2344","name":"華邦電","close":218.5,"change":19.5,"percent":9.8,"tradeVolume":334015000,"value":72982277500,"foreign":-8995425,"trust":1401595,"dealer":0,"total":-5515030,"foreignStreak":0,"trustStreak":7,"jointStreak":0,"fiveDayPctSum":30.07,"fiveDayAvgVolume":252437386},{"code":"2330","name":"台積電","close":2410,"change":25,"percent":1.05,"tradeVolume":46272000,"value":111515520000,"foreign":-6876860,"trust":-317313,"dealer":0,"total":-6298981,"foreignStreak":0,"trustStreak":0,"jointStreak":0,"fiveDayPctSum":5.91,"fiveDayAvgVolume":34031609},{"code":"2464","name":"盟立","close":172,"change":6,"percent":3.61,"tradeVolume":20143000,"value":3464596000,"foreign":-7195176,"trust":0,"dealer":0,"total":-7624096,"foreignStreak":0,"trustStreak":0,"jointStreak":0,"fiveDayPctSum":14.19,"fiveDayAvgVolume":12058872},{"code":"3231","name":"緯創","close":161.5,"change":-1,"percent":-0.62,"tradeVolume":44648000,"value":7210652000,"foreign":-9767732,"trust":1260864,"dealer":0,"total":-8241513,"foreignStreak":0,"trustStreak":1,"jointStreak":0,"fiveDayPctSum":3.02,"fiveDayAvgVolume":44197530},{"code":"2317","name":"鴻海","close":268.5,"change":-3.5,"percent":-1.29,"tradeVolume":66997000,"value":17988694500,"foreign":-7229697,"trust":-595574,"dealer":0,"total":-8410760,"foreignStreak":0,"trustStreak":0,"jointStreak":0,"fiveDayPctSum":3.43,"fiveDayAvgVolume":62426859},{"code":"2324","name":"仁寶","close":37.75,"change":0.45000000000000284,"percent":1.21,"tradeVolume":71295000,"value":2691386250,"foreign":-9312180,"trust":-3097,"dealer":0,"total":-8616968,"foreignStreak":0,"trustStreak":0,"jointStreak":0,"fiveDayPctSum":0.66,"fiveDayAvgVolume":70636105},{"code":"1605","name":"華新","close":39,"change":0.29999999999999716,"percent":0.78,"tradeVolume":61343000,"value":2392377000,"foreign":-8124814,"trust":41792,"dealer":0,"total":-9255388,"foreignStreak":0,"trustStreak":1,"jointStreak":0,"fiveDayPctSum":12.74,"fiveDayAvgVolume":49731990},{"code":"2337","name":"旺宏","close":169,"change":7.5,"percent":4.64,"tradeVolume":124202000,"value":20990138000,"foreign":-15803449,"trust":-593000,"dealer":0,"total":-16273609,"foreignStreak":0,"trustStreak":0,"jointStreak":0,"fiveDayPctSum":18.59,"fiveDayAvgVolume":46550477},{"code":"2303","name":"聯電","close":145.5,"change":5.5,"percent":3.93,"tradeVolume":292688000,"value":42586104000,"foreign":-45460304,"trust":19556148,"dealer":0,"total":-26356643,"foreignStreak":0,"trustStreak":4,"jointStreak":0,"fiveDayPctSum":17.22,"fiveDayAvgVolume":302659665}],"matches":[{"code":"9910","name":"豐泰","close":72.6,"change":-0.20000000000000284,"percent":-0.27,"tradeVolume":4745000,"value":344487000,"foreign":-2140319,"trust":-455111,"dealer":0,"total":-2584414,"foreignStreak":0,"trustStreak":0,"jointStreak":0,"fiveDayPctSum":-10.12,"fiveDayAvgVolume":10608364},{"code":"3019","name":"亞光","close":160.5,"change":2,"percent":1.26,"tradeVolume":7976000,"value":1280148000,"foreign":-2732157,"trust":0,"dealer":0,"total":-2649893,"foreignStreak":0,"trustStreak":0,"jointStreak":0,"fiveDayPctSum":8.35,"fiveDayAvgVolume":16329004},{"code":"6207","name":"雷科","close":165.5,"change":1.5,"percent":0.91,"tradeVolume":29362000,"value":4859411000,"foreign":-2604170,"trust":0,"dealer":-105256,"total":-2709426,"foreignStreak":0,"trustStreak":0,"jointStreak":0,"fiveDayPctSum":4.57,"fiveDayAvgVolume":29868369},{"code":"2406","name":"國碩","close":34.85,"change":-1.3500000000000014,"percent":-3.73,"tradeVolume":17487000,"value":609421950,"foreign":-2994991,"trust":0,"dealer":0,"total":-3003493,"foreignStreak":0,"trustStreak":0,"jointStreak":0,"fiveDayPctSum":1.83,"fiveDayAvgVolume":53632261},{"code":"1907","name":"永豐餘","close":28.2,"change":0.6999999999999993,"percent":2.55,"tradeVolume":5977000,"value":168551400,"foreign":-2859823,"trust":-9798,"dealer":0,"total":-3011852,"foreignStreak":0,"trustStreak":0,"jointStreak":0,"fiveDayPctSum":5.31,"fiveDayAvgVolume":3899222},{"code":"3711","name":"日月光投控","close":613,"change":18,"percent":3.03,"tradeVolume":34149000,"value":20933337000,"foreign":-846515,"trust":-2247330,"dealer":0,"total":-3242066,"foreignStreak":0,"trustStreak":0,"jointStreak":0,"fiveDayPctSum":10.23,"fiveDayAvgVolume":18687917},{"code":"3576","name":"聯合再生","close":18,"change":-1.1499999999999986,"percent":-6.01,"tradeVolume":39217000,"value":705906000,"foreign":-3280073,"trust":0,"dealer":0,"total":-3288934,"foreignStreak":0,"trustStreak":0,"jointStreak":0,"fiveDayPctSum":5.96,"fiveDayAvgVolume":54546746},{"code":"6016","name":"康和證","close":28.8,"change":0.05000000000000071,"percent":0.17,"tradeVolume":7847000,"value":225993600,"foreign":-3305000,"trust":0,"dealer":0,"total":-3305000,"foreignStreak":0,"trustStreak":0,"jointStreak":0,"fiveDayPctSum":0.87,"fiveDayAvgVolume":7932397},{"code":"2308","name":"台達電","close":2150,"change":-5,"percent":-0.23,"tradeVolume":10395000,"value":22349250000,"foreign":-1912610,"trust":-1336027,"dealer":0,"total":-3356399,"foreignStreak":0,"trustStreak":0,"jointStreak":0,"fiveDayPctSum":1.41,"fiveDayAvgVolume":11089532},{"code":"5483","name":"中美晶","close":181,"change":-1.5,"percent":-0.82,"tradeVolume":21784000,"value":3942904000,"foreign":-3563534,"trust":228000,"dealer":-148391,"total":-3483925,"foreignStreak":0,"trustStreak":3,"jointStreak":0,"fiveDayPctSum":-4.11,"fiveDayAvgVolume":22287131},{"code":"1409","name":"新纖","close":25.6,"change":-2.349999999999998,"percent":-8.41,"tradeVolume":39806000,"value":1019033600,"foreign":-3486800,"trust":0,"dealer":0,"total":-3788804,"foreignStreak":0,"trustStreak":0,"jointStreak":0,"fiveDayPctSum":9.71,"fiveDayAvgVolume":13196350},{"code":"8046","name":"南電","close":874,"change":-11,"percent":-1.24,"tradeVolume":17148000,"value":14987352000,"foreign":-1637366,"trust":-2327000,"dealer":0,"total":-3867225,"foreignStreak":0,"trustStreak":0,"jointStreak":0,"fiveDayPctSum":4.77,"fiveDayAvgVolume":15287999},{"code":"6209","name":"今國光","close":97.1,"change":1.3999999999999915,"percent":1.46,"tradeVolume":30588000,"value":2970094800,"foreign":-3900382,"trust":0,"dealer":0,"total":-4206897,"foreignStreak":0,"trustStreak":0,"jointStreak":0,"fiveDayPctSum":17.37,"fiveDayAvgVolume":39720186},{"code":"2327","name":"國巨*","close":1080,"change":96,"percent":9.76,"tradeVolume":90472000,"value":97709760000,"foreign":-6305815,"trust":2939196,"dealer":0,"total":-4722049,"foreignStreak":0,"trustStreak":7,"jointStreak":0,"fiveDayPctSum":17.39,"fiveDayAvgVolume":77938551},{"code":"2402","name":"毅嘉","close":70,"change":-0.9000000000000057,"percent":-1.27,"tradeVolume":7688000,"value":538160000,"foreign":-5278000,"trust":0,"dealer":0,"total":-5365068,"foreignStreak":0,"trustStreak":0,"jointStreak":0,"fiveDayPctSum":17.74,"fiveDayAvgVolume":11717631},{"code":"6239","name":"力成","close":363.5,"change":18.5,"percent":5.36,"tradeVolume":60643000,"value":22043730500,"foreign":-5789066,"trust":-131000,"dealer":0,"total":-5366572,"foreignStreak":0,"trustStreak":0,"jointStreak":0,"fiveDayPctSum":13.89,"fiveDayAvgVolume":51937943},{"code":"2344","name":"華邦電","close":218.5,"change":19.5,"percent":9.8,"tradeVolume":334015000,"value":72982277500,"foreign":-8995425,"trust":1401595,"dealer":0,"total":-5515030,"foreignStreak":0,"trustStreak":7,"jointStreak":0,"fiveDayPctSum":30.07,"fiveDayAvgVolume":252437386},{"code":"2330","name":"台積電","close":2410,"change":25,"percent":1.05,"tradeVolume":46272000,"value":111515520000,"foreign":-6876860,"trust":-317313,"dealer":0,"total":-6298981,"foreignStreak":0,"trustStreak":0,"jointStreak":0,"fiveDayPctSum":5.91,"fiveDayAvgVolume":34031609},{"code":"2464","name":"盟立","close":172,"change":6,"percent":3.61,"tradeVolume":20143000,"value":3464596000,"foreign":-7195176,"trust":0,"dealer":0,"total":-7624096,"foreignStreak":0,"trustStreak":0,"jointStreak":0,"fiveDayPctSum":14.19,"fiveDayAvgVolume":12058872},{"code":"3231","name":"緯創","close":161.5,"change":-1,"percent":-0.62,"tradeVolume":44648000,"value":7210652000,"foreign":-9767732,"trust":1260864,"dealer":0,"total":-8241513,"foreignStreak":0,"trustStreak":1,"jointStreak":0,"fiveDayPctSum":3.02,"fiveDayAvgVolume":44197530},{"code":"2317","name":"鴻海","close":268.5,"change":-3.5,"percent":-1.29,"tradeVolume":66997000,"value":17988694500,"foreign":-7229697,"trust":-595574,"dealer":0,"total":-8410760,"foreignStreak":0,"trustStreak":0,"jointStreak":0,"fiveDayPctSum":3.43,"fiveDayAvgVolume":62426859},{"code":"2324","name":"仁寶","close":37.75,"change":0.45000000000000284,"percent":1.21,"tradeVolume":71295000,"value":2691386250,"foreign":-9312180,"trust":-3097,"dealer":0,"total":-8616968,"foreignStreak":0,"trustStreak":0,"jointStreak":0,"fiveDayPctSum":0.66,"fiveDayAvgVolume":70636105},{"code":"1605","name":"華新","close":39,"change":0.29999999999999716,"percent":0.78,"tradeVolume":61343000,"value":2392377000,"foreign":-8124814,"trust":41792,"dealer":0,"total":-9255388,"foreignStreak":0,"trustStreak":1,"jointStreak":0,"fiveDayPctSum":12.74,"fiveDayAvgVolume":49731990},{"code":"2337","name":"旺宏","close":169,"change":7.5,"percent":4.64,"tradeVolume":124202000,"value":20990138000,"foreign":-15803449,"trust":-593000,"dealer":0,"total":-16273609,"foreignStreak":0,"trustStreak":0,"jointStreak":0,"fiveDayPctSum":18.59,"fiveDayAvgVolume":46550477},{"code":"2303","name":"聯電","close":145.5,"change":5.5,"percent":3.93,"tradeVolume":292688000,"value":42586104000,"foreign":-45460304,"trust":19556148,"dealer":0,"total":-26356643,"foreignStreak":0,"trustStreak":4,"jointStreak":0,"fiveDayPctSum":17.22,"fiveDayAvgVolume":302659665}]}
