{"ok":true,"updatedAt":"2026-06-18T07:11:16.011Z","usedDate":"20260618","quoteUpdatedAt":"2026-06-18T07:11:15.479Z","source":"institution-page","page":2,"pageSize":25,"totalPages":14,"totalCount":326,"count":25,"rows":[{"code":"5351","name":"鈺創","close":94,"change":2,"percent":2.17,"tradeVolume":28093000,"value":2640742000,"foreign":3652281,"trust":0,"dealer":213,"total":3652494,"foreignStreak":1,"trustStreak":0,"jointStreak":0,"fiveDayPctSum":10.87,"fiveDayAvgVolume":28339439},{"code":"6147","name":"頎邦","close":252,"change":22.5,"percent":9.8,"tradeVolume":25880000,"value":6521760000,"foreign":2741891,"trust":370000,"dealer":387294,"total":3499185,"foreignStreak":2,"trustStreak":2,"jointStreak":2,"fiveDayPctSum":49.02,"fiveDayAvgVolume":26330598},{"code":"2455","name":"全新","close":416,"change":-12,"percent":-2.8,"tradeVolume":24757000,"value":10298912000,"foreign":1812047,"trust":989000,"dealer":0,"total":3304672,"foreignStreak":2,"trustStreak":3,"jointStreak":2,"fiveDayPctSum":20.28,"fiveDayAvgVolume":16738167},{"code":"6213","name":"聯茂","close":280,"change":12.5,"percent":4.67,"tradeVolume":21589000,"value":6044920000,"foreign":3070019,"trust":0,"dealer":0,"total":3269526,"foreignStreak":1,"trustStreak":0,"jointStreak":0,"fiveDayPctSum":5.4,"fiveDayAvgVolume":9143272},{"code":"1815","name":"富喬","close":98.1,"change":3.0999999999999943,"percent":3.26,"tradeVolume":21416000,"value":2100909600,"foreign":3174810,"trust":-4000,"dealer":22517,"total":3193327,"foreignStreak":1,"trustStreak":0,"jointStreak":0,"fiveDayPctSum":16.32,"fiveDayAvgVolume":21723903},{"code":"2495","name":"普安","close":52.1,"change":-1.6999999999999957,"percent":-3.16,"tradeVolume":12599000,"value":656407900,"foreign":3134467,"trust":0,"dealer":0,"total":3187622,"foreignStreak":1,"trustStreak":0,"jointStreak":0,"fiveDayPctSum":11.64,"fiveDayAvgVolume":15559472},{"code":"1727","name":"中華化","close":94.1,"change":0.19999999999998863,"percent":0.21,"tradeVolume":10906000,"value":1026254600,"foreign":3139246,"trust":0,"dealer":0,"total":3156930,"foreignStreak":2,"trustStreak":0,"jointStreak":0,"fiveDayPctSum":8,"fiveDayAvgVolume":5018008},{"code":"6962","name":"奕力-KY","close":38.9,"change":0.3500000000000014,"percent":0.91,"tradeVolume":6013000,"value":233905700,"foreign":2971754,"trust":0,"dealer":0,"total":3035200,"foreignStreak":6,"trustStreak":0,"jointStreak":0,"fiveDayPctSum":12.27,"fiveDayAvgVolume":4451558},{"code":"3317","name":"尼克森","close":88.3,"change":8,"percent":9.96,"tradeVolume":11307000,"value":998408100,"foreign":2875425,"trust":0,"dealer":76937,"total":2952362,"foreignStreak":2,"trustStreak":0,"jointStreak":0,"fiveDayPctSum":49.81,"fiveDayAvgVolume":11502048},{"code":"2356","name":"英業達","close":67.7,"change":0.20000000000000284,"percent":0.3,"tradeVolume":37270000,"value":2523179000,"foreign":2753168,"trust":-122180,"dealer":0,"total":2701631,"foreignStreak":1,"trustStreak":0,"jointStreak":0,"fiveDayPctSum":1.98,"fiveDayAvgVolume":33869240},{"code":"2388","name":"威盛","close":81.4,"change":6.200000000000003,"percent":8.24,"tradeVolume":26216000,"value":2133982400,"foreign":1905577,"trust":0,"dealer":0,"total":2661488,"foreignStreak":1,"trustStreak":0,"jointStreak":0,"fiveDayPctSum":16.72,"fiveDayAvgVolume":5618788},{"code":"2312","name":"金寶","close":35.5,"change":0.6499999999999986,"percent":1.87,"tradeVolume":24711000,"value":877240500,"foreign":2104632,"trust":12000,"dealer":0,"total":2621557,"foreignStreak":1,"trustStreak":1,"jointStreak":1,"fiveDayPctSum":0.03,"fiveDayAvgVolume":33435117},{"code":"2316","name":"楠梓電","close":205.5,"change":18.5,"percent":9.89,"tradeVolume":5620000,"value":1154910000,"foreign":2395033,"trust":0,"dealer":0,"total":2581064,"foreignStreak":3,"trustStreak":0,"jointStreak":0,"fiveDayPctSum":18.46,"fiveDayAvgVolume":6705286},{"code":"2498","name":"宏達電","close":46.4,"change":-1.1000000000000014,"percent":-2.32,"tradeVolume":9371000,"value":434814400,"foreign":1632173,"trust":0,"dealer":0,"total":2520922,"foreignStreak":1,"trustStreak":0,"jointStreak":0,"fiveDayPctSum":13.37,"fiveDayAvgVolume":6893363},{"code":"2913","name":"農林","close":11.15,"change":0,"percent":0,"tradeVolume":3083000,"value":34375450,"foreign":2485329,"trust":0,"dealer":0,"total":2437621,"foreignStreak":4,"trustStreak":0,"jointStreak":0,"fiveDayPctSum":-2.6,"fiveDayAvgVolume":3187566},{"code":"3715","name":"定穎投控","close":179,"change":3,"percent":1.7,"tradeVolume":10937000,"value":1957723000,"foreign":2238984,"trust":0,"dealer":0,"total":2404579,"foreignStreak":4,"trustStreak":0,"jointStreak":0,"fiveDayPctSum":8.06,"fiveDayAvgVolume":7425145},{"code":"2478","name":"大毅","close":234,"change":6.5,"percent":2.86,"tradeVolume":36147000,"value":8458398000,"foreign":2389314,"trust":0,"dealer":0,"total":2326765,"foreignStreak":3,"trustStreak":0,"jointStreak":0,"fiveDayPctSum":30.66,"fiveDayAvgVolume":21420292},{"code":"2485","name":"兆赫","close":61.7,"change":-1.2999999999999972,"percent":-2.06,"tradeVolume":8194000,"value":505569800,"foreign":189665,"trust":0,"dealer":0,"total":2250036,"foreignStreak":1,"trustStreak":0,"jointStreak":0,"fiveDayPctSum":-0.38,"fiveDayAvgVolume":15020867},{"code":"2382","name":"廣達","close":376,"change":2,"percent":0.53,"tradeVolume":22019000,"value":8279144000,"foreign":1704196,"trust":951179,"dealer":0,"total":2113632,"foreignStreak":1,"trustStreak":7,"jointStreak":1,"fiveDayPctSum":-1.61,"fiveDayAvgVolume":27418997},{"code":"6116","name":"彩晶","close":18.8,"change":0.5500000000000007,"percent":3.01,"tradeVolume":359901000,"value":6766138800,"foreign":-653574,"trust":0,"dealer":0,"total":2106347,"foreignStreak":0,"trustStreak":0,"jointStreak":0,"fiveDayPctSum":24.79,"fiveDayAvgVolume":26028307},{"code":"6120","name":"達運","close":15.05,"change":0.3500000000000014,"percent":2.38,"tradeVolume":5483000,"value":82519150,"foreign":2114581,"trust":12000,"dealer":0,"total":1959779,"foreignStreak":1,"trustStreak":1,"jointStreak":1,"fiveDayPctSum":8.83,"fiveDayAvgVolume":3492088},{"code":"2401","name":"凌陽","close":32.25,"change":0.75,"percent":2.38,"tradeVolume":29091000,"value":938184750,"foreign":1362677,"trust":0,"dealer":0,"total":1950368,"foreignStreak":1,"trustStreak":0,"jointStreak":0,"fiveDayPctSum":22.67,"fiveDayAvgVolume":19575140},{"code":"3059","name":"華晶科","close":48.85,"change":-1.6499999999999986,"percent":-3.27,"tradeVolume":12890000,"value":629676500,"foreign":1100388,"trust":0,"dealer":0,"total":1823119,"foreignStreak":2,"trustStreak":0,"jointStreak":0,"fiveDayPctSum":7.49,"fiveDayAvgVolume":11833976},{"code":"1718","name":"中纖","close":9.86,"change":0.07000000000000028,"percent":0.72,"tradeVolume":13904000,"value":137093440,"foreign":1017999,"trust":0,"dealer":0,"total":1799999,"foreignStreak":6,"trustStreak":0,"jointStreak":0,"fiveDayPctSum":9.76,"fiveDayAvgVolume":8654786},{"code":"8215","name":"明基材","close":31.15,"change":-0.8999999999999986,"percent":-2.81,"tradeVolume":9723000,"value":302871450,"foreign":1774300,"trust":0,"dealer":0,"total":1791557,"foreignStreak":1,"trustStreak":0,"jointStreak":0,"fiveDayPctSum":11.31,"fiveDayAvgVolume":5422897}],"matches":[{"code":"5351","name":"鈺創","close":94,"change":2,"percent":2.17,"tradeVolume":28093000,"value":2640742000,"foreign":3652281,"trust":0,"dealer":213,"total":3652494,"foreignStreak":1,"trustStreak":0,"jointStreak":0,"fiveDayPctSum":10.87,"fiveDayAvgVolume":28339439},{"code":"6147","name":"頎邦","close":252,"change":22.5,"percent":9.8,"tradeVolume":25880000,"value":6521760000,"foreign":2741891,"trust":370000,"dealer":387294,"total":3499185,"foreignStreak":2,"trustStreak":2,"jointStreak":2,"fiveDayPctSum":49.02,"fiveDayAvgVolume":26330598},{"code":"2455","name":"全新","close":416,"change":-12,"percent":-2.8,"tradeVolume":24757000,"value":10298912000,"foreign":1812047,"trust":989000,"dealer":0,"total":3304672,"foreignStreak":2,"trustStreak":3,"jointStreak":2,"fiveDayPctSum":20.28,"fiveDayAvgVolume":16738167},{"code":"6213","name":"聯茂","close":280,"change":12.5,"percent":4.67,"tradeVolume":21589000,"value":6044920000,"foreign":3070019,"trust":0,"dealer":0,"total":3269526,"foreignStreak":1,"trustStreak":0,"jointStreak":0,"fiveDayPctSum":5.4,"fiveDayAvgVolume":9143272},{"code":"1815","name":"富喬","close":98.1,"change":3.0999999999999943,"percent":3.26,"tradeVolume":21416000,"value":2100909600,"foreign":3174810,"trust":-4000,"dealer":22517,"total":3193327,"foreignStreak":1,"trustStreak":0,"jointStreak":0,"fiveDayPctSum":16.32,"fiveDayAvgVolume":21723903},{"code":"2495","name":"普安","close":52.1,"change":-1.6999999999999957,"percent":-3.16,"tradeVolume":12599000,"value":656407900,"foreign":3134467,"trust":0,"dealer":0,"total":3187622,"foreignStreak":1,"trustStreak":0,"jointStreak":0,"fiveDayPctSum":11.64,"fiveDayAvgVolume":15559472},{"code":"1727","name":"中華化","close":94.1,"change":0.19999999999998863,"percent":0.21,"tradeVolume":10906000,"value":1026254600,"foreign":3139246,"trust":0,"dealer":0,"total":3156930,"foreignStreak":2,"trustStreak":0,"jointStreak":0,"fiveDayPctSum":8,"fiveDayAvgVolume":5018008},{"code":"6962","name":"奕力-KY","close":38.9,"change":0.3500000000000014,"percent":0.91,"tradeVolume":6013000,"value":233905700,"foreign":2971754,"trust":0,"dealer":0,"total":3035200,"foreignStreak":6,"trustStreak":0,"jointStreak":0,"fiveDayPctSum":12.27,"fiveDayAvgVolume":4451558},{"code":"3317","name":"尼克森","close":88.3,"change":8,"percent":9.96,"tradeVolume":11307000,"value":998408100,"foreign":2875425,"trust":0,"dealer":76937,"total":2952362,"foreignStreak":2,"trustStreak":0,"jointStreak":0,"fiveDayPctSum":49.81,"fiveDayAvgVolume":11502048},{"code":"2356","name":"英業達","close":67.7,"change":0.20000000000000284,"percent":0.3,"tradeVolume":37270000,"value":2523179000,"foreign":2753168,"trust":-122180,"dealer":0,"total":2701631,"foreignStreak":1,"trustStreak":0,"jointStreak":0,"fiveDayPctSum":1.98,"fiveDayAvgVolume":33869240},{"code":"2388","name":"威盛","close":81.4,"change":6.200000000000003,"percent":8.24,"tradeVolume":26216000,"value":2133982400,"foreign":1905577,"trust":0,"dealer":0,"total":2661488,"foreignStreak":1,"trustStreak":0,"jointStreak":0,"fiveDayPctSum":16.72,"fiveDayAvgVolume":5618788},{"code":"2312","name":"金寶","close":35.5,"change":0.6499999999999986,"percent":1.87,"tradeVolume":24711000,"value":877240500,"foreign":2104632,"trust":12000,"dealer":0,"total":2621557,"foreignStreak":1,"trustStreak":1,"jointStreak":1,"fiveDayPctSum":0.03,"fiveDayAvgVolume":33435117},{"code":"2316","name":"楠梓電","close":205.5,"change":18.5,"percent":9.89,"tradeVolume":5620000,"value":1154910000,"foreign":2395033,"trust":0,"dealer":0,"total":2581064,"foreignStreak":3,"trustStreak":0,"jointStreak":0,"fiveDayPctSum":18.46,"fiveDayAvgVolume":6705286},{"code":"2498","name":"宏達電","close":46.4,"change":-1.1000000000000014,"percent":-2.32,"tradeVolume":9371000,"value":434814400,"foreign":1632173,"trust":0,"dealer":0,"total":2520922,"foreignStreak":1,"trustStreak":0,"jointStreak":0,"fiveDayPctSum":13.37,"fiveDayAvgVolume":6893363},{"code":"2913","name":"農林","close":11.15,"change":0,"percent":0,"tradeVolume":3083000,"value":34375450,"foreign":2485329,"trust":0,"dealer":0,"total":2437621,"foreignStreak":4,"trustStreak":0,"jointStreak":0,"fiveDayPctSum":-2.6,"fiveDayAvgVolume":3187566},{"code":"3715","name":"定穎投控","close":179,"change":3,"percent":1.7,"tradeVolume":10937000,"value":1957723000,"foreign":2238984,"trust":0,"dealer":0,"total":2404579,"foreignStreak":4,"trustStreak":0,"jointStreak":0,"fiveDayPctSum":8.06,"fiveDayAvgVolume":7425145},{"code":"2478","name":"大毅","close":234,"change":6.5,"percent":2.86,"tradeVolume":36147000,"value":8458398000,"foreign":2389314,"trust":0,"dealer":0,"total":2326765,"foreignStreak":3,"trustStreak":0,"jointStreak":0,"fiveDayPctSum":30.66,"fiveDayAvgVolume":21420292},{"code":"2485","name":"兆赫","close":61.7,"change":-1.2999999999999972,"percent":-2.06,"tradeVolume":8194000,"value":505569800,"foreign":189665,"trust":0,"dealer":0,"total":2250036,"foreignStreak":1,"trustStreak":0,"jointStreak":0,"fiveDayPctSum":-0.38,"fiveDayAvgVolume":15020867},{"code":"2382","name":"廣達","close":376,"change":2,"percent":0.53,"tradeVolume":22019000,"value":8279144000,"foreign":1704196,"trust":951179,"dealer":0,"total":2113632,"foreignStreak":1,"trustStreak":7,"jointStreak":1,"fiveDayPctSum":-1.61,"fiveDayAvgVolume":27418997},{"code":"6116","name":"彩晶","close":18.8,"change":0.5500000000000007,"percent":3.01,"tradeVolume":359901000,"value":6766138800,"foreign":-653574,"trust":0,"dealer":0,"total":2106347,"foreignStreak":0,"trustStreak":0,"jointStreak":0,"fiveDayPctSum":24.79,"fiveDayAvgVolume":26028307},{"code":"6120","name":"達運","close":15.05,"change":0.3500000000000014,"percent":2.38,"tradeVolume":5483000,"value":82519150,"foreign":2114581,"trust":12000,"dealer":0,"total":1959779,"foreignStreak":1,"trustStreak":1,"jointStreak":1,"fiveDayPctSum":8.83,"fiveDayAvgVolume":3492088},{"code":"2401","name":"凌陽","close":32.25,"change":0.75,"percent":2.38,"tradeVolume":29091000,"value":938184750,"foreign":1362677,"trust":0,"dealer":0,"total":1950368,"foreignStreak":1,"trustStreak":0,"jointStreak":0,"fiveDayPctSum":22.67,"fiveDayAvgVolume":19575140},{"code":"3059","name":"華晶科","close":48.85,"change":-1.6499999999999986,"percent":-3.27,"tradeVolume":12890000,"value":629676500,"foreign":1100388,"trust":0,"dealer":0,"total":1823119,"foreignStreak":2,"trustStreak":0,"jointStreak":0,"fiveDayPctSum":7.49,"fiveDayAvgVolume":11833976},{"code":"1718","name":"中纖","close":9.86,"change":0.07000000000000028,"percent":0.72,"tradeVolume":13904000,"value":137093440,"foreign":1017999,"trust":0,"dealer":0,"total":1799999,"foreignStreak":6,"trustStreak":0,"jointStreak":0,"fiveDayPctSum":9.76,"fiveDayAvgVolume":8654786},{"code":"8215","name":"明基材","close":31.15,"change":-0.8999999999999986,"percent":-2.81,"tradeVolume":9723000,"value":302871450,"foreign":1774300,"trust":0,"dealer":0,"total":1791557,"foreignStreak":1,"trustStreak":0,"jointStreak":0,"fiveDayPctSum":11.31,"fiveDayAvgVolume":5422897}]}
