{"ok":true,"updatedAt":"2026-06-18T07:11:16.011Z","usedDate":"20260618","quoteUpdatedAt":"2026-06-18T07:11:15.479Z","source":"institution-page","page":5,"pageSize":25,"totalPages":14,"totalCount":326,"count":25,"rows":[{"code":"2352","name":"佳世達","close":30.85,"change":0.05000000000000071,"percent":0.16,"tradeVolume":4484000,"value":138331400,"foreign":761238,"trust":38000,"dealer":0,"total":768391,"foreignStreak":1,"trustStreak":1,"jointStreak":1,"fiveDayPctSum":2.44,"fiveDayAvgVolume":7037101},{"code":"3149","name":"正達","close":95,"change":1.2999999999999972,"percent":1.39,"tradeVolume":5344000,"value":507680000,"foreign":744237,"trust":0,"dealer":0,"total":754237,"foreignStreak":7,"trustStreak":0,"jointStreak":0,"fiveDayPctSum":13.5,"fiveDayAvgVolume":4834185},{"code":"5388","name":"中磊","close":84.2,"change":-1.0999999999999943,"percent":-1.29,"tradeVolume":3050000,"value":256810000,"foreign":811921,"trust":0,"dealer":0,"total":747683,"foreignStreak":1,"trustStreak":0,"jointStreak":0,"fiveDayPctSum":1.63,"fiveDayAvgVolume":3032359},{"code":"2520","name":"冠德","close":36.4,"change":0.25,"percent":0.69,"tradeVolume":10562000,"value":384456800,"foreign":491536,"trust":0,"dealer":0,"total":727598,"foreignStreak":2,"trustStreak":0,"jointStreak":0,"fiveDayPctSum":1.96,"fiveDayAvgVolume":6068062},{"code":"2637","name":"慧洋-KY","close":77.4,"change":0,"percent":0,"tradeVolume":5361000,"value":414941400,"foreign":911311,"trust":-164227,"dealer":0,"total":727386,"foreignStreak":7,"trustStreak":0,"jointStreak":0,"fiveDayPctSum":1.89,"fiveDayAvgVolume":5834151},{"code":"3049","name":"精金","close":14.45,"change":-0.45000000000000107,"percent":-3.02,"tradeVolume":8286000,"value":119732700,"foreign":702848,"trust":0,"dealer":0,"total":714848,"foreignStreak":1,"trustStreak":0,"jointStreak":0,"fiveDayPctSum":8.12,"fiveDayAvgVolume":9500218},{"code":"4739","name":"康普","close":123.5,"change":0.5,"percent":0.41,"tradeVolume":3671000,"value":453368500,"foreign":717775,"trust":0,"dealer":0,"total":713295,"foreignStreak":1,"trustStreak":0,"jointStreak":0,"fiveDayPctSum":-1.27,"fiveDayAvgVolume":6541052},{"code":"6919","name":"康霈*","close":109,"change":9.900000000000006,"percent":9.99,"tradeVolume":53563000,"value":5838367000,"foreign":679245,"trust":-417,"dealer":0,"total":708430,"foreignStreak":5,"trustStreak":0,"jointStreak":0,"fiveDayPctSum":11.64,"fiveDayAvgVolume":3710753},{"code":"6488","name":"環球晶","close":1110,"change":10,"percent":0.91,"tradeVolume":11435000,"value":12692850000,"foreign":1011599,"trust":177600,"dealer":-480784,"total":708415,"foreignStreak":1,"trustStreak":4,"jointStreak":1,"fiveDayPctSum":4.55,"fiveDayAvgVolume":11731700},{"code":"6127","name":"九豪","close":84.4,"change":3.8000000000000114,"percent":4.71,"tradeVolume":7092000,"value":598564800,"foreign":665873,"trust":0,"dealer":40055,"total":705928,"foreignStreak":5,"trustStreak":0,"jointStreak":0,"fiveDayPctSum":23.57,"fiveDayAvgVolume":7244144},{"code":"2476","name":"鉅祥","close":125,"change":2.5,"percent":2.04,"tradeVolume":3390000,"value":423750000,"foreign":687882,"trust":0,"dealer":0,"total":699119,"foreignStreak":1,"trustStreak":0,"jointStreak":0,"fiveDayPctSum":3.72,"fiveDayAvgVolume":5062632},{"code":"5309","name":"系統電","close":69,"change":1.2000000000000028,"percent":1.77,"tradeVolume":4505000,"value":310845000,"foreign":632175,"trust":-5000,"dealer":68811,"total":695986,"foreignStreak":2,"trustStreak":0,"jointStreak":0,"fiveDayPctSum":8.85,"fiveDayAvgVolume":4570237},{"code":"1309","name":"台達化","close":14.75,"change":0.25,"percent":1.72,"tradeVolume":4163000,"value":61404250,"foreign":690000,"trust":0,"dealer":0,"total":683846,"foreignStreak":1,"trustStreak":0,"jointStreak":0,"fiveDayPctSum":-3.34,"fiveDayAvgVolume":3797555},{"code":"2367","name":"燿華","close":61.3,"change":-1.2000000000000028,"percent":-1.92,"tradeVolume":17099000,"value":1048168700,"foreign":324912,"trust":0,"dealer":0,"total":675761,"foreignStreak":1,"trustStreak":0,"jointStreak":0,"fiveDayPctSum":-1.11,"fiveDayAvgVolume":39970683},{"code":"3260","name":"威剛","close":423,"change":7,"percent":1.68,"tradeVolume":12103000,"value":5119569000,"foreign":1238696,"trust":-653000,"dealer":65110,"total":650806,"foreignStreak":2,"trustStreak":0,"jointStreak":0,"fiveDayPctSum":8.41,"fiveDayAvgVolume":12431699},{"code":"2481","name":"強茂","close":160,"change":14.5,"percent":9.97,"tradeVolume":11652000,"value":1864320000,"foreign":941020,"trust":-232000,"dealer":0,"total":650069,"foreignStreak":1,"trustStreak":0,"jointStreak":0,"fiveDayPctSum":7.4,"fiveDayAvgVolume":23730871},{"code":"1314","name":"中石化","close":7.78,"change":0.16000000000000014,"percent":2.1,"tradeVolume":23741000,"value":184704980,"foreign":1107535,"trust":0,"dealer":0,"total":649148,"foreignStreak":1,"trustStreak":0,"jointStreak":0,"fiveDayPctSum":-1.41,"fiveDayAvgVolume":19282967},{"code":"3211","name":"順達","close":436,"change":8,"percent":1.87,"tradeVolume":5269000,"value":2297284000,"foreign":581437,"trust":-3000,"dealer":59689,"total":638126,"foreignStreak":1,"trustStreak":0,"jointStreak":0,"fiveDayPctSum":9.35,"fiveDayAvgVolume":5393586},{"code":"2915","name":"潤泰全","close":53.3,"change":0.8999999999999986,"percent":1.72,"tradeVolume":5175000,"value":275827500,"foreign":647632,"trust":-3000,"dealer":0,"total":610632,"foreignStreak":1,"trustStreak":0,"jointStreak":0,"fiveDayPctSum":6.61,"fiveDayAvgVolume":4827418},{"code":"1313","name":"聯成","close":11.6,"change":0.40000000000000036,"percent":3.57,"tradeVolume":5446000,"value":63173600,"foreign":614000,"trust":0,"dealer":0,"total":607876,"foreignStreak":7,"trustStreak":0,"jointStreak":0,"fiveDayPctSum":1.37,"fiveDayAvgVolume":3282962},{"code":"6672","name":"騰輝電子-KY","close":245.5,"change":19,"percent":8.39,"tradeVolume":7038000,"value":1727829000,"foreign":591503,"trust":0,"dealer":0,"total":595503,"foreignStreak":1,"trustStreak":0,"jointStreak":0,"fiveDayPctSum":4.08,"fiveDayAvgVolume":4525417},{"code":"2436","name":"偉詮電","close":73.4,"change":3.1000000000000085,"percent":4.41,"tradeVolume":5100000,"value":374340000,"foreign":511000,"trust":0,"dealer":0,"total":573276,"foreignStreak":1,"trustStreak":0,"jointStreak":0,"fiveDayPctSum":9.21,"fiveDayAvgVolume":3369959},{"code":"1722","name":"台肥","close":48.15,"change":-0.7000000000000028,"percent":-1.43,"tradeVolume":3611000,"value":173869650,"foreign":614875,"trust":0,"dealer":0,"total":570875,"foreignStreak":7,"trustStreak":0,"jointStreak":0,"fiveDayPctSum":3.25,"fiveDayAvgVolume":3095497},{"code":"2504","name":"國產","close":33.6,"change":-0.19999999999999574,"percent":-0.59,"tradeVolume":6317000,"value":212251200,"foreign":533670,"trust":1377601,"dealer":0,"total":548921,"foreignStreak":1,"trustStreak":2,"jointStreak":1,"fiveDayPctSum":-2.58,"fiveDayAvgVolume":6653884},{"code":"8996","name":"高力","close":1590,"change":75,"percent":4.95,"tradeVolume":5842000,"value":9288780000,"foreign":24059,"trust":619745,"dealer":0,"total":542814,"foreignStreak":3,"trustStreak":7,"jointStreak":3,"fiveDayPctSum":23.23,"fiveDayAvgVolume":3300136}],"matches":[{"code":"2352","name":"佳世達","close":30.85,"change":0.05000000000000071,"percent":0.16,"tradeVolume":4484000,"value":138331400,"foreign":761238,"trust":38000,"dealer":0,"total":768391,"foreignStreak":1,"trustStreak":1,"jointStreak":1,"fiveDayPctSum":2.44,"fiveDayAvgVolume":7037101},{"code":"3149","name":"正達","close":95,"change":1.2999999999999972,"percent":1.39,"tradeVolume":5344000,"value":507680000,"foreign":744237,"trust":0,"dealer":0,"total":754237,"foreignStreak":7,"trustStreak":0,"jointStreak":0,"fiveDayPctSum":13.5,"fiveDayAvgVolume":4834185},{"code":"5388","name":"中磊","close":84.2,"change":-1.0999999999999943,"percent":-1.29,"tradeVolume":3050000,"value":256810000,"foreign":811921,"trust":0,"dealer":0,"total":747683,"foreignStreak":1,"trustStreak":0,"jointStreak":0,"fiveDayPctSum":1.63,"fiveDayAvgVolume":3032359},{"code":"2520","name":"冠德","close":36.4,"change":0.25,"percent":0.69,"tradeVolume":10562000,"value":384456800,"foreign":491536,"trust":0,"dealer":0,"total":727598,"foreignStreak":2,"trustStreak":0,"jointStreak":0,"fiveDayPctSum":1.96,"fiveDayAvgVolume":6068062},{"code":"2637","name":"慧洋-KY","close":77.4,"change":0,"percent":0,"tradeVolume":5361000,"value":414941400,"foreign":911311,"trust":-164227,"dealer":0,"total":727386,"foreignStreak":7,"trustStreak":0,"jointStreak":0,"fiveDayPctSum":1.89,"fiveDayAvgVolume":5834151},{"code":"3049","name":"精金","close":14.45,"change":-0.45000000000000107,"percent":-3.02,"tradeVolume":8286000,"value":119732700,"foreign":702848,"trust":0,"dealer":0,"total":714848,"foreignStreak":1,"trustStreak":0,"jointStreak":0,"fiveDayPctSum":8.12,"fiveDayAvgVolume":9500218},{"code":"4739","name":"康普","close":123.5,"change":0.5,"percent":0.41,"tradeVolume":3671000,"value":453368500,"foreign":717775,"trust":0,"dealer":0,"total":713295,"foreignStreak":1,"trustStreak":0,"jointStreak":0,"fiveDayPctSum":-1.27,"fiveDayAvgVolume":6541052},{"code":"6919","name":"康霈*","close":109,"change":9.900000000000006,"percent":9.99,"tradeVolume":53563000,"value":5838367000,"foreign":679245,"trust":-417,"dealer":0,"total":708430,"foreignStreak":5,"trustStreak":0,"jointStreak":0,"fiveDayPctSum":11.64,"fiveDayAvgVolume":3710753},{"code":"6488","name":"環球晶","close":1110,"change":10,"percent":0.91,"tradeVolume":11435000,"value":12692850000,"foreign":1011599,"trust":177600,"dealer":-480784,"total":708415,"foreignStreak":1,"trustStreak":4,"jointStreak":1,"fiveDayPctSum":4.55,"fiveDayAvgVolume":11731700},{"code":"6127","name":"九豪","close":84.4,"change":3.8000000000000114,"percent":4.71,"tradeVolume":7092000,"value":598564800,"foreign":665873,"trust":0,"dealer":40055,"total":705928,"foreignStreak":5,"trustStreak":0,"jointStreak":0,"fiveDayPctSum":23.57,"fiveDayAvgVolume":7244144},{"code":"2476","name":"鉅祥","close":125,"change":2.5,"percent":2.04,"tradeVolume":3390000,"value":423750000,"foreign":687882,"trust":0,"dealer":0,"total":699119,"foreignStreak":1,"trustStreak":0,"jointStreak":0,"fiveDayPctSum":3.72,"fiveDayAvgVolume":5062632},{"code":"5309","name":"系統電","close":69,"change":1.2000000000000028,"percent":1.77,"tradeVolume":4505000,"value":310845000,"foreign":632175,"trust":-5000,"dealer":68811,"total":695986,"foreignStreak":2,"trustStreak":0,"jointStreak":0,"fiveDayPctSum":8.85,"fiveDayAvgVolume":4570237},{"code":"1309","name":"台達化","close":14.75,"change":0.25,"percent":1.72,"tradeVolume":4163000,"value":61404250,"foreign":690000,"trust":0,"dealer":0,"total":683846,"foreignStreak":1,"trustStreak":0,"jointStreak":0,"fiveDayPctSum":-3.34,"fiveDayAvgVolume":3797555},{"code":"2367","name":"燿華","close":61.3,"change":-1.2000000000000028,"percent":-1.92,"tradeVolume":17099000,"value":1048168700,"foreign":324912,"trust":0,"dealer":0,"total":675761,"foreignStreak":1,"trustStreak":0,"jointStreak":0,"fiveDayPctSum":-1.11,"fiveDayAvgVolume":39970683},{"code":"3260","name":"威剛","close":423,"change":7,"percent":1.68,"tradeVolume":12103000,"value":5119569000,"foreign":1238696,"trust":-653000,"dealer":65110,"total":650806,"foreignStreak":2,"trustStreak":0,"jointStreak":0,"fiveDayPctSum":8.41,"fiveDayAvgVolume":12431699},{"code":"2481","name":"強茂","close":160,"change":14.5,"percent":9.97,"tradeVolume":11652000,"value":1864320000,"foreign":941020,"trust":-232000,"dealer":0,"total":650069,"foreignStreak":1,"trustStreak":0,"jointStreak":0,"fiveDayPctSum":7.4,"fiveDayAvgVolume":23730871},{"code":"1314","name":"中石化","close":7.78,"change":0.16000000000000014,"percent":2.1,"tradeVolume":23741000,"value":184704980,"foreign":1107535,"trust":0,"dealer":0,"total":649148,"foreignStreak":1,"trustStreak":0,"jointStreak":0,"fiveDayPctSum":-1.41,"fiveDayAvgVolume":19282967},{"code":"3211","name":"順達","close":436,"change":8,"percent":1.87,"tradeVolume":5269000,"value":2297284000,"foreign":581437,"trust":-3000,"dealer":59689,"total":638126,"foreignStreak":1,"trustStreak":0,"jointStreak":0,"fiveDayPctSum":9.35,"fiveDayAvgVolume":5393586},{"code":"2915","name":"潤泰全","close":53.3,"change":0.8999999999999986,"percent":1.72,"tradeVolume":5175000,"value":275827500,"foreign":647632,"trust":-3000,"dealer":0,"total":610632,"foreignStreak":1,"trustStreak":0,"jointStreak":0,"fiveDayPctSum":6.61,"fiveDayAvgVolume":4827418},{"code":"1313","name":"聯成","close":11.6,"change":0.40000000000000036,"percent":3.57,"tradeVolume":5446000,"value":63173600,"foreign":614000,"trust":0,"dealer":0,"total":607876,"foreignStreak":7,"trustStreak":0,"jointStreak":0,"fiveDayPctSum":1.37,"fiveDayAvgVolume":3282962},{"code":"6672","name":"騰輝電子-KY","close":245.5,"change":19,"percent":8.39,"tradeVolume":7038000,"value":1727829000,"foreign":591503,"trust":0,"dealer":0,"total":595503,"foreignStreak":1,"trustStreak":0,"jointStreak":0,"fiveDayPctSum":4.08,"fiveDayAvgVolume":4525417},{"code":"2436","name":"偉詮電","close":73.4,"change":3.1000000000000085,"percent":4.41,"tradeVolume":5100000,"value":374340000,"foreign":511000,"trust":0,"dealer":0,"total":573276,"foreignStreak":1,"trustStreak":0,"jointStreak":0,"fiveDayPctSum":9.21,"fiveDayAvgVolume":3369959},{"code":"1722","name":"台肥","close":48.15,"change":-0.7000000000000028,"percent":-1.43,"tradeVolume":3611000,"value":173869650,"foreign":614875,"trust":0,"dealer":0,"total":570875,"foreignStreak":7,"trustStreak":0,"jointStreak":0,"fiveDayPctSum":3.25,"fiveDayAvgVolume":3095497},{"code":"2504","name":"國產","close":33.6,"change":-0.19999999999999574,"percent":-0.59,"tradeVolume":6317000,"value":212251200,"foreign":533670,"trust":1377601,"dealer":0,"total":548921,"foreignStreak":1,"trustStreak":2,"jointStreak":1,"fiveDayPctSum":-2.58,"fiveDayAvgVolume":6653884},{"code":"8996","name":"高力","close":1590,"change":75,"percent":4.95,"tradeVolume":5842000,"value":9288780000,"foreign":24059,"trust":619745,"dealer":0,"total":542814,"foreignStreak":3,"trustStreak":7,"jointStreak":3,"fiveDayPctSum":23.23,"fiveDayAvgVolume":3300136}]}
