{"ok":true,"updatedAt":"2026-06-18T07:11:16.011Z","usedDate":"20260618","quoteUpdatedAt":"2026-06-18T07:11:15.479Z","source":"institution-page","page":1,"pageSize":25,"totalPages":14,"totalCount":326,"count":25,"rows":[{"code":"2409","name":"友達","close":28.15,"change":1.8999999999999986,"percent":7.24,"tradeVolume":824613000,"value":23212855950,"foreign":75931718,"trust":-710,"dealer":0,"total":86851205,"foreignStreak":1,"trustStreak":0,"jointStreak":0,"fiveDayPctSum":13.94,"fiveDayAvgVolume":323570741},{"code":"1303","name":"南亞","close":139,"change":12.5,"percent":9.88,"tradeVolume":133339000,"value":18534121000,"foreign":19476048,"trust":-56319,"dealer":0,"total":20544594,"foreignStreak":4,"trustStreak":0,"jointStreak":0,"fiveDayPctSum":30.27,"fiveDayAvgVolume":79201314},{"code":"2313","name":"華通","close":259.5,"change":-4.5,"percent":-1.7,"tradeVolume":39340000,"value":10208730000,"foreign":19005217,"trust":39000,"dealer":0,"total":19258632,"foreignStreak":1,"trustStreak":1,"jointStreak":1,"fiveDayPctSum":2.45,"fiveDayAvgVolume":87171400},{"code":"1402","name":"遠東新","close":28.85,"change":0.05000000000000071,"percent":0.17,"tradeVolume":36080000,"value":1040908000,"foreign":3002724,"trust":8061767,"dealer":0,"total":11300358,"foreignStreak":3,"trustStreak":3,"jointStreak":3,"fiveDayPctSum":4.18,"fiveDayAvgVolume":31543194},{"code":"1802","name":"台玻","close":71.3,"change":2,"percent":2.89,"tradeVolume":120472000,"value":8589653600,"foreign":7656354,"trust":0,"dealer":0,"total":8048482,"foreignStreak":4,"trustStreak":0,"jointStreak":0,"fiveDayPctSum":14.71,"fiveDayAvgVolume":68266337},{"code":"1326","name":"台化","close":54.2,"change":0.5,"percent":0.93,"tradeVolume":31058000,"value":1683343600,"foreign":8280490,"trust":0,"dealer":0,"total":7683582,"foreignStreak":4,"trustStreak":0,"jointStreak":0,"fiveDayPctSum":15.4,"fiveDayAvgVolume":28196590},{"code":"3105","name":"穩懋","close":528,"change":9,"percent":1.73,"tradeVolume":38731000,"value":20449968000,"foreign":5873225,"trust":693000,"dealer":1075688,"total":7641913,"foreignStreak":2,"trustStreak":1,"jointStreak":1,"fiveDayPctSum":8.67,"fiveDayAvgVolume":40126349},{"code":"2002","name":"中鋼","close":19.1,"change":0.3500000000000014,"percent":1.87,"tradeVolume":381908000,"value":7294442800,"foreign":7387801,"trust":42305,"dealer":0,"total":7459376,"foreignStreak":1,"trustStreak":1,"jointStreak":1,"fiveDayPctSum":0.31,"fiveDayAvgVolume":57570785},{"code":"3673","name":"TPK-KY","close":86.2,"change":-0.3999999999999915,"percent":-0.46,"tradeVolume":31825000,"value":2743315000,"foreign":5972587,"trust":0,"dealer":0,"total":7065452,"foreignStreak":1,"trustStreak":0,"jointStreak":0,"fiveDayPctSum":7.44,"fiveDayAvgVolume":17439480},{"code":"2408","name":"南亞科","close":459.5,"change":22.5,"percent":5.15,"tradeVolume":178245000,"value":81903577500,"foreign":4145978,"trust":2241034,"dealer":0,"total":7033377,"foreignStreak":2,"trustStreak":7,"jointStreak":2,"fiveDayPctSum":28.13,"fiveDayAvgVolume":120003829},{"code":"6269","name":"台郡","close":79.6,"change":-0.30000000000001137,"percent":-0.38,"tradeVolume":18159000,"value":1445456400,"foreign":5926970,"trust":0,"dealer":0,"total":6234407,"foreignStreak":4,"trustStreak":0,"jointStreak":0,"fiveDayPctSum":16.61,"fiveDayAvgVolume":12914784},{"code":"2606","name":"裕民","close":61.5,"change":-0.7000000000000028,"percent":-1.13,"tradeVolume":14389000,"value":884923500,"foreign":6192625,"trust":-188000,"dealer":0,"total":6103272,"foreignStreak":2,"trustStreak":0,"jointStreak":0,"fiveDayPctSum":-0.24,"fiveDayAvgVolume":10512184},{"code":"1301","name":"台塑","close":51.7,"change":3.75,"percent":7.82,"tradeVolume":187501000,"value":9693801700,"foreign":5934505,"trust":-6762,"dealer":0,"total":5962405,"foreignStreak":4,"trustStreak":0,"jointStreak":0,"fiveDayPctSum":7.89,"fiveDayAvgVolume":26596334},{"code":"2489","name":"瑞軒","close":48.15,"change":-0.45000000000000284,"percent":-0.93,"tradeVolume":27059000,"value":1302890850,"foreign":5415723,"trust":0,"dealer":0,"total":5134500,"foreignStreak":3,"trustStreak":0,"jointStreak":0,"fiveDayPctSum":18,"fiveDayAvgVolume":36262361},{"code":"5347","name":"世界","close":174.5,"change":8,"percent":4.8,"tradeVolume":16874000,"value":2944513000,"foreign":3773871,"trust":-14250,"dealer":1293141,"total":5052762,"foreignStreak":1,"trustStreak":0,"jointStreak":0,"fiveDayPctSum":24.02,"fiveDayAvgVolume":17214914},{"code":"2375","name":"凱美","close":219,"change":19.5,"percent":9.77,"tradeVolume":18613000,"value":4076247000,"foreign":4897754,"trust":0,"dealer":0,"total":4999562,"foreignStreak":1,"trustStreak":0,"jointStreak":0,"fiveDayPctSum":24.27,"fiveDayAvgVolume":18964869},{"code":"3264","name":"欣銓","close":232.5,"change":21,"percent":9.93,"tradeVolume":13921000,"value":3236632500,"foreign":4300304,"trust":336000,"dealer":339533,"total":4975837,"foreignStreak":1,"trustStreak":1,"jointStreak":1,"fiveDayPctSum":49.65,"fiveDayAvgVolume":14283816},{"code":"2609","name":"陽明","close":51.3,"change":-0.30000000000000426,"percent":-0.58,"tradeVolume":34353000,"value":1762308900,"foreign":4604231,"trust":59652,"dealer":0,"total":4874991,"foreignStreak":2,"trustStreak":1,"jointStreak":1,"fiveDayPctSum":2.03,"fiveDayAvgVolume":38003140},{"code":"2323","name":"中環","close":11.75,"change":0.5,"percent":4.44,"tradeVolume":24201000,"value":284361750,"foreign":4147635,"trust":17000,"dealer":0,"total":4715800,"foreignStreak":1,"trustStreak":1,"jointStreak":1,"fiveDayPctSum":3.33,"fiveDayAvgVolume":13166712},{"code":"3189","name":"景碩","close":724,"change":18,"percent":2.55,"tradeVolume":26645000,"value":19290980000,"foreign":4189620,"trust":128000,"dealer":0,"total":4614512,"foreignStreak":1,"trustStreak":1,"jointStreak":1,"fiveDayPctSum":7.77,"fiveDayAvgVolume":27246085},{"code":"3717","name":"聯嘉投控","close":22.55,"change":0.10000000000000142,"percent":0.45,"tradeVolume":8561000,"value":193050550,"foreign":4373457,"trust":0,"dealer":0,"total":4243562,"foreignStreak":3,"trustStreak":0,"jointStreak":0,"fiveDayPctSum":11.12,"fiveDayAvgVolume":6050735},{"code":"2501","name":"國建","close":26.85,"change":-0.14999999999999858,"percent":-0.56,"tradeVolume":12577000,"value":337692450,"foreign":4198000,"trust":0,"dealer":0,"total":4193529,"foreignStreak":1,"trustStreak":0,"jointStreak":0,"fiveDayPctSum":1.83,"fiveDayAvgVolume":12308016},{"code":"2515","name":"中工","close":13.35,"change":0.049999999999998934,"percent":0.38,"tradeVolume":18495000,"value":246908250,"foreign":4307664,"trust":-2000,"dealer":0,"total":4099661,"foreignStreak":4,"trustStreak":0,"jointStreak":0,"fiveDayPctSum":3.87,"fiveDayAvgVolume":9751510},{"code":"5328","name":"華容","close":56.5,"change":5.100000000000001,"percent":9.92,"tradeVolume":42917000,"value":2424810500,"foreign":3672557,"trust":0,"dealer":273283,"total":3945840,"foreignStreak":1,"trustStreak":0,"jointStreak":0,"fiveDayPctSum":49.61,"fiveDayAvgVolume":43105068},{"code":"3357","name":"臺慶科","close":348,"change":31.5,"percent":9.95,"tradeVolume":10030000,"value":3490440000,"foreign":3663715,"trust":0,"dealer":136830,"total":3800545,"foreignStreak":2,"trustStreak":0,"jointStreak":0,"fiveDayPctSum":49.76,"fiveDayAvgVolume":10261743}],"matches":[{"code":"2409","name":"友達","close":28.15,"change":1.8999999999999986,"percent":7.24,"tradeVolume":824613000,"value":23212855950,"foreign":75931718,"trust":-710,"dealer":0,"total":86851205,"foreignStreak":1,"trustStreak":0,"jointStreak":0,"fiveDayPctSum":13.94,"fiveDayAvgVolume":323570741},{"code":"1303","name":"南亞","close":139,"change":12.5,"percent":9.88,"tradeVolume":133339000,"value":18534121000,"foreign":19476048,"trust":-56319,"dealer":0,"total":20544594,"foreignStreak":4,"trustStreak":0,"jointStreak":0,"fiveDayPctSum":30.27,"fiveDayAvgVolume":79201314},{"code":"2313","name":"華通","close":259.5,"change":-4.5,"percent":-1.7,"tradeVolume":39340000,"value":10208730000,"foreign":19005217,"trust":39000,"dealer":0,"total":19258632,"foreignStreak":1,"trustStreak":1,"jointStreak":1,"fiveDayPctSum":2.45,"fiveDayAvgVolume":87171400},{"code":"1402","name":"遠東新","close":28.85,"change":0.05000000000000071,"percent":0.17,"tradeVolume":36080000,"value":1040908000,"foreign":3002724,"trust":8061767,"dealer":0,"total":11300358,"foreignStreak":3,"trustStreak":3,"jointStreak":3,"fiveDayPctSum":4.18,"fiveDayAvgVolume":31543194},{"code":"1802","name":"台玻","close":71.3,"change":2,"percent":2.89,"tradeVolume":120472000,"value":8589653600,"foreign":7656354,"trust":0,"dealer":0,"total":8048482,"foreignStreak":4,"trustStreak":0,"jointStreak":0,"fiveDayPctSum":14.71,"fiveDayAvgVolume":68266337},{"code":"1326","name":"台化","close":54.2,"change":0.5,"percent":0.93,"tradeVolume":31058000,"value":1683343600,"foreign":8280490,"trust":0,"dealer":0,"total":7683582,"foreignStreak":4,"trustStreak":0,"jointStreak":0,"fiveDayPctSum":15.4,"fiveDayAvgVolume":28196590},{"code":"3105","name":"穩懋","close":528,"change":9,"percent":1.73,"tradeVolume":38731000,"value":20449968000,"foreign":5873225,"trust":693000,"dealer":1075688,"total":7641913,"foreignStreak":2,"trustStreak":1,"jointStreak":1,"fiveDayPctSum":8.67,"fiveDayAvgVolume":40126349},{"code":"2002","name":"中鋼","close":19.1,"change":0.3500000000000014,"percent":1.87,"tradeVolume":381908000,"value":7294442800,"foreign":7387801,"trust":42305,"dealer":0,"total":7459376,"foreignStreak":1,"trustStreak":1,"jointStreak":1,"fiveDayPctSum":0.31,"fiveDayAvgVolume":57570785},{"code":"3673","name":"TPK-KY","close":86.2,"change":-0.3999999999999915,"percent":-0.46,"tradeVolume":31825000,"value":2743315000,"foreign":5972587,"trust":0,"dealer":0,"total":7065452,"foreignStreak":1,"trustStreak":0,"jointStreak":0,"fiveDayPctSum":7.44,"fiveDayAvgVolume":17439480},{"code":"2408","name":"南亞科","close":459.5,"change":22.5,"percent":5.15,"tradeVolume":178245000,"value":81903577500,"foreign":4145978,"trust":2241034,"dealer":0,"total":7033377,"foreignStreak":2,"trustStreak":7,"jointStreak":2,"fiveDayPctSum":28.13,"fiveDayAvgVolume":120003829},{"code":"6269","name":"台郡","close":79.6,"change":-0.30000000000001137,"percent":-0.38,"tradeVolume":18159000,"value":1445456400,"foreign":5926970,"trust":0,"dealer":0,"total":6234407,"foreignStreak":4,"trustStreak":0,"jointStreak":0,"fiveDayPctSum":16.61,"fiveDayAvgVolume":12914784},{"code":"2606","name":"裕民","close":61.5,"change":-0.7000000000000028,"percent":-1.13,"tradeVolume":14389000,"value":884923500,"foreign":6192625,"trust":-188000,"dealer":0,"total":6103272,"foreignStreak":2,"trustStreak":0,"jointStreak":0,"fiveDayPctSum":-0.24,"fiveDayAvgVolume":10512184},{"code":"1301","name":"台塑","close":51.7,"change":3.75,"percent":7.82,"tradeVolume":187501000,"value":9693801700,"foreign":5934505,"trust":-6762,"dealer":0,"total":5962405,"foreignStreak":4,"trustStreak":0,"jointStreak":0,"fiveDayPctSum":7.89,"fiveDayAvgVolume":26596334},{"code":"2489","name":"瑞軒","close":48.15,"change":-0.45000000000000284,"percent":-0.93,"tradeVolume":27059000,"value":1302890850,"foreign":5415723,"trust":0,"dealer":0,"total":5134500,"foreignStreak":3,"trustStreak":0,"jointStreak":0,"fiveDayPctSum":18,"fiveDayAvgVolume":36262361},{"code":"5347","name":"世界","close":174.5,"change":8,"percent":4.8,"tradeVolume":16874000,"value":2944513000,"foreign":3773871,"trust":-14250,"dealer":1293141,"total":5052762,"foreignStreak":1,"trustStreak":0,"jointStreak":0,"fiveDayPctSum":24.02,"fiveDayAvgVolume":17214914},{"code":"2375","name":"凱美","close":219,"change":19.5,"percent":9.77,"tradeVolume":18613000,"value":4076247000,"foreign":4897754,"trust":0,"dealer":0,"total":4999562,"foreignStreak":1,"trustStreak":0,"jointStreak":0,"fiveDayPctSum":24.27,"fiveDayAvgVolume":18964869},{"code":"3264","name":"欣銓","close":232.5,"change":21,"percent":9.93,"tradeVolume":13921000,"value":3236632500,"foreign":4300304,"trust":336000,"dealer":339533,"total":4975837,"foreignStreak":1,"trustStreak":1,"jointStreak":1,"fiveDayPctSum":49.65,"fiveDayAvgVolume":14283816},{"code":"2609","name":"陽明","close":51.3,"change":-0.30000000000000426,"percent":-0.58,"tradeVolume":34353000,"value":1762308900,"foreign":4604231,"trust":59652,"dealer":0,"total":4874991,"foreignStreak":2,"trustStreak":1,"jointStreak":1,"fiveDayPctSum":2.03,"fiveDayAvgVolume":38003140},{"code":"2323","name":"中環","close":11.75,"change":0.5,"percent":4.44,"tradeVolume":24201000,"value":284361750,"foreign":4147635,"trust":17000,"dealer":0,"total":4715800,"foreignStreak":1,"trustStreak":1,"jointStreak":1,"fiveDayPctSum":3.33,"fiveDayAvgVolume":13166712},{"code":"3189","name":"景碩","close":724,"change":18,"percent":2.55,"tradeVolume":26645000,"value":19290980000,"foreign":4189620,"trust":128000,"dealer":0,"total":4614512,"foreignStreak":1,"trustStreak":1,"jointStreak":1,"fiveDayPctSum":7.77,"fiveDayAvgVolume":27246085},{"code":"3717","name":"聯嘉投控","close":22.55,"change":0.10000000000000142,"percent":0.45,"tradeVolume":8561000,"value":193050550,"foreign":4373457,"trust":0,"dealer":0,"total":4243562,"foreignStreak":3,"trustStreak":0,"jointStreak":0,"fiveDayPctSum":11.12,"fiveDayAvgVolume":6050735},{"code":"2501","name":"國建","close":26.85,"change":-0.14999999999999858,"percent":-0.56,"tradeVolume":12577000,"value":337692450,"foreign":4198000,"trust":0,"dealer":0,"total":4193529,"foreignStreak":1,"trustStreak":0,"jointStreak":0,"fiveDayPctSum":1.83,"fiveDayAvgVolume":12308016},{"code":"2515","name":"中工","close":13.35,"change":0.049999999999998934,"percent":0.38,"tradeVolume":18495000,"value":246908250,"foreign":4307664,"trust":-2000,"dealer":0,"total":4099661,"foreignStreak":4,"trustStreak":0,"jointStreak":0,"fiveDayPctSum":3.87,"fiveDayAvgVolume":9751510},{"code":"5328","name":"華容","close":56.5,"change":5.100000000000001,"percent":9.92,"tradeVolume":42917000,"value":2424810500,"foreign":3672557,"trust":0,"dealer":273283,"total":3945840,"foreignStreak":1,"trustStreak":0,"jointStreak":0,"fiveDayPctSum":49.61,"fiveDayAvgVolume":43105068},{"code":"3357","name":"臺慶科","close":348,"change":31.5,"percent":9.95,"tradeVolume":10030000,"value":3490440000,"foreign":3663715,"trust":0,"dealer":136830,"total":3800545,"foreignStreak":2,"trustStreak":0,"jointStreak":0,"fiveDayPctSum":49.76,"fiveDayAvgVolume":10261743}]}
