{"ok":true,"updatedAt":"2026-06-18T07:11:16.011Z","usedDate":"20260618","quoteUpdatedAt":"2026-06-18T07:11:15.479Z","source":"institution-page","page":10,"pageSize":25,"totalPages":14,"totalCount":326,"count":25,"rows":[{"code":"4927","name":"泰鼎-KY","close":51.1,"change":1.1000000000000014,"percent":2.2,"tradeVolume":4127000,"value":210889700,"foreign":-585976,"trust":0,"dealer":0,"total":-586123,"foreignStreak":0,"trustStreak":0,"jointStreak":0,"fiveDayPctSum":0.8,"fiveDayAvgVolume":5690247},{"code":"1210","name":"大成","close":54.7,"change":-0.3999999999999986,"percent":-0.73,"tradeVolume":3360000,"value":183792000,"foreign":-834411,"trust":260000,"dealer":0,"total":-605845,"foreignStreak":0,"trustStreak":7,"jointStreak":0,"fiveDayPctSum":-0.53,"fiveDayAvgVolume":4527757},{"code":"4707","name":"磐亞","close":23,"change":0.3999999999999986,"percent":1.77,"tradeVolume":3708000,"value":85284000,"foreign":-70000,"trust":0,"dealer":-544000,"total":-614000,"foreignStreak":0,"trustStreak":0,"jointStreak":0,"fiveDayPctSum":8.85,"fiveDayAvgVolume":3752022},{"code":"3481","name":"群創","close":64.4,"change":5.800000000000004,"percent":9.9,"tradeVolume":854037000,"value":54999982800,"foreign":-9933250,"trust":-11666,"dealer":0,"total":-629286,"foreignStreak":0,"trustStreak":0,"jointStreak":0,"fiveDayPctSum":22.92,"fiveDayAvgVolume":150072182},{"code":"3312","name":"弘憶股","close":62.8,"change":1.1999999999999957,"percent":1.95,"tradeVolume":22756000,"value":1429076800,"foreign":-635365,"trust":0,"dealer":0,"total":-642128,"foreignStreak":0,"trustStreak":0,"jointStreak":0,"fiveDayPctSum":4.17,"fiveDayAvgVolume":4647584},{"code":"2393","name":"億光","close":70.6,"change":-0.9000000000000057,"percent":-1.26,"tradeVolume":4052000,"value":286071200,"foreign":41927,"trust":-735741,"dealer":0,"total":-662006,"foreignStreak":2,"trustStreak":0,"jointStreak":0,"fiveDayPctSum":4.43,"fiveDayAvgVolume":4188432},{"code":"2413","name":"環科","close":56.5,"change":-1.2000000000000028,"percent":-2.08,"tradeVolume":3208000,"value":181252000,"foreign":-695028,"trust":0,"dealer":0,"total":-695028,"foreignStreak":0,"trustStreak":0,"jointStreak":0,"fiveDayPctSum":-2.79,"fiveDayAvgVolume":14151475},{"code":"3017","name":"奇鋐","close":2400,"change":35,"percent":1.48,"tradeVolume":3133000,"value":7519200000,"foreign":531443,"trust":-1292136,"dealer":0,"total":-743572,"foreignStreak":2,"trustStreak":0,"jointStreak":0,"fiveDayPctSum":0.28,"fiveDayAvgVolume":3196909},{"code":"2376","name":"技嘉","close":344,"change":-3.5,"percent":-1.01,"tradeVolume":8295000,"value":2853480000,"foreign":-391075,"trust":-326236,"dealer":0,"total":-757692,"foreignStreak":0,"trustStreak":0,"jointStreak":0,"fiveDayPctSum":0.9,"fiveDayAvgVolume":7558692},{"code":"1312","name":"國喬","close":13.5,"change":0.25,"percent":1.89,"tradeVolume":10600000,"value":143100000,"foreign":-800960,"trust":0,"dealer":0,"total":-778421,"foreignStreak":0,"trustStreak":0,"jointStreak":0,"fiveDayPctSum":3.15,"fiveDayAvgVolume":10589921},{"code":"2061","name":"風青","close":52.8,"change":4.75,"percent":9.89,"tradeVolume":6580000,"value":347424000,"foreign":-785820,"trust":0,"dealer":-108,"total":-785928,"foreignStreak":0,"trustStreak":0,"jointStreak":0,"fiveDayPctSum":49.43,"fiveDayAvgVolume":6613185},{"code":"2374","name":"佳能","close":75.3,"change":-1,"percent":-1.31,"tradeVolume":4097000,"value":308504100,"foreign":-943996,"trust":0,"dealer":0,"total":-812591,"foreignStreak":0,"trustStreak":0,"jointStreak":0,"fiveDayPctSum":6.48,"fiveDayAvgVolume":5100332},{"code":"2363","name":"矽統","close":62.9,"change":3.8999999999999986,"percent":6.61,"tradeVolume":8873000,"value":558111700,"foreign":-751717,"trust":0,"dealer":0,"total":-833339,"foreignStreak":0,"trustStreak":0,"jointStreak":0,"fiveDayPctSum":7.12,"fiveDayAvgVolume":6376345},{"code":"3665","name":"貿聯-KY","close":2100,"change":10,"percent":0.48,"tradeVolume":6849000,"value":14382900000,"foreign":78071,"trust":-913143,"dealer":0,"total":-861381,"foreignStreak":2,"trustStreak":0,"jointStreak":0,"fiveDayPctSum":-2.82,"fiveDayAvgVolume":3895331},{"code":"5392","name":"能率","close":43.3,"change":-1.5500000000000043,"percent":-3.46,"tradeVolume":4265000,"value":184674500,"foreign":-885000,"trust":0,"dealer":-2069,"total":-887069,"foreignStreak":0,"trustStreak":0,"jointStreak":0,"fiveDayPctSum":-17.28,"fiveDayAvgVolume":4311662},{"code":"8028","name":"昇陽半導體","close":311.5,"change":0,"percent":0,"tradeVolume":6900000,"value":2149350000,"foreign":-165801,"trust":-737000,"dealer":0,"total":-899900,"foreignStreak":0,"trustStreak":0,"jointStreak":0,"fiveDayPctSum":-4.59,"fiveDayAvgVolume":7327031},{"code":"6217","name":"中探針","close":247,"change":13.5,"percent":5.78,"tradeVolume":5253000,"value":1297491000,"foreign":-911052,"trust":0,"dealer":8758,"total":-902294,"foreignStreak":0,"trustStreak":0,"jointStreak":0,"fiveDayPctSum":28.91,"fiveDayAvgVolume":5481177},{"code":"4763","name":"材料*-KY","close":44.3,"change":-0.25,"percent":-0.56,"tradeVolume":6609000,"value":292778700,"foreign":-825082,"trust":-5283,"dealer":0,"total":-910974,"foreignStreak":0,"trustStreak":0,"jointStreak":0,"fiveDayPctSum":0.7,"fiveDayAvgVolume":4546903},{"code":"2474","name":"可成","close":202.5,"change":-3,"percent":-1.46,"tradeVolume":7230000,"value":1464075000,"foreign":-553410,"trust":-496323,"dealer":0,"total":-914507,"foreignStreak":0,"trustStreak":0,"jointStreak":0,"fiveDayPctSum":0.5,"fiveDayAvgVolume":5768635},{"code":"6278","name":"台表科","close":204.5,"change":0,"percent":0,"tradeVolume":6034000,"value":1233953000,"foreign":-123501,"trust":-855000,"dealer":0,"total":-915332,"foreignStreak":0,"trustStreak":0,"jointStreak":0,"fiveDayPctSum":9,"fiveDayAvgVolume":11873908},{"code":"8064","name":"東捷","close":156,"change":2,"percent":1.3,"tradeVolume":14511000,"value":2263716000,"foreign":-908827,"trust":0,"dealer":-16880,"total":-925707,"foreignStreak":0,"trustStreak":0,"jointStreak":0,"fiveDayPctSum":6.49,"fiveDayAvgVolume":14754576},{"code":"3362","name":"先進光","close":211,"change":3.5,"percent":1.69,"tradeVolume":14029000,"value":2960119000,"foreign":-930720,"trust":0,"dealer":-1562,"total":-932282,"foreignStreak":0,"trustStreak":0,"jointStreak":0,"fiveDayPctSum":8.43,"fiveDayAvgVolume":14274377},{"code":"1319","name":"東陽","close":99.2,"change":-3.299999999999997,"percent":-3.22,"tradeVolume":9906000,"value":982675200,"foreign":-880816,"trust":-2003,"dealer":0,"total":-949774,"foreignStreak":0,"trustStreak":0,"jointStreak":0,"fiveDayPctSum":-3.86,"fiveDayAvgVolume":5610532},{"code":"2340","name":"台亞","close":39.95,"change":1.4500000000000028,"percent":3.77,"tradeVolume":19835000,"value":792408250,"foreign":-1370300,"trust":0,"dealer":0,"total":-984185,"foreignStreak":0,"trustStreak":0,"jointStreak":0,"fiveDayPctSum":16.68,"fiveDayAvgVolume":11670613},{"code":"4916","name":"事欣科","close":103.5,"change":4.799999999999997,"percent":4.86,"tradeVolume":8256000,"value":854496000,"foreign":-879000,"trust":0,"dealer":0,"total":-985956,"foreignStreak":0,"trustStreak":0,"jointStreak":0,"fiveDayPctSum":-11.67,"fiveDayAvgVolume":12214073}],"matches":[{"code":"4927","name":"泰鼎-KY","close":51.1,"change":1.1000000000000014,"percent":2.2,"tradeVolume":4127000,"value":210889700,"foreign":-585976,"trust":0,"dealer":0,"total":-586123,"foreignStreak":0,"trustStreak":0,"jointStreak":0,"fiveDayPctSum":0.8,"fiveDayAvgVolume":5690247},{"code":"1210","name":"大成","close":54.7,"change":-0.3999999999999986,"percent":-0.73,"tradeVolume":3360000,"value":183792000,"foreign":-834411,"trust":260000,"dealer":0,"total":-605845,"foreignStreak":0,"trustStreak":7,"jointStreak":0,"fiveDayPctSum":-0.53,"fiveDayAvgVolume":4527757},{"code":"4707","name":"磐亞","close":23,"change":0.3999999999999986,"percent":1.77,"tradeVolume":3708000,"value":85284000,"foreign":-70000,"trust":0,"dealer":-544000,"total":-614000,"foreignStreak":0,"trustStreak":0,"jointStreak":0,"fiveDayPctSum":8.85,"fiveDayAvgVolume":3752022},{"code":"3481","name":"群創","close":64.4,"change":5.800000000000004,"percent":9.9,"tradeVolume":854037000,"value":54999982800,"foreign":-9933250,"trust":-11666,"dealer":0,"total":-629286,"foreignStreak":0,"trustStreak":0,"jointStreak":0,"fiveDayPctSum":22.92,"fiveDayAvgVolume":150072182},{"code":"3312","name":"弘憶股","close":62.8,"change":1.1999999999999957,"percent":1.95,"tradeVolume":22756000,"value":1429076800,"foreign":-635365,"trust":0,"dealer":0,"total":-642128,"foreignStreak":0,"trustStreak":0,"jointStreak":0,"fiveDayPctSum":4.17,"fiveDayAvgVolume":4647584},{"code":"2393","name":"億光","close":70.6,"change":-0.9000000000000057,"percent":-1.26,"tradeVolume":4052000,"value":286071200,"foreign":41927,"trust":-735741,"dealer":0,"total":-662006,"foreignStreak":2,"trustStreak":0,"jointStreak":0,"fiveDayPctSum":4.43,"fiveDayAvgVolume":4188432},{"code":"2413","name":"環科","close":56.5,"change":-1.2000000000000028,"percent":-2.08,"tradeVolume":3208000,"value":181252000,"foreign":-695028,"trust":0,"dealer":0,"total":-695028,"foreignStreak":0,"trustStreak":0,"jointStreak":0,"fiveDayPctSum":-2.79,"fiveDayAvgVolume":14151475},{"code":"3017","name":"奇鋐","close":2400,"change":35,"percent":1.48,"tradeVolume":3133000,"value":7519200000,"foreign":531443,"trust":-1292136,"dealer":0,"total":-743572,"foreignStreak":2,"trustStreak":0,"jointStreak":0,"fiveDayPctSum":0.28,"fiveDayAvgVolume":3196909},{"code":"2376","name":"技嘉","close":344,"change":-3.5,"percent":-1.01,"tradeVolume":8295000,"value":2853480000,"foreign":-391075,"trust":-326236,"dealer":0,"total":-757692,"foreignStreak":0,"trustStreak":0,"jointStreak":0,"fiveDayPctSum":0.9,"fiveDayAvgVolume":7558692},{"code":"1312","name":"國喬","close":13.5,"change":0.25,"percent":1.89,"tradeVolume":10600000,"value":143100000,"foreign":-800960,"trust":0,"dealer":0,"total":-778421,"foreignStreak":0,"trustStreak":0,"jointStreak":0,"fiveDayPctSum":3.15,"fiveDayAvgVolume":10589921},{"code":"2061","name":"風青","close":52.8,"change":4.75,"percent":9.89,"tradeVolume":6580000,"value":347424000,"foreign":-785820,"trust":0,"dealer":-108,"total":-785928,"foreignStreak":0,"trustStreak":0,"jointStreak":0,"fiveDayPctSum":49.43,"fiveDayAvgVolume":6613185},{"code":"2374","name":"佳能","close":75.3,"change":-1,"percent":-1.31,"tradeVolume":4097000,"value":308504100,"foreign":-943996,"trust":0,"dealer":0,"total":-812591,"foreignStreak":0,"trustStreak":0,"jointStreak":0,"fiveDayPctSum":6.48,"fiveDayAvgVolume":5100332},{"code":"2363","name":"矽統","close":62.9,"change":3.8999999999999986,"percent":6.61,"tradeVolume":8873000,"value":558111700,"foreign":-751717,"trust":0,"dealer":0,"total":-833339,"foreignStreak":0,"trustStreak":0,"jointStreak":0,"fiveDayPctSum":7.12,"fiveDayAvgVolume":6376345},{"code":"3665","name":"貿聯-KY","close":2100,"change":10,"percent":0.48,"tradeVolume":6849000,"value":14382900000,"foreign":78071,"trust":-913143,"dealer":0,"total":-861381,"foreignStreak":2,"trustStreak":0,"jointStreak":0,"fiveDayPctSum":-2.82,"fiveDayAvgVolume":3895331},{"code":"5392","name":"能率","close":43.3,"change":-1.5500000000000043,"percent":-3.46,"tradeVolume":4265000,"value":184674500,"foreign":-885000,"trust":0,"dealer":-2069,"total":-887069,"foreignStreak":0,"trustStreak":0,"jointStreak":0,"fiveDayPctSum":-17.28,"fiveDayAvgVolume":4311662},{"code":"8028","name":"昇陽半導體","close":311.5,"change":0,"percent":0,"tradeVolume":6900000,"value":2149350000,"foreign":-165801,"trust":-737000,"dealer":0,"total":-899900,"foreignStreak":0,"trustStreak":0,"jointStreak":0,"fiveDayPctSum":-4.59,"fiveDayAvgVolume":7327031},{"code":"6217","name":"中探針","close":247,"change":13.5,"percent":5.78,"tradeVolume":5253000,"value":1297491000,"foreign":-911052,"trust":0,"dealer":8758,"total":-902294,"foreignStreak":0,"trustStreak":0,"jointStreak":0,"fiveDayPctSum":28.91,"fiveDayAvgVolume":5481177},{"code":"4763","name":"材料*-KY","close":44.3,"change":-0.25,"percent":-0.56,"tradeVolume":6609000,"value":292778700,"foreign":-825082,"trust":-5283,"dealer":0,"total":-910974,"foreignStreak":0,"trustStreak":0,"jointStreak":0,"fiveDayPctSum":0.7,"fiveDayAvgVolume":4546903},{"code":"2474","name":"可成","close":202.5,"change":-3,"percent":-1.46,"tradeVolume":7230000,"value":1464075000,"foreign":-553410,"trust":-496323,"dealer":0,"total":-914507,"foreignStreak":0,"trustStreak":0,"jointStreak":0,"fiveDayPctSum":0.5,"fiveDayAvgVolume":5768635},{"code":"6278","name":"台表科","close":204.5,"change":0,"percent":0,"tradeVolume":6034000,"value":1233953000,"foreign":-123501,"trust":-855000,"dealer":0,"total":-915332,"foreignStreak":0,"trustStreak":0,"jointStreak":0,"fiveDayPctSum":9,"fiveDayAvgVolume":11873908},{"code":"8064","name":"東捷","close":156,"change":2,"percent":1.3,"tradeVolume":14511000,"value":2263716000,"foreign":-908827,"trust":0,"dealer":-16880,"total":-925707,"foreignStreak":0,"trustStreak":0,"jointStreak":0,"fiveDayPctSum":6.49,"fiveDayAvgVolume":14754576},{"code":"3362","name":"先進光","close":211,"change":3.5,"percent":1.69,"tradeVolume":14029000,"value":2960119000,"foreign":-930720,"trust":0,"dealer":-1562,"total":-932282,"foreignStreak":0,"trustStreak":0,"jointStreak":0,"fiveDayPctSum":8.43,"fiveDayAvgVolume":14274377},{"code":"1319","name":"東陽","close":99.2,"change":-3.299999999999997,"percent":-3.22,"tradeVolume":9906000,"value":982675200,"foreign":-880816,"trust":-2003,"dealer":0,"total":-949774,"foreignStreak":0,"trustStreak":0,"jointStreak":0,"fiveDayPctSum":-3.86,"fiveDayAvgVolume":5610532},{"code":"2340","name":"台亞","close":39.95,"change":1.4500000000000028,"percent":3.77,"tradeVolume":19835000,"value":792408250,"foreign":-1370300,"trust":0,"dealer":0,"total":-984185,"foreignStreak":0,"trustStreak":0,"jointStreak":0,"fiveDayPctSum":16.68,"fiveDayAvgVolume":11670613},{"code":"4916","name":"事欣科","close":103.5,"change":4.799999999999997,"percent":4.86,"tradeVolume":8256000,"value":854496000,"foreign":-879000,"trust":0,"dealer":0,"total":-985956,"foreignStreak":0,"trustStreak":0,"jointStreak":0,"fiveDayPctSum":-11.67,"fiveDayAvgVolume":12214073}]}
