{"ok":true,"updatedAt":"2026-06-18T07:11:16.011Z","usedDate":"20260618","quoteUpdatedAt":"2026-06-18T07:11:15.479Z","source":"institution-page","page":9,"pageSize":25,"totalPages":14,"totalCount":326,"count":25,"rows":[{"code":"6284","name":"佳邦","close":106,"change":-1.5,"percent":-1.4,"tradeVolume":9344000,"value":990464000,"foreign":-353284,"trust":0,"dealer":35519,"total":-317765,"foreignStreak":0,"trustStreak":0,"jointStreak":0,"fiveDayPctSum":-6.98,"fiveDayAvgVolume":9461521},{"code":"2457","name":"飛宏","close":28.8,"change":-0.1999999999999993,"percent":-0.69,"tradeVolume":4728000,"value":136166400,"foreign":-307248,"trust":0,"dealer":0,"total":-317907,"foreignStreak":0,"trustStreak":0,"jointStreak":0,"fiveDayPctSum":-1.55,"fiveDayAvgVolume":7978594},{"code":"1519","name":"華城","close":833,"change":30,"percent":3.74,"tradeVolume":3762000,"value":3133746000,"foreign":-383644,"trust":-2322,"dealer":0,"total":-321635,"foreignStreak":0,"trustStreak":0,"jointStreak":0,"fiveDayPctSum":1.6,"fiveDayAvgVolume":3342985},{"code":"8131","name":"福懋科","close":75.9,"change":0.7000000000000028,"percent":0.93,"tradeVolume":6136000,"value":465722400,"foreign":-110038,"trust":0,"dealer":0,"total":-332251,"foreignStreak":0,"trustStreak":0,"jointStreak":0,"fiveDayPctSum":11.98,"fiveDayAvgVolume":9138487},{"code":"3537","name":"堡達","close":89.6,"change":8.099999999999994,"percent":9.94,"tradeVolume":12231000,"value":1095897600,"foreign":-454742,"trust":0,"dealer":82081,"total":-372661,"foreignStreak":0,"trustStreak":0,"jointStreak":0,"fiveDayPctSum":49.69,"fiveDayAvgVolume":12342744},{"code":"5425","name":"台半","close":118.5,"change":10.5,"percent":9.72,"tradeVolume":14630000,"value":1733655000,"foreign":-573345,"trust":0,"dealer":184532,"total":-388813,"foreignStreak":0,"trustStreak":0,"jointStreak":0,"fiveDayPctSum":48.61,"fiveDayAvgVolume":14978547},{"code":"6191","name":"精成科","close":100.5,"change":0.5,"percent":0.5,"tradeVolume":5714000,"value":574257000,"foreign":-381775,"trust":0,"dealer":0,"total":-389046,"foreignStreak":0,"trustStreak":0,"jointStreak":0,"fiveDayPctSum":8.41,"fiveDayAvgVolume":10646179},{"code":"6451","name":"訊芯-KY","close":561,"change":18,"percent":3.31,"tradeVolume":3893000,"value":2183973000,"foreign":-282480,"trust":0,"dealer":0,"total":-389049,"foreignStreak":0,"trustStreak":0,"jointStreak":0,"fiveDayPctSum":-1.44,"fiveDayAvgVolume":5277951},{"code":"4979","name":"華星光","close":567,"change":21,"percent":3.85,"tradeVolume":7413000,"value":4203171000,"foreign":-17362,"trust":-350750,"dealer":-22206,"total":-390318,"foreignStreak":0,"trustStreak":0,"jointStreak":0,"fiveDayPctSum":19.23,"fiveDayAvgVolume":7678077},{"code":"6156","name":"松上","close":24.35,"change":1,"percent":4.28,"tradeVolume":4596000,"value":111912600,"foreign":-414871,"trust":0,"dealer":20677,"total":-394194,"foreignStreak":0,"trustStreak":0,"jointStreak":0,"fiveDayPctSum":21.41,"fiveDayAvgVolume":4635601},{"code":"1528","name":"恩德","close":25.4,"change":0.04999999999999716,"percent":0.2,"tradeVolume":3088000,"value":78435200,"foreign":-408000,"trust":0,"dealer":0,"total":-408000,"foreignStreak":0,"trustStreak":0,"jointStreak":0,"fiveDayPctSum":0.2,"fiveDayAvgVolume":3164120},{"code":"3006","name":"晶豪科","close":237.5,"change":12.5,"percent":5.56,"tradeVolume":14085000,"value":3345187500,"foreign":249713,"trust":0,"dealer":0,"total":-409265,"foreignStreak":2,"trustStreak":0,"jointStreak":0,"fiveDayPctSum":11.01,"fiveDayAvgVolume":10078418},{"code":"7788","name":"松川精密","close":292,"change":17,"percent":6.18,"tradeVolume":3555000,"value":1038060000,"foreign":-454050,"trust":0,"dealer":0,"total":-445638,"foreignStreak":0,"trustStreak":0,"jointStreak":0,"fiveDayPctSum":6.63,"fiveDayAvgVolume":4394278},{"code":"2369","name":"菱生","close":36.85,"change":2.3500000000000014,"percent":6.81,"tradeVolume":25200000,"value":928620000,"foreign":-250202,"trust":0,"dealer":0,"total":-456203,"foreignStreak":0,"trustStreak":0,"jointStreak":0,"fiveDayPctSum":10.82,"fiveDayAvgVolume":10827038},{"code":"2483","name":"百容","close":39.65,"change":3.6000000000000014,"percent":9.99,"tradeVolume":8923000,"value":353796950,"foreign":-463000,"trust":0,"dealer":0,"total":-462000,"foreignStreak":0,"trustStreak":0,"jointStreak":0,"fiveDayPctSum":14.62,"fiveDayAvgVolume":8051969},{"code":"5508","name":"永信建","close":61.7,"change":0.6000000000000014,"percent":0.98,"tradeVolume":3680000,"value":227056000,"foreign":-477976,"trust":0,"dealer":14621,"total":-463355,"foreignStreak":0,"trustStreak":0,"jointStreak":0,"fiveDayPctSum":4.91,"fiveDayAvgVolume":3754373},{"code":"6282","name":"康舒","close":58.1,"change":0.7000000000000028,"percent":1.22,"tradeVolume":16913000,"value":982645300,"foreign":-334040,"trust":13000,"dealer":0,"total":-474121,"foreignStreak":0,"trustStreak":1,"jointStreak":0,"fiveDayPctSum":-1.85,"fiveDayAvgVolume":29263930},{"code":"6202","name":"盛群","close":67,"change":1.5999999999999943,"percent":2.45,"tradeVolume":12285000,"value":823095000,"foreign":-695684,"trust":0,"dealer":0,"total":-513810,"foreignStreak":0,"trustStreak":0,"jointStreak":0,"fiveDayPctSum":27.27,"fiveDayAvgVolume":12192924},{"code":"3441","name":"聯一光","close":92.3,"change":3.200000000000003,"percent":3.59,"tradeVolume":14045000,"value":1296353500,"foreign":-513888,"trust":0,"dealer":-39821,"total":-553709,"foreignStreak":0,"trustStreak":0,"jointStreak":0,"fiveDayPctSum":17.96,"fiveDayAvgVolume":14141506},{"code":"6668","name":"中揚光","close":47.2,"change":1.0500000000000043,"percent":2.28,"tradeVolume":6797000,"value":320818400,"foreign":-572050,"trust":0,"dealer":0,"total":-563645,"foreignStreak":0,"trustStreak":0,"jointStreak":0,"fiveDayPctSum":22.45,"fiveDayAvgVolume":4112023},{"code":"2355","name":"敬鵬","close":57.9,"change":-0.10000000000000142,"percent":-0.17,"tradeVolume":9249000,"value":535517100,"foreign":-649944,"trust":0,"dealer":0,"total":-576278,"foreignStreak":0,"trustStreak":0,"jointStreak":0,"fiveDayPctSum":9.02,"fiveDayAvgVolume":26672671},{"code":"1904","name":"正隆","close":23.1,"change":0.10000000000000142,"percent":0.43,"tradeVolume":4352000,"value":100531200,"foreign":-217596,"trust":0,"dealer":0,"total":-576453,"foreignStreak":0,"trustStreak":0,"jointStreak":0,"fiveDayPctSum":-0.63,"fiveDayAvgVolume":4725893},{"code":"6168","name":"宏齊","close":28.3,"change":0.40000000000000213,"percent":1.43,"tradeVolume":5384000,"value":152367200,"foreign":-578364,"trust":0,"dealer":0,"total":-578364,"foreignStreak":0,"trustStreak":0,"jointStreak":0,"fiveDayPctSum":16.19,"fiveDayAvgVolume":6642584},{"code":"3450","name":"聯鈞","close":565,"change":51,"percent":9.92,"tradeVolume":15056000,"value":8506640000,"foreign":-584240,"trust":0,"dealer":0,"total":-582432,"foreignStreak":0,"trustStreak":0,"jointStreak":0,"fiveDayPctSum":6.25,"fiveDayAvgVolume":8609199},{"code":"3035","name":"智原","close":209,"change":7,"percent":3.47,"tradeVolume":8863000,"value":1852367000,"foreign":-100142,"trust":0,"dealer":0,"total":-582761,"foreignStreak":0,"trustStreak":0,"jointStreak":0,"fiveDayPctSum":15.66,"fiveDayAvgVolume":8007860}],"matches":[{"code":"6284","name":"佳邦","close":106,"change":-1.5,"percent":-1.4,"tradeVolume":9344000,"value":990464000,"foreign":-353284,"trust":0,"dealer":35519,"total":-317765,"foreignStreak":0,"trustStreak":0,"jointStreak":0,"fiveDayPctSum":-6.98,"fiveDayAvgVolume":9461521},{"code":"2457","name":"飛宏","close":28.8,"change":-0.1999999999999993,"percent":-0.69,"tradeVolume":4728000,"value":136166400,"foreign":-307248,"trust":0,"dealer":0,"total":-317907,"foreignStreak":0,"trustStreak":0,"jointStreak":0,"fiveDayPctSum":-1.55,"fiveDayAvgVolume":7978594},{"code":"1519","name":"華城","close":833,"change":30,"percent":3.74,"tradeVolume":3762000,"value":3133746000,"foreign":-383644,"trust":-2322,"dealer":0,"total":-321635,"foreignStreak":0,"trustStreak":0,"jointStreak":0,"fiveDayPctSum":1.6,"fiveDayAvgVolume":3342985},{"code":"8131","name":"福懋科","close":75.9,"change":0.7000000000000028,"percent":0.93,"tradeVolume":6136000,"value":465722400,"foreign":-110038,"trust":0,"dealer":0,"total":-332251,"foreignStreak":0,"trustStreak":0,"jointStreak":0,"fiveDayPctSum":11.98,"fiveDayAvgVolume":9138487},{"code":"3537","name":"堡達","close":89.6,"change":8.099999999999994,"percent":9.94,"tradeVolume":12231000,"value":1095897600,"foreign":-454742,"trust":0,"dealer":82081,"total":-372661,"foreignStreak":0,"trustStreak":0,"jointStreak":0,"fiveDayPctSum":49.69,"fiveDayAvgVolume":12342744},{"code":"5425","name":"台半","close":118.5,"change":10.5,"percent":9.72,"tradeVolume":14630000,"value":1733655000,"foreign":-573345,"trust":0,"dealer":184532,"total":-388813,"foreignStreak":0,"trustStreak":0,"jointStreak":0,"fiveDayPctSum":48.61,"fiveDayAvgVolume":14978547},{"code":"6191","name":"精成科","close":100.5,"change":0.5,"percent":0.5,"tradeVolume":5714000,"value":574257000,"foreign":-381775,"trust":0,"dealer":0,"total":-389046,"foreignStreak":0,"trustStreak":0,"jointStreak":0,"fiveDayPctSum":8.41,"fiveDayAvgVolume":10646179},{"code":"6451","name":"訊芯-KY","close":561,"change":18,"percent":3.31,"tradeVolume":3893000,"value":2183973000,"foreign":-282480,"trust":0,"dealer":0,"total":-389049,"foreignStreak":0,"trustStreak":0,"jointStreak":0,"fiveDayPctSum":-1.44,"fiveDayAvgVolume":5277951},{"code":"4979","name":"華星光","close":567,"change":21,"percent":3.85,"tradeVolume":7413000,"value":4203171000,"foreign":-17362,"trust":-350750,"dealer":-22206,"total":-390318,"foreignStreak":0,"trustStreak":0,"jointStreak":0,"fiveDayPctSum":19.23,"fiveDayAvgVolume":7678077},{"code":"6156","name":"松上","close":24.35,"change":1,"percent":4.28,"tradeVolume":4596000,"value":111912600,"foreign":-414871,"trust":0,"dealer":20677,"total":-394194,"foreignStreak":0,"trustStreak":0,"jointStreak":0,"fiveDayPctSum":21.41,"fiveDayAvgVolume":4635601},{"code":"1528","name":"恩德","close":25.4,"change":0.04999999999999716,"percent":0.2,"tradeVolume":3088000,"value":78435200,"foreign":-408000,"trust":0,"dealer":0,"total":-408000,"foreignStreak":0,"trustStreak":0,"jointStreak":0,"fiveDayPctSum":0.2,"fiveDayAvgVolume":3164120},{"code":"3006","name":"晶豪科","close":237.5,"change":12.5,"percent":5.56,"tradeVolume":14085000,"value":3345187500,"foreign":249713,"trust":0,"dealer":0,"total":-409265,"foreignStreak":2,"trustStreak":0,"jointStreak":0,"fiveDayPctSum":11.01,"fiveDayAvgVolume":10078418},{"code":"7788","name":"松川精密","close":292,"change":17,"percent":6.18,"tradeVolume":3555000,"value":1038060000,"foreign":-454050,"trust":0,"dealer":0,"total":-445638,"foreignStreak":0,"trustStreak":0,"jointStreak":0,"fiveDayPctSum":6.63,"fiveDayAvgVolume":4394278},{"code":"2369","name":"菱生","close":36.85,"change":2.3500000000000014,"percent":6.81,"tradeVolume":25200000,"value":928620000,"foreign":-250202,"trust":0,"dealer":0,"total":-456203,"foreignStreak":0,"trustStreak":0,"jointStreak":0,"fiveDayPctSum":10.82,"fiveDayAvgVolume":10827038},{"code":"2483","name":"百容","close":39.65,"change":3.6000000000000014,"percent":9.99,"tradeVolume":8923000,"value":353796950,"foreign":-463000,"trust":0,"dealer":0,"total":-462000,"foreignStreak":0,"trustStreak":0,"jointStreak":0,"fiveDayPctSum":14.62,"fiveDayAvgVolume":8051969},{"code":"5508","name":"永信建","close":61.7,"change":0.6000000000000014,"percent":0.98,"tradeVolume":3680000,"value":227056000,"foreign":-477976,"trust":0,"dealer":14621,"total":-463355,"foreignStreak":0,"trustStreak":0,"jointStreak":0,"fiveDayPctSum":4.91,"fiveDayAvgVolume":3754373},{"code":"6282","name":"康舒","close":58.1,"change":0.7000000000000028,"percent":1.22,"tradeVolume":16913000,"value":982645300,"foreign":-334040,"trust":13000,"dealer":0,"total":-474121,"foreignStreak":0,"trustStreak":1,"jointStreak":0,"fiveDayPctSum":-1.85,"fiveDayAvgVolume":29263930},{"code":"6202","name":"盛群","close":67,"change":1.5999999999999943,"percent":2.45,"tradeVolume":12285000,"value":823095000,"foreign":-695684,"trust":0,"dealer":0,"total":-513810,"foreignStreak":0,"trustStreak":0,"jointStreak":0,"fiveDayPctSum":27.27,"fiveDayAvgVolume":12192924},{"code":"3441","name":"聯一光","close":92.3,"change":3.200000000000003,"percent":3.59,"tradeVolume":14045000,"value":1296353500,"foreign":-513888,"trust":0,"dealer":-39821,"total":-553709,"foreignStreak":0,"trustStreak":0,"jointStreak":0,"fiveDayPctSum":17.96,"fiveDayAvgVolume":14141506},{"code":"6668","name":"中揚光","close":47.2,"change":1.0500000000000043,"percent":2.28,"tradeVolume":6797000,"value":320818400,"foreign":-572050,"trust":0,"dealer":0,"total":-563645,"foreignStreak":0,"trustStreak":0,"jointStreak":0,"fiveDayPctSum":22.45,"fiveDayAvgVolume":4112023},{"code":"2355","name":"敬鵬","close":57.9,"change":-0.10000000000000142,"percent":-0.17,"tradeVolume":9249000,"value":535517100,"foreign":-649944,"trust":0,"dealer":0,"total":-576278,"foreignStreak":0,"trustStreak":0,"jointStreak":0,"fiveDayPctSum":9.02,"fiveDayAvgVolume":26672671},{"code":"1904","name":"正隆","close":23.1,"change":0.10000000000000142,"percent":0.43,"tradeVolume":4352000,"value":100531200,"foreign":-217596,"trust":0,"dealer":0,"total":-576453,"foreignStreak":0,"trustStreak":0,"jointStreak":0,"fiveDayPctSum":-0.63,"fiveDayAvgVolume":4725893},{"code":"6168","name":"宏齊","close":28.3,"change":0.40000000000000213,"percent":1.43,"tradeVolume":5384000,"value":152367200,"foreign":-578364,"trust":0,"dealer":0,"total":-578364,"foreignStreak":0,"trustStreak":0,"jointStreak":0,"fiveDayPctSum":16.19,"fiveDayAvgVolume":6642584},{"code":"3450","name":"聯鈞","close":565,"change":51,"percent":9.92,"tradeVolume":15056000,"value":8506640000,"foreign":-584240,"trust":0,"dealer":0,"total":-582432,"foreignStreak":0,"trustStreak":0,"jointStreak":0,"fiveDayPctSum":6.25,"fiveDayAvgVolume":8609199},{"code":"3035","name":"智原","close":209,"change":7,"percent":3.47,"tradeVolume":8863000,"value":1852367000,"foreign":-100142,"trust":0,"dealer":0,"total":-582761,"foreignStreak":0,"trustStreak":0,"jointStreak":0,"fiveDayPctSum":15.66,"fiveDayAvgVolume":8007860}]}
