{"ok":true,"updatedAt":"2026-06-18T07:11:16.011Z","usedDate":"20260618","quoteUpdatedAt":"2026-06-18T07:11:15.479Z","source":"institution-page","page":4,"pageSize":25,"totalPages":14,"totalCount":326,"count":25,"rows":[{"code":"1711","name":"永光","close":45.3,"change":0.8499999999999943,"percent":1.91,"tradeVolume":8172000,"value":370191600,"foreign":1065679,"trust":0,"dealer":0,"total":1154302,"foreignStreak":1,"trustStreak":0,"jointStreak":0,"fiveDayPctSum":5.13,"fiveDayAvgVolume":6158155},{"code":"6274","name":"台燿","close":1835,"change":165,"percent":9.88,"tradeVolume":3462000,"value":6352770000,"foreign":619448,"trust":290700,"dealer":206721,"total":1116869,"foreignStreak":2,"trustStreak":5,"jointStreak":2,"fiveDayPctSum":49.4,"fiveDayAvgVolume":3851806},{"code":"8044","name":"網家","close":31.15,"change":2.799999999999997,"percent":9.88,"tradeVolume":3148000,"value":98060200,"foreign":1090008,"trust":0,"dealer":8778,"total":1098786,"foreignStreak":1,"trustStreak":0,"jointStreak":0,"fiveDayPctSum":49.38,"fiveDayAvgVolume":3162745},{"code":"8112","name":"至上","close":98.2,"change":1.4000000000000057,"percent":1.45,"tradeVolume":16259000,"value":1596633800,"foreign":1937574,"trust":-32154,"dealer":0,"total":1078787,"foreignStreak":1,"trustStreak":0,"jointStreak":0,"fiveDayPctSum":4.57,"fiveDayAvgVolume":39995679},{"code":"3234","name":"光環","close":145,"change":13,"percent":9.85,"tradeVolume":8411000,"value":1219595000,"foreign":1073135,"trust":0,"dealer":5245,"total":1078380,"foreignStreak":1,"trustStreak":0,"jointStreak":0,"fiveDayPctSum":49.24,"fiveDayAvgVolume":8650179},{"code":"2027","name":"大成鋼","close":41,"change":-0.7000000000000028,"percent":-1.68,"tradeVolume":22268000,"value":912988000,"foreign":2399182,"trust":-1853000,"dealer":0,"total":1053485,"foreignStreak":1,"trustStreak":0,"jointStreak":0,"fiveDayPctSum":-1.77,"fiveDayAvgVolume":19819986},{"code":"2547","name":"日勝生","close":11.2,"change":0,"percent":0,"tradeVolume":4679000,"value":52404800,"foreign":1069282,"trust":0,"dealer":0,"total":1035282,"foreignStreak":5,"trustStreak":0,"jointStreak":0,"fiveDayPctSum":0.47,"fiveDayAvgVolume":5721934},{"code":"8299","name":"群聯","close":2530,"change":200,"percent":8.58,"tradeVolume":7486000,"value":18939580000,"foreign":707866,"trust":72150,"dealer":253516,"total":1033532,"foreignStreak":1,"trustStreak":1,"jointStreak":1,"fiveDayPctSum":42.92,"fiveDayAvgVolume":8181771},{"code":"2332","name":"友訊","close":20.05,"change":1.8000000000000007,"percent":9.86,"tradeVolume":16798000,"value":336799900,"foreign":1003370,"trust":0,"dealer":0,"total":1006317,"foreignStreak":1,"trustStreak":0,"jointStreak":0,"fiveDayPctSum":16.29,"fiveDayAvgVolume":10183747},{"code":"2379","name":"瑞昱","close":819,"change":74,"percent":9.93,"tradeVolume":6471000,"value":5299749000,"foreign":571928,"trust":146963,"dealer":0,"total":997306,"foreignStreak":3,"trustStreak":3,"jointStreak":3,"fiveDayPctSum":15.31,"fiveDayAvgVolume":4868736},{"code":"3042","name":"晶技","close":216,"change":-8,"percent":-3.57,"tradeVolume":31176000,"value":6734016000,"foreign":939872,"trust":-4000,"dealer":0,"total":984842,"foreignStreak":1,"trustStreak":0,"jointStreak":0,"fiveDayPctSum":11.62,"fiveDayAvgVolume":47585193},{"code":"3550","name":"聯穎","close":37.25,"change":3.3500000000000014,"percent":9.88,"tradeVolume":3057000,"value":113873250,"foreign":977000,"trust":0,"dealer":0,"total":984261,"foreignStreak":2,"trustStreak":0,"jointStreak":0,"fiveDayPctSum":18.53,"fiveDayAvgVolume":11815077},{"code":"2548","name":"華固","close":103.5,"change":-4.5,"percent":-4.17,"tradeVolume":4016000,"value":415656000,"foreign":1426722,"trust":-197000,"dealer":0,"total":964008,"foreignStreak":1,"trustStreak":0,"jointStreak":0,"fiveDayPctSum":2.49,"fiveDayAvgVolume":3579720},{"code":"1909","name":"榮成","close":10.2,"change":0.14999999999999858,"percent":1.49,"tradeVolume":5162000,"value":52652400,"foreign":1107160,"trust":0,"dealer":0,"total":956160,"foreignStreak":7,"trustStreak":0,"jointStreak":0,"fiveDayPctSum":2.54,"fiveDayAvgVolume":5196961},{"code":"8926","name":"台汽電","close":79,"change":-0.4000000000000057,"percent":-0.5,"tradeVolume":12584000,"value":994136000,"foreign":156734,"trust":779000,"dealer":0,"total":930373,"foreignStreak":2,"trustStreak":6,"jointStreak":2,"fiveDayPctSum":5.98,"fiveDayAvgVolume":13340958},{"code":"3714","name":"富采","close":67.2,"change":1.2999999999999972,"percent":1.97,"tradeVolume":13238000,"value":889593600,"foreign":696903,"trust":0,"dealer":0,"total":929372,"foreignStreak":1,"trustStreak":0,"jointStreak":0,"fiveDayPctSum":5.12,"fiveDayAvgVolume":11128125},{"code":"6190","name":"萬泰科","close":82.9,"change":4.6000000000000085,"percent":5.87,"tradeVolume":5408000,"value":448323200,"foreign":859100,"trust":0,"dealer":65043,"total":924143,"foreignStreak":2,"trustStreak":0,"jointStreak":0,"fiveDayPctSum":29.37,"fiveDayAvgVolume":5532266},{"code":"3044","name":"健鼎","close":573,"change":2,"percent":0.35,"tradeVolume":6669000,"value":3821337000,"foreign":974844,"trust":-68023,"dealer":0,"total":911341,"foreignStreak":4,"trustStreak":0,"jointStreak":0,"fiveDayPctSum":17.94,"fiveDayAvgVolume":4489821},{"code":"2903","name":"遠百","close":23.95,"change":-0.1999999999999993,"percent":-0.83,"tradeVolume":3538000,"value":84735100,"foreign":472230,"trust":249000,"dealer":0,"total":909230,"foreignStreak":1,"trustStreak":4,"jointStreak":1,"fiveDayPctSum":3.84,"fiveDayAvgVolume":3609813},{"code":"2241","name":"艾姆勒","close":50.6,"change":4.550000000000004,"percent":9.88,"tradeVolume":8297000,"value":419828200,"foreign":897000,"trust":0,"dealer":0,"total":899619,"foreignStreak":3,"trustStreak":0,"jointStreak":0,"fiveDayPctSum":10.91,"fiveDayAvgVolume":5009076},{"code":"8069","name":"元太","close":204,"change":5.5,"percent":2.77,"tradeVolume":10882000,"value":2219928000,"foreign":828563,"trust":-3000,"dealer":53256,"total":878819,"foreignStreak":3,"trustStreak":0,"jointStreak":0,"fiveDayPctSum":13.85,"fiveDayAvgVolume":11030080},{"code":"2354","name":"鴻準","close":57.9,"change":0.3999999999999986,"percent":0.7,"tradeVolume":7843000,"value":454109700,"foreign":854282,"trust":-1000,"dealer":0,"total":868676,"foreignStreak":1,"trustStreak":0,"jointStreak":0,"fiveDayPctSum":2.14,"fiveDayAvgVolume":5598529},{"code":"1717","name":"長興","close":72.4,"change":1.3000000000000114,"percent":1.83,"tradeVolume":10723000,"value":776345200,"foreign":933909,"trust":0,"dealer":0,"total":830548,"foreignStreak":1,"trustStreak":0,"jointStreak":0,"fiveDayPctSum":4.86,"fiveDayAvgVolume":8217855},{"code":"8039","name":"台虹","close":145.5,"change":-0.5,"percent":-0.34,"tradeVolume":5206000,"value":757473000,"foreign":905157,"trust":0,"dealer":0,"total":812040,"foreignStreak":1,"trustStreak":0,"jointStreak":0,"fiveDayPctSum":13.13,"fiveDayAvgVolume":10534916},{"code":"6197","name":"佳必琪","close":347.5,"change":14.5,"percent":4.35,"tradeVolume":4246000,"value":1475485000,"foreign":757008,"trust":0,"dealer":0,"total":776211,"foreignStreak":1,"trustStreak":0,"jointStreak":0,"fiveDayPctSum":2.5,"fiveDayAvgVolume":4345937}],"matches":[{"code":"1711","name":"永光","close":45.3,"change":0.8499999999999943,"percent":1.91,"tradeVolume":8172000,"value":370191600,"foreign":1065679,"trust":0,"dealer":0,"total":1154302,"foreignStreak":1,"trustStreak":0,"jointStreak":0,"fiveDayPctSum":5.13,"fiveDayAvgVolume":6158155},{"code":"6274","name":"台燿","close":1835,"change":165,"percent":9.88,"tradeVolume":3462000,"value":6352770000,"foreign":619448,"trust":290700,"dealer":206721,"total":1116869,"foreignStreak":2,"trustStreak":5,"jointStreak":2,"fiveDayPctSum":49.4,"fiveDayAvgVolume":3851806},{"code":"8044","name":"網家","close":31.15,"change":2.799999999999997,"percent":9.88,"tradeVolume":3148000,"value":98060200,"foreign":1090008,"trust":0,"dealer":8778,"total":1098786,"foreignStreak":1,"trustStreak":0,"jointStreak":0,"fiveDayPctSum":49.38,"fiveDayAvgVolume":3162745},{"code":"8112","name":"至上","close":98.2,"change":1.4000000000000057,"percent":1.45,"tradeVolume":16259000,"value":1596633800,"foreign":1937574,"trust":-32154,"dealer":0,"total":1078787,"foreignStreak":1,"trustStreak":0,"jointStreak":0,"fiveDayPctSum":4.57,"fiveDayAvgVolume":39995679},{"code":"3234","name":"光環","close":145,"change":13,"percent":9.85,"tradeVolume":8411000,"value":1219595000,"foreign":1073135,"trust":0,"dealer":5245,"total":1078380,"foreignStreak":1,"trustStreak":0,"jointStreak":0,"fiveDayPctSum":49.24,"fiveDayAvgVolume":8650179},{"code":"2027","name":"大成鋼","close":41,"change":-0.7000000000000028,"percent":-1.68,"tradeVolume":22268000,"value":912988000,"foreign":2399182,"trust":-1853000,"dealer":0,"total":1053485,"foreignStreak":1,"trustStreak":0,"jointStreak":0,"fiveDayPctSum":-1.77,"fiveDayAvgVolume":19819986},{"code":"2547","name":"日勝生","close":11.2,"change":0,"percent":0,"tradeVolume":4679000,"value":52404800,"foreign":1069282,"trust":0,"dealer":0,"total":1035282,"foreignStreak":5,"trustStreak":0,"jointStreak":0,"fiveDayPctSum":0.47,"fiveDayAvgVolume":5721934},{"code":"8299","name":"群聯","close":2530,"change":200,"percent":8.58,"tradeVolume":7486000,"value":18939580000,"foreign":707866,"trust":72150,"dealer":253516,"total":1033532,"foreignStreak":1,"trustStreak":1,"jointStreak":1,"fiveDayPctSum":42.92,"fiveDayAvgVolume":8181771},{"code":"2332","name":"友訊","close":20.05,"change":1.8000000000000007,"percent":9.86,"tradeVolume":16798000,"value":336799900,"foreign":1003370,"trust":0,"dealer":0,"total":1006317,"foreignStreak":1,"trustStreak":0,"jointStreak":0,"fiveDayPctSum":16.29,"fiveDayAvgVolume":10183747},{"code":"2379","name":"瑞昱","close":819,"change":74,"percent":9.93,"tradeVolume":6471000,"value":5299749000,"foreign":571928,"trust":146963,"dealer":0,"total":997306,"foreignStreak":3,"trustStreak":3,"jointStreak":3,"fiveDayPctSum":15.31,"fiveDayAvgVolume":4868736},{"code":"3042","name":"晶技","close":216,"change":-8,"percent":-3.57,"tradeVolume":31176000,"value":6734016000,"foreign":939872,"trust":-4000,"dealer":0,"total":984842,"foreignStreak":1,"trustStreak":0,"jointStreak":0,"fiveDayPctSum":11.62,"fiveDayAvgVolume":47585193},{"code":"3550","name":"聯穎","close":37.25,"change":3.3500000000000014,"percent":9.88,"tradeVolume":3057000,"value":113873250,"foreign":977000,"trust":0,"dealer":0,"total":984261,"foreignStreak":2,"trustStreak":0,"jointStreak":0,"fiveDayPctSum":18.53,"fiveDayAvgVolume":11815077},{"code":"2548","name":"華固","close":103.5,"change":-4.5,"percent":-4.17,"tradeVolume":4016000,"value":415656000,"foreign":1426722,"trust":-197000,"dealer":0,"total":964008,"foreignStreak":1,"trustStreak":0,"jointStreak":0,"fiveDayPctSum":2.49,"fiveDayAvgVolume":3579720},{"code":"1909","name":"榮成","close":10.2,"change":0.14999999999999858,"percent":1.49,"tradeVolume":5162000,"value":52652400,"foreign":1107160,"trust":0,"dealer":0,"total":956160,"foreignStreak":7,"trustStreak":0,"jointStreak":0,"fiveDayPctSum":2.54,"fiveDayAvgVolume":5196961},{"code":"8926","name":"台汽電","close":79,"change":-0.4000000000000057,"percent":-0.5,"tradeVolume":12584000,"value":994136000,"foreign":156734,"trust":779000,"dealer":0,"total":930373,"foreignStreak":2,"trustStreak":6,"jointStreak":2,"fiveDayPctSum":5.98,"fiveDayAvgVolume":13340958},{"code":"3714","name":"富采","close":67.2,"change":1.2999999999999972,"percent":1.97,"tradeVolume":13238000,"value":889593600,"foreign":696903,"trust":0,"dealer":0,"total":929372,"foreignStreak":1,"trustStreak":0,"jointStreak":0,"fiveDayPctSum":5.12,"fiveDayAvgVolume":11128125},{"code":"6190","name":"萬泰科","close":82.9,"change":4.6000000000000085,"percent":5.87,"tradeVolume":5408000,"value":448323200,"foreign":859100,"trust":0,"dealer":65043,"total":924143,"foreignStreak":2,"trustStreak":0,"jointStreak":0,"fiveDayPctSum":29.37,"fiveDayAvgVolume":5532266},{"code":"3044","name":"健鼎","close":573,"change":2,"percent":0.35,"tradeVolume":6669000,"value":3821337000,"foreign":974844,"trust":-68023,"dealer":0,"total":911341,"foreignStreak":4,"trustStreak":0,"jointStreak":0,"fiveDayPctSum":17.94,"fiveDayAvgVolume":4489821},{"code":"2903","name":"遠百","close":23.95,"change":-0.1999999999999993,"percent":-0.83,"tradeVolume":3538000,"value":84735100,"foreign":472230,"trust":249000,"dealer":0,"total":909230,"foreignStreak":1,"trustStreak":4,"jointStreak":1,"fiveDayPctSum":3.84,"fiveDayAvgVolume":3609813},{"code":"2241","name":"艾姆勒","close":50.6,"change":4.550000000000004,"percent":9.88,"tradeVolume":8297000,"value":419828200,"foreign":897000,"trust":0,"dealer":0,"total":899619,"foreignStreak":3,"trustStreak":0,"jointStreak":0,"fiveDayPctSum":10.91,"fiveDayAvgVolume":5009076},{"code":"8069","name":"元太","close":204,"change":5.5,"percent":2.77,"tradeVolume":10882000,"value":2219928000,"foreign":828563,"trust":-3000,"dealer":53256,"total":878819,"foreignStreak":3,"trustStreak":0,"jointStreak":0,"fiveDayPctSum":13.85,"fiveDayAvgVolume":11030080},{"code":"2354","name":"鴻準","close":57.9,"change":0.3999999999999986,"percent":0.7,"tradeVolume":7843000,"value":454109700,"foreign":854282,"trust":-1000,"dealer":0,"total":868676,"foreignStreak":1,"trustStreak":0,"jointStreak":0,"fiveDayPctSum":2.14,"fiveDayAvgVolume":5598529},{"code":"1717","name":"長興","close":72.4,"change":1.3000000000000114,"percent":1.83,"tradeVolume":10723000,"value":776345200,"foreign":933909,"trust":0,"dealer":0,"total":830548,"foreignStreak":1,"trustStreak":0,"jointStreak":0,"fiveDayPctSum":4.86,"fiveDayAvgVolume":8217855},{"code":"8039","name":"台虹","close":145.5,"change":-0.5,"percent":-0.34,"tradeVolume":5206000,"value":757473000,"foreign":905157,"trust":0,"dealer":0,"total":812040,"foreignStreak":1,"trustStreak":0,"jointStreak":0,"fiveDayPctSum":13.13,"fiveDayAvgVolume":10534916},{"code":"6197","name":"佳必琪","close":347.5,"change":14.5,"percent":4.35,"tradeVolume":4246000,"value":1475485000,"foreign":757008,"trust":0,"dealer":0,"total":776211,"foreignStreak":1,"trustStreak":0,"jointStreak":0,"fiveDayPctSum":2.5,"fiveDayAvgVolume":4345937}]}
