{"ok":true,"updatedAt":"2026-06-18T07:11:16.011Z","usedDate":"20260618","quoteUpdatedAt":"2026-06-18T07:11:15.479Z","source":"institution-page","page":7,"pageSize":25,"totalPages":14,"totalCount":326,"count":25,"rows":[{"code":"3221","name":"台嘉碩","close":60.5,"change":1.2000000000000028,"percent":2.02,"tradeVolume":6167000,"value":373103500,"foreign":160276,"trust":0,"dealer":29948,"total":190224,"foreignStreak":1,"trustStreak":0,"jointStreak":0,"fiveDayPctSum":10.12,"fiveDayAvgVolume":6226589},{"code":"2305","name":"全友","close":33.65,"change":3.049999999999997,"percent":9.97,"tradeVolume":9068000,"value":305138200,"foreign":188424,"trust":0,"dealer":0,"total":183632,"foreignStreak":1,"trustStreak":0,"jointStreak":0,"fiveDayPctSum":31.48,"fiveDayAvgVolume":9007099},{"code":"4906","name":"正文","close":43.8,"change":0.14999999999999858,"percent":0.34,"tradeVolume":7276000,"value":318688800,"foreign":118328,"trust":0,"dealer":0,"total":173488,"foreignStreak":2,"trustStreak":0,"jointStreak":0,"fiveDayPctSum":5.15,"fiveDayAvgVolume":10467075},{"code":"2329","name":"華泰","close":55.6,"change":1.3000000000000043,"percent":2.39,"tradeVolume":18263000,"value":1015422800,"foreign":311586,"trust":0,"dealer":0,"total":172307,"foreignStreak":1,"trustStreak":0,"jointStreak":0,"fiveDayPctSum":3.9,"fiveDayAvgVolume":7058183},{"code":"4741","name":"泓瀚","close":64.6,"change":-7.1000000000000085,"percent":-9.9,"tradeVolume":4093000,"value":264407800,"foreign":136000,"trust":0,"dealer":30935,"total":166935,"foreignStreak":1,"trustStreak":0,"jointStreak":0,"fiveDayPctSum":-49.51,"fiveDayAvgVolume":4122492},{"code":"1710","name":"東聯","close":13.65,"change":0,"percent":0,"tradeVolume":5315000,"value":72549750,"foreign":131405,"trust":0,"dealer":0,"total":160111,"foreignStreak":1,"trustStreak":0,"jointStreak":0,"fiveDayPctSum":-4.08,"fiveDayAvgVolume":5359452},{"code":"4939","name":"亞電","close":64.9,"change":0.10000000000000853,"percent":0.15,"tradeVolume":5061000,"value":328458900,"foreign":180552,"trust":0,"dealer":-31876,"total":148676,"foreignStreak":1,"trustStreak":0,"jointStreak":0,"fiveDayPctSum":0.77,"fiveDayAvgVolume":5129774},{"code":"1608","name":"華榮","close":34.65,"change":-0.10000000000000142,"percent":-0.29,"tradeVolume":3219000,"value":111538350,"foreign":122130,"trust":-11595,"dealer":0,"total":139548,"foreignStreak":1,"trustStreak":0,"jointStreak":0,"fiveDayPctSum":3.3,"fiveDayAvgVolume":3570738},{"code":"2605","name":"新興","close":31,"change":-1.4500000000000028,"percent":-4.47,"tradeVolume":13509000,"value":418779000,"foreign":402381,"trust":0,"dealer":0,"total":133902,"foreignStreak":1,"trustStreak":0,"jointStreak":0,"fiveDayPctSum":6.97,"fiveDayAvgVolume":6629191},{"code":"4967","name":"十銓","close":278.5,"change":3.5,"percent":1.27,"tradeVolume":3829000,"value":1066376500,"foreign":122418,"trust":0,"dealer":0,"total":121176,"foreignStreak":1,"trustStreak":0,"jointStreak":0,"fiveDayPctSum":2.29,"fiveDayAvgVolume":6663628},{"code":"2328","name":"廣宇","close":53.4,"change":0.7999999999999972,"percent":1.52,"tradeVolume":5402000,"value":288466800,"foreign":-1124000,"trust":0,"dealer":0,"total":113698,"foreignStreak":0,"trustStreak":0,"jointStreak":0,"fiveDayPctSum":2.58,"fiveDayAvgVolume":4589431},{"code":"6265","name":"方土昶","close":57.6,"change":0.3999999999999986,"percent":0.7,"tradeVolume":6448000,"value":371404800,"foreign":-2531,"trust":0,"dealer":105466,"total":102935,"foreignStreak":0,"trustStreak":0,"jointStreak":0,"fiveDayPctSum":3.5,"fiveDayAvgVolume":6498982},{"code":"2404","name":"漢唐","close":1265,"change":-15,"percent":-1.17,"tradeVolume":3009000,"value":3806385000,"foreign":-1399089,"trust":1462000,"dealer":0,"total":98105,"foreignStreak":0,"trustStreak":1,"jointStreak":0,"fiveDayPctSum":11.91,"fiveDayAvgVolume":5588258},{"code":"2633","name":"台灣高鐵","close":26.15,"change":0,"percent":0,"tradeVolume":17981000,"value":470203150,"foreign":-7342490,"trust":7420000,"dealer":0,"total":91510,"foreignStreak":0,"trustStreak":5,"jointStreak":0,"fiveDayPctSum":1.39,"fiveDayAvgVolume":10424299},{"code":"6531","name":"愛普*","close":1025,"change":92,"percent":9.86,"tradeVolume":5347000,"value":5480675000,"foreign":247419,"trust":-160000,"dealer":0,"total":89703,"foreignStreak":1,"trustStreak":0,"jointStreak":0,"fiveDayPctSum":4.39,"fiveDayAvgVolume":3845776},{"code":"8071","name":"能率網通","close":29.4,"change":-0.8000000000000007,"percent":-2.65,"tradeVolume":4735000,"value":139209000,"foreign":86636,"trust":0,"dealer":-370,"total":86266,"foreignStreak":1,"trustStreak":0,"jointStreak":0,"fiveDayPctSum":-13.25,"fiveDayAvgVolume":4774340},{"code":"6517","name":"保勝光學","close":78.1,"change":-0.5,"percent":-0.64,"tradeVolume":3404000,"value":265852400,"foreign":82526,"trust":0,"dealer":120,"total":82646,"foreignStreak":1,"trustStreak":0,"jointStreak":0,"fiveDayPctSum":-3.18,"fiveDayAvgVolume":3447922},{"code":"8110","name":"華東","close":59.2,"change":0.8000000000000043,"percent":1.37,"tradeVolume":15007000,"value":888414400,"foreign":-34000,"trust":0,"dealer":0,"total":78437,"foreignStreak":0,"trustStreak":0,"jointStreak":0,"fiveDayPctSum":12.21,"fiveDayAvgVolume":14834452},{"code":"2426","name":"鼎元","close":81.8,"change":7.3999999999999915,"percent":9.95,"tradeVolume":38733000,"value":3168359400,"foreign":33582,"trust":0,"dealer":0,"total":61429,"foreignStreak":1,"trustStreak":0,"jointStreak":0,"fiveDayPctSum":20.64,"fiveDayAvgVolume":20195280},{"code":"9904","name":"寶成","close":26.15,"change":-0.3000000000000007,"percent":-1.13,"tradeVolume":41019000,"value":1072646850,"foreign":-671126,"trust":-2883608,"dealer":0,"total":49035,"foreignStreak":0,"trustStreak":0,"jointStreak":0,"fiveDayPctSum":-0.16,"fiveDayAvgVolume":19361620},{"code":"3532","name":"台勝科","close":390,"change":-5.5,"percent":-1.39,"tradeVolume":6767000,"value":2639130000,"foreign":-245094,"trust":807000,"dealer":0,"total":45188,"foreignStreak":0,"trustStreak":2,"jointStreak":0,"fiveDayPctSum":40.03,"fiveDayAvgVolume":6881747},{"code":"2368","name":"金像電","close":1355,"change":-15,"percent":-1.09,"tradeVolume":3377000,"value":4575835000,"foreign":76666,"trust":-71163,"dealer":0,"total":13642,"foreignStreak":2,"trustStreak":0,"jointStreak":0,"fiveDayPctSum":-3.39,"fiveDayAvgVolume":5360971},{"code":"3041","name":"揚智","close":28.15,"change":-0.8500000000000014,"percent":-2.93,"tradeVolume":13450000,"value":378617500,"foreign":-18099,"trust":0,"dealer":0,"total":1951,"foreignStreak":0,"trustStreak":0,"jointStreak":0,"fiveDayPctSum":20.95,"fiveDayAvgVolume":4035882},{"code":"3484","name":"崧騰","close":55.1,"change":3.3000000000000043,"percent":6.37,"tradeVolume":5362000,"value":295446200,"foreign":-5084,"trust":0,"dealer":396,"total":-4688,"foreignStreak":0,"trustStreak":0,"jointStreak":0,"fiveDayPctSum":31.85,"fiveDayAvgVolume":5412114},{"code":"6208","name":"日揚","close":99,"change":7.200000000000003,"percent":7.84,"tradeVolume":5833000,"value":577467000,"foreign":-14091,"trust":0,"dealer":466,"total":-13625,"foreignStreak":0,"trustStreak":0,"jointStreak":0,"fiveDayPctSum":39.22,"fiveDayAvgVolume":5947751}],"matches":[{"code":"3221","name":"台嘉碩","close":60.5,"change":1.2000000000000028,"percent":2.02,"tradeVolume":6167000,"value":373103500,"foreign":160276,"trust":0,"dealer":29948,"total":190224,"foreignStreak":1,"trustStreak":0,"jointStreak":0,"fiveDayPctSum":10.12,"fiveDayAvgVolume":6226589},{"code":"2305","name":"全友","close":33.65,"change":3.049999999999997,"percent":9.97,"tradeVolume":9068000,"value":305138200,"foreign":188424,"trust":0,"dealer":0,"total":183632,"foreignStreak":1,"trustStreak":0,"jointStreak":0,"fiveDayPctSum":31.48,"fiveDayAvgVolume":9007099},{"code":"4906","name":"正文","close":43.8,"change":0.14999999999999858,"percent":0.34,"tradeVolume":7276000,"value":318688800,"foreign":118328,"trust":0,"dealer":0,"total":173488,"foreignStreak":2,"trustStreak":0,"jointStreak":0,"fiveDayPctSum":5.15,"fiveDayAvgVolume":10467075},{"code":"2329","name":"華泰","close":55.6,"change":1.3000000000000043,"percent":2.39,"tradeVolume":18263000,"value":1015422800,"foreign":311586,"trust":0,"dealer":0,"total":172307,"foreignStreak":1,"trustStreak":0,"jointStreak":0,"fiveDayPctSum":3.9,"fiveDayAvgVolume":7058183},{"code":"4741","name":"泓瀚","close":64.6,"change":-7.1000000000000085,"percent":-9.9,"tradeVolume":4093000,"value":264407800,"foreign":136000,"trust":0,"dealer":30935,"total":166935,"foreignStreak":1,"trustStreak":0,"jointStreak":0,"fiveDayPctSum":-49.51,"fiveDayAvgVolume":4122492},{"code":"1710","name":"東聯","close":13.65,"change":0,"percent":0,"tradeVolume":5315000,"value":72549750,"foreign":131405,"trust":0,"dealer":0,"total":160111,"foreignStreak":1,"trustStreak":0,"jointStreak":0,"fiveDayPctSum":-4.08,"fiveDayAvgVolume":5359452},{"code":"4939","name":"亞電","close":64.9,"change":0.10000000000000853,"percent":0.15,"tradeVolume":5061000,"value":328458900,"foreign":180552,"trust":0,"dealer":-31876,"total":148676,"foreignStreak":1,"trustStreak":0,"jointStreak":0,"fiveDayPctSum":0.77,"fiveDayAvgVolume":5129774},{"code":"1608","name":"華榮","close":34.65,"change":-0.10000000000000142,"percent":-0.29,"tradeVolume":3219000,"value":111538350,"foreign":122130,"trust":-11595,"dealer":0,"total":139548,"foreignStreak":1,"trustStreak":0,"jointStreak":0,"fiveDayPctSum":3.3,"fiveDayAvgVolume":3570738},{"code":"2605","name":"新興","close":31,"change":-1.4500000000000028,"percent":-4.47,"tradeVolume":13509000,"value":418779000,"foreign":402381,"trust":0,"dealer":0,"total":133902,"foreignStreak":1,"trustStreak":0,"jointStreak":0,"fiveDayPctSum":6.97,"fiveDayAvgVolume":6629191},{"code":"4967","name":"十銓","close":278.5,"change":3.5,"percent":1.27,"tradeVolume":3829000,"value":1066376500,"foreign":122418,"trust":0,"dealer":0,"total":121176,"foreignStreak":1,"trustStreak":0,"jointStreak":0,"fiveDayPctSum":2.29,"fiveDayAvgVolume":6663628},{"code":"2328","name":"廣宇","close":53.4,"change":0.7999999999999972,"percent":1.52,"tradeVolume":5402000,"value":288466800,"foreign":-1124000,"trust":0,"dealer":0,"total":113698,"foreignStreak":0,"trustStreak":0,"jointStreak":0,"fiveDayPctSum":2.58,"fiveDayAvgVolume":4589431},{"code":"6265","name":"方土昶","close":57.6,"change":0.3999999999999986,"percent":0.7,"tradeVolume":6448000,"value":371404800,"foreign":-2531,"trust":0,"dealer":105466,"total":102935,"foreignStreak":0,"trustStreak":0,"jointStreak":0,"fiveDayPctSum":3.5,"fiveDayAvgVolume":6498982},{"code":"2404","name":"漢唐","close":1265,"change":-15,"percent":-1.17,"tradeVolume":3009000,"value":3806385000,"foreign":-1399089,"trust":1462000,"dealer":0,"total":98105,"foreignStreak":0,"trustStreak":1,"jointStreak":0,"fiveDayPctSum":11.91,"fiveDayAvgVolume":5588258},{"code":"2633","name":"台灣高鐵","close":26.15,"change":0,"percent":0,"tradeVolume":17981000,"value":470203150,"foreign":-7342490,"trust":7420000,"dealer":0,"total":91510,"foreignStreak":0,"trustStreak":5,"jointStreak":0,"fiveDayPctSum":1.39,"fiveDayAvgVolume":10424299},{"code":"6531","name":"愛普*","close":1025,"change":92,"percent":9.86,"tradeVolume":5347000,"value":5480675000,"foreign":247419,"trust":-160000,"dealer":0,"total":89703,"foreignStreak":1,"trustStreak":0,"jointStreak":0,"fiveDayPctSum":4.39,"fiveDayAvgVolume":3845776},{"code":"8071","name":"能率網通","close":29.4,"change":-0.8000000000000007,"percent":-2.65,"tradeVolume":4735000,"value":139209000,"foreign":86636,"trust":0,"dealer":-370,"total":86266,"foreignStreak":1,"trustStreak":0,"jointStreak":0,"fiveDayPctSum":-13.25,"fiveDayAvgVolume":4774340},{"code":"6517","name":"保勝光學","close":78.1,"change":-0.5,"percent":-0.64,"tradeVolume":3404000,"value":265852400,"foreign":82526,"trust":0,"dealer":120,"total":82646,"foreignStreak":1,"trustStreak":0,"jointStreak":0,"fiveDayPctSum":-3.18,"fiveDayAvgVolume":3447922},{"code":"8110","name":"華東","close":59.2,"change":0.8000000000000043,"percent":1.37,"tradeVolume":15007000,"value":888414400,"foreign":-34000,"trust":0,"dealer":0,"total":78437,"foreignStreak":0,"trustStreak":0,"jointStreak":0,"fiveDayPctSum":12.21,"fiveDayAvgVolume":14834452},{"code":"2426","name":"鼎元","close":81.8,"change":7.3999999999999915,"percent":9.95,"tradeVolume":38733000,"value":3168359400,"foreign":33582,"trust":0,"dealer":0,"total":61429,"foreignStreak":1,"trustStreak":0,"jointStreak":0,"fiveDayPctSum":20.64,"fiveDayAvgVolume":20195280},{"code":"9904","name":"寶成","close":26.15,"change":-0.3000000000000007,"percent":-1.13,"tradeVolume":41019000,"value":1072646850,"foreign":-671126,"trust":-2883608,"dealer":0,"total":49035,"foreignStreak":0,"trustStreak":0,"jointStreak":0,"fiveDayPctSum":-0.16,"fiveDayAvgVolume":19361620},{"code":"3532","name":"台勝科","close":390,"change":-5.5,"percent":-1.39,"tradeVolume":6767000,"value":2639130000,"foreign":-245094,"trust":807000,"dealer":0,"total":45188,"foreignStreak":0,"trustStreak":2,"jointStreak":0,"fiveDayPctSum":40.03,"fiveDayAvgVolume":6881747},{"code":"2368","name":"金像電","close":1355,"change":-15,"percent":-1.09,"tradeVolume":3377000,"value":4575835000,"foreign":76666,"trust":-71163,"dealer":0,"total":13642,"foreignStreak":2,"trustStreak":0,"jointStreak":0,"fiveDayPctSum":-3.39,"fiveDayAvgVolume":5360971},{"code":"3041","name":"揚智","close":28.15,"change":-0.8500000000000014,"percent":-2.93,"tradeVolume":13450000,"value":378617500,"foreign":-18099,"trust":0,"dealer":0,"total":1951,"foreignStreak":0,"trustStreak":0,"jointStreak":0,"fiveDayPctSum":20.95,"fiveDayAvgVolume":4035882},{"code":"3484","name":"崧騰","close":55.1,"change":3.3000000000000043,"percent":6.37,"tradeVolume":5362000,"value":295446200,"foreign":-5084,"trust":0,"dealer":396,"total":-4688,"foreignStreak":0,"trustStreak":0,"jointStreak":0,"fiveDayPctSum":31.85,"fiveDayAvgVolume":5412114},{"code":"6208","name":"日揚","close":99,"change":7.200000000000003,"percent":7.84,"tradeVolume":5833000,"value":577467000,"foreign":-14091,"trust":0,"dealer":466,"total":-13625,"foreignStreak":0,"trustStreak":0,"jointStreak":0,"fiveDayPctSum":39.22,"fiveDayAvgVolume":5947751}]}
