{"ok":true,"updatedAt":"2026-06-18T07:11:16.011Z","usedDate":"20260618","quoteUpdatedAt":"2026-06-18T07:11:15.479Z","source":"institution-page","page":3,"pageSize":25,"totalPages":14,"totalCount":326,"count":25,"rows":[{"code":"2603","name":"長榮","close":193,"change":-1,"percent":-0.52,"tradeVolume":15456000,"value":2983008000,"foreign":5421189,"trust":-486833,"dealer":0,"total":1775699,"foreignStreak":1,"trustStreak":0,"jointStreak":0,"fiveDayPctSum":-1.09,"fiveDayAvgVolume":31022615},{"code":"6182","name":"合晶","close":120,"change":6,"percent":5.26,"tradeVolume":113776000,"value":13653120000,"foreign":-3203593,"trust":2688000,"dealer":2266404,"total":1750811,"foreignStreak":0,"trustStreak":3,"jointStreak":0,"fiveDayPctSum":26.32,"fiveDayAvgVolume":115178054},{"code":"6005","name":"群益證","close":39.65,"change":0.19999999999999574,"percent":0.51,"tradeVolume":20047000,"value":794863550,"foreign":5846968,"trust":-4120059,"dealer":0,"total":1726909,"foreignStreak":3,"trustStreak":0,"jointStreak":0,"fiveDayPctSum":3.15,"fiveDayAvgVolume":17613047},{"code":"8358","name":"金居","close":700,"change":60,"percent":9.38,"tradeVolume":5038000,"value":3526600000,"foreign":1242333,"trust":-3000,"dealer":478527,"total":1717860,"foreignStreak":8,"trustStreak":0,"jointStreak":0,"fiveDayPctSum":46.88,"fiveDayAvgVolume":5480588},{"code":"8086","name":"宏捷科","close":166,"change":3.5,"percent":2.15,"tradeVolume":7651000,"value":1270066000,"foreign":1656038,"trust":-500,"dealer":51570,"total":1707108,"foreignStreak":6,"trustStreak":0,"jointStreak":0,"fiveDayPctSum":10.77,"fiveDayAvgVolume":7786920},{"code":"2105","name":"正新","close":29.65,"change":-0.05000000000000071,"percent":-0.17,"tradeVolume":38218000,"value":1133163700,"foreign":663070,"trust":-646998,"dealer":0,"total":1701653,"foreignStreak":1,"trustStreak":0,"jointStreak":0,"fiveDayPctSum":-1.71,"fiveDayAvgVolume":34789662},{"code":"4938","name":"和碩","close":82.9,"change":-0.09999999999999432,"percent":-0.12,"tradeVolume":26301000,"value":2180352900,"foreign":2546955,"trust":-1428013,"dealer":0,"total":1629825,"foreignStreak":1,"trustStreak":0,"jointStreak":0,"fiveDayPctSum":-2.38,"fiveDayAvgVolume":33369779},{"code":"6456","name":"GIS-KY","close":76.4,"change":-0.8999999999999915,"percent":-1.16,"tradeVolume":6486000,"value":495530400,"foreign":1433200,"trust":0,"dealer":0,"total":1588882,"foreignStreak":1,"trustStreak":0,"jointStreak":0,"fiveDayPctSum":8.63,"fiveDayAvgVolume":5552214},{"code":"9933","name":"中鼎","close":42.65,"change":-0.3999999999999986,"percent":-0.93,"tradeVolume":4155000,"value":177210750,"foreign":1714437,"trust":18000,"dealer":0,"total":1569525,"foreignStreak":3,"trustStreak":1,"jointStreak":1,"fiveDayPctSum":6.24,"fiveDayAvgVolume":5765283},{"code":"2542","name":"興富發","close":44.75,"change":-0.7000000000000028,"percent":-1.54,"tradeVolume":19625000,"value":878218750,"foreign":1659355,"trust":0,"dealer":0,"total":1567926,"foreignStreak":1,"trustStreak":0,"jointStreak":0,"fiveDayPctSum":0.02,"fiveDayAvgVolume":20977237},{"code":"1785","name":"光洋科","close":149,"change":5.5,"percent":3.83,"tradeVolume":15008000,"value":2236192000,"foreign":1028343,"trust":-2500,"dealer":530395,"total":1556238,"foreignStreak":4,"trustStreak":0,"jointStreak":0,"fiveDayPctSum":19.16,"fiveDayAvgVolume":15295511},{"code":"2405","name":"輔信","close":18.9,"change":-0.5,"percent":-2.58,"tradeVolume":4304000,"value":81345600,"foreign":1504193,"trust":0,"dealer":0,"total":1510193,"foreignStreak":1,"trustStreak":0,"jointStreak":0,"fiveDayPctSum":4.44,"fiveDayAvgVolume":4469335},{"code":"6104","name":"創惟","close":103.5,"change":3,"percent":2.99,"tradeVolume":3469000,"value":359041500,"foreign":1429882,"trust":0,"dealer":80067,"total":1509949,"foreignStreak":2,"trustStreak":0,"jointStreak":0,"fiveDayPctSum":14.93,"fiveDayAvgVolume":3516033},{"code":"3090","name":"日電貿","close":332.5,"change":30,"percent":9.92,"tradeVolume":23253000,"value":7731622500,"foreign":-454125,"trust":1938000,"dealer":0,"total":1454815,"foreignStreak":0,"trustStreak":6,"jointStreak":0,"fiveDayPctSum":37.43,"fiveDayAvgVolume":28219338},{"code":"6176","name":"瑞儀","close":87.9,"change":-0.29999999999999716,"percent":-0.34,"tradeVolume":11749000,"value":1032737100,"foreign":1630125,"trust":-73088,"dealer":0,"total":1444008,"foreignStreak":1,"trustStreak":0,"jointStreak":0,"fiveDayPctSum":-0.91,"fiveDayAvgVolume":8132469},{"code":"2349","name":"錸德","close":13.85,"change":0.1999999999999993,"percent":1.47,"tradeVolume":4907000,"value":67961950,"foreign":1422179,"trust":0,"dealer":0,"total":1413179,"foreignStreak":1,"trustStreak":0,"jointStreak":0,"fiveDayPctSum":4.7,"fiveDayAvgVolume":4415976},{"code":"9945","name":"潤泰新","close":27.5,"change":0.3999999999999986,"percent":1.48,"tradeVolume":17252000,"value":474430000,"foreign":692727,"trust":671000,"dealer":0,"total":1407081,"foreignStreak":1,"trustStreak":1,"jointStreak":1,"fiveDayPctSum":3.63,"fiveDayAvgVolume":14011712},{"code":"3374","name":"精材","close":251,"change":6.5,"percent":2.66,"tradeVolume":6335000,"value":1590085000,"foreign":984119,"trust":-900,"dealer":353039,"total":1336258,"foreignStreak":7,"trustStreak":0,"jointStreak":0,"fiveDayPctSum":13.29,"fiveDayAvgVolume":6586431},{"code":"2331","name":"精英","close":22.4,"change":0.14999999999999858,"percent":0.67,"tradeVolume":4151000,"value":92982400,"foreign":1005731,"trust":-29000,"dealer":0,"total":1312219,"foreignStreak":1,"trustStreak":0,"jointStreak":0,"fiveDayPctSum":5.37,"fiveDayAvgVolume":3199822},{"code":"3704","name":"合勤控","close":48.25,"change":-1.1000000000000014,"percent":-2.23,"tradeVolume":4951000,"value":238885750,"foreign":1313725,"trust":0,"dealer":0,"total":1305587,"foreignStreak":1,"trustStreak":0,"jointStreak":0,"fiveDayPctSum":9.44,"fiveDayAvgVolume":5438943},{"code":"3034","name":"聯詠","close":516,"change":1,"percent":0.19,"tradeVolume":9749000,"value":5030484000,"foreign":1095755,"trust":-400368,"dealer":0,"total":1277017,"foreignStreak":6,"trustStreak":0,"jointStreak":0,"fiveDayPctSum":7.43,"fiveDayAvgVolume":4358985},{"code":"3060","name":"銘異","close":37.9,"change":0.6499999999999986,"percent":1.74,"tradeVolume":22201000,"value":841417900,"foreign":1194994,"trust":0,"dealer":0,"total":1264207,"foreignStreak":4,"trustStreak":0,"jointStreak":0,"fiveDayPctSum":25.52,"fiveDayAvgVolume":7461220},{"code":"8936","name":"國統","close":58.1,"change":3,"percent":5.44,"tradeVolume":8783000,"value":510292300,"foreign":1215106,"trust":-9433,"dealer":-86,"total":1205587,"foreignStreak":1,"trustStreak":0,"jointStreak":0,"fiveDayPctSum":27.22,"fiveDayAvgVolume":8888183},{"code":"6179","name":"亞通","close":26.8,"change":1.1500000000000021,"percent":4.48,"tradeVolume":3732000,"value":100017600,"foreign":1003001,"trust":0,"dealer":183495,"total":1186496,"foreignStreak":5,"trustStreak":0,"jointStreak":0,"fiveDayPctSum":22.42,"fiveDayAvgVolume":3764000},{"code":"3048","name":"益登","close":73.5,"change":0.9000000000000057,"percent":1.24,"tradeVolume":10913000,"value":802105500,"foreign":1457852,"trust":0,"dealer":0,"total":1166071,"foreignStreak":1,"trustStreak":0,"jointStreak":0,"fiveDayPctSum":-0.82,"fiveDayAvgVolume":21297765}],"matches":[{"code":"2603","name":"長榮","close":193,"change":-1,"percent":-0.52,"tradeVolume":15456000,"value":2983008000,"foreign":5421189,"trust":-486833,"dealer":0,"total":1775699,"foreignStreak":1,"trustStreak":0,"jointStreak":0,"fiveDayPctSum":-1.09,"fiveDayAvgVolume":31022615},{"code":"6182","name":"合晶","close":120,"change":6,"percent":5.26,"tradeVolume":113776000,"value":13653120000,"foreign":-3203593,"trust":2688000,"dealer":2266404,"total":1750811,"foreignStreak":0,"trustStreak":3,"jointStreak":0,"fiveDayPctSum":26.32,"fiveDayAvgVolume":115178054},{"code":"6005","name":"群益證","close":39.65,"change":0.19999999999999574,"percent":0.51,"tradeVolume":20047000,"value":794863550,"foreign":5846968,"trust":-4120059,"dealer":0,"total":1726909,"foreignStreak":3,"trustStreak":0,"jointStreak":0,"fiveDayPctSum":3.15,"fiveDayAvgVolume":17613047},{"code":"8358","name":"金居","close":700,"change":60,"percent":9.38,"tradeVolume":5038000,"value":3526600000,"foreign":1242333,"trust":-3000,"dealer":478527,"total":1717860,"foreignStreak":8,"trustStreak":0,"jointStreak":0,"fiveDayPctSum":46.88,"fiveDayAvgVolume":5480588},{"code":"8086","name":"宏捷科","close":166,"change":3.5,"percent":2.15,"tradeVolume":7651000,"value":1270066000,"foreign":1656038,"trust":-500,"dealer":51570,"total":1707108,"foreignStreak":6,"trustStreak":0,"jointStreak":0,"fiveDayPctSum":10.77,"fiveDayAvgVolume":7786920},{"code":"2105","name":"正新","close":29.65,"change":-0.05000000000000071,"percent":-0.17,"tradeVolume":38218000,"value":1133163700,"foreign":663070,"trust":-646998,"dealer":0,"total":1701653,"foreignStreak":1,"trustStreak":0,"jointStreak":0,"fiveDayPctSum":-1.71,"fiveDayAvgVolume":34789662},{"code":"4938","name":"和碩","close":82.9,"change":-0.09999999999999432,"percent":-0.12,"tradeVolume":26301000,"value":2180352900,"foreign":2546955,"trust":-1428013,"dealer":0,"total":1629825,"foreignStreak":1,"trustStreak":0,"jointStreak":0,"fiveDayPctSum":-2.38,"fiveDayAvgVolume":33369779},{"code":"6456","name":"GIS-KY","close":76.4,"change":-0.8999999999999915,"percent":-1.16,"tradeVolume":6486000,"value":495530400,"foreign":1433200,"trust":0,"dealer":0,"total":1588882,"foreignStreak":1,"trustStreak":0,"jointStreak":0,"fiveDayPctSum":8.63,"fiveDayAvgVolume":5552214},{"code":"9933","name":"中鼎","close":42.65,"change":-0.3999999999999986,"percent":-0.93,"tradeVolume":4155000,"value":177210750,"foreign":1714437,"trust":18000,"dealer":0,"total":1569525,"foreignStreak":3,"trustStreak":1,"jointStreak":1,"fiveDayPctSum":6.24,"fiveDayAvgVolume":5765283},{"code":"2542","name":"興富發","close":44.75,"change":-0.7000000000000028,"percent":-1.54,"tradeVolume":19625000,"value":878218750,"foreign":1659355,"trust":0,"dealer":0,"total":1567926,"foreignStreak":1,"trustStreak":0,"jointStreak":0,"fiveDayPctSum":0.02,"fiveDayAvgVolume":20977237},{"code":"1785","name":"光洋科","close":149,"change":5.5,"percent":3.83,"tradeVolume":15008000,"value":2236192000,"foreign":1028343,"trust":-2500,"dealer":530395,"total":1556238,"foreignStreak":4,"trustStreak":0,"jointStreak":0,"fiveDayPctSum":19.16,"fiveDayAvgVolume":15295511},{"code":"2405","name":"輔信","close":18.9,"change":-0.5,"percent":-2.58,"tradeVolume":4304000,"value":81345600,"foreign":1504193,"trust":0,"dealer":0,"total":1510193,"foreignStreak":1,"trustStreak":0,"jointStreak":0,"fiveDayPctSum":4.44,"fiveDayAvgVolume":4469335},{"code":"6104","name":"創惟","close":103.5,"change":3,"percent":2.99,"tradeVolume":3469000,"value":359041500,"foreign":1429882,"trust":0,"dealer":80067,"total":1509949,"foreignStreak":2,"trustStreak":0,"jointStreak":0,"fiveDayPctSum":14.93,"fiveDayAvgVolume":3516033},{"code":"3090","name":"日電貿","close":332.5,"change":30,"percent":9.92,"tradeVolume":23253000,"value":7731622500,"foreign":-454125,"trust":1938000,"dealer":0,"total":1454815,"foreignStreak":0,"trustStreak":6,"jointStreak":0,"fiveDayPctSum":37.43,"fiveDayAvgVolume":28219338},{"code":"6176","name":"瑞儀","close":87.9,"change":-0.29999999999999716,"percent":-0.34,"tradeVolume":11749000,"value":1032737100,"foreign":1630125,"trust":-73088,"dealer":0,"total":1444008,"foreignStreak":1,"trustStreak":0,"jointStreak":0,"fiveDayPctSum":-0.91,"fiveDayAvgVolume":8132469},{"code":"2349","name":"錸德","close":13.85,"change":0.1999999999999993,"percent":1.47,"tradeVolume":4907000,"value":67961950,"foreign":1422179,"trust":0,"dealer":0,"total":1413179,"foreignStreak":1,"trustStreak":0,"jointStreak":0,"fiveDayPctSum":4.7,"fiveDayAvgVolume":4415976},{"code":"9945","name":"潤泰新","close":27.5,"change":0.3999999999999986,"percent":1.48,"tradeVolume":17252000,"value":474430000,"foreign":692727,"trust":671000,"dealer":0,"total":1407081,"foreignStreak":1,"trustStreak":1,"jointStreak":1,"fiveDayPctSum":3.63,"fiveDayAvgVolume":14011712},{"code":"3374","name":"精材","close":251,"change":6.5,"percent":2.66,"tradeVolume":6335000,"value":1590085000,"foreign":984119,"trust":-900,"dealer":353039,"total":1336258,"foreignStreak":7,"trustStreak":0,"jointStreak":0,"fiveDayPctSum":13.29,"fiveDayAvgVolume":6586431},{"code":"2331","name":"精英","close":22.4,"change":0.14999999999999858,"percent":0.67,"tradeVolume":4151000,"value":92982400,"foreign":1005731,"trust":-29000,"dealer":0,"total":1312219,"foreignStreak":1,"trustStreak":0,"jointStreak":0,"fiveDayPctSum":5.37,"fiveDayAvgVolume":3199822},{"code":"3704","name":"合勤控","close":48.25,"change":-1.1000000000000014,"percent":-2.23,"tradeVolume":4951000,"value":238885750,"foreign":1313725,"trust":0,"dealer":0,"total":1305587,"foreignStreak":1,"trustStreak":0,"jointStreak":0,"fiveDayPctSum":9.44,"fiveDayAvgVolume":5438943},{"code":"3034","name":"聯詠","close":516,"change":1,"percent":0.19,"tradeVolume":9749000,"value":5030484000,"foreign":1095755,"trust":-400368,"dealer":0,"total":1277017,"foreignStreak":6,"trustStreak":0,"jointStreak":0,"fiveDayPctSum":7.43,"fiveDayAvgVolume":4358985},{"code":"3060","name":"銘異","close":37.9,"change":0.6499999999999986,"percent":1.74,"tradeVolume":22201000,"value":841417900,"foreign":1194994,"trust":0,"dealer":0,"total":1264207,"foreignStreak":4,"trustStreak":0,"jointStreak":0,"fiveDayPctSum":25.52,"fiveDayAvgVolume":7461220},{"code":"8936","name":"國統","close":58.1,"change":3,"percent":5.44,"tradeVolume":8783000,"value":510292300,"foreign":1215106,"trust":-9433,"dealer":-86,"total":1205587,"foreignStreak":1,"trustStreak":0,"jointStreak":0,"fiveDayPctSum":27.22,"fiveDayAvgVolume":8888183},{"code":"6179","name":"亞通","close":26.8,"change":1.1500000000000021,"percent":4.48,"tradeVolume":3732000,"value":100017600,"foreign":1003001,"trust":0,"dealer":183495,"total":1186496,"foreignStreak":5,"trustStreak":0,"jointStreak":0,"fiveDayPctSum":22.42,"fiveDayAvgVolume":3764000},{"code":"3048","name":"益登","close":73.5,"change":0.9000000000000057,"percent":1.24,"tradeVolume":10913000,"value":802105500,"foreign":1457852,"trust":0,"dealer":0,"total":1166071,"foreignStreak":1,"trustStreak":0,"jointStreak":0,"fiveDayPctSum":-0.82,"fiveDayAvgVolume":21297765}]}
