{"ok":true,"updatedAt":"2026-06-18T07:11:16.011Z","usedDate":"20260618","quoteUpdatedAt":"2026-06-18T07:11:15.479Z","source":"institution-page","page":11,"pageSize":25,"totalPages":14,"totalCount":326,"count":25,"rows":[{"code":"2302","name":"麗正","close":47,"change":2,"percent":4.44,"tradeVolume":30293000,"value":1423771000,"foreign":-931530,"trust":0,"dealer":0,"total":-991930,"foreignStreak":0,"trustStreak":0,"jointStreak":0,"fiveDayPctSum":35.76,"fiveDayAvgVolume":7814544},{"code":"1310","name":"台苯","close":9.26,"change":0.5499999999999989,"percent":6.31,"tradeVolume":12899000,"value":119444740,"foreign":-1028355,"trust":0,"dealer":0,"total":-1005513,"foreignStreak":0,"trustStreak":0,"jointStreak":0,"fiveDayPctSum":1.68,"fiveDayAvgVolume":3371937},{"code":"4960","name":"誠美材","close":29.1,"change":-0.25,"percent":-0.85,"tradeVolume":6933000,"value":201750300,"foreign":-980964,"trust":0,"dealer":0,"total":-1042949,"foreignStreak":0,"trustStreak":0,"jointStreak":0,"fiveDayPctSum":0.85,"fiveDayAvgVolume":6182990},{"code":"7777","name":"能率亞洲","close":42.2,"change":-1.75,"percent":-3.98,"tradeVolume":6034000,"value":254634800,"foreign":-981500,"trust":0,"dealer":-65094,"total":-1046594,"foreignStreak":0,"trustStreak":0,"jointStreak":0,"fiveDayPctSum":-19.91,"fiveDayAvgVolume":6102204},{"code":"2014","name":"中鴻","close":17.7,"change":0.05000000000000071,"percent":0.28,"tradeVolume":4655000,"value":82393500,"foreign":-906234,"trust":0,"dealer":0,"total":-1057234,"foreignStreak":0,"trustStreak":0,"jointStreak":0,"fiveDayPctSum":0.93,"fiveDayAvgVolume":6658583},{"code":"8422","name":"可寧衛*","close":28.1,"change":-0.34999999999999787,"percent":-1.23,"tradeVolume":9635000,"value":270743500,"foreign":-874871,"trust":-130000,"dealer":0,"total":-1057356,"foreignStreak":0,"trustStreak":0,"jointStreak":0,"fiveDayPctSum":-6.03,"fiveDayAvgVolume":16049295},{"code":"3406","name":"玉晶光","close":753,"change":31,"percent":4.29,"tradeVolume":4639000,"value":3493167000,"foreign":-823503,"trust":-147000,"dealer":0,"total":-1067335,"foreignStreak":0,"trustStreak":0,"jointStreak":0,"fiveDayPctSum":7.1,"fiveDayAvgVolume":6374326},{"code":"6155","name":"鈞寶","close":98.5,"change":8.900000000000006,"percent":9.93,"tradeVolume":22366000,"value":2203051000,"foreign":-1061763,"trust":0,"dealer":0,"total":-1076030,"foreignStreak":0,"trustStreak":0,"jointStreak":0,"fiveDayPctSum":16.84,"fiveDayAvgVolume":27331252},{"code":"6180","name":"橘子","close":50.3,"change":-0.10000000000000142,"percent":-0.2,"tradeVolume":4550000,"value":228865000,"foreign":-1091015,"trust":0,"dealer":1783,"total":-1089232,"foreignStreak":0,"trustStreak":0,"jointStreak":0,"fiveDayPctSum":-0.99,"fiveDayAvgVolume":4596617},{"code":"8070","name":"長華*","close":55,"change":0.3999999999999986,"percent":0.73,"tradeVolume":5674000,"value":312070000,"foreign":-938720,"trust":-3414,"dealer":0,"total":-1123206,"foreignStreak":0,"trustStreak":0,"jointStreak":0,"fiveDayPctSum":-3.1,"fiveDayAvgVolume":9029253},{"code":"2449","name":"京元電子","close":308.5,"change":28,"percent":9.98,"tradeVolume":50727000,"value":15649279500,"foreign":-1029593,"trust":-2082,"dealer":0,"total":-1136151,"foreignStreak":0,"trustStreak":0,"jointStreak":0,"fiveDayPctSum":3.15,"fiveDayAvgVolume":16994183},{"code":"6525","name":"捷敏-KY","close":143,"change":13,"percent":10,"tradeVolume":4142000,"value":592306000,"foreign":-1150357,"trust":-1843,"dealer":0,"total":-1152200,"foreignStreak":0,"trustStreak":0,"jointStreak":0,"fiveDayPctSum":13.64,"fiveDayAvgVolume":3838712},{"code":"2399","name":"映泰","close":48.05,"change":-3.8500000000000014,"percent":-7.42,"tradeVolume":18467000,"value":887339350,"foreign":-997112,"trust":0,"dealer":0,"total":-1196477,"foreignStreak":0,"trustStreak":0,"jointStreak":0,"fiveDayPctSum":16.81,"fiveDayAvgVolume":15387105},{"code":"1714","name":"和桐","close":20.35,"change":1.1000000000000014,"percent":5.71,"tradeVolume":31562000,"value":642286700,"foreign":-1514800,"trust":0,"dealer":0,"total":-1205800,"foreignStreak":0,"trustStreak":0,"jointStreak":0,"fiveDayPctSum":40.08,"fiveDayAvgVolume":68288016},{"code":"6285","name":"啟碁","close":274,"change":3.5,"percent":1.29,"tradeVolume":15214000,"value":4168636000,"foreign":5047410,"trust":-6514000,"dealer":0,"total":-1230012,"foreignStreak":1,"trustStreak":0,"jointStreak":0,"fiveDayPctSum":0.28,"fiveDayAvgVolume":20679220},{"code":"3163","name":"波若威","close":893,"change":-10,"percent":-1.11,"tradeVolume":4559000,"value":4071187000,"foreign":-647421,"trust":-662400,"dealer":20505,"total":-1289316,"foreignStreak":0,"trustStreak":0,"jointStreak":0,"fiveDayPctSum":-5.54,"fiveDayAvgVolume":4811828},{"code":"3504","name":"揚明光","close":91.2,"change":4.700000000000003,"percent":5.43,"tradeVolume":6011000,"value":548203200,"foreign":-1288832,"trust":0,"dealer":0,"total":-1289966,"foreignStreak":0,"trustStreak":0,"jointStreak":0,"fiveDayPctSum":10.05,"fiveDayAvgVolume":5934861},{"code":"3016","name":"嘉晶","close":126.5,"change":4,"percent":3.27,"tradeVolume":11818000,"value":1494977000,"foreign":-1344660,"trust":0,"dealer":0,"total":-1310697,"foreignStreak":0,"trustStreak":0,"jointStreak":0,"fiveDayPctSum":18.35,"fiveDayAvgVolume":12556340},{"code":"8043","name":"蜜望實","close":226.5,"change":6.5,"percent":2.95,"tradeVolume":34165000,"value":7738372500,"foreign":-1304950,"trust":0,"dealer":-6001,"total":-1310951,"foreignStreak":0,"trustStreak":0,"jointStreak":0,"fiveDayPctSum":14.77,"fiveDayAvgVolume":34613099},{"code":"6412","name":"群電","close":91.6,"change":-0.9000000000000057,"percent":-0.97,"tradeVolume":3806000,"value":348629600,"foreign":-1326395,"trust":10000,"dealer":0,"total":-1315925,"foreignStreak":0,"trustStreak":1,"jointStreak":0,"fiveDayPctSum":6.33,"fiveDayAvgVolume":3822744},{"code":"8105","name":"凌巨","close":21.9,"change":0.5,"percent":2.34,"tradeVolume":16172000,"value":354166800,"foreign":-1322084,"trust":0,"dealer":0,"total":-1330084,"foreignStreak":0,"trustStreak":0,"jointStreak":0,"fiveDayPctSum":3.91,"fiveDayAvgVolume":23899357},{"code":"1513","name":"中興電","close":176.5,"change":4.5,"percent":2.62,"tradeVolume":17503000,"value":3089279500,"foreign":-1760347,"trust":12000,"dealer":0,"total":-1402542,"foreignStreak":0,"trustStreak":2,"jointStreak":0,"fiveDayPctSum":4.52,"fiveDayAvgVolume":6857945},{"code":"1503","name":"士電","close":241.5,"change":5,"percent":2.11,"tradeVolume":8010000,"value":1934415000,"foreign":-1571142,"trust":-2000,"dealer":0,"total":-1421270,"foreignStreak":0,"trustStreak":0,"jointStreak":0,"fiveDayPctSum":8.81,"fiveDayAvgVolume":5070433},{"code":"2454","name":"聯發科","close":4390,"change":-70,"percent":-1.57,"tradeVolume":12095000,"value":53097050000,"foreign":-1051822,"trust":-365849,"dealer":0,"total":-1437132,"foreignStreak":0,"trustStreak":0,"jointStreak":0,"fiveDayPctSum":7.4,"fiveDayAvgVolume":11768829},{"code":"1504","name":"東元","close":70,"change":1.2999999999999972,"percent":1.89,"tradeVolume":19618000,"value":1373260000,"foreign":-2219538,"trust":16000,"dealer":0,"total":-1459202,"foreignStreak":0,"trustStreak":1,"jointStreak":0,"fiveDayPctSum":3.4,"fiveDayAvgVolume":19831073}],"matches":[{"code":"2302","name":"麗正","close":47,"change":2,"percent":4.44,"tradeVolume":30293000,"value":1423771000,"foreign":-931530,"trust":0,"dealer":0,"total":-991930,"foreignStreak":0,"trustStreak":0,"jointStreak":0,"fiveDayPctSum":35.76,"fiveDayAvgVolume":7814544},{"code":"1310","name":"台苯","close":9.26,"change":0.5499999999999989,"percent":6.31,"tradeVolume":12899000,"value":119444740,"foreign":-1028355,"trust":0,"dealer":0,"total":-1005513,"foreignStreak":0,"trustStreak":0,"jointStreak":0,"fiveDayPctSum":1.68,"fiveDayAvgVolume":3371937},{"code":"4960","name":"誠美材","close":29.1,"change":-0.25,"percent":-0.85,"tradeVolume":6933000,"value":201750300,"foreign":-980964,"trust":0,"dealer":0,"total":-1042949,"foreignStreak":0,"trustStreak":0,"jointStreak":0,"fiveDayPctSum":0.85,"fiveDayAvgVolume":6182990},{"code":"7777","name":"能率亞洲","close":42.2,"change":-1.75,"percent":-3.98,"tradeVolume":6034000,"value":254634800,"foreign":-981500,"trust":0,"dealer":-65094,"total":-1046594,"foreignStreak":0,"trustStreak":0,"jointStreak":0,"fiveDayPctSum":-19.91,"fiveDayAvgVolume":6102204},{"code":"2014","name":"中鴻","close":17.7,"change":0.05000000000000071,"percent":0.28,"tradeVolume":4655000,"value":82393500,"foreign":-906234,"trust":0,"dealer":0,"total":-1057234,"foreignStreak":0,"trustStreak":0,"jointStreak":0,"fiveDayPctSum":0.93,"fiveDayAvgVolume":6658583},{"code":"8422","name":"可寧衛*","close":28.1,"change":-0.34999999999999787,"percent":-1.23,"tradeVolume":9635000,"value":270743500,"foreign":-874871,"trust":-130000,"dealer":0,"total":-1057356,"foreignStreak":0,"trustStreak":0,"jointStreak":0,"fiveDayPctSum":-6.03,"fiveDayAvgVolume":16049295},{"code":"3406","name":"玉晶光","close":753,"change":31,"percent":4.29,"tradeVolume":4639000,"value":3493167000,"foreign":-823503,"trust":-147000,"dealer":0,"total":-1067335,"foreignStreak":0,"trustStreak":0,"jointStreak":0,"fiveDayPctSum":7.1,"fiveDayAvgVolume":6374326},{"code":"6155","name":"鈞寶","close":98.5,"change":8.900000000000006,"percent":9.93,"tradeVolume":22366000,"value":2203051000,"foreign":-1061763,"trust":0,"dealer":0,"total":-1076030,"foreignStreak":0,"trustStreak":0,"jointStreak":0,"fiveDayPctSum":16.84,"fiveDayAvgVolume":27331252},{"code":"6180","name":"橘子","close":50.3,"change":-0.10000000000000142,"percent":-0.2,"tradeVolume":4550000,"value":228865000,"foreign":-1091015,"trust":0,"dealer":1783,"total":-1089232,"foreignStreak":0,"trustStreak":0,"jointStreak":0,"fiveDayPctSum":-0.99,"fiveDayAvgVolume":4596617},{"code":"8070","name":"長華*","close":55,"change":0.3999999999999986,"percent":0.73,"tradeVolume":5674000,"value":312070000,"foreign":-938720,"trust":-3414,"dealer":0,"total":-1123206,"foreignStreak":0,"trustStreak":0,"jointStreak":0,"fiveDayPctSum":-3.1,"fiveDayAvgVolume":9029253},{"code":"2449","name":"京元電子","close":308.5,"change":28,"percent":9.98,"tradeVolume":50727000,"value":15649279500,"foreign":-1029593,"trust":-2082,"dealer":0,"total":-1136151,"foreignStreak":0,"trustStreak":0,"jointStreak":0,"fiveDayPctSum":3.15,"fiveDayAvgVolume":16994183},{"code":"6525","name":"捷敏-KY","close":143,"change":13,"percent":10,"tradeVolume":4142000,"value":592306000,"foreign":-1150357,"trust":-1843,"dealer":0,"total":-1152200,"foreignStreak":0,"trustStreak":0,"jointStreak":0,"fiveDayPctSum":13.64,"fiveDayAvgVolume":3838712},{"code":"2399","name":"映泰","close":48.05,"change":-3.8500000000000014,"percent":-7.42,"tradeVolume":18467000,"value":887339350,"foreign":-997112,"trust":0,"dealer":0,"total":-1196477,"foreignStreak":0,"trustStreak":0,"jointStreak":0,"fiveDayPctSum":16.81,"fiveDayAvgVolume":15387105},{"code":"1714","name":"和桐","close":20.35,"change":1.1000000000000014,"percent":5.71,"tradeVolume":31562000,"value":642286700,"foreign":-1514800,"trust":0,"dealer":0,"total":-1205800,"foreignStreak":0,"trustStreak":0,"jointStreak":0,"fiveDayPctSum":40.08,"fiveDayAvgVolume":68288016},{"code":"6285","name":"啟碁","close":274,"change":3.5,"percent":1.29,"tradeVolume":15214000,"value":4168636000,"foreign":5047410,"trust":-6514000,"dealer":0,"total":-1230012,"foreignStreak":1,"trustStreak":0,"jointStreak":0,"fiveDayPctSum":0.28,"fiveDayAvgVolume":20679220},{"code":"3163","name":"波若威","close":893,"change":-10,"percent":-1.11,"tradeVolume":4559000,"value":4071187000,"foreign":-647421,"trust":-662400,"dealer":20505,"total":-1289316,"foreignStreak":0,"trustStreak":0,"jointStreak":0,"fiveDayPctSum":-5.54,"fiveDayAvgVolume":4811828},{"code":"3504","name":"揚明光","close":91.2,"change":4.700000000000003,"percent":5.43,"tradeVolume":6011000,"value":548203200,"foreign":-1288832,"trust":0,"dealer":0,"total":-1289966,"foreignStreak":0,"trustStreak":0,"jointStreak":0,"fiveDayPctSum":10.05,"fiveDayAvgVolume":5934861},{"code":"3016","name":"嘉晶","close":126.5,"change":4,"percent":3.27,"tradeVolume":11818000,"value":1494977000,"foreign":-1344660,"trust":0,"dealer":0,"total":-1310697,"foreignStreak":0,"trustStreak":0,"jointStreak":0,"fiveDayPctSum":18.35,"fiveDayAvgVolume":12556340},{"code":"8043","name":"蜜望實","close":226.5,"change":6.5,"percent":2.95,"tradeVolume":34165000,"value":7738372500,"foreign":-1304950,"trust":0,"dealer":-6001,"total":-1310951,"foreignStreak":0,"trustStreak":0,"jointStreak":0,"fiveDayPctSum":14.77,"fiveDayAvgVolume":34613099},{"code":"6412","name":"群電","close":91.6,"change":-0.9000000000000057,"percent":-0.97,"tradeVolume":3806000,"value":348629600,"foreign":-1326395,"trust":10000,"dealer":0,"total":-1315925,"foreignStreak":0,"trustStreak":1,"jointStreak":0,"fiveDayPctSum":6.33,"fiveDayAvgVolume":3822744},{"code":"8105","name":"凌巨","close":21.9,"change":0.5,"percent":2.34,"tradeVolume":16172000,"value":354166800,"foreign":-1322084,"trust":0,"dealer":0,"total":-1330084,"foreignStreak":0,"trustStreak":0,"jointStreak":0,"fiveDayPctSum":3.91,"fiveDayAvgVolume":23899357},{"code":"1513","name":"中興電","close":176.5,"change":4.5,"percent":2.62,"tradeVolume":17503000,"value":3089279500,"foreign":-1760347,"trust":12000,"dealer":0,"total":-1402542,"foreignStreak":0,"trustStreak":2,"jointStreak":0,"fiveDayPctSum":4.52,"fiveDayAvgVolume":6857945},{"code":"1503","name":"士電","close":241.5,"change":5,"percent":2.11,"tradeVolume":8010000,"value":1934415000,"foreign":-1571142,"trust":-2000,"dealer":0,"total":-1421270,"foreignStreak":0,"trustStreak":0,"jointStreak":0,"fiveDayPctSum":8.81,"fiveDayAvgVolume":5070433},{"code":"2454","name":"聯發科","close":4390,"change":-70,"percent":-1.57,"tradeVolume":12095000,"value":53097050000,"foreign":-1051822,"trust":-365849,"dealer":0,"total":-1437132,"foreignStreak":0,"trustStreak":0,"jointStreak":0,"fiveDayPctSum":7.4,"fiveDayAvgVolume":11768829},{"code":"1504","name":"東元","close":70,"change":1.2999999999999972,"percent":1.89,"tradeVolume":19618000,"value":1373260000,"foreign":-2219538,"trust":16000,"dealer":0,"total":-1459202,"foreignStreak":0,"trustStreak":1,"jointStreak":0,"fiveDayPctSum":3.4,"fiveDayAvgVolume":19831073}]}
