{"ok":true,"updatedAt":"2026-06-18T07:11:16.011Z","usedDate":"20260618","quoteUpdatedAt":"2026-06-18T07:11:15.479Z","source":"institution-page","page":6,"pageSize":25,"totalPages":14,"totalCount":326,"count":25,"rows":[{"code":"2428","name":"興勤","close":316,"change":17,"percent":5.69,"tradeVolume":3567000,"value":1127172000,"foreign":481486,"trust":-1000,"dealer":0,"total":540999,"foreignStreak":1,"trustStreak":0,"jointStreak":0,"fiveDayPctSum":5.45,"fiveDayAvgVolume":3013134},{"code":"2492","name":"華新科","close":561,"change":19,"percent":3.51,"tradeVolume":66689000,"value":37412529000,"foreign":-479462,"trust":20000,"dealer":0,"total":536204,"foreignStreak":0,"trustStreak":7,"jointStreak":0,"fiveDayPctSum":29.94,"fiveDayAvgVolume":4780618},{"code":"3680","name":"家登","close":542,"change":25,"percent":4.84,"tradeVolume":3475000,"value":1883450000,"foreign":433767,"trust":-450,"dealer":86655,"total":519972,"foreignStreak":3,"trustStreak":0,"jointStreak":0,"fiveDayPctSum":24.18,"fiveDayAvgVolume":3622549},{"code":"4989","name":"榮科","close":85.5,"change":4.900000000000006,"percent":6.08,"tradeVolume":5834000,"value":498807000,"foreign":517197,"trust":0,"dealer":0,"total":517168,"foreignStreak":1,"trustStreak":0,"jointStreak":0,"fiveDayPctSum":-1.67,"fiveDayAvgVolume":4704171},{"code":"3033","name":"威健","close":49.5,"change":0.6000000000000014,"percent":1.23,"tradeVolume":5273000,"value":261013500,"foreign":587000,"trust":-13206,"dealer":0,"total":511461,"foreignStreak":2,"trustStreak":0,"jointStreak":0,"fiveDayPctSum":-2.61,"fiveDayAvgVolume":6899124},{"code":"1809","name":"中釉","close":51.4,"change":-0.30000000000000426,"percent":-0.58,"tradeVolume":5601000,"value":287891400,"foreign":492376,"trust":0,"dealer":0,"total":491376,"foreignStreak":1,"trustStreak":0,"jointStreak":0,"fiveDayPctSum":2.51,"fiveDayAvgVolume":7663927},{"code":"2385","name":"群光","close":114,"change":-1,"percent":-0.87,"tradeVolume":6840000,"value":779760000,"foreign":886703,"trust":-570968,"dealer":0,"total":457762,"foreignStreak":5,"trustStreak":0,"jointStreak":0,"fiveDayPctSum":-3.96,"fiveDayAvgVolume":11225176},{"code":"2377","name":"微星","close":138.5,"change":1.5,"percent":1.09,"tradeVolume":11150000,"value":1544275000,"foreign":-780040,"trust":990000,"dealer":0,"total":455907,"foreignStreak":0,"trustStreak":7,"jointStreak":0,"fiveDayPctSum":3.81,"fiveDayAvgVolume":16445092},{"code":"2472","name":"立隆電","close":402,"change":36.5,"percent":9.99,"tradeVolume":18263000,"value":7341726000,"foreign":879570,"trust":-574000,"dealer":0,"total":410059,"foreignStreak":1,"trustStreak":0,"jointStreak":0,"fiveDayPctSum":9.57,"fiveDayAvgVolume":10628219},{"code":"3380","name":"明泰","close":34.95,"change":-0.44999999999999574,"percent":-1.27,"tradeVolume":3991000,"value":139485450,"foreign":366000,"trust":0,"dealer":0,"total":399182,"foreignStreak":1,"trustStreak":0,"jointStreak":0,"fiveDayPctSum":6.26,"fiveDayAvgVolume":3251168},{"code":"6443","name":"元晶","close":39.35,"change":-1.1999999999999957,"percent":-2.96,"tradeVolume":11362000,"value":447094700,"foreign":-2305079,"trust":0,"dealer":0,"total":393971,"foreignStreak":0,"trustStreak":0,"jointStreak":0,"fiveDayPctSum":1.43,"fiveDayAvgVolume":33775246},{"code":"3005","name":"神基","close":101.5,"change":-1,"percent":-0.98,"tradeVolume":3679000,"value":373418500,"foreign":449555,"trust":-31594,"dealer":0,"total":368265,"foreignStreak":1,"trustStreak":0,"jointStreak":0,"fiveDayPctSum":-1.4,"fiveDayAvgVolume":4839586},{"code":"3037","name":"欣興","close":968,"change":-20,"percent":-2.02,"tradeVolume":19978000,"value":19338704000,"foreign":-650702,"trust":828440,"dealer":0,"total":356196,"foreignStreak":0,"trustStreak":1,"jointStreak":0,"fiveDayPctSum":11.56,"fiveDayAvgVolume":19559218},{"code":"8121","name":"越峰","close":53.4,"change":3.75,"percent":7.55,"tradeVolume":5924000,"value":316341600,"foreign":346000,"trust":0,"dealer":561,"total":346561,"foreignStreak":2,"trustStreak":0,"jointStreak":0,"fiveDayPctSum":37.76,"fiveDayAvgVolume":5986997},{"code":"1304","name":"台聚","close":13.55,"change":0.6000000000000014,"percent":4.63,"tradeVolume":9331000,"value":126435050,"foreign":129296,"trust":0,"dealer":0,"total":322397,"foreignStreak":4,"trustStreak":0,"jointStreak":0,"fiveDayPctSum":1.6,"fiveDayAvgVolume":4085837},{"code":"6603","name":"富強鑫","close":24.2,"change":2.1999999999999993,"percent":10,"tradeVolume":4523000,"value":109456600,"foreign":315000,"trust":0,"dealer":6805,"total":321805,"foreignStreak":1,"trustStreak":0,"jointStreak":0,"fiveDayPctSum":50,"fiveDayAvgVolume":4545627},{"code":"2441","name":"超豐","close":135,"change":8.5,"percent":6.72,"tradeVolume":13640000,"value":1841400000,"foreign":1482245,"trust":-1702000,"dealer":0,"total":303743,"foreignStreak":1,"trustStreak":0,"jointStreak":0,"fiveDayPctSum":4.93,"fiveDayAvgVolume":7032870},{"code":"1609","name":"大亞","close":38.15,"change":0.04999999999999716,"percent":0.13,"tradeVolume":5456000,"value":208146400,"foreign":289244,"trust":0,"dealer":0,"total":294375,"foreignStreak":1,"trustStreak":0,"jointStreak":0,"fiveDayPctSum":3.97,"fiveDayAvgVolume":4985515},{"code":"2357","name":"華碩","close":789,"change":-14,"percent":-1.74,"tradeVolume":6603000,"value":5209767000,"foreign":488748,"trust":-210482,"dealer":0,"total":279092,"foreignStreak":1,"trustStreak":0,"jointStreak":0,"fiveDayPctSum":0.9,"fiveDayAvgVolume":4178528},{"code":"8163","name":"達方","close":44.95,"change":0.5,"percent":1.12,"tradeVolume":7648000,"value":343777600,"foreign":316646,"trust":0,"dealer":0,"total":275236,"foreignStreak":5,"trustStreak":0,"jointStreak":0,"fiveDayPctSum":3.82,"fiveDayAvgVolume":5723353},{"code":"5498","name":"凱崴","close":67.1,"change":0.6999999999999886,"percent":1.05,"tradeVolume":4330000,"value":290543000,"foreign":237000,"trust":0,"dealer":16737,"total":253737,"foreignStreak":1,"trustStreak":0,"jointStreak":0,"fiveDayPctSum":5.27,"fiveDayAvgVolume":4402038},{"code":"3630","name":"新鉅科","close":34.8,"change":-0.5,"percent":-1.42,"tradeVolume":5475000,"value":190530000,"foreign":237210,"trust":0,"dealer":-7052,"total":230158,"foreignStreak":1,"trustStreak":0,"jointStreak":0,"fiveDayPctSum":-7.08,"fiveDayAvgVolume":5529581},{"code":"5289","name":"宜鼎","close":1930,"change":75,"percent":4.04,"tradeVolume":3431000,"value":6621830000,"foreign":275156,"trust":-68500,"dealer":7770,"total":214426,"foreignStreak":1,"trustStreak":0,"jointStreak":0,"fiveDayPctSum":20.22,"fiveDayAvgVolume":3588915},{"code":"1708","name":"東鹼","close":50.3,"change":4.549999999999997,"percent":9.95,"tradeVolume":21020000,"value":1057306000,"foreign":209000,"trust":0,"dealer":0,"total":212764,"foreignStreak":2,"trustStreak":0,"jointStreak":0,"fiveDayPctSum":-1.41,"fiveDayAvgVolume":8826310},{"code":"2486","name":"一詮","close":276.5,"change":25,"percent":9.94,"tradeVolume":10402000,"value":2876153000,"foreign":412918,"trust":0,"dealer":0,"total":199690,"foreignStreak":2,"trustStreak":0,"jointStreak":0,"fiveDayPctSum":2.29,"fiveDayAvgVolume":6656217}],"matches":[{"code":"2428","name":"興勤","close":316,"change":17,"percent":5.69,"tradeVolume":3567000,"value":1127172000,"foreign":481486,"trust":-1000,"dealer":0,"total":540999,"foreignStreak":1,"trustStreak":0,"jointStreak":0,"fiveDayPctSum":5.45,"fiveDayAvgVolume":3013134},{"code":"2492","name":"華新科","close":561,"change":19,"percent":3.51,"tradeVolume":66689000,"value":37412529000,"foreign":-479462,"trust":20000,"dealer":0,"total":536204,"foreignStreak":0,"trustStreak":7,"jointStreak":0,"fiveDayPctSum":29.94,"fiveDayAvgVolume":4780618},{"code":"3680","name":"家登","close":542,"change":25,"percent":4.84,"tradeVolume":3475000,"value":1883450000,"foreign":433767,"trust":-450,"dealer":86655,"total":519972,"foreignStreak":3,"trustStreak":0,"jointStreak":0,"fiveDayPctSum":24.18,"fiveDayAvgVolume":3622549},{"code":"4989","name":"榮科","close":85.5,"change":4.900000000000006,"percent":6.08,"tradeVolume":5834000,"value":498807000,"foreign":517197,"trust":0,"dealer":0,"total":517168,"foreignStreak":1,"trustStreak":0,"jointStreak":0,"fiveDayPctSum":-1.67,"fiveDayAvgVolume":4704171},{"code":"3033","name":"威健","close":49.5,"change":0.6000000000000014,"percent":1.23,"tradeVolume":5273000,"value":261013500,"foreign":587000,"trust":-13206,"dealer":0,"total":511461,"foreignStreak":2,"trustStreak":0,"jointStreak":0,"fiveDayPctSum":-2.61,"fiveDayAvgVolume":6899124},{"code":"1809","name":"中釉","close":51.4,"change":-0.30000000000000426,"percent":-0.58,"tradeVolume":5601000,"value":287891400,"foreign":492376,"trust":0,"dealer":0,"total":491376,"foreignStreak":1,"trustStreak":0,"jointStreak":0,"fiveDayPctSum":2.51,"fiveDayAvgVolume":7663927},{"code":"2385","name":"群光","close":114,"change":-1,"percent":-0.87,"tradeVolume":6840000,"value":779760000,"foreign":886703,"trust":-570968,"dealer":0,"total":457762,"foreignStreak":5,"trustStreak":0,"jointStreak":0,"fiveDayPctSum":-3.96,"fiveDayAvgVolume":11225176},{"code":"2377","name":"微星","close":138.5,"change":1.5,"percent":1.09,"tradeVolume":11150000,"value":1544275000,"foreign":-780040,"trust":990000,"dealer":0,"total":455907,"foreignStreak":0,"trustStreak":7,"jointStreak":0,"fiveDayPctSum":3.81,"fiveDayAvgVolume":16445092},{"code":"2472","name":"立隆電","close":402,"change":36.5,"percent":9.99,"tradeVolume":18263000,"value":7341726000,"foreign":879570,"trust":-574000,"dealer":0,"total":410059,"foreignStreak":1,"trustStreak":0,"jointStreak":0,"fiveDayPctSum":9.57,"fiveDayAvgVolume":10628219},{"code":"3380","name":"明泰","close":34.95,"change":-0.44999999999999574,"percent":-1.27,"tradeVolume":3991000,"value":139485450,"foreign":366000,"trust":0,"dealer":0,"total":399182,"foreignStreak":1,"trustStreak":0,"jointStreak":0,"fiveDayPctSum":6.26,"fiveDayAvgVolume":3251168},{"code":"6443","name":"元晶","close":39.35,"change":-1.1999999999999957,"percent":-2.96,"tradeVolume":11362000,"value":447094700,"foreign":-2305079,"trust":0,"dealer":0,"total":393971,"foreignStreak":0,"trustStreak":0,"jointStreak":0,"fiveDayPctSum":1.43,"fiveDayAvgVolume":33775246},{"code":"3005","name":"神基","close":101.5,"change":-1,"percent":-0.98,"tradeVolume":3679000,"value":373418500,"foreign":449555,"trust":-31594,"dealer":0,"total":368265,"foreignStreak":1,"trustStreak":0,"jointStreak":0,"fiveDayPctSum":-1.4,"fiveDayAvgVolume":4839586},{"code":"3037","name":"欣興","close":968,"change":-20,"percent":-2.02,"tradeVolume":19978000,"value":19338704000,"foreign":-650702,"trust":828440,"dealer":0,"total":356196,"foreignStreak":0,"trustStreak":1,"jointStreak":0,"fiveDayPctSum":11.56,"fiveDayAvgVolume":19559218},{"code":"8121","name":"越峰","close":53.4,"change":3.75,"percent":7.55,"tradeVolume":5924000,"value":316341600,"foreign":346000,"trust":0,"dealer":561,"total":346561,"foreignStreak":2,"trustStreak":0,"jointStreak":0,"fiveDayPctSum":37.76,"fiveDayAvgVolume":5986997},{"code":"1304","name":"台聚","close":13.55,"change":0.6000000000000014,"percent":4.63,"tradeVolume":9331000,"value":126435050,"foreign":129296,"trust":0,"dealer":0,"total":322397,"foreignStreak":4,"trustStreak":0,"jointStreak":0,"fiveDayPctSum":1.6,"fiveDayAvgVolume":4085837},{"code":"6603","name":"富強鑫","close":24.2,"change":2.1999999999999993,"percent":10,"tradeVolume":4523000,"value":109456600,"foreign":315000,"trust":0,"dealer":6805,"total":321805,"foreignStreak":1,"trustStreak":0,"jointStreak":0,"fiveDayPctSum":50,"fiveDayAvgVolume":4545627},{"code":"2441","name":"超豐","close":135,"change":8.5,"percent":6.72,"tradeVolume":13640000,"value":1841400000,"foreign":1482245,"trust":-1702000,"dealer":0,"total":303743,"foreignStreak":1,"trustStreak":0,"jointStreak":0,"fiveDayPctSum":4.93,"fiveDayAvgVolume":7032870},{"code":"1609","name":"大亞","close":38.15,"change":0.04999999999999716,"percent":0.13,"tradeVolume":5456000,"value":208146400,"foreign":289244,"trust":0,"dealer":0,"total":294375,"foreignStreak":1,"trustStreak":0,"jointStreak":0,"fiveDayPctSum":3.97,"fiveDayAvgVolume":4985515},{"code":"2357","name":"華碩","close":789,"change":-14,"percent":-1.74,"tradeVolume":6603000,"value":5209767000,"foreign":488748,"trust":-210482,"dealer":0,"total":279092,"foreignStreak":1,"trustStreak":0,"jointStreak":0,"fiveDayPctSum":0.9,"fiveDayAvgVolume":4178528},{"code":"8163","name":"達方","close":44.95,"change":0.5,"percent":1.12,"tradeVolume":7648000,"value":343777600,"foreign":316646,"trust":0,"dealer":0,"total":275236,"foreignStreak":5,"trustStreak":0,"jointStreak":0,"fiveDayPctSum":3.82,"fiveDayAvgVolume":5723353},{"code":"5498","name":"凱崴","close":67.1,"change":0.6999999999999886,"percent":1.05,"tradeVolume":4330000,"value":290543000,"foreign":237000,"trust":0,"dealer":16737,"total":253737,"foreignStreak":1,"trustStreak":0,"jointStreak":0,"fiveDayPctSum":5.27,"fiveDayAvgVolume":4402038},{"code":"3630","name":"新鉅科","close":34.8,"change":-0.5,"percent":-1.42,"tradeVolume":5475000,"value":190530000,"foreign":237210,"trust":0,"dealer":-7052,"total":230158,"foreignStreak":1,"trustStreak":0,"jointStreak":0,"fiveDayPctSum":-7.08,"fiveDayAvgVolume":5529581},{"code":"5289","name":"宜鼎","close":1930,"change":75,"percent":4.04,"tradeVolume":3431000,"value":6621830000,"foreign":275156,"trust":-68500,"dealer":7770,"total":214426,"foreignStreak":1,"trustStreak":0,"jointStreak":0,"fiveDayPctSum":20.22,"fiveDayAvgVolume":3588915},{"code":"1708","name":"東鹼","close":50.3,"change":4.549999999999997,"percent":9.95,"tradeVolume":21020000,"value":1057306000,"foreign":209000,"trust":0,"dealer":0,"total":212764,"foreignStreak":2,"trustStreak":0,"jointStreak":0,"fiveDayPctSum":-1.41,"fiveDayAvgVolume":8826310},{"code":"2486","name":"一詮","close":276.5,"change":25,"percent":9.94,"tradeVolume":10402000,"value":2876153000,"foreign":412918,"trust":0,"dealer":0,"total":199690,"foreignStreak":2,"trustStreak":0,"jointStreak":0,"fiveDayPctSum":2.29,"fiveDayAvgVolume":6656217}]}
