{"ok":true,"updatedAt":"2026-06-18T07:11:16.011Z","usedDate":"20260618","quoteUpdatedAt":"2026-06-18T07:11:15.479Z","source":"institution-page","page":8,"pageSize":25,"totalPages":14,"totalCount":326,"count":25,"rows":[{"code":"2537","name":"聯上發","close":12,"change":0,"percent":0,"tradeVolume":6911000,"value":82932000,"foreign":-35000,"trust":0,"dealer":0,"total":-31753,"foreignStreak":0,"trustStreak":0,"jointStreak":0,"fiveDayPctSum":8.31,"fiveDayAvgVolume":8274775},{"code":"4526","name":"東台","close":39.15,"change":0.44999999999999574,"percent":1.16,"tradeVolume":5793000,"value":226795950,"foreign":-9000,"trust":0,"dealer":0,"total":-35747,"foreignStreak":0,"trustStreak":0,"jointStreak":0,"fiveDayPctSum":1.91,"fiveDayAvgVolume":4807931},{"code":"2006","name":"東和鋼鐵","close":69.5,"change":-0.09999999999999432,"percent":-0.14,"tradeVolume":8473000,"value":588873500,"foreign":-438012,"trust":355128,"dealer":0,"total":-36430,"foreignStreak":0,"trustStreak":5,"jointStreak":0,"fiveDayPctSum":4.44,"fiveDayAvgVolume":3128875},{"code":"3615","name":"安可","close":55.4,"change":1.7999999999999972,"percent":3.36,"tradeVolume":8454000,"value":468351600,"foreign":-48123,"trust":0,"dealer":185,"total":-47938,"foreignStreak":0,"trustStreak":0,"jointStreak":0,"fiveDayPctSum":16.79,"fiveDayAvgVolume":8520675},{"code":"3624","name":"光頡","close":160.5,"change":14.5,"percent":9.93,"tradeVolume":3604000,"value":578442000,"foreign":-121000,"trust":0,"dealer":70152,"total":-50848,"foreignStreak":0,"trustStreak":0,"jointStreak":0,"fiveDayPctSum":49.66,"fiveDayAvgVolume":3681125},{"code":"4931","name":"新盛力","close":261.5,"change":8.5,"percent":3.36,"tradeVolume":7486000,"value":1957589000,"foreign":-69886,"trust":0,"dealer":11165,"total":-58721,"foreignStreak":0,"trustStreak":0,"jointStreak":0,"fiveDayPctSum":16.8,"fiveDayAvgVolume":7673063},{"code":"2103","name":"台橡","close":21.4,"change":0.1999999999999993,"percent":0.94,"tradeVolume":4930000,"value":105502000,"foreign":-235306,"trust":-3000,"dealer":0,"total":-68235,"foreignStreak":0,"trustStreak":0,"jointStreak":0,"fiveDayPctSum":0.93,"fiveDayAvgVolume":6695448},{"code":"3339","name":"泰谷","close":49.7,"change":1.3000000000000043,"percent":2.69,"tradeVolume":4085000,"value":203024500,"foreign":-74000,"trust":0,"dealer":-185,"total":-74185,"foreignStreak":0,"trustStreak":0,"jointStreak":0,"fiveDayPctSum":13.43,"fiveDayAvgVolume":4104455},{"code":"3062","name":"建漢","close":25.95,"change":0.3000000000000007,"percent":1.17,"tradeVolume":4970000,"value":128971500,"foreign":-54400,"trust":0,"dealer":0,"total":-79426,"foreignStreak":0,"trustStreak":0,"jointStreak":0,"fiveDayPctSum":1.51,"fiveDayAvgVolume":4599352},{"code":"2345","name":"智邦","close":2435,"change":-60,"percent":-2.4,"tradeVolume":4073000,"value":9917755000,"foreign":104645,"trust":-5433,"dealer":0,"total":-79854,"foreignStreak":3,"trustStreak":0,"jointStreak":0,"fiveDayPctSum":5.61,"fiveDayAvgVolume":3113785},{"code":"8096","name":"擎亞","close":155.5,"change":5.5,"percent":3.67,"tradeVolume":9641000,"value":1499175500,"foreign":-149925,"trust":0,"dealer":59270,"total":-90655,"foreignStreak":0,"trustStreak":0,"jointStreak":0,"fiveDayPctSum":18.33,"fiveDayAvgVolume":9766211},{"code":"2301","name":"光寶科","close":210.5,"change":0.5,"percent":0.24,"tradeVolume":20761000,"value":4370190500,"foreign":258310,"trust":-201845,"dealer":0,"total":-111056,"foreignStreak":2,"trustStreak":0,"jointStreak":0,"fiveDayPctSum":-1.21,"fiveDayAvgVolume":24071101},{"code":"4904","name":"遠傳","close":108.5,"change":-1,"percent":-0.91,"tradeVolume":42260000,"value":4585210000,"foreign":4488344,"trust":-4883817,"dealer":0,"total":-117993,"foreignStreak":7,"trustStreak":0,"jointStreak":0,"fiveDayPctSum":2.87,"fiveDayAvgVolume":10903757},{"code":"3702","name":"大聯大","close":112,"change":5,"percent":4.67,"tradeVolume":19948000,"value":2234176000,"foreign":438370,"trust":-325000,"dealer":0,"total":-158516,"foreignStreak":1,"trustStreak":0,"jointStreak":0,"fiveDayPctSum":-1.74,"fiveDayAvgVolume":14206135},{"code":"3663","name":"鑫科","close":85.7,"change":7.6000000000000085,"percent":9.73,"tradeVolume":10691000,"value":916218700,"foreign":-287074,"trust":0,"dealer":92135,"total":-194939,"foreignStreak":0,"trustStreak":0,"jointStreak":0,"fiveDayPctSum":48.66,"fiveDayAvgVolume":10803198},{"code":"3706","name":"神達","close":86.9,"change":0.6000000000000085,"percent":0.7,"tradeVolume":9884000,"value":858919600,"foreign":-1250714,"trust":387000,"dealer":0,"total":-204182,"foreignStreak":0,"trustStreak":1,"jointStreak":0,"fiveDayPctSum":0.28,"fiveDayAvgVolume":16586287},{"code":"3045","name":"台灣大","close":119,"change":0,"percent":0,"tradeVolume":8091000,"value":962829000,"foreign":-635030,"trust":423677,"dealer":0,"total":-216393,"foreignStreak":0,"trustStreak":2,"jointStreak":0,"fiveDayPctSum":0.86,"fiveDayAvgVolume":11280027},{"code":"6125","name":"廣運","close":63.6,"change":2.8999999999999986,"percent":4.78,"tradeVolume":4990000,"value":317364000,"foreign":-314521,"trust":0,"dealer":97170,"total":-217351,"foreignStreak":0,"trustStreak":0,"jointStreak":0,"fiveDayPctSum":23.89,"fiveDayAvgVolume":5054203},{"code":"3707","name":"漢磊","close":83.2,"change":2.700000000000003,"percent":3.35,"tradeVolume":18902000,"value":1572646400,"foreign":-219830,"trust":0,"dealer":-2311,"total":-222141,"foreignStreak":0,"trustStreak":0,"jointStreak":0,"fiveDayPctSum":16.77,"fiveDayAvgVolume":19128855},{"code":"5521","name":"工信","close":10.6,"change":-0.09999999999999964,"percent":-0.93,"tradeVolume":3640000,"value":38584000,"foreign":-222467,"trust":0,"dealer":0,"total":-223340,"foreignStreak":0,"trustStreak":0,"jointStreak":0,"fiveDayPctSum":-4.55,"fiveDayAvgVolume":7425561},{"code":"6706","name":"惠特","close":172,"change":5,"percent":2.99,"tradeVolume":3341000,"value":574652000,"foreign":-194959,"trust":0,"dealer":0,"total":-231005,"foreignStreak":0,"trustStreak":0,"jointStreak":0,"fiveDayPctSum":2.53,"fiveDayAvgVolume":4825713},{"code":"3290","name":"東浦","close":69.8,"change":4,"percent":6.08,"tradeVolume":4257000,"value":297138600,"foreign":-592489,"trust":0,"dealer":345135,"total":-247354,"foreignStreak":0,"trustStreak":0,"jointStreak":0,"fiveDayPctSum":30.4,"fiveDayAvgVolume":4349691},{"code":"1905","name":"華紙","close":17.1,"change":1.5500000000000007,"percent":9.97,"tradeVolume":44051000,"value":753272100,"foreign":-398000,"trust":0,"dealer":0,"total":-285996,"foreignStreak":0,"trustStreak":0,"jointStreak":0,"fiveDayPctSum":19.23,"fiveDayAvgVolume":12940921},{"code":"4973","name":"廣穎","close":193.5,"change":2,"percent":1.04,"tradeVolume":3896000,"value":753876000,"foreign":-317300,"trust":0,"dealer":29256,"total":-288044,"foreignStreak":0,"trustStreak":0,"jointStreak":0,"fiveDayPctSum":5.22,"fiveDayAvgVolume":3984742},{"code":"2338","name":"光罩","close":53.3,"change":1.0999999999999943,"percent":2.11,"tradeVolume":6672000,"value":355617600,"foreign":-227066,"trust":0,"dealer":0,"total":-314368,"foreignStreak":0,"trustStreak":0,"jointStreak":0,"fiveDayPctSum":16.81,"fiveDayAvgVolume":9340916}],"matches":[{"code":"2537","name":"聯上發","close":12,"change":0,"percent":0,"tradeVolume":6911000,"value":82932000,"foreign":-35000,"trust":0,"dealer":0,"total":-31753,"foreignStreak":0,"trustStreak":0,"jointStreak":0,"fiveDayPctSum":8.31,"fiveDayAvgVolume":8274775},{"code":"4526","name":"東台","close":39.15,"change":0.44999999999999574,"percent":1.16,"tradeVolume":5793000,"value":226795950,"foreign":-9000,"trust":0,"dealer":0,"total":-35747,"foreignStreak":0,"trustStreak":0,"jointStreak":0,"fiveDayPctSum":1.91,"fiveDayAvgVolume":4807931},{"code":"2006","name":"東和鋼鐵","close":69.5,"change":-0.09999999999999432,"percent":-0.14,"tradeVolume":8473000,"value":588873500,"foreign":-438012,"trust":355128,"dealer":0,"total":-36430,"foreignStreak":0,"trustStreak":5,"jointStreak":0,"fiveDayPctSum":4.44,"fiveDayAvgVolume":3128875},{"code":"3615","name":"安可","close":55.4,"change":1.7999999999999972,"percent":3.36,"tradeVolume":8454000,"value":468351600,"foreign":-48123,"trust":0,"dealer":185,"total":-47938,"foreignStreak":0,"trustStreak":0,"jointStreak":0,"fiveDayPctSum":16.79,"fiveDayAvgVolume":8520675},{"code":"3624","name":"光頡","close":160.5,"change":14.5,"percent":9.93,"tradeVolume":3604000,"value":578442000,"foreign":-121000,"trust":0,"dealer":70152,"total":-50848,"foreignStreak":0,"trustStreak":0,"jointStreak":0,"fiveDayPctSum":49.66,"fiveDayAvgVolume":3681125},{"code":"4931","name":"新盛力","close":261.5,"change":8.5,"percent":3.36,"tradeVolume":7486000,"value":1957589000,"foreign":-69886,"trust":0,"dealer":11165,"total":-58721,"foreignStreak":0,"trustStreak":0,"jointStreak":0,"fiveDayPctSum":16.8,"fiveDayAvgVolume":7673063},{"code":"2103","name":"台橡","close":21.4,"change":0.1999999999999993,"percent":0.94,"tradeVolume":4930000,"value":105502000,"foreign":-235306,"trust":-3000,"dealer":0,"total":-68235,"foreignStreak":0,"trustStreak":0,"jointStreak":0,"fiveDayPctSum":0.93,"fiveDayAvgVolume":6695448},{"code":"3339","name":"泰谷","close":49.7,"change":1.3000000000000043,"percent":2.69,"tradeVolume":4085000,"value":203024500,"foreign":-74000,"trust":0,"dealer":-185,"total":-74185,"foreignStreak":0,"trustStreak":0,"jointStreak":0,"fiveDayPctSum":13.43,"fiveDayAvgVolume":4104455},{"code":"3062","name":"建漢","close":25.95,"change":0.3000000000000007,"percent":1.17,"tradeVolume":4970000,"value":128971500,"foreign":-54400,"trust":0,"dealer":0,"total":-79426,"foreignStreak":0,"trustStreak":0,"jointStreak":0,"fiveDayPctSum":1.51,"fiveDayAvgVolume":4599352},{"code":"2345","name":"智邦","close":2435,"change":-60,"percent":-2.4,"tradeVolume":4073000,"value":9917755000,"foreign":104645,"trust":-5433,"dealer":0,"total":-79854,"foreignStreak":3,"trustStreak":0,"jointStreak":0,"fiveDayPctSum":5.61,"fiveDayAvgVolume":3113785},{"code":"8096","name":"擎亞","close":155.5,"change":5.5,"percent":3.67,"tradeVolume":9641000,"value":1499175500,"foreign":-149925,"trust":0,"dealer":59270,"total":-90655,"foreignStreak":0,"trustStreak":0,"jointStreak":0,"fiveDayPctSum":18.33,"fiveDayAvgVolume":9766211},{"code":"2301","name":"光寶科","close":210.5,"change":0.5,"percent":0.24,"tradeVolume":20761000,"value":4370190500,"foreign":258310,"trust":-201845,"dealer":0,"total":-111056,"foreignStreak":2,"trustStreak":0,"jointStreak":0,"fiveDayPctSum":-1.21,"fiveDayAvgVolume":24071101},{"code":"4904","name":"遠傳","close":108.5,"change":-1,"percent":-0.91,"tradeVolume":42260000,"value":4585210000,"foreign":4488344,"trust":-4883817,"dealer":0,"total":-117993,"foreignStreak":7,"trustStreak":0,"jointStreak":0,"fiveDayPctSum":2.87,"fiveDayAvgVolume":10903757},{"code":"3702","name":"大聯大","close":112,"change":5,"percent":4.67,"tradeVolume":19948000,"value":2234176000,"foreign":438370,"trust":-325000,"dealer":0,"total":-158516,"foreignStreak":1,"trustStreak":0,"jointStreak":0,"fiveDayPctSum":-1.74,"fiveDayAvgVolume":14206135},{"code":"3663","name":"鑫科","close":85.7,"change":7.6000000000000085,"percent":9.73,"tradeVolume":10691000,"value":916218700,"foreign":-287074,"trust":0,"dealer":92135,"total":-194939,"foreignStreak":0,"trustStreak":0,"jointStreak":0,"fiveDayPctSum":48.66,"fiveDayAvgVolume":10803198},{"code":"3706","name":"神達","close":86.9,"change":0.6000000000000085,"percent":0.7,"tradeVolume":9884000,"value":858919600,"foreign":-1250714,"trust":387000,"dealer":0,"total":-204182,"foreignStreak":0,"trustStreak":1,"jointStreak":0,"fiveDayPctSum":0.28,"fiveDayAvgVolume":16586287},{"code":"3045","name":"台灣大","close":119,"change":0,"percent":0,"tradeVolume":8091000,"value":962829000,"foreign":-635030,"trust":423677,"dealer":0,"total":-216393,"foreignStreak":0,"trustStreak":2,"jointStreak":0,"fiveDayPctSum":0.86,"fiveDayAvgVolume":11280027},{"code":"6125","name":"廣運","close":63.6,"change":2.8999999999999986,"percent":4.78,"tradeVolume":4990000,"value":317364000,"foreign":-314521,"trust":0,"dealer":97170,"total":-217351,"foreignStreak":0,"trustStreak":0,"jointStreak":0,"fiveDayPctSum":23.89,"fiveDayAvgVolume":5054203},{"code":"3707","name":"漢磊","close":83.2,"change":2.700000000000003,"percent":3.35,"tradeVolume":18902000,"value":1572646400,"foreign":-219830,"trust":0,"dealer":-2311,"total":-222141,"foreignStreak":0,"trustStreak":0,"jointStreak":0,"fiveDayPctSum":16.77,"fiveDayAvgVolume":19128855},{"code":"5521","name":"工信","close":10.6,"change":-0.09999999999999964,"percent":-0.93,"tradeVolume":3640000,"value":38584000,"foreign":-222467,"trust":0,"dealer":0,"total":-223340,"foreignStreak":0,"trustStreak":0,"jointStreak":0,"fiveDayPctSum":-4.55,"fiveDayAvgVolume":7425561},{"code":"6706","name":"惠特","close":172,"change":5,"percent":2.99,"tradeVolume":3341000,"value":574652000,"foreign":-194959,"trust":0,"dealer":0,"total":-231005,"foreignStreak":0,"trustStreak":0,"jointStreak":0,"fiveDayPctSum":2.53,"fiveDayAvgVolume":4825713},{"code":"3290","name":"東浦","close":69.8,"change":4,"percent":6.08,"tradeVolume":4257000,"value":297138600,"foreign":-592489,"trust":0,"dealer":345135,"total":-247354,"foreignStreak":0,"trustStreak":0,"jointStreak":0,"fiveDayPctSum":30.4,"fiveDayAvgVolume":4349691},{"code":"1905","name":"華紙","close":17.1,"change":1.5500000000000007,"percent":9.97,"tradeVolume":44051000,"value":753272100,"foreign":-398000,"trust":0,"dealer":0,"total":-285996,"foreignStreak":0,"trustStreak":0,"jointStreak":0,"fiveDayPctSum":19.23,"fiveDayAvgVolume":12940921},{"code":"4973","name":"廣穎","close":193.5,"change":2,"percent":1.04,"tradeVolume":3896000,"value":753876000,"foreign":-317300,"trust":0,"dealer":29256,"total":-288044,"foreignStreak":0,"trustStreak":0,"jointStreak":0,"fiveDayPctSum":5.22,"fiveDayAvgVolume":3984742},{"code":"2338","name":"光罩","close":53.3,"change":1.0999999999999943,"percent":2.11,"tradeVolume":6672000,"value":355617600,"foreign":-227066,"trust":0,"dealer":0,"total":-314368,"foreignStreak":0,"trustStreak":0,"jointStreak":0,"fiveDayPctSum":16.81,"fiveDayAvgVolume":9340916}]}
