{"ok":true,"updatedAt":"2026-06-18T07:11:16.011Z","usedDate":"20260618","quoteUpdatedAt":"2026-06-18T07:11:15.479Z","source":"institution-page","page":12,"pageSize":25,"totalPages":14,"totalCount":326,"count":25,"rows":[{"code":"2353","name":"宏碁","close":34.4,"change":-0.6000000000000014,"percent":-1.71,"tradeVolume":46679000,"value":1605757600,"foreign":-314225,"trust":-207218,"dealer":0,"total":-1526878,"foreignStreak":0,"trustStreak":0,"jointStreak":0,"fiveDayPctSum":7.33,"fiveDayAvgVolume":62342603},{"code":"2104","name":"國際中橡","close":10.35,"change":0.15000000000000036,"percent":1.47,"tradeVolume":3684000,"value":38129400,"foreign":-1575907,"trust":0,"dealer":0,"total":-1610964,"foreignStreak":0,"trustStreak":0,"jointStreak":0,"fiveDayPctSum":-3.3,"fiveDayAvgVolume":3223941},{"code":"6257","name":"矽格","close":235,"change":21,"percent":9.81,"tradeVolume":16667000,"value":3916745000,"foreign":-1862693,"trust":248000,"dealer":0,"total":-1660146,"foreignStreak":0,"trustStreak":1,"jointStreak":0,"fiveDayPctSum":5.39,"fiveDayAvgVolume":6902810},{"code":"6175","name":"立敦","close":114,"change":6.5,"percent":6.05,"tradeVolume":28378000,"value":3235092000,"foreign":-1604051,"trust":0,"dealer":-61572,"total":-1665623,"foreignStreak":0,"trustStreak":0,"jointStreak":0,"fiveDayPctSum":30.23,"fiveDayAvgVolume":28591141},{"code":"6505","name":"台塑化","close":53.5,"change":0.8999999999999986,"percent":1.71,"tradeVolume":13919000,"value":744666500,"foreign":-1336597,"trust":9179,"dealer":0,"total":-1701107,"foreignStreak":0,"trustStreak":1,"jointStreak":0,"fiveDayPctSum":3.14,"fiveDayAvgVolume":6674076},{"code":"1216","name":"統一","close":74.5,"change":-1.5,"percent":-1.97,"tradeVolume":26875000,"value":2002187500,"foreign":-1490749,"trust":-66535,"dealer":0,"total":-1819191,"foreignStreak":0,"trustStreak":0,"jointStreak":0,"fiveDayPctSum":2.15,"fiveDayAvgVolume":12655050},{"code":"6415","name":"矽力*-KY","close":629,"change":57,"percent":9.97,"tradeVolume":6148000,"value":3867092000,"foreign":-2303444,"trust":532000,"dealer":0,"total":-1871232,"foreignStreak":0,"trustStreak":4,"jointStreak":0,"fiveDayPctSum":15.95,"fiveDayAvgVolume":6347670},{"code":"6548","name":"長科*","close":86.1,"change":-3,"percent":-3.37,"tradeVolume":14095000,"value":1213579500,"foreign":-1888078,"trust":0,"dealer":5531,"total":-1882547,"foreignStreak":0,"trustStreak":0,"jointStreak":0,"fiveDayPctSum":-16.84,"fiveDayAvgVolume":14289121},{"code":"4958","name":"臻鼎-KY","close":642,"change":3,"percent":0.47,"tradeVolume":51987000,"value":33375654000,"foreign":-2656207,"trust":858690,"dealer":0,"total":-1894001,"foreignStreak":0,"trustStreak":5,"jointStreak":0,"fiveDayPctSum":24.78,"fiveDayAvgVolume":45397798},{"code":"8088","name":"品安","close":69.2,"change":4.400000000000006,"percent":6.79,"tradeVolume":17990000,"value":1244908000,"foreign":-1920392,"trust":0,"dealer":38,"total":-1920354,"foreignStreak":0,"trustStreak":0,"jointStreak":0,"fiveDayPctSum":33.95,"fiveDayAvgVolume":18164915},{"code":"2347","name":"聯強","close":93.4,"change":1,"percent":1.08,"tradeVolume":11047000,"value":1031789800,"foreign":85862,"trust":-2139915,"dealer":0,"total":-1971036,"foreignStreak":3,"trustStreak":0,"jointStreak":0,"fiveDayPctSum":0.3,"fiveDayAvgVolume":7164759},{"code":"2451","name":"創見","close":311.5,"change":0.5,"percent":0.16,"tradeVolume":5711000,"value":1778976500,"foreign":-2420894,"trust":454000,"dealer":0,"total":-2000025,"foreignStreak":0,"trustStreak":1,"jointStreak":0,"fiveDayPctSum":6.08,"fiveDayAvgVolume":5398262},{"code":"6153","name":"嘉聯益","close":24.45,"change":0.05000000000000071,"percent":0.2,"tradeVolume":20332000,"value":497117400,"foreign":-1974393,"trust":0,"dealer":0,"total":-2019616,"foreignStreak":0,"trustStreak":0,"jointStreak":0,"fiveDayPctSum":17.43,"fiveDayAvgVolume":27461266},{"code":"3376","name":"新日興","close":205,"change":7.5,"percent":3.8,"tradeVolume":3855000,"value":790275000,"foreign":-2171224,"trust":7000,"dealer":0,"total":-2025711,"foreignStreak":0,"trustStreak":1,"jointStreak":0,"fiveDayPctSum":-6.74,"fiveDayAvgVolume":6340433},{"code":"2615","name":"萬海","close":80.4,"change":0,"percent":0,"tradeVolume":9195000,"value":739278000,"foreign":-2611073,"trust":-2112,"dealer":0,"total":-2050203,"foreignStreak":0,"trustStreak":0,"jointStreak":0,"fiveDayPctSum":-3.24,"fiveDayAvgVolume":11235437},{"code":"6244","name":"茂迪","close":28.45,"change":-0.6999999999999993,"percent":-2.4,"tradeVolume":10736000,"value":305439200,"foreign":-1500747,"trust":0,"dealer":-551435,"total":-2052182,"foreignStreak":0,"trustStreak":0,"jointStreak":0,"fiveDayPctSum":-12.01,"fiveDayAvgVolume":10823644},{"code":"9907","name":"統一實","close":16.7,"change":0.05000000000000071,"percent":0.3,"tradeVolume":11057000,"value":184651900,"foreign":-667000,"trust":-1433699,"dealer":0,"total":-2118960,"foreignStreak":0,"trustStreak":0,"jointStreak":0,"fiveDayPctSum":-0.3,"fiveDayAvgVolume":5492822},{"code":"2342","name":"茂矽","close":55.2,"change":5,"percent":9.96,"tradeVolume":29088000,"value":1605657600,"foreign":-2107319,"trust":0,"dealer":0,"total":-2174539,"foreignStreak":0,"trustStreak":0,"jointStreak":0,"fiveDayPctSum":26.49,"fiveDayAvgVolume":17804586},{"code":"2484","name":"希華","close":71.2,"change":1.7000000000000028,"percent":2.45,"tradeVolume":23298000,"value":1658817600,"foreign":-2330709,"trust":0,"dealer":0,"total":-2240709,"foreignStreak":0,"trustStreak":0,"jointStreak":0,"fiveDayPctSum":19.02,"fiveDayAvgVolume":66127374},{"code":"6290","name":"良維","close":319.5,"change":15.5,"percent":5.1,"tradeVolume":7283000,"value":2326918500,"foreign":-1959969,"trust":-429000,"dealer":97450,"total":-2291519,"foreignStreak":0,"trustStreak":0,"jointStreak":0,"fiveDayPctSum":25.49,"fiveDayAvgVolume":7529143},{"code":"4915","name":"致伸","close":75.9,"change":-0.09999999999999432,"percent":-0.13,"tradeVolume":4481000,"value":340107900,"foreign":-2749906,"trust":295867,"dealer":0,"total":-2458390,"foreignStreak":0,"trustStreak":5,"jointStreak":0,"fiveDayPctSum":0.84,"fiveDayAvgVolume":6133552},{"code":"2412","name":"中華電","close":144,"change":-1.5,"percent":-1.03,"tradeVolume":9891000,"value":1424304000,"foreign":-2702980,"trust":296345,"dealer":0,"total":-2474547,"foreignStreak":0,"trustStreak":1,"jointStreak":0,"fiveDayPctSum":1.04,"fiveDayAvgVolume":11559021},{"code":"8150","name":"南茂","close":104,"change":9.099999999999994,"percent":9.59,"tradeVolume":72338000,"value":7523152000,"foreign":-1627710,"trust":-4000,"dealer":0,"total":-2519424,"foreignStreak":0,"trustStreak":0,"jointStreak":0,"fiveDayPctSum":7.69,"fiveDayAvgVolume":53422112},{"code":"2371","name":"大同","close":28.3,"change":0.3000000000000007,"percent":1.07,"tradeVolume":15267000,"value":432056100,"foreign":-2317931,"trust":29000,"dealer":0,"total":-2521749,"foreignStreak":0,"trustStreak":1,"jointStreak":0,"fiveDayPctSum":-0.85,"fiveDayAvgVolume":12073037},{"code":"3036","name":"文曄","close":222.5,"change":-1.5,"percent":-0.67,"tradeVolume":15742000,"value":3502595000,"foreign":-791563,"trust":-636769,"dealer":0,"total":-2529696,"foreignStreak":0,"trustStreak":0,"jointStreak":0,"fiveDayPctSum":-6.55,"fiveDayAvgVolume":14819118}],"matches":[{"code":"2353","name":"宏碁","close":34.4,"change":-0.6000000000000014,"percent":-1.71,"tradeVolume":46679000,"value":1605757600,"foreign":-314225,"trust":-207218,"dealer":0,"total":-1526878,"foreignStreak":0,"trustStreak":0,"jointStreak":0,"fiveDayPctSum":7.33,"fiveDayAvgVolume":62342603},{"code":"2104","name":"國際中橡","close":10.35,"change":0.15000000000000036,"percent":1.47,"tradeVolume":3684000,"value":38129400,"foreign":-1575907,"trust":0,"dealer":0,"total":-1610964,"foreignStreak":0,"trustStreak":0,"jointStreak":0,"fiveDayPctSum":-3.3,"fiveDayAvgVolume":3223941},{"code":"6257","name":"矽格","close":235,"change":21,"percent":9.81,"tradeVolume":16667000,"value":3916745000,"foreign":-1862693,"trust":248000,"dealer":0,"total":-1660146,"foreignStreak":0,"trustStreak":1,"jointStreak":0,"fiveDayPctSum":5.39,"fiveDayAvgVolume":6902810},{"code":"6175","name":"立敦","close":114,"change":6.5,"percent":6.05,"tradeVolume":28378000,"value":3235092000,"foreign":-1604051,"trust":0,"dealer":-61572,"total":-1665623,"foreignStreak":0,"trustStreak":0,"jointStreak":0,"fiveDayPctSum":30.23,"fiveDayAvgVolume":28591141},{"code":"6505","name":"台塑化","close":53.5,"change":0.8999999999999986,"percent":1.71,"tradeVolume":13919000,"value":744666500,"foreign":-1336597,"trust":9179,"dealer":0,"total":-1701107,"foreignStreak":0,"trustStreak":1,"jointStreak":0,"fiveDayPctSum":3.14,"fiveDayAvgVolume":6674076},{"code":"1216","name":"統一","close":74.5,"change":-1.5,"percent":-1.97,"tradeVolume":26875000,"value":2002187500,"foreign":-1490749,"trust":-66535,"dealer":0,"total":-1819191,"foreignStreak":0,"trustStreak":0,"jointStreak":0,"fiveDayPctSum":2.15,"fiveDayAvgVolume":12655050},{"code":"6415","name":"矽力*-KY","close":629,"change":57,"percent":9.97,"tradeVolume":6148000,"value":3867092000,"foreign":-2303444,"trust":532000,"dealer":0,"total":-1871232,"foreignStreak":0,"trustStreak":4,"jointStreak":0,"fiveDayPctSum":15.95,"fiveDayAvgVolume":6347670},{"code":"6548","name":"長科*","close":86.1,"change":-3,"percent":-3.37,"tradeVolume":14095000,"value":1213579500,"foreign":-1888078,"trust":0,"dealer":5531,"total":-1882547,"foreignStreak":0,"trustStreak":0,"jointStreak":0,"fiveDayPctSum":-16.84,"fiveDayAvgVolume":14289121},{"code":"4958","name":"臻鼎-KY","close":642,"change":3,"percent":0.47,"tradeVolume":51987000,"value":33375654000,"foreign":-2656207,"trust":858690,"dealer":0,"total":-1894001,"foreignStreak":0,"trustStreak":5,"jointStreak":0,"fiveDayPctSum":24.78,"fiveDayAvgVolume":45397798},{"code":"8088","name":"品安","close":69.2,"change":4.400000000000006,"percent":6.79,"tradeVolume":17990000,"value":1244908000,"foreign":-1920392,"trust":0,"dealer":38,"total":-1920354,"foreignStreak":0,"trustStreak":0,"jointStreak":0,"fiveDayPctSum":33.95,"fiveDayAvgVolume":18164915},{"code":"2347","name":"聯強","close":93.4,"change":1,"percent":1.08,"tradeVolume":11047000,"value":1031789800,"foreign":85862,"trust":-2139915,"dealer":0,"total":-1971036,"foreignStreak":3,"trustStreak":0,"jointStreak":0,"fiveDayPctSum":0.3,"fiveDayAvgVolume":7164759},{"code":"2451","name":"創見","close":311.5,"change":0.5,"percent":0.16,"tradeVolume":5711000,"value":1778976500,"foreign":-2420894,"trust":454000,"dealer":0,"total":-2000025,"foreignStreak":0,"trustStreak":1,"jointStreak":0,"fiveDayPctSum":6.08,"fiveDayAvgVolume":5398262},{"code":"6153","name":"嘉聯益","close":24.45,"change":0.05000000000000071,"percent":0.2,"tradeVolume":20332000,"value":497117400,"foreign":-1974393,"trust":0,"dealer":0,"total":-2019616,"foreignStreak":0,"trustStreak":0,"jointStreak":0,"fiveDayPctSum":17.43,"fiveDayAvgVolume":27461266},{"code":"3376","name":"新日興","close":205,"change":7.5,"percent":3.8,"tradeVolume":3855000,"value":790275000,"foreign":-2171224,"trust":7000,"dealer":0,"total":-2025711,"foreignStreak":0,"trustStreak":1,"jointStreak":0,"fiveDayPctSum":-6.74,"fiveDayAvgVolume":6340433},{"code":"2615","name":"萬海","close":80.4,"change":0,"percent":0,"tradeVolume":9195000,"value":739278000,"foreign":-2611073,"trust":-2112,"dealer":0,"total":-2050203,"foreignStreak":0,"trustStreak":0,"jointStreak":0,"fiveDayPctSum":-3.24,"fiveDayAvgVolume":11235437},{"code":"6244","name":"茂迪","close":28.45,"change":-0.6999999999999993,"percent":-2.4,"tradeVolume":10736000,"value":305439200,"foreign":-1500747,"trust":0,"dealer":-551435,"total":-2052182,"foreignStreak":0,"trustStreak":0,"jointStreak":0,"fiveDayPctSum":-12.01,"fiveDayAvgVolume":10823644},{"code":"9907","name":"統一實","close":16.7,"change":0.05000000000000071,"percent":0.3,"tradeVolume":11057000,"value":184651900,"foreign":-667000,"trust":-1433699,"dealer":0,"total":-2118960,"foreignStreak":0,"trustStreak":0,"jointStreak":0,"fiveDayPctSum":-0.3,"fiveDayAvgVolume":5492822},{"code":"2342","name":"茂矽","close":55.2,"change":5,"percent":9.96,"tradeVolume":29088000,"value":1605657600,"foreign":-2107319,"trust":0,"dealer":0,"total":-2174539,"foreignStreak":0,"trustStreak":0,"jointStreak":0,"fiveDayPctSum":26.49,"fiveDayAvgVolume":17804586},{"code":"2484","name":"希華","close":71.2,"change":1.7000000000000028,"percent":2.45,"tradeVolume":23298000,"value":1658817600,"foreign":-2330709,"trust":0,"dealer":0,"total":-2240709,"foreignStreak":0,"trustStreak":0,"jointStreak":0,"fiveDayPctSum":19.02,"fiveDayAvgVolume":66127374},{"code":"6290","name":"良維","close":319.5,"change":15.5,"percent":5.1,"tradeVolume":7283000,"value":2326918500,"foreign":-1959969,"trust":-429000,"dealer":97450,"total":-2291519,"foreignStreak":0,"trustStreak":0,"jointStreak":0,"fiveDayPctSum":25.49,"fiveDayAvgVolume":7529143},{"code":"4915","name":"致伸","close":75.9,"change":-0.09999999999999432,"percent":-0.13,"tradeVolume":4481000,"value":340107900,"foreign":-2749906,"trust":295867,"dealer":0,"total":-2458390,"foreignStreak":0,"trustStreak":5,"jointStreak":0,"fiveDayPctSum":0.84,"fiveDayAvgVolume":6133552},{"code":"2412","name":"中華電","close":144,"change":-1.5,"percent":-1.03,"tradeVolume":9891000,"value":1424304000,"foreign":-2702980,"trust":296345,"dealer":0,"total":-2474547,"foreignStreak":0,"trustStreak":1,"jointStreak":0,"fiveDayPctSum":1.04,"fiveDayAvgVolume":11559021},{"code":"8150","name":"南茂","close":104,"change":9.099999999999994,"percent":9.59,"tradeVolume":72338000,"value":7523152000,"foreign":-1627710,"trust":-4000,"dealer":0,"total":-2519424,"foreignStreak":0,"trustStreak":0,"jointStreak":0,"fiveDayPctSum":7.69,"fiveDayAvgVolume":53422112},{"code":"2371","name":"大同","close":28.3,"change":0.3000000000000007,"percent":1.07,"tradeVolume":15267000,"value":432056100,"foreign":-2317931,"trust":29000,"dealer":0,"total":-2521749,"foreignStreak":0,"trustStreak":1,"jointStreak":0,"fiveDayPctSum":-0.85,"fiveDayAvgVolume":12073037},{"code":"3036","name":"文曄","close":222.5,"change":-1.5,"percent":-0.67,"tradeVolume":15742000,"value":3502595000,"foreign":-791563,"trust":-636769,"dealer":0,"total":-2529696,"foreignStreak":0,"trustStreak":0,"jointStreak":0,"fiveDayPctSum":-6.55,"fiveDayAvgVolume":14819118}]}
