{"ok":true,"updatedAt":"2026-06-18T07:11:16.011Z","usedDate":"20260618","quoteUpdatedAt":"2026-06-18T07:11:15.479Z","source":"institution-page","page":14,"pageSize":25,"totalPages":14,"totalCount":326,"count":1,"rows":[{"code":"6770","name":"力積電","close":74.2,"change":4,"percent":5.7,"tradeVolume":243430000,"value":18062506000,"foreign":-31701807,"trust":0,"dealer":0,"total":-30661320,"foreignStreak":0,"trustStreak":0,"jointStreak":0,"fiveDayPctSum":9.16,"fiveDayAvgVolume":140429771}],"matches":[{"code":"6770","name":"力積電","close":74.2,"change":4,"percent":5.7,"tradeVolume":243430000,"value":18062506000,"foreign":-31701807,"trust":0,"dealer":0,"total":-30661320,"foreignStreak":0,"trustStreak":0,"jointStreak":0,"fiveDayPctSum":9.16,"fiveDayAvgVolume":140429771}]}
