{"ok":true,"source":"strategy4-preset","updatedAt":"2026-06-11T12:31:33.792Z","scanStamp":"20260611","total":1958,"complete":true,"zone":"C","page":11,"pageSize":25,"totalPages":13,"totalCount":319,"count":25,"matches":[{"code":"6742","name":"澤米","close":54.599998474121094,"percent":-8.695653560672282,"tradeVolume":3112.473,"avgVolume5":3349.42,"value":0,"swingScore":67,"score":67,"swingZone":"C","swingStage":{"label":"中位階","ratio":"0.62","tone":"mid","value":0.6160877299523351},"swingSignals":[{"id":"base_setup","title":"","short":"C準備","icon":"C","reason":"低/中位階整理接近發動；準備分 5/7，RSI 39.7，量比 0.85。"}]},{"code":"5425","name":"台半","close":91.9,"percent":5.269183032576733,"tradeVolume":19331.162,"avgVolume5":19292.37,"value":1730162181,"swingScore":66,"score":66,"swingZone":"C","swingStage":{"label":"中位階","ratio":"0.51","tone":"mid","value":0.5144508724052687},"swingSignals":[{"id":"base_setup","title":"","short":"C準備","icon":"C","reason":"低/中位階整理接近發動；準備分 6/7，RSI 53.4，量比 0.54。"}]},{"code":"6278","name":"台表科","close":192,"percent":2.127659574468085,"tradeVolume":13311.547,"avgVolume5":12276.8,"value":0,"swingScore":66,"score":66,"swingZone":"C","swingStage":{"label":"中位階","ratio":"0.49","tone":"mid","value":0.4897959183673469},"swingSignals":[{"id":"base_setup","title":"","short":"C準備","icon":"C","reason":"低/中位階整理接近發動；準備分 5/7，RSI 19.2，量比 0.80。"}]},{"code":"3085","name":"新零售","close":12.5,"percent":2.0408163265306123,"tradeVolume":13.096,"avgVolume5":7448.22,"value":154616,"swingScore":66,"score":66,"swingZone":"C","swingStage":{"label":"中位階","ratio":"0.45","tone":"mid","value":0.45161286353071833},"swingSignals":[{"id":"base_setup","title":"","short":"C準備","icon":"C","reason":"低/中位階整理接近發動；準備分 5/7，RSI 61.2，量比 0.00。"}]},{"code":"8482","name":"商億-KY","close":47.75,"percent":1.8123634253019671,"tradeVolume":4302,"avgVolume5":12575.5,"value":0,"swingScore":66,"score":66,"swingZone":"C","swingStage":{"label":"低基期","ratio":"0.30","tone":"low","value":0.30208354029393836},"swingSignals":[{"id":"base_setup","title":"","short":"C準備","icon":"C","reason":"低/中位階整理接近發動；準備分 6/7，RSI 42.6，量比 0.55。"}]},{"code":"6899","name":"創為精密","close":61.6,"percent":1.4827005366531152,"tradeVolume":84.225,"avgVolume5":13368.88,"value":5135323,"swingScore":66,"score":66,"swingZone":"C","swingStage":{"label":"中位階","ratio":"0.49","tone":"mid","value":0.4945054539677244},"swingSignals":[{"id":"base_setup","title":"","short":"C準備","icon":"C","reason":"低/中位階整理接近發動；準備分 5/7，RSI 47.2，量比 0.01。"}]},{"code":"2926","name":"誠品生活","close":35.1,"percent":1.1527355281437295,"tradeVolume":10.577,"avgVolume5":20816.52,"value":368070,"swingScore":66,"score":66,"swingZone":"C","swingStage":{"label":"低基期","ratio":"0.29","tone":"low","value":0.2921349528220614},"swingSignals":[{"id":"base_setup","title":"","short":"C準備","icon":"C","reason":"低/中位階整理接近發動；準備分 5/7，RSI 28.2，量比 0.00。"}]},{"code":"4906","name":"正文","close":42,"percent":1.0830343470573993,"tradeVolume":14180.568,"avgVolume5":17221.55,"value":0,"swingScore":66,"score":66,"swingZone":"C","swingStage":{"label":"中位階","ratio":"0.39","tone":"mid","value":0.3866667005750868},"swingSignals":[{"id":"base_setup","title":"","short":"C準備","icon":"C","reason":"低/中位階整理接近發動；準備分 6/7，RSI 52.7，量比 0.48。"}]},{"code":"8261","name":"富鼎","close":158,"percent":0.9584664536741214,"tradeVolume":4957.984,"avgVolume5":5582.26,"value":0,"swingScore":66,"score":66,"swingZone":"C","swingStage":{"label":"中位階","ratio":"0.49","tone":"mid","value":0.49065420560747663},"swingSignals":[{"id":"base_setup","title":"","short":"C準備","icon":"C","reason":"低/中位階整理接近發動；準備分 6/7，RSI 49.1，量比 0.50。"}]},{"code":"4950","name":"金耘國際","close":16.25,"percent":0.9316746271814706,"tradeVolume":10.029,"avgVolume5":17291.01,"value":163219,"swingScore":66,"score":66,"swingZone":"C","swingStage":{"label":"低基期","ratio":"0.16","tone":"low","value":0.15853647757400163},"swingSignals":[{"id":"base_setup","title":"","short":"C準備","icon":"C","reason":"低/中位階整理接近發動；準備分 5/7，RSI 32.1，量比 0.00。"}]},{"code":"5514","name":"三豐","close":13.9,"percent":0.7246362890072684,"tradeVolume":4.343,"avgVolume5":9290.07,"value":59861,"swingScore":66,"score":66,"swingZone":"C","swingStage":{"label":"低基期","ratio":"0.24","tone":"low","value":0.24285715453479084},"swingSignals":[{"id":"base_setup","title":"","short":"C準備","icon":"C","reason":"低/中位階整理接近發動；準備分 5/7，RSI 25.9，量比 0.00。"}]},{"code":"3706","name":"神達","close":86.5,"percent":0.46457785478258046,"tradeVolume":13958.337,"avgVolume5":26262.49,"value":0,"swingScore":66,"score":66,"swingZone":"C","swingStage":{"label":"低基期","ratio":"0.34","tone":"low","value":0.33852132223063336},"swingSignals":[{"id":"base_setup","title":"","short":"C準備","icon":"C","reason":"低/中位階整理接近發動；準備分 5/7，RSI 48.6，量比 0.42。"}]},{"code":"4419","name":"皇家美食","close":45.55,"percent":0.10989010989010364,"tradeVolume":12.963,"avgVolume5":23671.79,"value":589013,"swingScore":66,"score":66,"swingZone":"C","swingStage":{"label":"低基期","ratio":"0.30","tone":"low","value":0.29687540605654483},"swingSignals":[{"id":"base_setup","title":"","short":"C準備","icon":"C","reason":"低/中位階整理接近發動；準備分 5/7，RSI 56.7，量比 0.00。"}]},{"code":"4767","name":"誠泰科技","close":27.1,"percent":-0.0000014076373423310118,"tradeVolume":5.202,"avgVolume5":4401.04,"value":140505,"swingScore":66,"score":66,"swingZone":"C","swingStage":{"label":"中位階","ratio":"0.55","tone":"mid","value":0.5500000000000007},"swingSignals":[{"id":"base_setup","title":"","short":"C準備","icon":"C","reason":"低/中位階整理接近發動；準備分 5/7，RSI 54.8，量比 0.00。"}]},{"code":"2009","name":"第一銅","close":38.95000076293945,"percent":-0.1282031719501202,"tradeVolume":1494.764,"avgVolume5":3544.09,"value":0,"swingScore":66,"score":66,"swingZone":"C","swingStage":{"label":"低基期","ratio":"0.19","tone":"low","value":0.18604672825478977},"swingSignals":[{"id":"base_setup","title":"","short":"C準備","icon":"C","reason":"低/中位階整理接近發動；準備分 5/7，RSI 49.0，量比 0.35。"}]},{"code":"6198","name":"瑞築","close":20.6,"percent":-0.24212890776716947,"tradeVolume":2,"avgVolume5":16753.75,"value":41200,"swingScore":66,"score":66,"swingZone":"C","swingStage":{"label":"低基期","ratio":"0.17","tone":"low","value":0.16666672721740625},"swingSignals":[{"id":"base_setup","title":"","short":"C準備","icon":"C","reason":"低/中位階整理接近發動；準備分 5/7，RSI 19.5，量比 0.00。"}]},{"code":"5009","name":"榮剛","close":35.35,"percent":-0.28208959319401666,"tradeVolume":1988.78,"avgVolume5":3286.03,"value":69803182,"swingScore":66,"score":66,"swingZone":"C","swingStage":{"label":"中位階","ratio":"0.47","tone":"mid","value":0.46919429805871715},"swingSignals":[{"id":"base_setup","title":"","short":"C準備","icon":"C","reason":"低/中位階整理接近發動；準備分 6/7，RSI 48.9，量比 0.52。"}]},{"code":"7747","name":"昕奇雲端","close":128,"percent":-0.38910505836575876,"tradeVolume":10.003,"avgVolume5":7207.2,"value":1269878,"swingScore":66,"score":66,"swingZone":"C","swingStage":{"label":"中位階","ratio":"0.43","tone":"mid","value":0.42857142857142855},"swingSignals":[{"id":"base_setup","title":"","short":"C準備","icon":"C","reason":"低/中位階整理接近發動；準備分 5/7，RSI 58.8，量比 0.00。"}]},{"code":"2248","name":"華勝-KY","close":55.400001525878906,"percent":-1.77304959742094,"tradeVolume":112.892,"avgVolume5":55630.78,"value":0,"swingScore":66,"score":66,"swingZone":"C","swingStage":{"label":"低基期","ratio":"0.28","tone":"low","value":0.2795701615175769},"swingSignals":[{"id":"base_setup","title":"","short":"C準備","icon":"C","reason":"低/中位階整理接近發動；準備分 5/7，RSI 54.8，量比 0.00。"}]},{"code":"6209","name":"今國光","close":79.30000305175781,"percent":-2.0987616644965277,"tradeVolume":16899.505,"avgVolume5":29788.54,"value":0,"swingScore":66,"score":66,"swingZone":"C","swingStage":{"label":"中位階","ratio":"0.55","tone":"mid","value":0.5513513925913218},"swingSignals":[{"id":"base_setup","title":"","short":"C準備","icon":"C","reason":"低/中位階整理接近發動；準備分 5/7，RSI 43.5，量比 0.75。"}]},{"code":"6282","name":"康舒","close":57.20000076293945,"percent":-2.222220918052217,"tradeVolume":49119.039,"avgVolume5":72817.91,"value":0,"swingScore":66,"score":66,"swingZone":"C","swingStage":{"label":"中位階","ratio":"0.47","tone":"mid","value":0.47286819069225805},"swingSignals":[{"id":"base_setup","title":"","short":"C準備","icon":"C","reason":"低/中位階整理接近發動；準備分 5/7，RSI 49.8，量比 0.75。"}]},{"code":"3162","name":"精確","close":83.6,"percent":-2.222222222222229,"tradeVolume":1788.636,"avgVolume5":3061.61,"value":150850706,"swingScore":66,"score":66,"swingZone":"C","swingStage":{"label":"中位階","ratio":"0.61","tone":"mid","value":0.6141303838538804},"swingSignals":[{"id":"base_setup","title":"","short":"C準備","icon":"C","reason":"低/中位階整理接近發動；準備分 6/7，RSI 43.1，量比 0.46。"}]},{"code":"6213","name":"聯茂","close":248,"percent":-2.3622047244094486,"tradeVolume":10853.033,"avgVolume5":10017.06,"value":0,"swingScore":66,"score":66,"swingZone":"C","swingStage":{"label":"低基期","ratio":"0.20","tone":"low","value":0.20430107526881722},"swingSignals":[{"id":"base_setup","title":"","short":"C準備","icon":"C","reason":"低/中位階整理接近發動；準備分 5/7，RSI 44.9，量比 0.75。"}]},{"code":"2402","name":"毅嘉","close":60.599998474121094,"percent":1.5075338353100003,"tradeVolume":5117.391,"avgVolume5":5525.53,"value":0,"swingScore":65,"score":65,"swingZone":"C","swingStage":{"label":"低基期","ratio":"0.11","tone":"low","value":0.10948904499755387},"swingSignals":[{"id":"base_setup","title":"","short":"C準備","icon":"C","reason":"低/中位階整理接近發動；準備分 5/7，RSI 39.7，量比 0.57。"}]},{"code":"2476","name":"鉅祥","close":119,"percent":0.42194092827004215,"tradeVolume":3425.802,"avgVolume5":4497.43,"value":0,"swingScore":65,"score":65,"swingZone":"C","swingStage":{"label":"中位階","ratio":"0.47","tone":"mid","value":0.4666666666666667},"swingSignals":[{"id":"base_setup","title":"","short":"C準備","icon":"C","reason":"低/中位階整理接近發動；準備分 5/7，RSI 47.8，量比 0.61。"}]}]}
