{"ok":true,"source":"strategy4-preset","updatedAt":"2026-06-09T06:53:44.896Z","scanStamp":"20260609","total":1953,"complete":true,"zone":"C","page":17,"pageSize":25,"totalPages":23,"totalCount":554,"count":25,"matches":[{"code":"6661","name":"威健生技","close":16.1,"percent":-1.2269938650306704,"tradeVolume":5,"value":80500,"swingScore":67,"score":67,"swingZone":"C","swingStage":{"label":"低基期","ratio":"0.17","tone":"low","value":0.16923076923076946},"swingSignals":[{"id":"base_setup","title":"","short":"C準備","icon":"C","reason":"低/中位階整理接近發動；準備分 5/7，RSI 27.1，量比 0.51。"}]},{"code":"6727","name":"亞泰金屬","close":468,"percent":9.9882491186839,"tradeVolume":3626,"value":1696968000,"swingScore":66,"score":66,"swingZone":"C","swingStage":{"label":"低基期","ratio":"0.31","tone":"low","value":0.3092006033182504},"swingSignals":[{"id":"base_setup","title":"","short":"C準備","icon":"C","reason":"低/中位階整理接近發動；準備分 5/7，RSI 46.9，量比 0.00。"}]},{"code":"3219","name":"倚強科","close":78.9,"percent":9.888579387186642,"tradeVolume":163,"value":12860700,"swingScore":66,"score":66,"swingZone":"C","swingStage":{"label":"中位階","ratio":"0.47","tone":"mid","value":0.4689119170984457},"swingSignals":[{"id":"base_setup","title":"","short":"C準備","icon":"C","reason":"低/中位階整理接近發動；準備分 6/7，RSI 46.1，量比 0.14。"}]},{"code":"6426","name":"統新","close":231,"percent":7.441860465116279,"tradeVolume":1359,"value":313929000,"swingScore":66,"score":66,"swingZone":"C","swingStage":{"label":"低基期","ratio":"0.37","tone":"low","value":0.36683417085427134},"swingSignals":[{"id":"base_setup","title":"","short":"C準備","icon":"C","reason":"低/中位階整理接近發動；準備分 5/7，RSI 47.4，量比 0.00。"}]},{"code":"7744","name":"崴寶","close":475,"percent":7.344632768361582,"tradeVolume":125,"value":59375000,"swingScore":66,"score":66,"swingZone":"C","swingStage":{"label":"低基期","ratio":"0.28","tone":"low","value":0.2832080200501253},"swingSignals":[{"id":"base_setup","title":"","short":"C準備","icon":"C","reason":"低/中位階整理接近發動；準備分 5/7，RSI 46.2，量比 0.00。"}]},{"code":"8261","name":"富鼎","close":164.5,"percent":5.448717948717949,"tradeVolume":5677,"value":933866500,"swingScore":66,"score":66,"swingZone":"C","swingStage":{"label":"中位階","ratio":"0.55","tone":"mid","value":0.5514018691588785},"swingSignals":[{"id":"base_setup","title":"","short":"C準備","icon":"C","reason":"低/中位階整理接近發動；準備分 5/7，RSI 57.0，量比 0.00。"}]},{"code":"6284","name":"佳邦","close":105,"percent":5.105105105105099,"tradeVolume":13763,"value":1445115000,"swingScore":66,"score":66,"swingZone":"C","swingStage":{"label":"中位階","ratio":"0.54","tone":"mid","value":0.5381882770870338},"swingSignals":[{"id":"base_setup","title":"","short":"C準備","icon":"C","reason":"低/中位階整理接近發動；準備分 5/7，RSI 59.0，量比 0.00。"}]},{"code":"6829","name":"千附精密","close":205,"percent":2.756892230576441,"tradeVolume":481,"value":98605000,"swingScore":66,"score":66,"swingZone":"C","swingStage":{"label":"中位階","ratio":"0.42","tone":"mid","value":0.42105263157894735},"swingSignals":[{"id":"base_setup","title":"","short":"C準備","icon":"C","reason":"低/中位階整理接近發動；準備分 6/7，RSI 57.4，量比 0.46。"}]},{"code":"3645","name":"達邁","close":99,"percent":2.6970954356846413,"tradeVolume":2568,"value":254232000,"swingScore":66,"score":66,"swingZone":"C","swingStage":{"label":"低基期","ratio":"0.35","tone":"low","value":0.34593023255813965},"swingSignals":[{"id":"base_setup","title":"","short":"C準備","icon":"C","reason":"低/中位階整理接近發動；準備分 5/7，RSI 46.0，量比 0.00。"}]},{"code":"2101","name":"南港","close":32.45,"percent":2.689873417721523,"tradeVolume":2263,"value":73434350,"swingScore":66,"score":66,"swingZone":"C","swingStage":{"label":"低基期","ratio":"0.37","tone":"low","value":0.37313432835820953},"swingSignals":[{"id":"base_setup","title":"","short":"C準備","icon":"C","reason":"低/中位階整理接近發動；準備分 5/7，RSI 34.6，量比 0.00。"}]},{"code":"6179","name":"亞通","close":23.4,"percent":2.6315789473684115,"tradeVolume":753,"value":17620200,"swingScore":66,"score":66,"swingZone":"C","swingStage":{"label":"低基期","ratio":"0.37","tone":"low","value":0.36904761904761846},"swingSignals":[{"id":"base_setup","title":"","short":"C準備","icon":"C","reason":"低/中位階整理接近發動；準備分 5/7，RSI 47.6，量比 0.39。"}]},{"code":"6233","name":"旺玖","close":24.35,"percent":2.310924369747902,"tradeVolume":272,"value":6623200,"swingScore":66,"score":66,"swingZone":"C","swingStage":{"label":"低基期","ratio":"0.31","tone":"low","value":0.3145161290322584},"swingSignals":[{"id":"base_setup","title":"","short":"C準備","icon":"C","reason":"低/中位階整理接近發動；準備分 5/7，RSI 51.0，量比 0.32。"}]},{"code":"1785","name":"光洋科","close":133,"percent":1.9157088122605364,"tradeVolume":9431,"value":1254323000,"swingScore":66,"score":66,"swingZone":"C","swingStage":{"label":"低基期","ratio":"0.16","tone":"low","value":0.16129032258064516},"swingSignals":[{"id":"base_setup","title":"","short":"C準備","icon":"C","reason":"低/中位階整理接近發動；準備分 5/7，RSI 46.3，量比 0.00。"}]},{"code":"8068","name":"全達","close":19.3,"percent":1.3123359580052494,"tradeVolume":212,"value":4091600,"swingScore":66,"score":66,"swingZone":"C","swingStage":{"label":"低基期","ratio":"0.16","tone":"low","value":0.15686274509803916},"swingSignals":[{"id":"base_setup","title":"","short":"C準備","icon":"C","reason":"低/中位階整理接近發動；準備分 6/7，RSI 38.8，量比 0.54。"}]},{"code":"6111","name":"光聚晶電","close":44.5,"percent":1.1363636363636365,"tradeVolume":182,"value":8099000,"swingScore":66,"score":66,"swingZone":"C","swingStage":{"label":"低基期","ratio":"0.35","tone":"low","value":0.34782608695652195},"swingSignals":[{"id":"base_setup","title":"","short":"C準備","icon":"C","reason":"低/中位階整理接近發動；準備分 5/7，RSI 37.5，量比 0.00。"}]},{"code":"4104","name":"佳醫","close":70.9,"percent":0.7102272727272727,"tradeVolume":224,"value":15881600,"swingScore":66,"score":66,"swingZone":"C","swingStage":{"label":"低基期","ratio":"0.14","tone":"low","value":0.14000000000000057},"swingSignals":[{"id":"base_setup","title":"","short":"C準備","icon":"C","reason":"低/中位階整理接近發動；準備分 5/7，RSI 17.1，量比 0.00。"}]},{"code":"8916","name":"光隆","close":45.1,"percent":0.44543429844098625,"tradeVolume":126,"value":5682600,"swingScore":66,"score":66,"swingZone":"C","swingStage":{"label":"低基期","ratio":"0.20","tone":"low","value":0.19999999999999968},"swingSignals":[{"id":"base_setup","title":"","short":"C準備","icon":"C","reason":"低/中位階整理接近發動；準備分 5/7，RSI 19.6，量比 0.00。"}]},{"code":"4506","name":"崇友","close":117.5,"percent":0.4273504273504274,"tradeVolume":40,"value":4700000,"swingScore":66,"score":66,"swingZone":"C","swingStage":{"label":"中位階","ratio":"0.38","tone":"mid","value":0.38461538461538464},"swingSignals":[{"id":"base_setup","title":"","short":"C準備","icon":"C","reason":"低/中位階整理接近發動；準備分 6/7，RSI 40.0，量比 0.48。"}]},{"code":"4439","name":"冠星-KY","close":90.2,"percent":-0.1107419712070812,"tradeVolume":21,"value":1894200,"swingScore":66,"score":66,"swingZone":"C","swingStage":{"label":"低基期","ratio":"0.10","tone":"low","value":0.10303030303030321},"swingSignals":[{"id":"base_setup","title":"","short":"C準備","icon":"C","reason":"低/中位階整理接近發動；準備分 5/7，RSI 45.5，量比 0.00。"}]},{"code":"2033","name":"佳大","close":15.65,"percent":-1.880877742946702,"tradeVolume":154,"value":2410100,"swingScore":66,"score":66,"swingZone":"C","swingStage":{"label":"低基期","ratio":"0.24","tone":"low","value":0.24444444444444458},"swingSignals":[{"id":"base_setup","title":"","short":"C準備","icon":"C","reason":"低/中位階整理接近發動；準備分 5/7，RSI 35.7，量比 0.00。"}]},{"code":"3576","name":"聯合再生","close":17.25,"percent":9.872611464968157,"tradeVolume":12924,"value":222939000,"swingScore":65,"score":65,"swingZone":"C","swingStage":{"label":"中位階","ratio":"0.46","tone":"mid","value":0.45736434108527124},"swingSignals":[{"id":"base_setup","title":"","short":"C準備","icon":"C","reason":"低/中位階整理接近發動；準備分 6/7，RSI 48.3，量比 0.00。"}]},{"code":"6443","name":"元晶","close":39.7,"percent":9.820193637621037,"tradeVolume":14375,"value":570687500,"swingScore":65,"score":65,"swingZone":"C","swingStage":{"label":"中位階","ratio":"0.49","tone":"mid","value":0.4871794871794873},"swingSignals":[{"id":"base_setup","title":"","short":"C準備","icon":"C","reason":"低/中位階整理接近發動；準備分 6/7，RSI 46.7，量比 0.00。"}]},{"code":"2329","name":"華泰","close":56.2,"percent":7.8694817658349345,"tradeVolume":9315,"value":523503000,"swingScore":65,"score":65,"swingZone":"C","swingStage":{"label":"中位階","ratio":"0.45","tone":"mid","value":0.4500000000000002},"swingSignals":[{"id":"base_setup","title":"","short":"C準備","icon":"C","reason":"低/中位階整理接近發動；準備分 6/7，RSI 60.5，量比 0.00。"}]},{"code":"8438","name":"昶昕","close":85.3,"percent":7.702020202020194,"tradeVolume":449,"value":38299700,"swingScore":65,"score":65,"swingZone":"C","swingStage":{"label":"低基期","ratio":"0.27","tone":"low","value":0.2704918032786883},"swingSignals":[{"id":"base_setup","title":"","short":"C準備","icon":"C","reason":"低/中位階整理接近發動；準備分 6/7，RSI 44.4，量比 0.00。"}]},{"code":"3016","name":"嘉晶","close":112,"percent":7.6923076923076925,"tradeVolume":6067,"value":679504000,"swingScore":65,"score":65,"swingZone":"C","swingStage":{"label":"中位階","ratio":"0.61","tone":"mid","value":0.6055555555555555},"swingSignals":[{"id":"base_setup","title":"","short":"C準備","icon":"C","reason":"低/中位階整理接近發動；準備分 6/7，RSI 53.9，量比 0.00。"}]}]}
