{"ok":true,"source":"strategy4-preset","updatedAt":"2026-06-06T12:34:51.971Z","scanStamp":"20260606","total":1957,"complete":true,"zone":"B","page":16,"pageSize":25,"totalPages":41,"totalCount":1020,"count":25,"matches":[{"code":"4104","name":"佳醫","close":71.5,"percent":0,"tradeVolume":142,"value":10153000,"swingScore":86,"score":86,"swingZone":"B","swingStage":{"label":"低基期","ratio":"0.34","tone":"low","value":0.3442621310530193},"swingSignals":[{"id":"watch_trend","title":"","short":"B觀察","icon":"B","reason":"趨勢轉強但尚未觸發突破買點；趨勢分 5/8，量比 0.00，位階 低基期。"}]},{"code":"4541","name":"晟田","close":47.25,"percent":0,"tradeVolume":820,"value":38745000,"swingScore":86,"score":86,"swingZone":"B","swingStage":{"label":"中位階","ratio":"0.47","tone":"mid","value":0.47398843930635864},"swingSignals":[{"id":"watch_trend","title":"","short":"B觀察","icon":"B","reason":"趨勢轉強但尚未觸發突破買點；趨勢分 6/8，量比 0.00，位階 中位階。"}]},{"code":"4552","name":"力達-KY","close":20.55,"percent":0,"tradeVolume":124,"value":2548200,"swingScore":86,"score":86,"swingZone":"B","swingStage":{"label":"中位階","ratio":"0.50","tone":"mid","value":0.5000000000000008},"swingSignals":[{"id":"watch_trend","title":"","short":"B觀察","icon":"B","reason":"趨勢轉強但尚未觸發突破買點；趨勢分 6/8，量比 0.00，位階 中位階。"}]},{"code":"5703","name":"亞都","close":14.45,"percent":0,"tradeVolume":4,"value":57800,"swingScore":86,"score":86,"swingZone":"B","swingStage":{"label":"中位階","ratio":"0.41","tone":"mid","value":0.40579710144927505},"swingSignals":[{"id":"watch_trend","title":"","short":"B觀察","icon":"B","reason":"趨勢轉強但尚未觸發突破買點；趨勢分 6/8，量比 0.00，位階 中位階。"}]},{"code":"8436","name":"大江","close":122.5,"percent":0,"tradeVolume":458,"value":56105000,"swingScore":86,"score":86,"swingZone":"B","swingStage":{"label":"中位階","ratio":"0.59","tone":"mid","value":0.5909090909090909},"swingSignals":[{"id":"watch_trend","title":"","short":"B觀察","icon":"B","reason":"趨勢轉強但尚未觸發突破買點；趨勢分 6/8，量比 0.00，位階 中位階。"}]},{"code":"8463","name":"潤泰材","close":22.4,"percent":0,"tradeVolume":32,"value":716800,"swingScore":86,"score":86,"swingZone":"B","swingStage":{"label":"中位階","ratio":"0.58","tone":"mid","value":0.583333333333333},"swingSignals":[{"id":"watch_trend","title":"","short":"B觀察","icon":"B","reason":"趨勢轉強但尚未觸發突破買點；趨勢分 6/8，量比 0.00，位階 中位階。"}]},{"code":"6226","name":"光鼎","close":13.6,"percent":-0.0000028049243839546617,"tradeVolume":1939,"value":26370400,"swingScore":86,"score":86,"swingZone":"B","swingStage":{"label":"中位階","ratio":"0.46","tone":"mid","value":0.462365575519819},"swingSignals":[{"id":"watch_trend","title":"","short":"B觀察","icon":"B","reason":"趨勢轉強但尚未觸發突破買點；趨勢分 6/8，量比 0.00，位階 中位階。"}]},{"code":"5905","name":"南仁湖","close":8.34,"percent":-0.11976047904191363,"tradeVolume":945,"value":7881300,"swingScore":86,"score":86,"swingZone":"B","swingStage":{"label":"中位階","ratio":"0.45","tone":"mid","value":0.44654088050314444},"swingSignals":[{"id":"watch_trend","title":"","short":"B觀察","icon":"B","reason":"趨勢轉強但尚未觸發突破買點；趨勢分 6/8，量比 0.00，位階 中位階。"}]},{"code":"2608","name":"嘉里大榮","close":30.1,"percent":-0.16583621612897836,"tradeVolume":257,"value":7735700,"swingScore":86,"score":86,"swingZone":"B","swingStage":{"label":"中位階","ratio":"0.60","tone":"mid","value":0.5964912820794251},"swingSignals":[{"id":"watch_trend","title":"","short":"B觀察","icon":"B","reason":"趨勢轉強但尚未觸發突破買點；趨勢分 6/8，量比 0.00，位階 中位階。"}]},{"code":"6184","name":"大豐電","close":46.95,"percent":-0.21253823311813405,"tradeVolume":49,"value":2300550,"swingScore":86,"score":86,"swingZone":"B","swingStage":{"label":"中位階","ratio":"0.49","tone":"mid","value":0.49090964577414875},"swingSignals":[{"id":"watch_trend","title":"","short":"B觀察","icon":"B","reason":"趨勢轉強但尚未觸發突破買點；趨勢分 6/8，量比 0.00，位階 中位階。"}]},{"code":"1109","name":"信大","close":14.85,"percent":-0.3355704697986625,"tradeVolume":66,"value":980100,"swingScore":86,"score":86,"swingZone":"B","swingStage":{"label":"中位階","ratio":"0.42","tone":"mid","value":0.42307692307692263},"swingSignals":[{"id":"watch_trend","title":"","short":"B觀察","icon":"B","reason":"趨勢轉強但尚未觸發突破買點；趨勢分 6/8，量比 0.00，位階 中位階。"}]},{"code":"4568","name":"科際精密","close":41.9,"percent":-0.3567181926278207,"tradeVolume":9,"value":377100,"swingScore":86,"score":86,"swingZone":"B","swingStage":{"label":"中位階","ratio":"0.60","tone":"mid","value":0.5999999999999991},"swingSignals":[{"id":"watch_trend","title":"","short":"B觀察","icon":"B","reason":"趨勢轉強但尚未觸發突破買點；趨勢分 6/8，量比 0.00，位階 中位階。"}]},{"code":"9930","name":"中聯資源","close":69.5,"percent":-0.42979942693409334,"tradeVolume":89,"value":6185500,"swingScore":86,"score":86,"swingZone":"B","swingStage":{"label":"中位階","ratio":"0.57","tone":"mid","value":0.5749999999999993},"swingSignals":[{"id":"watch_trend","title":"","short":"B觀察","icon":"B","reason":"趨勢轉強但尚未觸發突破買點；趨勢分 6/8，量比 0.00，位階 中位階。"}]},{"code":"9938","name":"百和","close":45.55,"percent":-0.43715846994536145,"tradeVolume":1294,"value":58941700,"swingScore":86,"score":86,"swingZone":"B","swingStage":{"label":"中位階","ratio":"0.59","tone":"mid","value":0.5882352941176467},"swingSignals":[{"id":"watch_trend","title":"","short":"B觀察","icon":"B","reason":"趨勢轉強但尚未觸發突破買點；趨勢分 6/8，量比 0.00，位階 中位階。"}]},{"code":"1324","name":"地球","close":10.65,"percent":-0.4672897196261583,"tradeVolume":81,"value":862650,"swingScore":86,"score":86,"swingZone":"B","swingStage":{"label":"低基期","ratio":"0.28","tone":"low","value":0.28205128205128227},"swingSignals":[{"id":"watch_trend","title":"","short":"B觀察","icon":"B","reason":"趨勢轉強但尚未觸發突破買點；趨勢分 5/8，量比 0.00，位階 低基期。"}]},{"code":"4702","name":"中美實","close":10.15,"percent":-0.49019607843136215,"tradeVolume":261,"value":2649150,"swingScore":86,"score":86,"swingZone":"B","swingStage":{"label":"中位階","ratio":"0.60","tone":"mid","value":0.5959595959595957},"swingSignals":[{"id":"watch_trend","title":"","short":"B觀察","icon":"B","reason":"趨勢轉強但尚未觸發突破買點；趨勢分 6/8，量比 0.00，位階 中位階。"}]},{"code":"6721","name":"信實","close":59.5,"percent":-0.5016722408026708,"tradeVolume":4,"value":238000,"swingScore":86,"score":86,"swingZone":"B","swingStage":{"label":"中位階","ratio":"0.56","tone":"mid","value":0.5581395348837209},"swingSignals":[{"id":"watch_trend","title":"","short":"B觀察","icon":"B","reason":"趨勢轉強但尚未觸發突破買點；趨勢分 6/8，量比 0.00，位階 中位階。"}]},{"code":"8422","name":"可寧衛*","close":28.1,"percent":-0.5309734513274286,"tradeVolume":11333,"value":318457300,"swingScore":86,"score":86,"swingZone":"B","swingStage":{"label":"中位階","ratio":"0.49","tone":"mid","value":0.4909090909090914},"swingSignals":[{"id":"watch_trend","title":"","short":"B觀察","icon":"B","reason":"趨勢轉強但尚未觸發突破買點；趨勢分 6/8，量比 0.00，位階 中位階。"}]},{"code":"6201","name":"亞弘電","close":49,"percent":-0.6085177316494295,"tradeVolume":43,"value":2107000,"swingScore":86,"score":86,"swingZone":"B","swingStage":{"label":"中位階","ratio":"0.39","tone":"mid","value":0.38983053039183424},"swingSignals":[{"id":"watch_trend","title":"","short":"B觀察","icon":"B","reason":"趨勢轉強但尚未觸發突破買點；趨勢分 6/8，量比 0.00，位階 中位階。"}]},{"code":"2605","name":"新興","close":32.1,"percent":-0.619192699023563,"tradeVolume":8891,"value":285401100,"swingScore":86,"score":86,"swingZone":"B","swingStage":{"label":"低基期","ratio":"0.24","tone":"low","value":0.23529415158899764},"swingSignals":[{"id":"watch_trend","title":"","short":"B觀察","icon":"B","reason":"趨勢轉強但尚未觸發突破買點；趨勢分 5/8，量比 0.00，位階 低基期。"}]},{"code":"6216","name":"居易","close":23.6,"percent":-0.631578947368415,"tradeVolume":352,"value":8307200,"swingScore":86,"score":86,"swingZone":"B","swingStage":{"label":"中位階","ratio":"0.43","tone":"mid","value":0.4285715323726962},"swingSignals":[{"id":"watch_trend","title":"","short":"B觀察","icon":"B","reason":"趨勢轉強但尚未觸發突破買點；趨勢分 6/8，量比 0.00，位階 中位階。"}]},{"code":"2901","name":"欣欣","close":23.35,"percent":-0.6382978723404196,"tradeVolume":19,"value":443650,"swingScore":86,"score":86,"swingZone":"B","swingStage":{"label":"低基期","ratio":"0.36","tone":"low","value":0.35999969482421934},"swingSignals":[{"id":"watch_trend","title":"","short":"B觀察","icon":"B","reason":"趨勢轉強但尚未觸發突破買點；趨勢分 5/8，量比 0.00，位階 低基期。"}]},{"code":"2889","name":"國票金","close":15.05,"percent":-0.6600660066006577,"tradeVolume":5938,"value":89366900,"swingScore":86,"score":86,"swingZone":"B","swingStage":{"label":"中位階","ratio":"0.58","tone":"mid","value":0.5833333333333337},"swingSignals":[{"id":"watch_trend","title":"","short":"B觀察","icon":"B","reason":"趨勢轉強但尚未觸發突破買點；趨勢分 6/8，量比 0.00，位階 中位階。"}]},{"code":"2910","name":"統領","close":22.05,"percent":-0.6756790891190544,"tradeVolume":2,"value":44100,"swingScore":86,"score":86,"swingZone":"B","swingStage":{"label":"中位階","ratio":"0.51","tone":"mid","value":0.5090910478071735},"swingSignals":[{"id":"watch_trend","title":"","short":"B觀察","icon":"B","reason":"趨勢轉強但尚未觸發突破買點；趨勢分 6/8，量比 0.00，位階 中位階。"}]},{"code":"2415","name":"錩新","close":27.7,"percent":-0.7168458781361982,"tradeVolume":183,"value":5069100,"swingScore":86,"score":86,"swingZone":"B","swingStage":{"label":"中位階","ratio":"0.47","tone":"mid","value":0.4705882352941172},"swingSignals":[{"id":"watch_trend","title":"","short":"B觀察","icon":"B","reason":"趨勢轉強但尚未觸發突破買點；趨勢分 6/8，量比 0.00，位階 中位階。"}]}]}
