{"ok":true,"source":"strategy4-preset","updatedAt":"2026-06-09T06:53:44.896Z","scanStamp":"20260609","total":1953,"complete":true,"zone":"C","page":20,"pageSize":25,"totalPages":23,"totalCount":554,"count":25,"matches":[{"code":"7703","name":"銳澤","close":197,"percent":1.2853470437017995,"tradeVolume":72,"value":14184000,"swingScore":63,"score":63,"swingZone":"C","swingStage":{"label":"低基期","ratio":"0.24","tone":"low","value":0.24444444444444444},"swingSignals":[{"id":"base_setup","title":"","short":"C準備","icon":"C","reason":"低/中位階整理接近發動；準備分 5/7，RSI 43.3，量比 0.33。"}]},{"code":"2373","name":"震旦行","close":57.5,"percent":1.2323943661971881,"tradeVolume":61,"value":3507500,"swingScore":63,"score":63,"swingZone":"C","swingStage":{"label":"中位階","ratio":"0.56","tone":"mid","value":0.5588235294117645},"swingSignals":[{"id":"base_setup","title":"","short":"C準備","icon":"C","reason":"低/中位階整理接近發動；準備分 5/7，RSI 58.1，量比 0.00。"}]},{"code":"3416","name":"融程電","close":176.5,"percent":1.146131805157593,"tradeVolume":352,"value":62128000,"swingScore":63,"score":63,"swingZone":"C","swingStage":{"label":"中位階","ratio":"0.58","tone":"mid","value":0.5760869565217391},"swingSignals":[{"id":"base_setup","title":"","short":"C準備","icon":"C","reason":"低/中位階整理接近發動；準備分 5/7，RSI 59.3，量比 0.00。"}]},{"code":"2038","name":"海光","close":13.75,"percent":1.102941176470591,"tradeVolume":339,"value":4661250,"swingScore":63,"score":63,"swingZone":"C","swingStage":{"label":"低基期","ratio":"0.15","tone":"low","value":0.14634146341463408},"swingSignals":[{"id":"base_setup","title":"","short":"C準備","icon":"C","reason":"低/中位階整理接近發動；準備分 5/7，RSI 31.6，量比 0.00。"}]},{"code":"1702","name":"南僑","close":31.15,"percent":0.9724473257698448,"tradeVolume":318,"value":9905700,"swingScore":63,"score":63,"swingZone":"C","swingStage":{"label":"低基期","ratio":"0.12","tone":"low","value":0.11538461538461524},"swingSignals":[{"id":"base_setup","title":"","short":"C準備","icon":"C","reason":"低/中位階整理接近發動；準備分 5/7，RSI 31.3，量比 0.00。"}]},{"code":"8103","name":"瀚荃","close":100,"percent":0.9081735620585325,"tradeVolume":997,"value":99700000,"swingScore":63,"score":63,"swingZone":"C","swingStage":{"label":"低基期","ratio":"0.22","tone":"low","value":0.22340425531914893},"swingSignals":[{"id":"base_setup","title":"","short":"C準備","icon":"C","reason":"低/中位階整理接近發動；準備分 5/7，RSI 44.7，量比 0.00。"}]},{"code":"2754","name":"亞洲藏壽司","close":67.6,"percent":0.8955223880596931,"tradeVolume":37,"value":2501200,"swingScore":63,"score":63,"swingZone":"C","swingStage":{"label":"低基期","ratio":"0.14","tone":"low","value":0.13725490196078396},"swingSignals":[{"id":"base_setup","title":"","short":"C準備","icon":"C","reason":"低/中位階整理接近發動；準備分 5/7，RSI 16.9，量比 0.00。"}]},{"code":"2440","name":"太空梭","close":17.6,"percent":0.5714285714285796,"tradeVolume":1421,"value":25009600,"swingScore":63,"score":63,"swingZone":"C","swingStage":{"label":"低基期","ratio":"0.37","tone":"low","value":0.36538461538461553},"swingSignals":[{"id":"base_setup","title":"","short":"C準備","icon":"C","reason":"低/中位階整理接近發動；準備分 5/7，RSI 51.9，量比 0.00。"}]},{"code":"2402","name":"毅嘉","close":63.8,"percent":0.47244094488188526,"tradeVolume":3880,"value":247544000,"swingScore":63,"score":63,"swingZone":"C","swingStage":{"label":"低基期","ratio":"0.16","tone":"low","value":0.16205533596837923},"swingSignals":[{"id":"base_setup","title":"","short":"C準備","icon":"C","reason":"低/中位階整理接近發動；準備分 5/7，RSI 53.8，量比 0.00。"}]},{"code":"1101","name":"台泥","close":23.95,"percent":0.4192872117400329,"tradeVolume":27246,"value":652541700,"swingScore":63,"score":63,"swingZone":"C","swingStage":{"label":"低基期","ratio":"0.19","tone":"low","value":0.18604651162790645},"swingSignals":[{"id":"base_setup","title":"","short":"C準備","icon":"C","reason":"低/中位階整理接近發動；準備分 5/7，RSI 47.0，量比 0.00。"}]},{"code":"8024","name":"佑華","close":12.35,"percent":0.4065040650406417,"tradeVolume":39,"value":481650,"swingScore":63,"score":63,"swingZone":"C","swingStage":{"label":"低基期","ratio":"0.37","tone":"low","value":0.36585365853658525},"swingSignals":[{"id":"base_setup","title":"","short":"C準備","icon":"C","reason":"低/中位階整理接近發動；準備分 5/7，RSI 56.7，量比 0.00。"}]},{"code":"6136","name":"富爾特","close":25.45,"percent":0.3944773175542322,"tradeVolume":211,"value":5369950,"swingScore":63,"score":63,"swingZone":"C","swingStage":{"label":"低基期","ratio":"0.26","tone":"low","value":0.2636363636363635},"swingSignals":[{"id":"base_setup","title":"","short":"C準備","icon":"C","reason":"低/中位階整理接近發動；準備分 5/7，RSI 53.4，量比 0.00。"}]},{"code":"5007","name":"三星","close":56.2,"percent":0.3571428571428622,"tradeVolume":51,"value":2866200,"swingScore":63,"score":63,"swingZone":"C","swingStage":{"label":"低基期","ratio":"0.31","tone":"low","value":0.30769230769230854},"swingSignals":[{"id":"base_setup","title":"","short":"C準備","icon":"C","reason":"低/中位階整理接近發動；準備分 5/7，RSI 58.8，量比 0.00。"}]},{"code":"3158","name":"嘉實","close":83.7,"percent":0.23952095808383575,"tradeVolume":12,"value":1004400,"swingScore":63,"score":63,"swingZone":"C","swingStage":{"label":"低基期","ratio":"0.13","tone":"low","value":0.12631578947368452},"swingSignals":[{"id":"base_setup","title":"","short":"C準備","icon":"C","reason":"低/中位階整理接近發動；準備分 5/7，RSI 40.3，量比 0.00。"}]},{"code":"8488","name":"吉源-KY","close":9.66,"percent":0.20746887966804536,"tradeVolume":13,"value":125580,"swingScore":63,"score":63,"swingZone":"C","swingStage":{"label":"低基期","ratio":"0.07","tone":"low","value":0.07253886010362724},"swingSignals":[{"id":"base_setup","title":"","short":"C準備","icon":"C","reason":"低/中位階整理接近發動；準備分 5/7，RSI 45.5，量比 0.00。"}]},{"code":"1325","name":"恆大","close":26.35,"percent":0,"tradeVolume":333,"value":8774550,"swingScore":63,"score":63,"swingZone":"C","swingStage":{"label":"低基期","ratio":"0.32","tone":"low","value":0.32051282051282065},"swingSignals":[{"id":"base_setup","title":"","short":"C準備","icon":"C","reason":"低/中位階整理接近發動；準備分 5/7，RSI 43.2，量比 0.00。"}]},{"code":"1583","name":"程泰","close":52,"percent":0,"tradeVolume":73,"value":3796000,"swingScore":63,"score":63,"swingZone":"C","swingStage":{"label":"中位階","ratio":"0.41","tone":"mid","value":0.41489361702127653},"swingSignals":[{"id":"base_setup","title":"","short":"C準備","icon":"C","reason":"低/中位階整理接近發動；準備分 5/7，RSI 60.5，量比 0.00。"}]},{"code":"2250","name":"IKKA-KY","close":61.3,"percent":0,"tradeVolume":108,"value":6620400,"swingScore":63,"score":63,"swingZone":"C","swingStage":{"label":"低基期","ratio":"0.15","tone":"low","value":0.1499999999999996},"swingSignals":[{"id":"base_setup","title":"","short":"C準備","icon":"C","reason":"低/中位階整理接近發動；準備分 5/7，RSI 47.5，量比 0.00。"}]},{"code":"6767","name":"台微醫","close":25.7,"percent":0,"tradeVolume":15,"value":385500,"swingScore":63,"score":63,"swingZone":"C","swingStage":{"label":"低基期","ratio":"0.35","tone":"low","value":0.3452380952380951},"swingSignals":[{"id":"base_setup","title":"","short":"C準備","icon":"C","reason":"低/中位階整理接近發動；準備分 5/7，RSI 36.0，量比 0.00。"}]},{"code":"1903","name":"士紙","close":47.7,"percent":-0.2092050209204902,"tradeVolume":331,"value":15788700,"swingScore":63,"score":63,"swingZone":"C","swingStage":{"label":"低基期","ratio":"0.09","tone":"low","value":0.08928571428571437},"swingSignals":[{"id":"base_setup","title":"","short":"C準備","icon":"C","reason":"低/中位階整理接近發動；準備分 5/7，RSI 50.3，量比 0.00。"}]},{"code":"7704","name":"明遠精密","close":60,"percent":-0.33222591362126713,"tradeVolume":42,"value":2520000,"swingScore":63,"score":63,"swingZone":"C","swingStage":{"label":"低基期","ratio":"0.20","tone":"low","value":0.20408163265306128},"swingSignals":[{"id":"base_setup","title":"","short":"C準備","icon":"C","reason":"低/中位階整理接近發動；準備分 5/7，RSI 46.5，量比 0.00。"}]},{"code":"1235","name":"興泰","close":37.15,"percent":-1.1968085106383053,"tradeVolume":40,"value":1486000,"swingScore":63,"score":63,"swingZone":"C","swingStage":{"label":"低基期","ratio":"0.09","tone":"low","value":0.08920187793427191},"swingSignals":[{"id":"base_setup","title":"","short":"C準備","icon":"C","reason":"低/中位階整理接近發動；準備分 5/7，RSI 50.8，量比 0.00。"}]},{"code":"6208","name":"日揚","close":84.3,"percent":5.771643663739014,"tradeVolume":621,"value":52350300,"swingScore":62,"score":62,"swingZone":"C","swingStage":{"label":"中位階","ratio":"0.48","tone":"mid","value":0.475054229934924},"swingSignals":[{"id":"base_setup","title":"","short":"C準備","icon":"C","reason":"低/中位階整理接近發動；準備分 5/7，RSI 38.5，量比 0.24。"}]},{"code":"4551","name":"智伸科","close":144,"percent":3.225806451612903,"tradeVolume":1852,"value":266688000,"swingScore":62,"score":62,"swingZone":"C","swingStage":{"label":"中位階","ratio":"0.43","tone":"mid","value":0.42857142857142855},"swingSignals":[{"id":"base_setup","title":"","short":"C準備","icon":"C","reason":"低/中位階整理接近發動；準備分 6/7，RSI 44.9，量比 0.00。"}]},{"code":"8923","name":"時報","close":19.05,"percent":0,"tradeVolume":5.039,"value":94955,"swingScore":62,"score":62,"swingZone":"C","swingStage":{"label":"中位階","ratio":"0.41","tone":"mid","value":0.4130434782608698},"swingSignals":[{"id":"base_setup","title":"","short":"C準備","icon":"C","reason":"低/中位階整理接近發動；準備分 6/7，RSI 43.2，量比 0.00。"}]}]}
