{"ok":true,"source":"strategy4-preset","updatedAt":"2026-06-09T06:53:44.896Z","scanStamp":"20260609","total":1953,"complete":true,"zone":"B","page":21,"pageSize":25,"totalPages":26,"totalCount":630,"count":25,"matches":[{"code":"3362","name":"先進光","close":155.5,"percent":9.89399293286219,"tradeVolume":2538,"value":394659000,"swingScore":78,"score":78,"swingZone":"B","swingStage":{"label":"高基期","ratio":"0.97","tone":"high","value":0.9652173913043478},"swingSignals":[{"id":"watch_trend","title":"","short":"B觀察","icon":"B","reason":"趨勢轉強但尚未觸發突破買點；趨勢分 5/8，量比 0.00，位階 高基期。"}]},{"code":"2379","name":"瑞昱","close":651,"percent":9.228187919463087,"tradeVolume":7032,"value":4577832000,"swingScore":78,"score":78,"swingZone":"B","swingStage":{"label":"高基期","ratio":"0.78","tone":"high","value":0.7828571428571428},"swingSignals":[{"id":"watch_trend","title":"","short":"B觀察","icon":"B","reason":"趨勢轉強但尚未觸發突破買點；趨勢分 5/8，量比 0.00，位階 高基期。"}]},{"code":"3042","name":"晶技","close":228.5,"percent":8.551068883610451,"tradeVolume":64410,"value":14717685000,"swingScore":78,"score":78,"swingZone":"B","swingStage":{"label":"高基期","ratio":"0.97","tone":"high","value":0.971830985915493},"swingSignals":[{"id":"watch_trend","title":"","short":"B觀察","icon":"B","reason":"趨勢轉強但尚未觸發突破買點；趨勢分 5/8，量比 0.00，位階 高基期。"}]},{"code":"2495","name":"普安","close":50.4,"percent":8.387096774193544,"tradeVolume":8816,"value":444326400,"swingScore":78,"score":78,"swingZone":"B","swingStage":{"label":"高基期","ratio":"0.82","tone":"high","value":0.8224543080939949},"swingSignals":[{"id":"watch_trend","title":"","short":"B觀察","icon":"B","reason":"趨勢轉強但尚未觸發突破買點；趨勢分 5/8，量比 0.00，位階 高基期。"}]},{"code":"8476","name":"台境*","close":18.75,"percent":8.381502890173406,"tradeVolume":4170,"value":78187500,"swingScore":78,"score":78,"swingZone":"B","swingStage":{"label":"高基期","ratio":"0.92","tone":"high","value":0.9240506329113922},"swingSignals":[{"id":"watch_trend","title":"","short":"B觀察","icon":"B","reason":"趨勢轉強但尚未觸發突破買點；趨勢分 5/8，量比 0.01，位階 高基期。"}]},{"code":"6414","name":"樺漢","close":401,"percent":7.795698924731183,"tradeVolume":3357,"value":1346157000,"swingScore":78,"score":78,"swingZone":"B","swingStage":{"label":"高基期","ratio":"0.97","tone":"high","value":0.9696969696969697},"swingSignals":[{"id":"watch_trend","title":"","short":"B觀察","icon":"B","reason":"趨勢轉強但尚未觸發突破買點；趨勢分 5/8，量比 0.00，位階 高基期。"}]},{"code":"2881","name":"富邦金","close":125,"percent":7.758620689655173,"tradeVolume":87218,"value":10902250000,"swingScore":78,"score":78,"swingZone":"B","swingStage":{"label":"高基期","ratio":"0.96","tone":"high","value":0.9623115577889447},"swingSignals":[{"id":"watch_trend","title":"","short":"B觀察","icon":"B","reason":"趨勢轉強但尚未觸發突破買點；趨勢分 5/8，量比 0.00，位階 高基期。"}]},{"code":"2362","name":"藍天","close":48.15,"percent":7.357859531772569,"tradeVolume":3006,"value":144738900,"swingScore":78,"score":78,"swingZone":"B","swingStage":{"label":"高基期","ratio":"0.73","tone":"high","value":0.7275862068965515},"swingSignals":[{"id":"watch_trend","title":"","short":"B觀察","icon":"B","reason":"趨勢轉強但尚未觸發突破買點；趨勢分 5/8，量比 0.00，位階 高基期。"}]},{"code":"1294","name":"漢田生技","close":82.9,"percent":6.967741935483879,"tradeVolume":115,"value":9533500,"swingScore":78,"score":78,"swingZone":"B","swingStage":{"label":"高基期","ratio":"0.75","tone":"high","value":0.7500000000000003},"swingSignals":[{"id":"watch_trend","title":"","short":"B觀察","icon":"B","reason":"趨勢轉強但尚未觸發突破買點；趨勢分 5/8，量比 0.01，位階 高基期。"}]},{"code":"6446","name":"藥華藥","close":990,"percent":6.911447084233262,"tradeVolume":4608,"value":4561920000,"swingScore":78,"score":78,"swingZone":"B","swingStage":{"label":"高基期","ratio":"0.99","tone":"high","value":0.9903846153846154},"swingSignals":[{"id":"watch_trend","title":"","short":"B觀察","icon":"B","reason":"趨勢轉強但尚未觸發突破買點；趨勢分 5/8，量比 0.00，位階 高基期。"}]},{"code":"3528","name":"安馳","close":133,"percent":6.827309236947792,"tradeVolume":473,"value":62909000,"swingScore":78,"score":78,"swingZone":"B","swingStage":{"label":"高基期","ratio":"0.87","tone":"high","value":0.8689655172413793},"swingSignals":[{"id":"watch_trend","title":"","short":"B觀察","icon":"B","reason":"趨勢轉強但尚未觸發突破買點；趨勢分 5/8，量比 0.00，位階 高基期。"}]},{"code":"2347","name":"聯強","close":91,"percent":6.682297772567412,"tradeVolume":16412,"value":1493492000,"swingScore":78,"score":78,"swingZone":"B","swingStage":{"label":"高基期","ratio":"0.80","tone":"high","value":0.7986577181208054},"swingSignals":[{"id":"watch_trend","title":"","short":"B觀察","icon":"B","reason":"趨勢轉強但尚未觸發突破買點；趨勢分 5/8，量比 0.00，位階 高基期。"}]},{"code":"2891","name":"中信金","close":69.2,"percent":5.810397553516815,"tradeVolume":53347,"value":3691612400,"swingScore":78,"score":78,"swingZone":"B","swingStage":{"label":"高基期","ratio":"0.94","tone":"high","value":0.9353233830845773},"swingSignals":[{"id":"watch_trend","title":"","short":"B觀察","icon":"B","reason":"趨勢轉強但尚未觸發突破買點；趨勢分 5/8，量比 0.00，位階 高基期。"}]},{"code":"3152","name":"璟德","close":188,"percent":5.617977528089887,"tradeVolume":857,"value":161116000,"swingScore":78,"score":78,"swingZone":"B","swingStage":{"label":"中位階","ratio":"0.58","tone":"mid","value":0.576271186440678},"swingSignals":[{"id":"watch_trend","title":"","short":"B觀察","icon":"B","reason":"趨勢轉強但尚未觸發突破買點；趨勢分 6/8，量比 0.00，位階 中位階。"}]},{"code":"2892","name":"第一金","close":30.5,"percent":4.810996563573878,"tradeVolume":98405,"value":3001352500,"swingScore":78,"score":78,"swingZone":"B","swingStage":{"label":"高基期","ratio":"0.99","tone":"high","value":0.9850746268656715},"swingSignals":[{"id":"watch_trend","title":"","short":"B觀察","icon":"B","reason":"趨勢轉強但尚未觸發突破買點；趨勢分 5/8，量比 0.00，位階 高基期。"}]},{"code":"3704","name":"合勤控","close":48.85,"percent":4.603854389721624,"tradeVolume":5910,"value":288703500,"swingScore":78,"score":78,"swingZone":"B","swingStage":{"label":"高基期","ratio":"0.93","tone":"high","value":0.9317507418397627},"swingSignals":[{"id":"watch_trend","title":"","short":"B觀察","icon":"B","reason":"趨勢轉強但尚未觸發突破買點；趨勢分 5/8，量比 0.00，位階 高基期。"}]},{"code":"2885","name":"元大金","close":64.8,"percent":4.5161290322580605,"tradeVolume":30760,"value":1993248000,"swingScore":78,"score":78,"swingZone":"B","swingStage":{"label":"高基期","ratio":"0.90","tone":"high","value":0.897297297297297},"swingSignals":[{"id":"watch_trend","title":"","short":"B觀察","icon":"B","reason":"趨勢轉強但尚未觸發突破買點；趨勢分 5/8，量比 0.00，位階 高基期。"}]},{"code":"4438","name":"廣越","close":63,"percent":4.477611940298512,"tradeVolume":169,"value":10647000,"swingScore":78,"score":78,"swingZone":"B","swingStage":{"label":"高基期","ratio":"0.90","tone":"high","value":0.8965517241379312},"swingSignals":[{"id":"watch_trend","title":"","short":"B觀察","icon":"B","reason":"趨勢轉強但尚未觸發突破買點；趨勢分 5/8，量比 0.00，位階 高基期。"}]},{"code":"4904","name":"遠傳","close":105.5,"percent":4.455445544554455,"tradeVolume":10079,"value":1063334500,"swingScore":78,"score":78,"swingZone":"B","swingStage":{"label":"高基期","ratio":"0.96","tone":"high","value":0.9618320610687022},"swingSignals":[{"id":"watch_trend","title":"","short":"B觀察","icon":"B","reason":"趨勢轉強但尚未觸發突破買點；趨勢分 5/8，量比 0.00，位階 高基期。"}]},{"code":"6155","name":"鈞寶","close":80.7,"percent":4.398447606727045,"tradeVolume":40754,"value":3288847800,"swingScore":78,"score":78,"swingZone":"B","swingStage":{"label":"高基期","ratio":"0.86","tone":"high","value":0.8645598194130926},"swingSignals":[{"id":"watch_trend","title":"","short":"B觀察","icon":"B","reason":"趨勢轉強但尚未觸發突破買點；趨勢分 5/8，量比 0.00，位階 高基期。"}]},{"code":"4766","name":"南寶","close":373.5,"percent":3.75,"tradeVolume":751,"value":280498500,"swingScore":78,"score":78,"swingZone":"B","swingStage":{"label":"高基期","ratio":"0.92","tone":"high","value":0.9214285714285714},"swingSignals":[{"id":"watch_trend","title":"","short":"B觀察","icon":"B","reason":"趨勢轉強但尚未觸發突破買點；趨勢分 5/8，量比 0.00，位階 高基期。"}]},{"code":"3515","name":"華擎","close":252,"percent":3.4907597535934287,"tradeVolume":834,"value":210168000,"swingScore":78,"score":78,"swingZone":"B","swingStage":{"label":"高基期","ratio":"0.62","tone":"high","value":0.6194690265486725},"swingSignals":[{"id":"watch_trend","title":"","short":"B觀察","icon":"B","reason":"趨勢轉強但尚未觸發突破買點；趨勢分 5/8，量比 0.00，位階 高基期。"}]},{"code":"4916","name":"事欣科","close":119.5,"percent":3.0172413793103448,"tradeVolume":13449,"value":1607155500,"swingScore":78,"score":78,"swingZone":"B","swingStage":{"label":"高基期","ratio":"0.89","tone":"high","value":0.8852223816355811},"swingSignals":[{"id":"watch_trend","title":"","short":"B觀察","icon":"B","reason":"趨勢轉強但尚未觸發突破買點；趨勢分 5/8，量比 0.00，位階 高基期。"}]},{"code":"4915","name":"致伸","close":77,"percent":2.941176470588239,"tradeVolume":4778,"value":367906000,"swingScore":78,"score":78,"swingZone":"B","swingStage":{"label":"高基期","ratio":"0.80","tone":"high","value":0.7976190476190474},"swingSignals":[{"id":"watch_trend","title":"","short":"B觀察","icon":"B","reason":"趨勢轉強但尚未觸發突破買點；趨勢分 5/8，量比 0.00，位階 高基期。"}]},{"code":"2849","name":"安泰銀","close":14,"percent":2.941176470588238,"tradeVolume":328,"value":4592000,"swingScore":78,"score":78,"swingZone":"B","swingStage":{"label":"高基期","ratio":"0.74","tone":"high","value":0.7407407407407409},"swingSignals":[{"id":"watch_trend","title":"","short":"B觀察","icon":"B","reason":"趨勢轉強但尚未觸發突破買點；趨勢分 5/8，量比 0.00，位階 高基期。"}]}]}
