{"ok":true,"source":"strategy4-preset","updatedAt":"2026-06-11T12:31:33.792Z","scanStamp":"20260611","total":1958,"complete":true,"zone":"B","page":8,"pageSize":25,"totalPages":15,"totalCount":372,"count":25,"matches":[{"code":"9934","name":"成霖","close":10.300000190734863,"percent":-0.9615329948400716,"tradeVolume":1268.045,"avgVolume5":3715.61,"value":0,"swingScore":90,"score":90,"swingZone":"B","swingStage":{"label":"中位階","ratio":"0.57","tone":"mid","value":0.5744681541819221},"swingSignals":[{"id":"watch_trend","title":"","short":"B觀察","icon":"B","reason":"趨勢轉強但尚未觸發突破買點；趨勢分 5/8，量比 0.64，位階 中位階。"}]},{"code":"2812","name":"台中銀","close":19.200000762939453,"percent":-1.0309219563065746,"tradeVolume":12747.425,"avgVolume5":19472.07,"value":0,"swingScore":90,"score":90,"swingZone":"B","swingStage":{"label":"中位階","ratio":"0.40","tone":"mid","value":0.4000001387162642},"swingSignals":[{"id":"watch_trend","title":"","short":"B觀察","icon":"B","reason":"趨勢轉強但尚未觸發突破買點；趨勢分 5/8，量比 0.62，位階 中位階。"}]},{"code":"3593","name":"力銘","close":17.200000762939453,"percent":-3.3707780889780317,"tradeVolume":22796,"avgVolume5":31072.6,"value":0,"swingScore":90,"score":90,"swingZone":"B","swingStage":{"label":"低基期","ratio":"0.34","tone":"low","value":0.3402063436849941},"swingSignals":[{"id":"watch_trend","title":"","short":"B觀察","icon":"B","reason":"趨勢轉強但尚未觸發突破買點；趨勢分 6/8，量比 0.68，位階 低基期。"}]},{"code":"8454","name":"富邦媒","close":396,"percent":-11.902113459399333,"tradeVolume":2377,"avgVolume5":3285.37,"value":0,"swingScore":90,"score":90,"swingZone":"B","swingStage":{"label":"高基期","ratio":"0.76","tone":"high","value":0.7625418060200669},"swingSignals":[{"id":"watch_trend","title":"","short":"B觀察","icon":"B","reason":"趨勢轉強但尚未觸發突破買點；趨勢分 6/8，量比 0.86，位階 高基期。"}]},{"code":"8443","name":"阿瘦","close":11.449999809265137,"percent":1.327430230074347,"tradeVolume":3131,"avgVolume5":7631.6,"value":0,"swingScore":89,"score":89,"swingZone":"B","swingStage":{"label":"中位階","ratio":"0.41","tone":"mid","value":0.4090905938267816},"swingSignals":[{"id":"watch_trend","title":"","short":"B觀察","icon":"B","reason":"趨勢轉強但尚未觸發突破買點；趨勢分 6/8，量比 0.13，位階 中位階。"}]},{"code":"2867","name":"三商壽","close":8.1899995803833,"percent":0.36764379328641317,"tradeVolume":11083.739,"avgVolume5":19832.49,"value":0,"swingScore":89,"score":89,"swingZone":"B","swingStage":{"label":"高基期","ratio":"0.87","tone":"high","value":0.8735625695044678},"swingSignals":[{"id":"watch_trend","title":"","short":"B觀察","icon":"B","reason":"趨勢轉強但尚未觸發突破買點；趨勢分 6/8，量比 0.74，位階 高基期。"}]},{"code":"1440","name":"南紡","close":13.100000381469727,"percent":-0.7575714336391136,"tradeVolume":3425.851,"avgVolume5":5704.71,"value":0,"swingScore":89,"score":89,"swingZone":"B","swingStage":{"label":"中位階","ratio":"0.40","tone":"mid","value":0.4021739626201163},"swingSignals":[{"id":"watch_trend","title":"","short":"B觀察","icon":"B","reason":"趨勢轉強但尚未觸發突破買點；趨勢分 5/8，量比 0.54，位階 中位階。"}]},{"code":"2891","name":"中信金","close":67.5,"percent":-1.0263885330866271,"tradeVolume":63692.445,"avgVolume5":57621.24,"value":0,"swingScore":89,"score":89,"swingZone":"B","swingStage":{"label":"高基期","ratio":"0.84","tone":"high","value":0.8351648420746838},"swingSignals":[{"id":"watch_trend","title":"","short":"B觀察","icon":"B","reason":"趨勢轉強但尚未觸發突破買點；趨勢分 6/8，量比 1.00，位階 高基期。"}]},{"code":"2405","name":"輔信","close":18.25,"percent":-1.8817224424275543,"tradeVolume":5764.269,"avgVolume5":8678.79,"value":0,"swingScore":89,"score":89,"swingZone":"B","swingStage":{"label":"中位階","ratio":"0.49","tone":"mid","value":0.4928571827557677},"swingSignals":[{"id":"watch_trend","title":"","short":"B觀察","icon":"B","reason":"趨勢轉強但尚未觸發突破買點；趨勢分 5/8，量比 0.56，位階 中位階。"}]},{"code":"6112","name":"邁達特","close":46.599998474121094,"percent":-2.100840403479581,"tradeVolume":1033.223,"avgVolume5":4283.61,"value":0,"swingScore":89,"score":89,"swingZone":"B","swingStage":{"label":"中位階","ratio":"0.50","tone":"mid","value":0.4955751196650358},"swingSignals":[{"id":"watch_trend","title":"","short":"B觀察","icon":"B","reason":"趨勢轉強但尚未觸發突破買點；趨勢分 5/8，量比 0.48，位階 中位階。"}]},{"code":"3357","name":"臺慶科","close":287,"percent":-2.8764805414551606,"tradeVolume":22346.299,"avgVolume5":19868.69,"value":6573547532,"swingScore":89,"score":89,"swingZone":"B","swingStage":{"label":"高基期","ratio":"0.75","tone":"high","value":0.7537993920972644},"swingSignals":[{"id":"watch_trend","title":"","short":"B觀察","icon":"B","reason":"趨勢轉強但尚未觸發突破買點；趨勢分 6/8，量比 1.99，位階 高基期。"}]},{"code":"8150","name":"南茂","close":97.0999984741211,"percent":9.966019386437718,"tradeVolume":65260.276,"avgVolume5":48413.74,"value":0,"swingScore":88,"score":88,"swingZone":"B","swingStage":{"label":"高基期","ratio":"0.66","tone":"high","value":0.6606425604369038},"swingSignals":[{"id":"watch_trend","title":"","short":"B觀察","icon":"B","reason":"趨勢轉強但尚未觸發突破買點；趨勢分 6/8，量比 1.33，位階 高基期。"}]},{"code":"3557","name":"嘉威","close":27.899999618530273,"percent":9.842519832859187,"tradeVolume":282.998,"avgVolume5":31613.22,"value":0,"swingScore":88,"score":88,"swingZone":"B","swingStage":{"label":"中位階","ratio":"0.58","tone":"mid","value":0.5773195815474063},"swingSignals":[{"id":"watch_trend","title":"","short":"B觀察","icon":"B","reason":"趨勢轉強但尚未觸發突破買點；趨勢分 6/8，量比 0.01，位階 中位階。"}]},{"code":"4806","name":"桂田文創","close":10.9,"percent":9.657952315322738,"tradeVolume":130.411,"avgVolume5":14586.08,"value":1421466,"swingScore":88,"score":88,"swingZone":"B","swingStage":{"label":"中位階","ratio":"0.62","tone":"mid","value":0.6153847733898432},"swingSignals":[{"id":"watch_trend","title":"","short":"B觀察","icon":"B","reason":"趨勢轉強但尚未觸發突破買點；趨勢分 6/8，量比 0.01，位階 中位階。"}]},{"code":"2729","name":"瓦城","close":164.5,"percent":6.472491909385113,"tradeVolume":176.717,"avgVolume5":26289.14,"value":28539137,"swingScore":88,"score":88,"swingZone":"B","swingStage":{"label":"中位階","ratio":"0.51","tone":"mid","value":0.5128205128205128},"swingSignals":[{"id":"watch_trend","title":"","short":"B觀察","icon":"B","reason":"趨勢轉強但尚未觸發突破買點；趨勢分 6/8，量比 0.01，位階 中位階。"}]},{"code":"8289","name":"泰藝","close":72.6,"percent":6.451617666635707,"tradeVolume":7007.51,"avgVolume5":5932.13,"value":504973134,"swingScore":88,"score":88,"swingZone":"B","swingStage":{"label":"高基期","ratio":"0.85","tone":"high","value":0.8504155061427194},"swingSignals":[{"id":"watch_trend","title":"","short":"B觀察","icon":"B","reason":"趨勢轉強但尚未觸發突破買點；趨勢分 7/8，量比 1.02，位階 高基期。"}]},{"code":"3672","name":"康聯訊","close":12.35,"percent":4.661015257414875,"tradeVolume":125.082,"avgVolume5":18248.82,"value":1520096,"swingScore":88,"score":88,"swingZone":"B","swingStage":{"label":"中位階","ratio":"0.49","tone":"mid","value":0.49382715933098664},"swingSignals":[{"id":"watch_trend","title":"","short":"B觀察","icon":"B","reason":"趨勢轉強但尚未觸發突破買點；趨勢分 6/8，量比 0.00，位階 中位階。"}]},{"code":"8473","name":"山林水","close":52,"percent":3.379723238021263,"tradeVolume":4247.646,"avgVolume5":3713.65,"value":0,"swingScore":88,"score":88,"swingZone":"B","swingStage":{"label":"高基期","ratio":"0.78","tone":"high","value":0.7801268318207347},"swingSignals":[{"id":"watch_trend","title":"","short":"B觀察","icon":"B","reason":"趨勢轉強但尚未觸發突破買點；趨勢分 5/8，量比 1.01，位階 高基期。"}]},{"code":"3691","name":"碩禾","close":167,"percent":2.4539877300613497,"tradeVolume":5527.259,"avgVolume5":4642.62,"value":896735372,"swingScore":88,"score":88,"swingZone":"B","swingStage":{"label":"高基期","ratio":"0.86","tone":"high","value":0.8552631578947368},"swingSignals":[{"id":"watch_trend","title":"","short":"B觀察","icon":"B","reason":"趨勢轉強但尚未觸發突破買點；趨勢分 7/8，量比 1.26，位階 高基期。"}]},{"code":"3158","name":"嘉實","close":85.5,"percent":2.2727291394234457,"tradeVolume":5.296,"avgVolume5":7651.66,"value":443821,"swingScore":88,"score":88,"swingZone":"B","swingStage":{"label":"低基期","ratio":"0.32","tone":"low","value":0.3157894736842105},"swingSignals":[{"id":"watch_trend","title":"","short":"B觀察","icon":"B","reason":"趨勢轉強但尚未觸發突破買點；趨勢分 5/8，量比 0.00，位階 低基期。"}]},{"code":"8070","name":"長華*","close":58.79999923706055,"percent":2.0833347130705175,"tradeVolume":14752.265,"avgVolume5":18407.03,"value":0,"swingScore":88,"score":88,"swingZone":"B","swingStage":{"label":"高基期","ratio":"0.69","tone":"high","value":0.6949152021838173},"swingSignals":[{"id":"watch_trend","title":"","short":"B觀察","icon":"B","reason":"趨勢轉強但尚未觸發突破買點；趨勢分 5/8，量比 1.05，位階 高基期。"}]},{"code":"6616","name":"特昇-KY","close":9.87,"percent":1.7525793203880646,"tradeVolume":65.45,"avgVolume5":30813.09,"value":630650,"swingScore":88,"score":88,"swingZone":"B","swingStage":{"label":"中位階","ratio":"0.57","tone":"mid","value":0.5705882036149845},"swingSignals":[{"id":"watch_trend","title":"","short":"B觀察","icon":"B","reason":"趨勢轉強但尚未觸發突破買點；趨勢分 6/8，量比 0.00，位階 中位階。"}]},{"code":"8080","name":"泰霖","close":28.4,"percent":1.4285714285714235,"tradeVolume":9.002,"avgVolume5":18612.2,"value":252606,"swingScore":88,"score":88,"swingZone":"B","swingStage":{"label":"中位階","ratio":"0.45","tone":"mid","value":0.4492754007783087},"swingSignals":[{"id":"watch_trend","title":"","short":"B觀察","icon":"B","reason":"趨勢轉強但尚未觸發突破買點；趨勢分 6/8，量比 0.00，位階 中位階。"}]},{"code":"7642","name":"昶瑞機電","close":73.5,"percent":1.3793103448275863,"tradeVolume":34.426,"avgVolume5":28303.69,"value":2512722,"swingScore":88,"score":88,"swingZone":"B","swingStage":{"label":"中位階","ratio":"0.62","tone":"mid","value":0.6158191359820687},"swingSignals":[{"id":"watch_trend","title":"","short":"B觀察","icon":"B","reason":"趨勢轉強但尚未觸發突破買點；趨勢分 6/8，量比 0.00，位階 中位階。"}]},{"code":"4107","name":"邦特","close":117,"percent":1.2987012987012987,"tradeVolume":47.377,"avgVolume5":56223.48,"value":5514232,"swingScore":88,"score":88,"swingZone":"B","swingStage":{"label":"中位階","ratio":"0.53","tone":"mid","value":0.5263157894736842},"swingSignals":[{"id":"watch_trend","title":"","short":"B觀察","icon":"B","reason":"趨勢轉強但尚未觸發突破買點；趨勢分 6/8，量比 0.00，位階 中位階。"}]}]}
