{"ok":true,"source":"strategy4-preset","updatedAt":"2026-06-09T06:53:44.896Z","scanStamp":"20260609","total":1953,"complete":true,"zone":"B","page":7,"pageSize":25,"totalPages":26,"totalCount":630,"count":25,"matches":[{"code":"5278","name":"尚凡*","close":24,"percent":3.448275862068969,"tradeVolume":475,"value":11400000,"swingScore":88,"score":88,"swingZone":"B","swingStage":{"label":"中位階","ratio":"0.55","tone":"mid","value":0.549295774647887},"swingSignals":[{"id":"watch_trend","title":"","short":"B觀察","icon":"B","reason":"趨勢轉強但尚未觸發突破買點；趨勢分 6/8，量比 0.00，位階 中位階。"}]},{"code":"6684","name":"安格","close":48.8,"percent":3.1712473572938693,"tradeVolume":689,"value":33623200,"swingScore":88,"score":88,"swingZone":"B","swingStage":{"label":"中位階","ratio":"0.48","tone":"mid","value":0.4849785407725321},"swingSignals":[{"id":"watch_trend","title":"","short":"B觀察","icon":"B","reason":"趨勢轉強但尚未觸發突破買點；趨勢分 6/8，量比 0.00，位階 中位階。"}]},{"code":"8905","name":"裕國","close":30.35,"percent":2.5337837837837838,"tradeVolume":2,"value":60700,"swingScore":88,"score":88,"swingZone":"B","swingStage":{"label":"低基期","ratio":"0.13","tone":"low","value":0.12601626016260167},"swingSignals":[{"id":"watch_trend","title":"","short":"B觀察","icon":"B","reason":"趨勢轉強但尚未觸發突破買點；趨勢分 5/8，量比 0.00，位階 低基期。"}]},{"code":"1805","name":"寶徠","close":10.45,"percent":2.450980392156863,"tradeVolume":165,"value":1724250,"swingScore":88,"score":88,"swingZone":"B","swingStage":{"label":"低基期","ratio":"0.31","tone":"low","value":0.31249999999999994},"swingSignals":[{"id":"watch_trend","title":"","short":"B觀察","icon":"B","reason":"趨勢轉強但尚未觸發突破買點；趨勢分 5/8，量比 0.00，位階 低基期。"}]},{"code":"2009","name":"第一銅","close":40.55,"percent":2.398989898989888,"tradeVolume":3169,"value":128502950,"swingScore":88,"score":88,"swingZone":"B","swingStage":{"label":"低基期","ratio":"0.37","tone":"low","value":0.3720930232558134},"swingSignals":[{"id":"watch_trend","title":"","short":"B觀察","icon":"B","reason":"趨勢轉強但尚未觸發突破買點；趨勢分 5/8，量比 0.00，位階 低基期。"}]},{"code":"4557","name":"永新-KY","close":46.15,"percent":2.3281596452328097,"tradeVolume":81,"value":3738150,"swingScore":88,"score":88,"swingZone":"B","swingStage":{"label":"低基期","ratio":"0.28","tone":"low","value":0.284090909090909},"swingSignals":[{"id":"watch_trend","title":"","short":"B觀察","icon":"B","reason":"趨勢轉強但尚未觸發突破買點；趨勢分 5/8，量比 0.00，位階 低基期。"}]},{"code":"2006","name":"東和鋼鐵","close":66.8,"percent":2.1406727828746046,"tradeVolume":2675,"value":178690000,"swingScore":88,"score":88,"swingZone":"B","swingStage":{"label":"中位階","ratio":"0.39","tone":"mid","value":0.38823529411764673},"swingSignals":[{"id":"watch_trend","title":"","short":"B觀察","icon":"B","reason":"趨勢轉強但尚未觸發突破買點；趨勢分 6/8，量比 0.00，位階 中位階。"}]},{"code":"2889","name":"國票金","close":15,"percent":2.040816326530617,"tradeVolume":7488,"value":112320000,"swingScore":88,"score":88,"swingZone":"B","swingStage":{"label":"中位階","ratio":"0.54","tone":"mid","value":0.5416666666666665},"swingSignals":[{"id":"watch_trend","title":"","short":"B觀察","icon":"B","reason":"趨勢轉強但尚未觸發突破買點；趨勢分 6/8，量比 0.00，位階 中位階。"}]},{"code":"5225","name":"東科-KY","close":72.4,"percent":1.971830985915501,"tradeVolume":292,"value":21140800,"swingScore":88,"score":88,"swingZone":"B","swingStage":{"label":"低基期","ratio":"0.29","tone":"low","value":0.28571428571428603},"swingSignals":[{"id":"watch_trend","title":"","short":"B觀察","icon":"B","reason":"趨勢轉強但尚未觸發突破買點；趨勢分 5/8，量比 0.00，位階 低基期。"}]},{"code":"1454","name":"台富","close":13,"percent":1.9607843137254901,"tradeVolume":29,"value":377000,"swingScore":88,"score":88,"swingZone":"B","swingStage":{"label":"低基期","ratio":"0.27","tone":"low","value":0.2745098039215685},"swingSignals":[{"id":"watch_trend","title":"","short":"B觀察","icon":"B","reason":"趨勢轉強但尚未觸發突破買點；趨勢分 5/8，量比 0.00，位階 低基期。"}]},{"code":"3511","name":"矽瑪","close":24.8,"percent":1.8480492813141653,"tradeVolume":780,"value":19344000,"swingScore":88,"score":88,"swingZone":"B","swingStage":{"label":"高基期","ratio":"0.63","tone":"high","value":0.6318407960199006},"swingSignals":[{"id":"watch_trend","title":"","short":"B觀察","icon":"B","reason":"趨勢轉強但尚未觸發突破買點；趨勢分 6/8，量比 0.60，位階 高基期。"}]},{"code":"6294","name":"智基","close":28,"percent":1.8181818181818181,"tradeVolume":19,"value":532000,"swingScore":88,"score":88,"swingZone":"B","swingStage":{"label":"低基期","ratio":"0.07","tone":"low","value":0.07260726072607271},"swingSignals":[{"id":"watch_trend","title":"","short":"B觀察","icon":"B","reason":"趨勢轉強但尚未觸發突破買點；趨勢分 5/8，量比 0.00，位階 低基期。"}]},{"code":"8462","name":"柏文","close":141.5,"percent":1.7985611510791366,"tradeVolume":100,"value":14150000,"swingScore":88,"score":88,"swingZone":"B","swingStage":{"label":"中位階","ratio":"0.38","tone":"mid","value":0.38235294117647056},"swingSignals":[{"id":"watch_trend","title":"","short":"B觀察","icon":"B","reason":"趨勢轉強但尚未觸發突破買點；趨勢分 6/8，量比 0.00，位階 中位階。"}]},{"code":"3205","name":"佰研","close":54.3,"percent":1.6853932584269637,"tradeVolume":344,"value":18679200,"swingScore":88,"score":88,"swingZone":"B","swingStage":{"label":"低基期","ratio":"0.25","tone":"low","value":0.24770642201834828},"swingSignals":[{"id":"watch_trend","title":"","short":"B觀察","icon":"B","reason":"趨勢轉強但尚未觸發突破買點；趨勢分 5/8，量比 0.00，位階 低基期。"}]},{"code":"2704","name":"國賓","close":42.65,"percent":1.6686531585220397,"tradeVolume":121,"value":5160650,"swingScore":88,"score":88,"swingZone":"B","swingStage":{"label":"中位階","ratio":"0.38","tone":"mid","value":0.38333333333333286},"swingSignals":[{"id":"watch_trend","title":"","short":"B觀察","icon":"B","reason":"趨勢轉強但尚未觸發突破買點；趨勢分 6/8，量比 0.00，位階 中位階。"}]},{"code":"1103","name":"嘉泥","close":13.4,"percent":1.5151515151515234,"tradeVolume":551,"value":7383400,"swingScore":88,"score":88,"swingZone":"B","swingStage":{"label":"中位階","ratio":"0.46","tone":"mid","value":0.45833333333333354},"swingSignals":[{"id":"watch_trend","title":"","short":"B觀察","icon":"B","reason":"趨勢轉強但尚未觸發突破買點；趨勢分 6/8，量比 0.00，位階 中位階。"}]},{"code":"3324","name":"雙鴻","close":1110,"percent":1.36986301369863,"tradeVolume":3869,"value":4294590000,"swingScore":88,"score":88,"swingZone":"B","swingStage":{"label":"中位階","ratio":"0.54","tone":"mid","value":0.5368171021377672},"swingSignals":[{"id":"watch_trend","title":"","short":"B觀察","icon":"B","reason":"趨勢轉強但尚未觸發突破買點；趨勢分 5/8，量比 0.67，位階 中位階。"}]},{"code":"5312","name":"寶島科","close":96,"percent":1.2658227848101298,"tradeVolume":26,"value":2496000,"swingScore":88,"score":88,"swingZone":"B","swingStage":{"label":"中位階","ratio":"0.47","tone":"mid","value":0.4657534246575343},"swingSignals":[{"id":"watch_trend","title":"","short":"B觀察","icon":"B","reason":"趨勢轉強但尚未觸發突破買點；趨勢分 6/8，量比 0.00，位階 中位階。"}]},{"code":"6931","name":"青松健康","close":41.15,"percent":1.2300085002525267,"tradeVolume":107,"value":4403050,"swingScore":88,"score":88,"swingZone":"B","swingStage":{"label":"低基期","ratio":"0.15","tone":"low","value":0.15261043241505853},"swingSignals":[{"id":"watch_trend","title":"","short":"B觀察","icon":"B","reason":"趨勢轉強但尚未觸發突破買點；趨勢分 5/8，量比 0.00，位階 低基期。"}]},{"code":"5534","name":"長虹","close":77.7,"percent":1.1718750000000075,"tradeVolume":1433,"value":111344100,"swingScore":88,"score":88,"swingZone":"B","swingStage":{"label":"中位階","ratio":"0.48","tone":"mid","value":0.48076923076923117},"swingSignals":[{"id":"watch_trend","title":"","short":"B觀察","icon":"B","reason":"趨勢轉強但尚未觸發突破買點；趨勢分 6/8，量比 0.00，位階 中位階。"}]},{"code":"1760","name":"寶齡富錦","close":61.5,"percent":1.151315789473689,"tradeVolume":157,"value":9655500,"swingScore":88,"score":88,"swingZone":"B","swingStage":{"label":"低基期","ratio":"0.13","tone":"low","value":0.12865497076023402},"swingSignals":[{"id":"watch_trend","title":"","short":"B觀察","icon":"B","reason":"趨勢轉強但尚未觸發突破買點；趨勢分 5/8，量比 0.00，位階 低基期。"}]},{"code":"1616","name":"億泰","close":22.65,"percent":1.1160714285714286,"tradeVolume":904,"value":20475600,"swingScore":88,"score":88,"swingZone":"B","swingStage":{"label":"中位階","ratio":"0.46","tone":"mid","value":0.462264150943396},"swingSignals":[{"id":"watch_trend","title":"","short":"B觀察","icon":"B","reason":"趨勢轉強但尚未觸發突破買點；趨勢分 6/8，量比 0.00，位階 中位階。"}]},{"code":"3611","name":"鼎翰","close":191,"percent":1.0582010582010581,"tradeVolume":33,"value":6303000,"swingScore":88,"score":88,"swingZone":"B","swingStage":{"label":"中位階","ratio":"0.52","tone":"mid","value":0.52},"swingSignals":[{"id":"watch_trend","title":"","short":"B觀察","icon":"B","reason":"趨勢轉強但尚未觸發突破買點；趨勢分 5/8，量比 0.59，位階 中位階。"}]},{"code":"1240","name":"茂生農經","close":57.9,"percent":1.04712041884817,"tradeVolume":12,"value":694800,"swingScore":88,"score":88,"swingZone":"B","swingStage":{"label":"低基期","ratio":"0.33","tone":"low","value":0.3333333333333333},"swingSignals":[{"id":"watch_trend","title":"","short":"B觀察","icon":"B","reason":"趨勢轉強但尚未觸發突破買點；趨勢分 5/8，量比 0.00，位階 低基期。"}]},{"code":"5530","name":"龍巖","close":50.1,"percent":1.0080645161290323,"tradeVolume":1220,"value":61122000,"swingScore":88,"score":88,"swingZone":"B","swingStage":{"label":"中位階","ratio":"0.45","tone":"mid","value":0.4496644295302016},"swingSignals":[{"id":"watch_trend","title":"","short":"B觀察","icon":"B","reason":"趨勢轉強但尚未觸發突破買點；趨勢分 6/8，量比 0.00，位階 中位階。"}]}]}
