{"ok":true,"source":"strategy4-preset","updatedAt":"2026-06-11T12:31:33.792Z","scanStamp":"20260611","total":1958,"complete":true,"zone":"C","page":4,"pageSize":25,"totalPages":13,"totalCount":319,"count":25,"matches":[{"code":"3189","name":"景碩","close":619,"percent":-6.212121212121212,"tradeVolume":30977.021,"avgVolume5":11461.4,"value":0,"swingScore":77,"score":77,"swingZone":"C","swingStage":{"label":"中位階","ratio":"0.60","tone":"mid","value":0.602996254681648},"swingSignals":[{"id":"base_setup","title":"","short":"C準備","icon":"C","reason":"低/中位階整理接近發動；準備分 5/7，RSI 51.2，量比 1.76。"}]},{"code":"4530","name":"宏易","close":25.5,"percent":6.029109392673211,"tradeVolume":12.563,"avgVolume5":8674.19,"value":303257,"swingScore":76,"score":76,"swingZone":"C","swingStage":{"label":"中位階","ratio":"0.41","tone":"mid","value":0.40677962266176015},"swingSignals":[{"id":"base_setup","title":"","short":"C準備","icon":"C","reason":"低/中位階整理接近發動；準備分 6/7，RSI 47.3，量比 0.00。"}]},{"code":"6412","name":"群電","close":91.4000015258789,"percent":5.057473018251617,"tradeVolume":4829.9,"avgVolume5":5602.27,"value":0,"swingScore":76,"score":76,"swingZone":"C","swingStage":{"label":"中位階","ratio":"0.43","tone":"mid","value":0.42618391090397695},"swingSignals":[{"id":"base_setup","title":"","short":"C準備","icon":"C","reason":"低/中位階整理接近發動；準備分 7/7，RSI 38.7，量比 1.10。"}]},{"code":"4523","name":"永彰","close":29.1,"percent":1.5706819806680774,"tradeVolume":226.766,"avgVolume5":35513.2,"value":6628511,"swingScore":76,"score":76,"swingZone":"C","swingStage":{"label":"中位階","ratio":"0.41","tone":"mid","value":0.4096386837914421},"swingSignals":[{"id":"base_setup","title":"","short":"C準備","icon":"C","reason":"低/中位階整理接近發動；準備分 6/7，RSI 54.8，量比 0.03。"}]},{"code":"7736","name":"虎山","close":72.4000015258789,"percent":1.2587433928376313,"tradeVolume":7246,"avgVolume5":32450.4,"value":0,"swingScore":76,"score":76,"swingZone":"C","swingStage":{"label":"低基期","ratio":"0.17","tone":"low","value":0.16814168254435513},"swingSignals":[{"id":"base_setup","title":"","short":"C準備","icon":"C","reason":"低/中位階整理接近發動；準備分 5/7，RSI 53.3，量比 0.25。"}]},{"code":"3349","name":"寶德","close":17.95,"percent":0.5602219405781267,"tradeVolume":73,"avgVolume5":18755,"value":1310200,"swingScore":76,"score":76,"swingZone":"C","swingStage":{"label":"低基期","ratio":"0.07","tone":"low","value":0.06866956288970688},"swingSignals":[{"id":"base_setup","title":"","short":"C準備","icon":"C","reason":"低/中位階整理接近發動；準備分 6/7，RSI 38.8，量比 0.01。"}]},{"code":"6728","name":"上洋","close":110,"percent":0.45662100456621,"tradeVolume":17.733,"avgVolume5":27675.55,"value":1928600,"swingScore":76,"score":76,"swingZone":"C","swingStage":{"label":"低基期","ratio":"0.16","tone":"low","value":0.16},"swingSignals":[{"id":"base_setup","title":"","short":"C準備","icon":"C","reason":"低/中位階整理接近發動；準備分 6/7，RSI 47.2，量比 0.00。"}]},{"code":"5283","name":"禾聯碩","close":52,"percent":0.1926752816591566,"tradeVolume":164.387,"avgVolume5":30389.79,"value":0,"swingScore":76,"score":76,"swingZone":"C","swingStage":{"label":"低基期","ratio":"0.22","tone":"low","value":0.21999969482421874},"swingSignals":[{"id":"base_setup","title":"","short":"C準備","icon":"C","reason":"低/中位階整理接近發動；準備分 6/7，RSI 49.1，量比 0.01。"}]},{"code":"6240","name":"松崗","close":18.05,"percent":0.000004226811557249616,"tradeVolume":11,"avgVolume5":14752.75,"value":199550,"swingScore":76,"score":76,"swingZone":"C","swingStage":{"label":"中位階","ratio":"0.46","tone":"mid","value":0.4600001525878909},"swingSignals":[{"id":"base_setup","title":"","short":"C準備","icon":"C","reason":"低/中位階整理接近發動；準備分 6/7，RSI 57.4，量比 0.00。"}]},{"code":"7791","name":"皇家可口","close":62.70000076293945,"percent":-0.3179662290742027,"tradeVolume":39839,"avgVolume5":24323.11,"value":0,"swingScore":76,"score":76,"swingZone":"C","swingStage":{"label":"低基期","ratio":"0.08","tone":"low","value":0.08000030517578124},"swingSignals":[{"id":"base_setup","title":"","short":"C準備","icon":"C","reason":"低/中位階整理接近發動；準備分 6/7，RSI 48.3，量比 1.04。"}]},{"code":"3499","name":"環天科","close":14.6,"percent":-1.0169491525423753,"tradeVolume":104.599,"avgVolume5":70236.52,"value":1519830,"swingScore":76,"score":76,"swingZone":"C","swingStage":{"label":"低基期","ratio":"0.18","tone":"low","value":0.176470608034763},"swingSignals":[{"id":"base_setup","title":"","short":"C準備","icon":"C","reason":"低/中位階整理接近發動；準備分 6/7，RSI 47.9，量比 0.00。"}]},{"code":"4588","name":"玖鼎電力","close":57,"percent":-1.3840817432876342,"tradeVolume":100.988,"avgVolume5":19349.84,"value":0,"swingScore":76,"score":76,"swingZone":"C","swingStage":{"label":"低基期","ratio":"0.28","tone":"low","value":0.27536227877864444},"swingSignals":[{"id":"base_setup","title":"","short":"C準備","icon":"C","reason":"低/中位階整理接近發動；準備分 6/7，RSI 51.9，量比 0.01。"}]},{"code":"2368","name":"金像電","close":1345,"percent":-5.28169014084507,"tradeVolume":7912.194,"avgVolume5":7899.46,"value":0,"swingScore":76,"score":76,"swingZone":"C","swingStage":{"label":"中位階","ratio":"0.46","tone":"mid","value":0.45977011494252873},"swingSignals":[{"id":"base_setup","title":"","short":"C準備","icon":"C","reason":"低/中位階整理接近發動；準備分 5/7，RSI 50.9，量比 1.25。"}]},{"code":"3115","name":"富榮綱","close":9.09,"percent":-6.577590671594541,"tradeVolume":5.129,"avgVolume5":9804.03,"value":46432,"swingScore":76,"score":76,"swingZone":"C","swingStage":{"label":"中位階","ratio":"0.42","tone":"mid","value":0.42191780005863133},"swingSignals":[{"id":"base_setup","title":"","short":"C準備","icon":"C","reason":"低/中位階整理接近發動；準備分 6/7，RSI 61.2，量比 0.00。"}]},{"code":"4967","name":"十銓","close":277.5,"percent":3.1598513011152414,"tradeVolume":8124.008,"avgVolume5":8905.34,"value":0,"swingScore":75,"score":75,"swingZone":"C","swingStage":{"label":"中位階","ratio":"0.59","tone":"mid","value":0.59375},"swingSignals":[{"id":"base_setup","title":"","short":"C準備","icon":"C","reason":"低/中位階整理接近發動；準備分 6/7，RSI 53.2，量比 0.87。"}]},{"code":"6176","name":"瑞儀","close":91.69999694824219,"percent":2.9180679221630488,"tradeVolume":10547.403,"avgVolume5":14007.08,"value":0,"swingScore":75,"score":75,"swingZone":"C","swingStage":{"label":"低基期","ratio":"0.13","tone":"low","value":0.12676050284154636},"swingSignals":[{"id":"base_setup","title":"","short":"C準備","icon":"C","reason":"低/中位階整理接近發動；準備分 5/7，RSI 24.5，量比 1.13。"}]},{"code":"1445","name":"大宇","close":11.25,"percent":0.44643028202108453,"tradeVolume":51299,"avgVolume5":62665,"value":0,"swingScore":75,"score":75,"swingZone":"C","swingStage":{"label":"低基期","ratio":"0.06","tone":"low","value":0.055555418195047605},"swingSignals":[{"id":"base_setup","title":"","short":"C準備","icon":"C","reason":"低/中位階整理接近發動；準備分 5/7，RSI 29.6，量比 1.55。"}]},{"code":"8367","name":"建新國際","close":40.20000076293945,"percent":0.24938227586940379,"tradeVolume":32204,"avgVolume5":40885.6,"value":0,"swingScore":75,"score":75,"swingZone":"C","swingStage":{"label":"低基期","ratio":"0.15","tone":"low","value":0.1505377490832424},"swingSignals":[{"id":"base_setup","title":"","short":"C準備","icon":"C","reason":"低/中位階整理接近發動；準備分 6/7，RSI 33.9，量比 0.91。"}]},{"code":"1439","name":"雋揚","close":25.149999618530273,"percent":-0.39604111473159037,"tradeVolume":27433,"avgVolume5":27707,"value":0,"swingScore":75,"score":75,"swingZone":"C","swingStage":{"label":"低基期","ratio":"0.23","tone":"low","value":0.23170712418239842},"swingSignals":[{"id":"base_setup","title":"","short":"C準備","icon":"C","reason":"低/中位階整理接近發動；準備分 6/7，RSI 38.5，量比 0.92。"}]},{"code":"2239","name":"英利-KY","close":22.850000381469727,"percent":-0.4357314951867498,"tradeVolume":51395,"avgVolume5":51448.4,"value":0,"swingScore":75,"score":75,"swingZone":"C","swingStage":{"label":"中位階","ratio":"0.42","tone":"mid","value":0.42424243591887567},"swingSignals":[{"id":"base_setup","title":"","short":"C準備","icon":"C","reason":"低/中位階整理接近發動；準備分 6/7，RSI 53.7，量比 1.29。"}]},{"code":"1303","name":"南亞","close":96.9000015258789,"percent":2.2151881925305013,"tradeVolume":56167.173,"avgVolume5":55222.11,"value":0,"swingScore":74,"score":74,"swingZone":"C","swingStage":{"label":"中位階","ratio":"0.43","tone":"mid","value":0.43307088348592454},"swingSignals":[{"id":"base_setup","title":"","short":"C準備","icon":"C","reason":"低/中位階整理接近發動；準備分 6/7，RSI 58.5，量比 0.74。"}]},{"code":"2408","name":"南亞科","close":340,"percent":2.1021021021021022,"tradeVolume":101437.996,"avgVolume5":103498.68,"value":0,"swingScore":74,"score":74,"swingZone":"C","swingStage":{"label":"中位階","ratio":"0.61","tone":"mid","value":0.6090712742980562},"swingSignals":[{"id":"base_setup","title":"","short":"C準備","icon":"C","reason":"低/中位階整理接近發動；準備分 6/7，RSI 55.3，量比 0.74。"}]},{"code":"6843","name":"進典","close":41,"percent":1.8633540372670807,"tradeVolume":11.024,"avgVolume5":22602.4,"value":443162,"swingScore":74,"score":74,"swingZone":"C","swingStage":{"label":"低基期","ratio":"0.13","tone":"low","value":0.13333341810438368},"swingSignals":[{"id":"base_setup","title":"","short":"C準備","icon":"C","reason":"低/中位階整理接近發動；準備分 5/7，RSI 33.6，量比 0.00。"}]},{"code":"6496","name":"科懋","close":23.9,"percent":1.2711848037334188,"tradeVolume":2.212,"avgVolume5":7020.44,"value":52572,"swingScore":74,"score":74,"swingZone":"C","swingStage":{"label":"低基期","ratio":"0.34","tone":"low","value":0.33734942859966094},"swingSignals":[{"id":"base_setup","title":"","short":"C準備","icon":"C","reason":"低/中位階整理接近發動；準備分 5/7，RSI 45.7，量比 0.00。"}]},{"code":"1235","name":"興泰","close":38,"percent":1.0638338885950083,"tradeVolume":16014,"avgVolume5":30107.8,"value":0,"swingScore":74,"score":74,"swingZone":"C","swingStage":{"label":"低基期","ratio":"0.17","tone":"low","value":0.1690140491927705},"swingSignals":[{"id":"base_setup","title":"","short":"C準備","icon":"C","reason":"低/中位階整理接近發動；準備分 6/7，RSI 47.9，量比 0.80。"}]}]}
