{"ok":true,"updatedAt":"2026-06-18T10:18:43.130Z","scanStamp":"20260618","source":"strategy4-score-page","page":5,"pageSize":25,"totalPages":5,"totalCount":120,"count":20,"rows":[{"code":"6548","name":"長科*","close":86.1,"percent":-4.86187845303868,"tradeVolume":14289.121,"avgVolume5":4906.42,"value":1248391481,"swingScore":95,"score":95,"swingZone":"B","swingStage":{"label":"高基期","ratio":"0.76","tone":"high","value":0.7649363369245837},"swingSignals":[{"id":"watch_trend","title":"","short":"B觀察","icon":"B","reason":"趨勢轉強但尚未觸發突破買點；趨勢分 7/8，量比 1.10，位階 高基期。"}]},{"code":"2882","name":"國泰金","close":116.5,"percent":11.483253588516746,"tradeVolume":26947,"avgVolume5":45525.11,"value":3139325500,"swingScore":94,"score":94,"swingZone":"A","swingStage":{"label":"高基期","ratio":"0.98","tone":"high","value":0.978021978021978},"swingSignals":[{"id":"breakaway_gap","title":"","short":"突破缺口","icon":"◆","reason":"跳空突破近20日整理高點，偏突破缺口。"}]},{"code":"3663","name":"鑫科","close":85.7,"percent":9.73111395646608,"tradeVolume":10803.198,"avgVolume5":4134.44,"value":918083032,"swingScore":94,"score":94,"swingZone":"B","swingStage":{"label":"高基期","ratio":"0.73","tone":"high","value":0.7344262295081969},"swingSignals":[{"id":"watch_trend","title":"","short":"B觀察","icon":"B","reason":"趨勢轉強但尚未觸發突破買點；趨勢分 7/8，量比 1.74，位階 高基期。"}]},{"code":"2355","name":"敬鵬","close":58.1,"percent":1.396160558464231,"tradeVolume":7014,"avgVolume5":13665.25,"value":407513400,"swingScore":94,"score":94,"swingZone":"A","swingStage":{"label":"中位階","ratio":"0.40","tone":"mid","value":0.4000000000000001},"swingSignals":[{"id":"wallet_strong_buy","title":"多方寶石","short":"主力多","icon":"◆","reason":"主力爸爸錢包多方寶石（2026-06-16）：控盤線由負翻正且日K收紅。"}]},{"code":"2845","name":"遠東銀","close":13.15,"percent":0.7662835249042118,"tradeVolume":17962,"avgVolume5":14194.75,"value":236200300,"swingScore":94,"score":94,"swingZone":"B","swingStage":{"label":"高基期","ratio":"0.81","tone":"high","value":0.8125000000000007},"swingSignals":[{"id":"watch_trend","title":"","short":"B觀察","icon":"B","reason":"趨勢轉強但尚未觸發突破買點；趨勢分 6/8，量比 1.35，位階 高基期。"}]},{"code":"2897","name":"王道銀行","close":10.55,"percent":0,"tradeVolume":6382,"avgVolume5":6044.76,"value":67330100,"swingScore":94,"score":94,"swingZone":"B","swingStage":{"label":"高基期","ratio":"0.93","tone":"high","value":0.9305555555555569},"swingSignals":[{"id":"watch_trend","title":"","short":"B觀察","icon":"B","reason":"趨勢轉強但尚未觸發突破買點；趨勢分 7/8，量比 1.06，位階 高基期。"}]},{"code":"2492","name":"華新科","close":487.5,"percent":-1.3157894736842104,"tradeVolume":5662,"avgVolume5":4520.6,"value":2760225000,"swingScore":94,"score":94,"swingZone":"B","swingStage":{"label":"高基期","ratio":"0.87","tone":"high","value":0.8696172248803827},"swingSignals":[{"id":"watch_trend","title":"","short":"B觀察","icon":"B","reason":"趨勢轉強但尚未觸發突破買點；趨勢分 7/8，量比 1.00，位階 高基期。"}]},{"code":"2406","name":"國碩","close":35.35,"percent":-6.357615894039731,"tradeVolume":9794,"avgVolume5":24714.01,"value":346217900,"swingScore":94,"score":94,"swingZone":"B","swingStage":{"label":"中位階","ratio":"0.53","tone":"mid","value":0.5274725274725277},"swingSignals":[{"id":"watch_trend","title":"","short":"B觀察","icon":"B","reason":"趨勢轉強但尚未觸發突破買點；趨勢分 6/8，量比 0.45，位階 中位階。"}]},{"code":"2472","name":"立隆電","close":402,"percent":17.37226277372263,"tradeVolume":18263,"avgVolume5":12593.44,"value":7341726000,"swingScore":93,"score":93,"swingZone":"B","swingStage":{"label":"高基期","ratio":"0.98","tone":"high","value":0.9754601226993865},"swingSignals":[{"id":"watch_trend","title":"","short":"B觀察","icon":"B","reason":"趨勢轉強但尚未觸發突破買點；趨勢分 7/8，量比 1.67，位階 高基期。"}]},{"code":"2449","name":"京元電子","close":308,"percent":10.99099099099099,"tradeVolume":44810,"avgVolume5":21141.23,"value":13801480000,"swingScore":93,"score":93,"swingZone":"B","swingStage":{"label":"中位階","ratio":"0.44","tone":"mid","value":0.4405940594059406},"swingSignals":[{"id":"watch_trend","title":"","short":"B觀察","icon":"B","reason":"趨勢轉強但尚未觸發突破買點；趨勢分 7/8，量比 1.05，位階 中位階。"}]},{"code":"3615","name":"安可","close":55.4,"percent":10.358565737051784,"tradeVolume":8520.675,"avgVolume5":5543.53,"value":468117664,"swingScore":93,"score":93,"swingZone":"A","swingStage":{"label":"高基期","ratio":"0.79","tone":"high","value":0.7870129870129869},"swingSignals":[{"id":"runaway_gap","title":"","short":"逃逸缺口","icon":"🚀","reason":"跳空且站上MA20，多頭段延續，偏逃逸缺口。"}]},{"code":"2478","name":"大毅","close":227.5,"percent":9.903381642512077,"tradeVolume":18607,"avgVolume5":19893.85,"value":4233092500,"swingScore":93,"score":93,"swingZone":"A","swingStage":{"label":"過熱","ratio":"1.00+","tone":"hot","value":1},"swingSignals":[{"id":"breakaway_gap","title":"","short":"突破缺口","icon":"◆","reason":"跳空突破近20日整理高點，偏突破缺口。"}]},{"code":"2349","name":"錸德","close":13.95,"percent":5.6818181818181825,"tradeVolume":3487,"avgVolume5":3584.69,"value":48643650,"swingScore":93,"score":93,"swingZone":"A","swingStage":{"label":"中位階","ratio":"0.46","tone":"mid","value":0.45679012345679015},"swingSignals":[{"id":"runaway_gap","title":"","short":"逃逸缺口","icon":"🚀","reason":"跳空且站上MA20，多頭段延續，偏逃逸缺口。"}]},{"code":"6209","name":"今國光","close":88.2,"percent":5.125148986889149,"tradeVolume":47601,"avgVolume5":33558.38,"value":4198408200,"swingScore":93,"score":93,"swingZone":"B","swingStage":{"label":"高基期","ratio":"0.79","tone":"high","value":0.7918918918918919},"swingSignals":[{"id":"watch_trend","title":"","short":"B觀察","icon":"B","reason":"趨勢轉強但尚未觸發突破買點；趨勢分 7/8，量比 1.93，位階 高基期。"}]},{"code":"3105","name":"穩懋","close":528,"percent":4.142011834319527,"tradeVolume":40139.349,"avgVolume5":23019.32,"value":21613642453,"swingScore":93,"score":93,"swingZone":"B","swingStage":{"label":"中位階","ratio":"0.46","tone":"mid","value":0.45905707196029777},"swingSignals":[{"id":"watch_trend","title":"","short":"B觀察","icon":"B","reason":"趨勢轉強但尚未觸發突破買點；趨勢分 6/8，量比 1.36，位階 中位階。"}]},{"code":"8071","name":"能率網通","close":29.4,"percent":1.7301038062283738,"tradeVolume":4774.34,"avgVolume5":6420.11,"value":139004616,"swingScore":93,"score":93,"swingZone":"B","swingStage":{"label":"高基期","ratio":"0.97","tone":"high","value":0.972508591065292},"swingSignals":[{"id":"watch_trend","title":"","short":"B觀察","icon":"B","reason":"趨勢轉強但尚未觸發突破買點；趨勢分 6/8，量比 1.27，位階 高基期。"}]},{"code":"2305","name":"全友","close":32.45,"percent":6.919275123558489,"tradeVolume":9068,"avgVolume5":5693.82,"value":294256600,"swingScore":92,"score":92,"swingZone":"B","swingStage":{"label":"高基期","ratio":"0.94","tone":"high","value":0.9353099730458223},"swingSignals":[{"id":"watch_trend","title":"","short":"B觀察","icon":"B","reason":"趨勢轉強但尚未觸發突破買點；趨勢分 6/8，量比 1.16，位階 高基期。"}]},{"code":"6213","name":"聯茂","close":265,"percent":6.854838709677419,"tradeVolume":3707,"avgVolume5":9390.18,"value":982355000,"swingScore":92,"score":92,"swingZone":"A","swingStage":{"label":"中位階","ratio":"0.38","tone":"mid","value":0.3837837837837838},"swingSignals":[{"id":"runaway_gap","title":"","short":"逃逸缺口","icon":"🚀","reason":"跳空且站上MA20，多頭段延續，偏逃逸缺口。"}]},{"code":"6127","name":"九豪","close":84.4,"percent":6.565656565656569,"tradeVolume":7244.144,"avgVolume5":5922.43,"value":600830605,"swingScore":92,"score":92,"swingZone":"A","swingStage":{"label":"高基期","ratio":"0.86","tone":"high","value":0.8617886178861789},"swingSignals":[{"id":"n_base","title":"","short":"N字","icon":"","reason":"爆量突破後回檔不破半分位，再突破前高 83.80，N字共振。"},{"id":"runaway_gap","title":"","short":"逃逸缺口","icon":"🚀","reason":"跳空且站上MA20，多頭段延續，偏逃逸缺口。"}]},{"code":"2646","name":"星宇航空","close":21.15,"percent":0.4750593824227927,"tradeVolume":5464,"avgVolume5":5328.56,"value":115563600,"swingScore":92,"score":92,"swingZone":"B","swingStage":{"label":"高基期","ratio":"0.76","tone":"high","value":0.7631578947368409},"swingSignals":[{"id":"watch_trend","title":"","short":"B觀察","icon":"B","reason":"趨勢轉強但尚未觸發突破買點；趨勢分 7/8，量比 0.80，位階 高基期。"}]}],"matches":[{"code":"6548","name":"長科*","close":86.1,"percent":-4.86187845303868,"tradeVolume":14289.121,"avgVolume5":4906.42,"value":1248391481,"swingScore":95,"score":95,"swingZone":"B","swingStage":{"label":"高基期","ratio":"0.76","tone":"high","value":0.7649363369245837},"swingSignals":[{"id":"watch_trend","title":"","short":"B觀察","icon":"B","reason":"趨勢轉強但尚未觸發突破買點；趨勢分 7/8，量比 1.10，位階 高基期。"}]},{"code":"2882","name":"國泰金","close":116.5,"percent":11.483253588516746,"tradeVolume":26947,"avgVolume5":45525.11,"value":3139325500,"swingScore":94,"score":94,"swingZone":"A","swingStage":{"label":"高基期","ratio":"0.98","tone":"high","value":0.978021978021978},"swingSignals":[{"id":"breakaway_gap","title":"","short":"突破缺口","icon":"◆","reason":"跳空突破近20日整理高點，偏突破缺口。"}]},{"code":"3663","name":"鑫科","close":85.7,"percent":9.73111395646608,"tradeVolume":10803.198,"avgVolume5":4134.44,"value":918083032,"swingScore":94,"score":94,"swingZone":"B","swingStage":{"label":"高基期","ratio":"0.73","tone":"high","value":0.7344262295081969},"swingSignals":[{"id":"watch_trend","title":"","short":"B觀察","icon":"B","reason":"趨勢轉強但尚未觸發突破買點；趨勢分 7/8，量比 1.74，位階 高基期。"}]},{"code":"2355","name":"敬鵬","close":58.1,"percent":1.396160558464231,"tradeVolume":7014,"avgVolume5":13665.25,"value":407513400,"swingScore":94,"score":94,"swingZone":"A","swingStage":{"label":"中位階","ratio":"0.40","tone":"mid","value":0.4000000000000001},"swingSignals":[{"id":"wallet_strong_buy","title":"多方寶石","short":"主力多","icon":"◆","reason":"主力爸爸錢包多方寶石（2026-06-16）：控盤線由負翻正且日K收紅。"}]},{"code":"2845","name":"遠東銀","close":13.15,"percent":0.7662835249042118,"tradeVolume":17962,"avgVolume5":14194.75,"value":236200300,"swingScore":94,"score":94,"swingZone":"B","swingStage":{"label":"高基期","ratio":"0.81","tone":"high","value":0.8125000000000007},"swingSignals":[{"id":"watch_trend","title":"","short":"B觀察","icon":"B","reason":"趨勢轉強但尚未觸發突破買點；趨勢分 6/8，量比 1.35，位階 高基期。"}]},{"code":"2897","name":"王道銀行","close":10.55,"percent":0,"tradeVolume":6382,"avgVolume5":6044.76,"value":67330100,"swingScore":94,"score":94,"swingZone":"B","swingStage":{"label":"高基期","ratio":"0.93","tone":"high","value":0.9305555555555569},"swingSignals":[{"id":"watch_trend","title":"","short":"B觀察","icon":"B","reason":"趨勢轉強但尚未觸發突破買點；趨勢分 7/8，量比 1.06，位階 高基期。"}]},{"code":"2492","name":"華新科","close":487.5,"percent":-1.3157894736842104,"tradeVolume":5662,"avgVolume5":4520.6,"value":2760225000,"swingScore":94,"score":94,"swingZone":"B","swingStage":{"label":"高基期","ratio":"0.87","tone":"high","value":0.8696172248803827},"swingSignals":[{"id":"watch_trend","title":"","short":"B觀察","icon":"B","reason":"趨勢轉強但尚未觸發突破買點；趨勢分 7/8，量比 1.00，位階 高基期。"}]},{"code":"2406","name":"國碩","close":35.35,"percent":-6.357615894039731,"tradeVolume":9794,"avgVolume5":24714.01,"value":346217900,"swingScore":94,"score":94,"swingZone":"B","swingStage":{"label":"中位階","ratio":"0.53","tone":"mid","value":0.5274725274725277},"swingSignals":[{"id":"watch_trend","title":"","short":"B觀察","icon":"B","reason":"趨勢轉強但尚未觸發突破買點；趨勢分 6/8，量比 0.45，位階 中位階。"}]},{"code":"2472","name":"立隆電","close":402,"percent":17.37226277372263,"tradeVolume":18263,"avgVolume5":12593.44,"value":7341726000,"swingScore":93,"score":93,"swingZone":"B","swingStage":{"label":"高基期","ratio":"0.98","tone":"high","value":0.9754601226993865},"swingSignals":[{"id":"watch_trend","title":"","short":"B觀察","icon":"B","reason":"趨勢轉強但尚未觸發突破買點；趨勢分 7/8，量比 1.67，位階 高基期。"}]},{"code":"2449","name":"京元電子","close":308,"percent":10.99099099099099,"tradeVolume":44810,"avgVolume5":21141.23,"value":13801480000,"swingScore":93,"score":93,"swingZone":"B","swingStage":{"label":"中位階","ratio":"0.44","tone":"mid","value":0.4405940594059406},"swingSignals":[{"id":"watch_trend","title":"","short":"B觀察","icon":"B","reason":"趨勢轉強但尚未觸發突破買點；趨勢分 7/8，量比 1.05，位階 中位階。"}]},{"code":"3615","name":"安可","close":55.4,"percent":10.358565737051784,"tradeVolume":8520.675,"avgVolume5":5543.53,"value":468117664,"swingScore":93,"score":93,"swingZone":"A","swingStage":{"label":"高基期","ratio":"0.79","tone":"high","value":0.7870129870129869},"swingSignals":[{"id":"runaway_gap","title":"","short":"逃逸缺口","icon":"🚀","reason":"跳空且站上MA20，多頭段延續，偏逃逸缺口。"}]},{"code":"2478","name":"大毅","close":227.5,"percent":9.903381642512077,"tradeVolume":18607,"avgVolume5":19893.85,"value":4233092500,"swingScore":93,"score":93,"swingZone":"A","swingStage":{"label":"過熱","ratio":"1.00+","tone":"hot","value":1},"swingSignals":[{"id":"breakaway_gap","title":"","short":"突破缺口","icon":"◆","reason":"跳空突破近20日整理高點，偏突破缺口。"}]},{"code":"2349","name":"錸德","close":13.95,"percent":5.6818181818181825,"tradeVolume":3487,"avgVolume5":3584.69,"value":48643650,"swingScore":93,"score":93,"swingZone":"A","swingStage":{"label":"中位階","ratio":"0.46","tone":"mid","value":0.45679012345679015},"swingSignals":[{"id":"runaway_gap","title":"","short":"逃逸缺口","icon":"🚀","reason":"跳空且站上MA20，多頭段延續，偏逃逸缺口。"}]},{"code":"6209","name":"今國光","close":88.2,"percent":5.125148986889149,"tradeVolume":47601,"avgVolume5":33558.38,"value":4198408200,"swingScore":93,"score":93,"swingZone":"B","swingStage":{"label":"高基期","ratio":"0.79","tone":"high","value":0.7918918918918919},"swingSignals":[{"id":"watch_trend","title":"","short":"B觀察","icon":"B","reason":"趨勢轉強但尚未觸發突破買點；趨勢分 7/8，量比 1.93，位階 高基期。"}]},{"code":"3105","name":"穩懋","close":528,"percent":4.142011834319527,"tradeVolume":40139.349,"avgVolume5":23019.32,"value":21613642453,"swingScore":93,"score":93,"swingZone":"B","swingStage":{"label":"中位階","ratio":"0.46","tone":"mid","value":0.45905707196029777},"swingSignals":[{"id":"watch_trend","title":"","short":"B觀察","icon":"B","reason":"趨勢轉強但尚未觸發突破買點；趨勢分 6/8，量比 1.36，位階 中位階。"}]},{"code":"8071","name":"能率網通","close":29.4,"percent":1.7301038062283738,"tradeVolume":4774.34,"avgVolume5":6420.11,"value":139004616,"swingScore":93,"score":93,"swingZone":"B","swingStage":{"label":"高基期","ratio":"0.97","tone":"high","value":0.972508591065292},"swingSignals":[{"id":"watch_trend","title":"","short":"B觀察","icon":"B","reason":"趨勢轉強但尚未觸發突破買點；趨勢分 6/8，量比 1.27，位階 高基期。"}]},{"code":"2305","name":"全友","close":32.45,"percent":6.919275123558489,"tradeVolume":9068,"avgVolume5":5693.82,"value":294256600,"swingScore":92,"score":92,"swingZone":"B","swingStage":{"label":"高基期","ratio":"0.94","tone":"high","value":0.9353099730458223},"swingSignals":[{"id":"watch_trend","title":"","short":"B觀察","icon":"B","reason":"趨勢轉強但尚未觸發突破買點；趨勢分 6/8，量比 1.16，位階 高基期。"}]},{"code":"6213","name":"聯茂","close":265,"percent":6.854838709677419,"tradeVolume":3707,"avgVolume5":9390.18,"value":982355000,"swingScore":92,"score":92,"swingZone":"A","swingStage":{"label":"中位階","ratio":"0.38","tone":"mid","value":0.3837837837837838},"swingSignals":[{"id":"runaway_gap","title":"","short":"逃逸缺口","icon":"🚀","reason":"跳空且站上MA20，多頭段延續，偏逃逸缺口。"}]},{"code":"6127","name":"九豪","close":84.4,"percent":6.565656565656569,"tradeVolume":7244.144,"avgVolume5":5922.43,"value":600830605,"swingScore":92,"score":92,"swingZone":"A","swingStage":{"label":"高基期","ratio":"0.86","tone":"high","value":0.8617886178861789},"swingSignals":[{"id":"n_base","title":"","short":"N字","icon":"","reason":"爆量突破後回檔不破半分位，再突破前高 83.80，N字共振。"},{"id":"runaway_gap","title":"","short":"逃逸缺口","icon":"🚀","reason":"跳空且站上MA20，多頭段延續，偏逃逸缺口。"}]},{"code":"2646","name":"星宇航空","close":21.15,"percent":0.4750593824227927,"tradeVolume":5464,"avgVolume5":5328.56,"value":115563600,"swingScore":92,"score":92,"swingZone":"B","swingStage":{"label":"高基期","ratio":"0.76","tone":"high","value":0.7631578947368409},"swingSignals":[{"id":"watch_trend","title":"","short":"B觀察","icon":"B","reason":"趨勢轉強但尚未觸發突破買點；趨勢分 7/8，量比 0.80，位階 高基期。"}]}]}
