{"ok":true,"updatedAt":"2026-06-18T10:47:09.044Z","generatedDate":"20260618","sourceDate":"20260618","source":"strategy5-page","page":4,"pageSize":25,"totalPages":4,"totalCount":80,"count":5,"rows":[{"code":"6216","name":"居易","close":23.2,"open":22.95,"high":23.25,"low":22.85,"prevClose":22.95,"limitUp":0,"change":0.25,"percent":1.09,"value":9653500,"tradeVolume":418,"quoteDate":"20260618","market":"TSE","closeSource":"fugle-rest-collector","tradeValue":9653500,"bidPrice":23.1,"bidSize":5,"askPrice":23.2,"askSize":2,"cumulativeBidVolume":224,"cumulativeAskVolume":189,"cumulativeBidAskVolume":413,"time":1781760600000000,"quoteTime":1781760600000000,"quoteSeenAt":"2026-06-18T10:45:33.720Z","updatedAt":1781760600000000,"quoteSource":"fugle-rest-collector","realtimeFallback":"fugle-rest-collector","recoveredFromRealtimeFallback":true,"isTrial":false,"referencePrice":22.95,"trialPrice":23.2,"isRealtime":true,"valueRank":40,"volumeRank":50,"inst":{"foreign":0,"trust":0,"dealer":0,"total":0},"matches":[{"id":"bollinger_kdj_buy","short":"布林KDJ","icon":"K","score":77,"reason":"三線向上中軌買點：20MA 22.87、上軌 23.83、下軌 21.91；KDJ 黃金交叉 K 57.3 / D 43.7，量比 1.32。","bollingerMode":"三線向上中軌買點","bollingerMiddle":22.87,"bollingerUpper":23.83,"bollingerLower":21.91,"kdjK":57.3,"kdjD":43.7,"kdjJ":84.6,"volumeRatio":1.32}],"strategy4Score":0,"strategy4Reason":"","strategy4Signals":[],"score":77,"activeMatch":{"id":"bollinger_kdj_buy","short":"布林KDJ","icon":"K","score":77,"reason":"三線向上中軌買點：20MA 22.87、上軌 23.83、下軌 21.91；KDJ 黃金交叉 K 57.3 / D 43.7，量比 1.32。","bollingerMode":"三線向上中軌買點","bollingerMiddle":22.87,"bollingerUpper":23.83,"bollingerLower":21.91,"kdjK":57.3,"kdjD":43.7,"kdjJ":84.6,"volumeRatio":1.32}},{"code":"5215","name":"科嘉-KY","close":45.35,"open":44.35,"high":45.55,"low":44.35,"prevClose":44.4,"limitUp":0,"change":0.95,"percent":2.14,"value":9167400,"tradeVolume":204,"quoteDate":"20260618","market":"TSE","closeSource":"fugle-rest-collector","tradeValue":9167400,"bidPrice":45.35,"bidSize":1,"askPrice":45.4,"askSize":1,"cumulativeBidVolume":63,"cumulativeAskVolume":141,"cumulativeBidAskVolume":204,"time":1781760600000000,"quoteTime":1781760600000000,"quoteSeenAt":"2026-06-18T10:46:33.228Z","updatedAt":1781760600000000,"quoteSource":"fugle-rest-collector","realtimeFallback":"fugle-rest-collector","recoveredFromRealtimeFallback":true,"isTrial":false,"referencePrice":44.4,"trialPrice":45.3,"isRealtime":true,"valueRank":39,"volumeRank":38,"inst":{"foreign":0,"trust":0,"dealer":0,"total":0},"matches":[{"id":"bollinger_kdj_buy","short":"布林KDJ","icon":"K","score":76,"reason":"三線走平下軌買點：20MA 46.25、上軌 51.03、下軌 41.47；KDJ 黃金交叉 K 48.3 / D 34.2，量比 1.11。","bollingerMode":"三線走平下軌買點","bollingerMiddle":46.25,"bollingerUpper":51.03,"bollingerLower":41.47,"kdjK":48.3,"kdjD":34.2,"kdjJ":76.6,"volumeRatio":1.11}],"strategy4Score":0,"strategy4Reason":"","strategy4Signals":[],"score":76,"activeMatch":{"id":"bollinger_kdj_buy","short":"布林KDJ","icon":"K","score":76,"reason":"三線走平下軌買點：20MA 46.25、上軌 51.03、下軌 41.47；KDJ 黃金交叉 K 48.3 / D 34.2，量比 1.11。","bollingerMode":"三線走平下軌買點","bollingerMiddle":46.25,"bollingerUpper":51.03,"bollingerLower":41.47,"kdjK":48.3,"kdjD":34.2,"kdjJ":76.6,"volumeRatio":1.11}},{"code":"4162","name":"智擎","close":57.3,"open":57.1,"high":57.8,"low":56.9,"prevClose":56.7,"limitUp":0,"change":0.6,"percent":1.06,"value":21814700,"tradeVolume":380,"quoteDate":"20260618","market":"OTC","closeSource":"fugle-rest-collector","tradeValue":21814700,"bidPrice":57.2,"bidSize":1,"askPrice":57.3,"askSize":3,"cumulativeBidVolume":103,"cumulativeAskVolume":277,"cumulativeBidAskVolume":380,"time":1781760600000000,"quoteTime":1781760600000000,"quoteSeenAt":"2026-06-18T10:46:25.570Z","updatedAt":1781760600000000,"quoteSource":"fugle-rest-collector","realtimeFallback":"fugle-rest-collector","recoveredFromRealtimeFallback":true,"isTrial":false,"referencePrice":56.7,"trialPrice":57.3,"isRealtime":true,"valueRank":51,"volumeRank":48,"inst":{"foreign":-26067,"trust":0,"dealer":-1,"total":-26068},"matches":[{"id":"bollinger_kdj_buy","short":"布林KDJ","icon":"K","score":76,"reason":"三線向上中軌買點：20MA 55.87、上軌 58.54、下軌 53.20；KDJ 黃金交叉 K 70.6 / D 70.6，量比 1.00。","bollingerMode":"三線向上中軌買點","bollingerMiddle":55.87,"bollingerUpper":58.54,"bollingerLower":53.2,"kdjK":70.6,"kdjD":70.6,"kdjJ":70.6,"volumeRatio":1}],"strategy4Score":0,"strategy4Reason":"","strategy4Signals":[],"score":76,"activeMatch":{"id":"bollinger_kdj_buy","short":"布林KDJ","icon":"K","score":76,"reason":"三線向上中軌買點：20MA 55.87、上軌 58.54、下軌 53.20；KDJ 黃金交叉 K 70.6 / D 70.6，量比 1.00。","bollingerMode":"三線向上中軌買點","bollingerMiddle":55.87,"bollingerUpper":58.54,"bollingerLower":53.2,"kdjK":70.6,"kdjD":70.6,"kdjJ":70.6,"volumeRatio":1}},{"code":"6170","name":"統振","close":52.7,"open":52.3,"high":53,"low":52.2,"prevClose":52.1,"limitUp":0,"change":0.6,"percent":1.15,"value":17350400,"tradeVolume":329,"quoteDate":"20260618","market":"OTC","closeSource":"fugle-rest-collector","tradeValue":17350400,"bidPrice":52.7,"bidSize":3,"askPrice":52.8,"askSize":12,"cumulativeBidVolume":66,"cumulativeAskVolume":263,"cumulativeBidAskVolume":329,"time":1781760600000000,"quoteTime":1781760600000000,"quoteSeenAt":"2026-06-18T10:46:38.405Z","updatedAt":1781760600000000,"quoteSource":"fugle-rest-collector","realtimeFallback":"fugle-rest-collector","recoveredFromRealtimeFallback":true,"isTrial":false,"referencePrice":52.1,"trialPrice":52.7,"isRealtime":true,"valueRank":48,"volumeRank":46,"inst":{"foreign":0,"trust":0,"dealer":0,"total":0},"matches":[{"id":"bollinger_kdj_buy","short":"布林KDJ","icon":"K","score":75,"reason":"三線向上中軌買點：20MA 51.81、上軌 53.74、下軌 49.88；KDJ 黃金交叉 K 58.5 / D 53.1，量比 0.90。","bollingerMode":"三線向上中軌買點","bollingerMiddle":51.81,"bollingerUpper":53.74,"bollingerLower":49.88,"kdjK":58.5,"kdjD":53.1,"kdjJ":69.2,"volumeRatio":0.9}],"strategy4Score":0,"strategy4Reason":"","strategy4Signals":[],"score":75,"activeMatch":{"id":"bollinger_kdj_buy","short":"布林KDJ","icon":"K","score":75,"reason":"三線向上中軌買點：20MA 51.81、上軌 53.74、下軌 49.88；KDJ 黃金交叉 K 58.5 / D 53.1，量比 0.90。","bollingerMode":"三線向上中軌買點","bollingerMiddle":51.81,"bollingerUpper":53.74,"bollingerLower":49.88,"kdjK":58.5,"kdjD":53.1,"kdjJ":69.2,"volumeRatio":0.9}},{"code":"1528","name":"恩德","close":25.4,"open":25.35,"high":25.75,"low":25.25,"prevClose":25.35,"limitUp":0,"change":0.05,"percent":0.2,"value":78583950,"tradeVolume":3088,"quoteDate":"20260618","market":"TSE","closeSource":"fugle-rest-collector","tradeValue":78583950,"bidPrice":25.35,"bidSize":147,"askPrice":25.4,"askSize":2,"cumulativeBidVolume":1835,"cumulativeAskVolume":1173,"cumulativeBidAskVolume":3008,"time":1781760600000000,"quoteTime":1781760600000000,"quoteSeenAt":"2026-06-18T10:45:58.916Z","updatedAt":1781760600000000,"quoteSource":"fugle-rest-collector","realtimeFallback":"fugle-rest-collector","recoveredFromRealtimeFallback":true,"isTrial":false,"referencePrice":25.35,"trialPrice":25.4,"isRealtime":true,"valueRank":66,"volumeRank":80,"inst":{"foreign":-408000,"trust":0,"dealer":2749,"total":-408000},"matches":[{"id":"bollinger_kdj_buy","short":"布林KDJ","icon":"K","score":75,"reason":"三線走平下軌買點：20MA 26.40、上軌 29.82、下軌 22.98；KDJ 黃金交叉 K 25.2 / D 22.8，量比 0.99。","bollingerMode":"三線走平下軌買點","bollingerMiddle":26.4,"bollingerUpper":29.82,"bollingerLower":22.98,"kdjK":25.2,"kdjD":22.8,"kdjJ":30,"volumeRatio":0.99}],"strategy4Score":0,"strategy4Reason":"","strategy4Signals":[],"score":75,"activeMatch":{"id":"bollinger_kdj_buy","short":"布林KDJ","icon":"K","score":75,"reason":"三線走平下軌買點：20MA 26.40、上軌 29.82、下軌 22.98；KDJ 黃金交叉 K 25.2 / D 22.8，量比 0.99。","bollingerMode":"三線走平下軌買點","bollingerMiddle":26.4,"bollingerUpper":29.82,"bollingerLower":22.98,"kdjK":25.2,"kdjD":22.8,"kdjJ":30,"volumeRatio":0.99}}],"matches":[{"code":"6216","name":"居易","close":23.2,"open":22.95,"high":23.25,"low":22.85,"prevClose":22.95,"limitUp":0,"change":0.25,"percent":1.09,"value":9653500,"tradeVolume":418,"quoteDate":"20260618","market":"TSE","closeSource":"fugle-rest-collector","tradeValue":9653500,"bidPrice":23.1,"bidSize":5,"askPrice":23.2,"askSize":2,"cumulativeBidVolume":224,"cumulativeAskVolume":189,"cumulativeBidAskVolume":413,"time":1781760600000000,"quoteTime":1781760600000000,"quoteSeenAt":"2026-06-18T10:45:33.720Z","updatedAt":1781760600000000,"quoteSource":"fugle-rest-collector","realtimeFallback":"fugle-rest-collector","recoveredFromRealtimeFallback":true,"isTrial":false,"referencePrice":22.95,"trialPrice":23.2,"isRealtime":true,"valueRank":40,"volumeRank":50,"inst":{"foreign":0,"trust":0,"dealer":0,"total":0},"matches":[{"id":"bollinger_kdj_buy","short":"布林KDJ","icon":"K","score":77,"reason":"三線向上中軌買點：20MA 22.87、上軌 23.83、下軌 21.91；KDJ 黃金交叉 K 57.3 / D 43.7，量比 1.32。","bollingerMode":"三線向上中軌買點","bollingerMiddle":22.87,"bollingerUpper":23.83,"bollingerLower":21.91,"kdjK":57.3,"kdjD":43.7,"kdjJ":84.6,"volumeRatio":1.32}],"strategy4Score":0,"strategy4Reason":"","strategy4Signals":[],"score":77,"activeMatch":{"id":"bollinger_kdj_buy","short":"布林KDJ","icon":"K","score":77,"reason":"三線向上中軌買點：20MA 22.87、上軌 23.83、下軌 21.91；KDJ 黃金交叉 K 57.3 / D 43.7，量比 1.32。","bollingerMode":"三線向上中軌買點","bollingerMiddle":22.87,"bollingerUpper":23.83,"bollingerLower":21.91,"kdjK":57.3,"kdjD":43.7,"kdjJ":84.6,"volumeRatio":1.32}},{"code":"5215","name":"科嘉-KY","close":45.35,"open":44.35,"high":45.55,"low":44.35,"prevClose":44.4,"limitUp":0,"change":0.95,"percent":2.14,"value":9167400,"tradeVolume":204,"quoteDate":"20260618","market":"TSE","closeSource":"fugle-rest-collector","tradeValue":9167400,"bidPrice":45.35,"bidSize":1,"askPrice":45.4,"askSize":1,"cumulativeBidVolume":63,"cumulativeAskVolume":141,"cumulativeBidAskVolume":204,"time":1781760600000000,"quoteTime":1781760600000000,"quoteSeenAt":"2026-06-18T10:46:33.228Z","updatedAt":1781760600000000,"quoteSource":"fugle-rest-collector","realtimeFallback":"fugle-rest-collector","recoveredFromRealtimeFallback":true,"isTrial":false,"referencePrice":44.4,"trialPrice":45.3,"isRealtime":true,"valueRank":39,"volumeRank":38,"inst":{"foreign":0,"trust":0,"dealer":0,"total":0},"matches":[{"id":"bollinger_kdj_buy","short":"布林KDJ","icon":"K","score":76,"reason":"三線走平下軌買點：20MA 46.25、上軌 51.03、下軌 41.47；KDJ 黃金交叉 K 48.3 / D 34.2，量比 1.11。","bollingerMode":"三線走平下軌買點","bollingerMiddle":46.25,"bollingerUpper":51.03,"bollingerLower":41.47,"kdjK":48.3,"kdjD":34.2,"kdjJ":76.6,"volumeRatio":1.11}],"strategy4Score":0,"strategy4Reason":"","strategy4Signals":[],"score":76,"activeMatch":{"id":"bollinger_kdj_buy","short":"布林KDJ","icon":"K","score":76,"reason":"三線走平下軌買點：20MA 46.25、上軌 51.03、下軌 41.47；KDJ 黃金交叉 K 48.3 / D 34.2，量比 1.11。","bollingerMode":"三線走平下軌買點","bollingerMiddle":46.25,"bollingerUpper":51.03,"bollingerLower":41.47,"kdjK":48.3,"kdjD":34.2,"kdjJ":76.6,"volumeRatio":1.11}},{"code":"4162","name":"智擎","close":57.3,"open":57.1,"high":57.8,"low":56.9,"prevClose":56.7,"limitUp":0,"change":0.6,"percent":1.06,"value":21814700,"tradeVolume":380,"quoteDate":"20260618","market":"OTC","closeSource":"fugle-rest-collector","tradeValue":21814700,"bidPrice":57.2,"bidSize":1,"askPrice":57.3,"askSize":3,"cumulativeBidVolume":103,"cumulativeAskVolume":277,"cumulativeBidAskVolume":380,"time":1781760600000000,"quoteTime":1781760600000000,"quoteSeenAt":"2026-06-18T10:46:25.570Z","updatedAt":1781760600000000,"quoteSource":"fugle-rest-collector","realtimeFallback":"fugle-rest-collector","recoveredFromRealtimeFallback":true,"isTrial":false,"referencePrice":56.7,"trialPrice":57.3,"isRealtime":true,"valueRank":51,"volumeRank":48,"inst":{"foreign":-26067,"trust":0,"dealer":-1,"total":-26068},"matches":[{"id":"bollinger_kdj_buy","short":"布林KDJ","icon":"K","score":76,"reason":"三線向上中軌買點：20MA 55.87、上軌 58.54、下軌 53.20；KDJ 黃金交叉 K 70.6 / D 70.6，量比 1.00。","bollingerMode":"三線向上中軌買點","bollingerMiddle":55.87,"bollingerUpper":58.54,"bollingerLower":53.2,"kdjK":70.6,"kdjD":70.6,"kdjJ":70.6,"volumeRatio":1}],"strategy4Score":0,"strategy4Reason":"","strategy4Signals":[],"score":76,"activeMatch":{"id":"bollinger_kdj_buy","short":"布林KDJ","icon":"K","score":76,"reason":"三線向上中軌買點：20MA 55.87、上軌 58.54、下軌 53.20；KDJ 黃金交叉 K 70.6 / D 70.6，量比 1.00。","bollingerMode":"三線向上中軌買點","bollingerMiddle":55.87,"bollingerUpper":58.54,"bollingerLower":53.2,"kdjK":70.6,"kdjD":70.6,"kdjJ":70.6,"volumeRatio":1}},{"code":"6170","name":"統振","close":52.7,"open":52.3,"high":53,"low":52.2,"prevClose":52.1,"limitUp":0,"change":0.6,"percent":1.15,"value":17350400,"tradeVolume":329,"quoteDate":"20260618","market":"OTC","closeSource":"fugle-rest-collector","tradeValue":17350400,"bidPrice":52.7,"bidSize":3,"askPrice":52.8,"askSize":12,"cumulativeBidVolume":66,"cumulativeAskVolume":263,"cumulativeBidAskVolume":329,"time":1781760600000000,"quoteTime":1781760600000000,"quoteSeenAt":"2026-06-18T10:46:38.405Z","updatedAt":1781760600000000,"quoteSource":"fugle-rest-collector","realtimeFallback":"fugle-rest-collector","recoveredFromRealtimeFallback":true,"isTrial":false,"referencePrice":52.1,"trialPrice":52.7,"isRealtime":true,"valueRank":48,"volumeRank":46,"inst":{"foreign":0,"trust":0,"dealer":0,"total":0},"matches":[{"id":"bollinger_kdj_buy","short":"布林KDJ","icon":"K","score":75,"reason":"三線向上中軌買點：20MA 51.81、上軌 53.74、下軌 49.88；KDJ 黃金交叉 K 58.5 / D 53.1，量比 0.90。","bollingerMode":"三線向上中軌買點","bollingerMiddle":51.81,"bollingerUpper":53.74,"bollingerLower":49.88,"kdjK":58.5,"kdjD":53.1,"kdjJ":69.2,"volumeRatio":0.9}],"strategy4Score":0,"strategy4Reason":"","strategy4Signals":[],"score":75,"activeMatch":{"id":"bollinger_kdj_buy","short":"布林KDJ","icon":"K","score":75,"reason":"三線向上中軌買點：20MA 51.81、上軌 53.74、下軌 49.88；KDJ 黃金交叉 K 58.5 / D 53.1，量比 0.90。","bollingerMode":"三線向上中軌買點","bollingerMiddle":51.81,"bollingerUpper":53.74,"bollingerLower":49.88,"kdjK":58.5,"kdjD":53.1,"kdjJ":69.2,"volumeRatio":0.9}},{"code":"1528","name":"恩德","close":25.4,"open":25.35,"high":25.75,"low":25.25,"prevClose":25.35,"limitUp":0,"change":0.05,"percent":0.2,"value":78583950,"tradeVolume":3088,"quoteDate":"20260618","market":"TSE","closeSource":"fugle-rest-collector","tradeValue":78583950,"bidPrice":25.35,"bidSize":147,"askPrice":25.4,"askSize":2,"cumulativeBidVolume":1835,"cumulativeAskVolume":1173,"cumulativeBidAskVolume":3008,"time":1781760600000000,"quoteTime":1781760600000000,"quoteSeenAt":"2026-06-18T10:45:58.916Z","updatedAt":1781760600000000,"quoteSource":"fugle-rest-collector","realtimeFallback":"fugle-rest-collector","recoveredFromRealtimeFallback":true,"isTrial":false,"referencePrice":25.35,"trialPrice":25.4,"isRealtime":true,"valueRank":66,"volumeRank":80,"inst":{"foreign":-408000,"trust":0,"dealer":2749,"total":-408000},"matches":[{"id":"bollinger_kdj_buy","short":"布林KDJ","icon":"K","score":75,"reason":"三線走平下軌買點：20MA 26.40、上軌 29.82、下軌 22.98；KDJ 黃金交叉 K 25.2 / D 22.8，量比 0.99。","bollingerMode":"三線走平下軌買點","bollingerMiddle":26.4,"bollingerUpper":29.82,"bollingerLower":22.98,"kdjK":25.2,"kdjD":22.8,"kdjJ":30,"volumeRatio":0.99}],"strategy4Score":0,"strategy4Reason":"","strategy4Signals":[],"score":75,"activeMatch":{"id":"bollinger_kdj_buy","short":"布林KDJ","icon":"K","score":75,"reason":"三線走平下軌買點：20MA 26.40、上軌 29.82、下軌 22.98；KDJ 黃金交叉 K 25.2 / D 22.8，量比 0.99。","bollingerMode":"三線走平下軌買點","bollingerMiddle":26.4,"bollingerUpper":29.82,"bollingerLower":22.98,"kdjK":25.2,"kdjD":22.8,"kdjJ":30,"volumeRatio":0.99}}]}
