{"ok":true,"source":"strategy4-preset","updatedAt":"2026-06-06T12:34:51.971Z","scanStamp":"20260606","total":1957,"complete":true,"zone":"B","page":31,"pageSize":25,"totalPages":41,"totalCount":1020,"count":25,"matches":[{"code":"6182","name":"合晶","close":85.5,"percent":-5.940594059405947,"tradeVolume":10909,"value":932719500,"swingScore":79,"score":79,"swingZone":"B","swingStage":{"label":"高基期","ratio":"0.77","tone":"high","value":0.7650513950073422},"swingSignals":[{"id":"watch_trend","title":"","short":"B觀察","icon":"B","reason":"趨勢轉強但尚未觸發突破買點；趨勢分 5/8，量比 0.38，位階 高基期。"}]},{"code":"1560","name":"中砂","close":698,"percent":71.70971709717097,"tradeVolume":1085,"value":757330000,"swingScore":78,"score":78,"swingZone":"B","swingStage":{"label":"高基期","ratio":"0.96","tone":"high","value":0.9553219448094612},"swingSignals":[{"id":"watch_trend","title":"","short":"B觀察","icon":"B","reason":"趨勢轉強但尚未觸發突破買點；趨勢分 5/8，量比 0.00，位階 高基期。"}]},{"code":"1582","name":"信錦","close":103.5,"percent":42.36588720770288,"tradeVolume":4648,"value":481068000,"swingScore":78,"score":78,"swingZone":"B","swingStage":{"label":"高基期","ratio":"0.85","tone":"high","value":0.8547717842323651},"swingSignals":[{"id":"watch_trend","title":"","short":"B觀察","icon":"B","reason":"趨勢轉強但尚未觸發突破買點；趨勢分 5/8，量比 0.00，位階 高基期。"}]},{"code":"1563","name":"巧新","close":65.3,"percent":41.95652173913043,"tradeVolume":889,"value":58051700,"swingScore":78,"score":78,"swingZone":"B","swingStage":{"label":"高基期","ratio":"0.97","tone":"high","value":0.9735349716446123},"swingSignals":[{"id":"watch_trend","title":"","short":"B觀察","icon":"B","reason":"趨勢轉強但尚未觸發突破買點；趨勢分 5/8，量比 0.00，位階 高基期。"}]},{"code":"1530","name":"亞崴","close":32.05,"percent":20.943396226415086,"tradeVolume":230,"value":7371500,"swingScore":78,"score":78,"swingZone":"B","swingStage":{"label":"高基期","ratio":"0.85","tone":"high","value":0.8456375838926168},"swingSignals":[{"id":"watch_trend","title":"","short":"B觀察","icon":"B","reason":"趨勢轉強但尚未觸發突破買點；趨勢分 5/8，量比 0.01，位階 高基期。"}]},{"code":"1583","name":"程泰","close":55.2,"percent":12.423625254582488,"tradeVolume":41,"value":2263200,"swingScore":78,"score":78,"swingZone":"B","swingStage":{"label":"高基期","ratio":"0.92","tone":"high","value":0.9209486166007905},"swingSignals":[{"id":"watch_trend","title":"","short":"B觀察","icon":"B","reason":"趨勢轉強但尚未觸發突破買點；趨勢分 5/8，量比 0.00，位階 高基期。"}]},{"code":"4939","name":"亞電","close":59.7,"percent":9.944752925988766,"tradeVolume":17918,"value":1069704600,"swingScore":78,"score":78,"swingZone":"B","swingStage":{"label":"高基期","ratio":"1.00","tone":"high","value":0.9999999751485528},"swingSignals":[{"id":"watch_trend","title":"","short":"B觀察","icon":"B","reason":"趨勢轉強但尚未觸發突破買點；趨勢分 5/8，量比 0.00，位階 高基期。"}]},{"code":"2478","name":"大毅","close":150,"percent":9.090909090909092,"tradeVolume":4223,"value":633450000,"swingScore":78,"score":78,"swingZone":"B","swingStage":{"label":"高基期","ratio":"0.97","tone":"high","value":0.9720670391061452},"swingSignals":[{"id":"watch_trend","title":"","short":"B觀察","icon":"B","reason":"趨勢轉強但尚未觸發突破買點；趨勢分 5/8，量比 0.00，位階 高基期。"}]},{"code":"5484","name":"慧友","close":57.9,"percent":7.0240325934512695,"tradeVolume":2562,"value":148339800,"swingScore":78,"score":78,"swingZone":"B","swingStage":{"label":"高基期","ratio":"0.96","tone":"high","value":0.9553570777786065},"swingSignals":[{"id":"watch_trend","title":"","short":"B觀察","icon":"B","reason":"趨勢轉強但尚未觸發突破買點；趨勢分 5/8，量比 0.00，位階 高基期。"}]},{"code":"1531","name":"高林股","close":13.15,"percent":6.910569105691054,"tradeVolume":600,"value":7890000,"swingScore":78,"score":78,"swingZone":"B","swingStage":{"label":"高基期","ratio":"0.94","tone":"high","value":0.9411764705882355},"swingSignals":[{"id":"watch_trend","title":"","short":"B觀察","icon":"B","reason":"趨勢轉強但尚未觸發突破買點；趨勢分 5/8，量比 0.00，位階 高基期。"}]},{"code":"5202","name":"力新","close":15.75,"percent":6.779661016949152,"tradeVolume":5387,"value":84845250,"swingScore":78,"score":78,"swingZone":"B","swingStage":{"label":"高基期","ratio":"0.91","tone":"high","value":0.9072164875476082},"swingSignals":[{"id":"watch_trend","title":"","short":"B觀察","icon":"B","reason":"趨勢轉強但尚未觸發突破買點；趨勢分 5/8，量比 0.01，位階 高基期。"}]},{"code":"2855","name":"統一證","close":59.1,"percent":6.4864864864864895,"tradeVolume":40475,"value":2392072500,"swingScore":78,"score":78,"swingZone":"B","swingStage":{"label":"高基期","ratio":"0.98","tone":"high","value":0.9758203796468466},"swingSignals":[{"id":"watch_trend","title":"","short":"B觀察","icon":"B","reason":"趨勢轉強但尚未觸發突破買點；趨勢分 5/8，量比 0.00，位階 高基期。"}]},{"code":"6005","name":"群益證","close":45.05,"percent":6.124852767962294,"tradeVolume":35385,"value":1594094250,"swingScore":78,"score":78,"swingZone":"B","swingStage":{"label":"高基期","ratio":"0.97","tone":"high","value":0.9724517906336088},"swingSignals":[{"id":"watch_trend","title":"","short":"B觀察","icon":"B","reason":"趨勢轉強但尚未觸發突破買點；趨勢分 5/8，量比 0.00，位階 高基期。"}]},{"code":"2492","name":"華新科","close":416,"percent":6.122448979591836,"tradeVolume":4279,"value":1780064000,"swingScore":78,"score":78,"swingZone":"B","swingStage":{"label":"高基期","ratio":"0.88","tone":"high","value":0.882179675994109},"swingSignals":[{"id":"watch_trend","title":"","short":"B觀察","icon":"B","reason":"趨勢轉強但尚未觸發突破買點；趨勢分 5/8，量比 0.00，位階 高基期。"}]},{"code":"1455","name":"集盛","close":9.1,"percent":5.691056910569108,"tradeVolume":1212,"value":11029200,"swingScore":78,"score":78,"swingZone":"B","swingStage":{"label":"高基期","ratio":"0.84","tone":"high","value":0.8355263157894737},"swingSignals":[{"id":"watch_trend","title":"","short":"B觀察","icon":"B","reason":"趨勢轉強但尚未觸發突破買點；趨勢分 5/8，量比 0.00，位階 高基期。"}]},{"code":"6112","name":"邁達特","close":50,"percent":4.821802935010476,"tradeVolume":4684,"value":234200000,"swingScore":78,"score":78,"swingZone":"B","swingStage":{"label":"高基期","ratio":"0.90","tone":"high","value":0.9},"swingSignals":[{"id":"watch_trend","title":"","short":"B觀察","icon":"B","reason":"趨勢轉強但尚未觸發突破買點；趨勢分 5/8，量比 0.00，位階 高基期。"}]},{"code":"4534","name":"慶騰","close":33.15,"percent":4.739336492890995,"tradeVolume":8213,"value":272260950,"swingScore":78,"score":78,"swingZone":"B","swingStage":{"label":"高基期","ratio":"0.88","tone":"high","value":0.8773946360153255},"swingSignals":[{"id":"watch_trend","title":"","short":"B觀察","icon":"B","reason":"趨勢轉強但尚未觸發突破買點；趨勢分 5/8，量比 0.01，位階 高基期。"}]},{"code":"8936","name":"國統","close":62.8,"percent":4.492512479201324,"tradeVolume":50188,"value":3151806400,"swingScore":78,"score":78,"swingZone":"B","swingStage":{"label":"高基期","ratio":"0.99","tone":"high","value":0.9855595667870034},"swingSignals":[{"id":"watch_trend","title":"","short":"B觀察","icon":"B","reason":"趨勢轉強但尚未觸發突破買點；趨勢分 5/8，量比 0.01，位階 高基期。"}]},{"code":"3624","name":"光頡","close":108,"percent":4.3478260869565215,"tradeVolume":24393,"value":2634444000,"swingScore":78,"score":78,"swingZone":"B","swingStage":{"label":"高基期","ratio":"0.81","tone":"high","value":0.8093941456773315},"swingSignals":[{"id":"watch_trend","title":"","short":"B觀察","icon":"B","reason":"趨勢轉強但尚未觸發突破買點；趨勢分 5/8，量比 0.00，位階 高基期。"}]},{"code":"3570","name":"大塚","close":191.5,"percent":4.076086956521739,"tradeVolume":216,"value":41364000,"swingScore":78,"score":78,"swingZone":"B","swingStage":{"label":"高基期","ratio":"0.99","tone":"high","value":0.9850746268656716},"swingSignals":[{"id":"watch_trend","title":"","short":"B觀察","icon":"B","reason":"趨勢轉強但尚未觸發突破買點；趨勢分 5/8，量比 0.00，位階 高基期。"}]},{"code":"2108","name":"南帝","close":32.15,"percent":4.045308727836095,"tradeVolume":13724,"value":441226600,"swingScore":78,"score":78,"swingZone":"B","swingStage":{"label":"高基期","ratio":"0.92","tone":"high","value":0.9230768327882495},"swingSignals":[{"id":"watch_trend","title":"","short":"B觀察","icon":"B","reason":"趨勢轉強但尚未觸發突破買點；趨勢分 5/8，量比 0.01，位階 高基期。"}]},{"code":"2535","name":"達欣工","close":83.4,"percent":3.9900288946681255,"tradeVolume":946,"value":78896400,"swingScore":78,"score":78,"swingZone":"B","swingStage":{"label":"高基期","ratio":"0.96","tone":"high","value":0.9612903225806455},"swingSignals":[{"id":"watch_trend","title":"","short":"B觀察","icon":"B","reason":"趨勢轉強但尚未觸發突破買點；趨勢分 5/8，量比 0.00，位階 高基期。"}]},{"code":"2484","name":"希華","close":52.8,"percent":3.9370094349930085,"tradeVolume":17602,"value":929385600,"swingScore":78,"score":78,"swingZone":"B","swingStage":{"label":"高基期","ratio":"0.81","tone":"high","value":0.8098720319023057},"swingSignals":[{"id":"watch_trend","title":"","short":"B觀察","icon":"B","reason":"趨勢轉強但尚未觸發突破買點；趨勢分 5/8，量比 0.00，位階 高基期。"}]},{"code":"2881","name":"富邦金","close":118,"percent":3.508771929824561,"tradeVolume":61053,"value":7204254000,"swingScore":78,"score":78,"swingZone":"B","swingStage":{"label":"高基期","ratio":"0.97","tone":"high","value":0.9690402476780186},"swingSignals":[{"id":"watch_trend","title":"","short":"B觀察","icon":"B","reason":"趨勢轉強但尚未觸發突破買點；趨勢分 5/8，量比 0.00，位階 高基期。"}]},{"code":"2327","name":"國巨*","close":769,"percent":3.4993270524899054,"tradeVolume":26806,"value":20613814000,"swingScore":78,"score":78,"swingZone":"B","swingStage":{"label":"高基期","ratio":"0.86","tone":"high","value":0.8617021276595744},"swingSignals":[{"id":"watch_trend","title":"","short":"B觀察","icon":"B","reason":"趨勢轉強但尚未觸發突破買點；趨勢分 5/8，量比 0.00，位階 高基期。"}]}]}
