{"ok":true,"source":"strategy4-preset","updatedAt":"2026-06-06T12:34:51.971Z","scanStamp":"20260606","total":1957,"complete":true,"zone":"B","page":26,"pageSize":25,"totalPages":41,"totalCount":1020,"count":25,"matches":[{"code":"6690","name":"安碁資訊","close":182,"percent":-0.273972602739726,"tradeVolume":181,"value":32942000,"swingScore":81,"score":81,"swingZone":"B","swingStage":{"label":"高基期","ratio":"0.63","tone":"high","value":0.6349206349206349},"swingSignals":[{"id":"watch_trend","title":"","short":"B觀察","icon":"B","reason":"趨勢轉強但尚未觸發突破買點；趨勢分 6/8，量比 0.00，位階 高基期。"}]},{"code":"2884","name":"玉山金","close":33.35,"percent":-0.29895366218236596,"tradeVolume":48999,"value":1634116650,"swingScore":81,"score":81,"swingZone":"B","swingStage":{"label":"高基期","ratio":"0.89","tone":"high","value":0.8852459016393439},"swingSignals":[{"id":"watch_trend","title":"","short":"B觀察","icon":"B","reason":"趨勢轉強但尚未觸發突破買點；趨勢分 6/8，量比 0.00，位階 高基期。"}]},{"code":"1808","name":"潤隆","close":31.6,"percent":-0.3154574132492046,"tradeVolume":1607,"value":50781200,"swingScore":81,"score":81,"swingZone":"B","swingStage":{"label":"高基期","ratio":"0.87","tone":"high","value":0.865853658536586},"swingSignals":[{"id":"watch_trend","title":"","short":"B觀察","icon":"B","reason":"趨勢轉強但尚未觸發突破買點；趨勢分 6/8，量比 0.00，位階 高基期。"}]},{"code":"2201","name":"裕隆","close":28.7,"percent":-0.34721958232507905,"tradeVolume":3225,"value":92557500,"swingScore":81,"score":81,"swingZone":"B","swingStage":{"label":"高基期","ratio":"0.69","tone":"high","value":0.6891891501784142},"swingSignals":[{"id":"watch_trend","title":"","short":"B觀察","icon":"B","reason":"趨勢轉強但尚未觸發突破買點；趨勢分 6/8，量比 0.00，位階 高基期。"}]},{"code":"3218","name":"大學光","close":135,"percent":-0.36900369003690037,"tradeVolume":196,"value":26460000,"swingScore":81,"score":81,"swingZone":"B","swingStage":{"label":"中位階","ratio":"0.60","tone":"mid","value":0.6046511627906976},"swingSignals":[{"id":"watch_trend","title":"","short":"B觀察","icon":"B","reason":"趨勢轉強但尚未觸發突破買點；趨勢分 5/8，量比 0.00，位階 中位階。"}]},{"code":"1307","name":"三芳","close":34.3,"percent":-0.43541364296082924,"tradeVolume":2003,"value":68702900,"swingScore":81,"score":81,"swingZone":"B","swingStage":{"label":"高基期","ratio":"0.85","tone":"high","value":0.8505747126436769},"swingSignals":[{"id":"watch_trend","title":"","short":"B觀察","icon":"B","reason":"趨勢轉強但尚未觸發突破買點；趨勢分 6/8，量比 0.00，位階 高基期。"}]},{"code":"2897","name":"王道銀行","close":10.3,"percent":-0.4830917874396033,"tradeVolume":5096,"value":52488800,"swingScore":81,"score":81,"swingZone":"B","swingStage":{"label":"高基期","ratio":"0.81","tone":"high","value":0.8076923076923083},"swingSignals":[{"id":"watch_trend","title":"","short":"B觀察","icon":"B","reason":"趨勢轉強但尚未觸發突破買點；趨勢分 6/8，量比 0.00，位階 高基期。"}]},{"code":"3546","name":"宇峻","close":82.3,"percent":-0.483675937122135,"tradeVolume":342,"value":28146600,"swingScore":81,"score":81,"swingZone":"B","swingStage":{"label":"高基期","ratio":"0.85","tone":"high","value":0.8531073446327679},"swingSignals":[{"id":"watch_trend","title":"","short":"B觀察","icon":"B","reason":"趨勢轉強但尚未觸發突破買點；趨勢分 6/8，量比 0.00，位階 高基期。"}]},{"code":"4904","name":"遠傳","close":101.5,"percent":-0.49019607843137253,"tradeVolume":8549,"value":867723500,"swingScore":81,"score":81,"swingZone":"B","swingStage":{"label":"高基期","ratio":"0.85","tone":"high","value":0.8514851485148514},"swingSignals":[{"id":"watch_trend","title":"","short":"B觀察","icon":"B","reason":"趨勢轉強但尚未觸發突破買點；趨勢分 6/8，量比 0.00，位階 高基期。"}]},{"code":"2867","name":"三商壽","close":8.08,"percent":-0.49260943501020593,"tradeVolume":13516,"value":109209280,"swingScore":81,"score":81,"swingZone":"B","swingStage":{"label":"高基期","ratio":"0.86","tone":"high","value":0.8552636628007292},"swingSignals":[{"id":"watch_trend","title":"","short":"B觀察","icon":"B","reason":"趨勢轉強但尚未觸發突破買點；趨勢分 6/8，量比 0.00，位階 高基期。"}]},{"code":"1713","name":"國化","close":49.55,"percent":-0.5020080321285141,"tradeVolume":231,"value":11446050,"swingScore":81,"score":81,"swingZone":"B","swingStage":{"label":"高基期","ratio":"0.80","tone":"high","value":0.8023255813953484},"swingSignals":[{"id":"watch_trend","title":"","short":"B觀察","icon":"B","reason":"趨勢轉強但尚未觸發突破買點；趨勢分 6/8，量比 0.00，位階 高基期。"}]},{"code":"4566","name":"時碩工業","close":68.2,"percent":-0.583090379008734,"tradeVolume":1005,"value":68541000,"swingScore":81,"score":81,"swingZone":"B","swingStage":{"label":"中位階","ratio":"0.52","tone":"mid","value":0.5245901639344261},"swingSignals":[{"id":"watch_trend","title":"","short":"B觀察","icon":"B","reason":"趨勢轉強但尚未觸發突破買點；趨勢分 5/8，量比 0.00，位階 中位階。"}]},{"code":"2929","name":"淘帝-KY","close":6.09,"percent":-0.6525304028410494,"tradeVolume":311,"value":1893990,"swingScore":81,"score":81,"swingZone":"B","swingStage":{"label":"高基期","ratio":"0.63","tone":"high","value":0.6291390659045694},"swingSignals":[{"id":"watch_trend","title":"","short":"B觀察","icon":"B","reason":"趨勢轉強但尚未觸發突破買點；趨勢分 6/8，量比 0.00，位階 高基期。"}]},{"code":"2027","name":"大成鋼","close":43.8,"percent":-0.6802686723382603,"tradeVolume":22849,"value":1000786200,"swingScore":81,"score":81,"swingZone":"B","swingStage":{"label":"高基期","ratio":"0.89","tone":"high","value":0.8926553487237354},"swingSignals":[{"id":"watch_trend","title":"","short":"B觀察","icon":"B","reason":"趨勢轉強但尚未觸發突破買點；趨勢分 6/8，量比 0.00，位階 高基期。"}]},{"code":"2109","name":"華豐","close":14.55,"percent":-0.6825912705402851,"tradeVolume":199,"value":2895450,"swingScore":81,"score":81,"swingZone":"B","swingStage":{"label":"高基期","ratio":"0.70","tone":"high","value":0.6999996185302741},"swingSignals":[{"id":"watch_trend","title":"","short":"B觀察","icon":"B","reason":"趨勢轉強但尚未觸發突破買點；趨勢分 6/8，量比 0.00，位階 高基期。"}]},{"code":"1339","name":"昭輝","close":43.5,"percent":-0.6849315068493086,"tradeVolume":170,"value":7395000,"swingScore":81,"score":81,"swingZone":"B","swingStage":{"label":"中位階","ratio":"0.50","tone":"mid","value":0.5},"swingSignals":[{"id":"watch_trend","title":"","short":"B觀察","icon":"B","reason":"趨勢轉強但尚未觸發突破買點；趨勢分 5/8，量比 0.00，位階 中位階。"}]},{"code":"2514","name":"龍邦","close":13.75,"percent":-0.7220243950571992,"tradeVolume":159,"value":2186250,"swingScore":81,"score":81,"swingZone":"B","swingStage":{"label":"高基期","ratio":"0.72","tone":"high","value":0.7241381578298316},"swingSignals":[{"id":"watch_trend","title":"","short":"B觀察","icon":"B","reason":"趨勢轉強但尚未觸發突破買點；趨勢分 6/8，量比 0.00，位階 高基期。"}]},{"code":"2030","name":"彰源","close":18.5,"percent":-0.8042875152728515,"tradeVolume":1179,"value":21811500,"swingScore":81,"score":81,"swingZone":"B","swingStage":{"label":"高基期","ratio":"0.87","tone":"high","value":0.8666666666666667},"swingSignals":[{"id":"watch_trend","title":"","short":"B觀察","icon":"B","reason":"趨勢轉強但尚未觸發突破買點；趨勢分 6/8，量比 0.00，位階 高基期。"}]},{"code":"2453","name":"凌群","close":60.5,"percent":-0.819672131147541,"tradeVolume":857,"value":51848500,"swingScore":81,"score":81,"swingZone":"B","swingStage":{"label":"中位階","ratio":"0.61","tone":"mid","value":0.6076924250676081},"swingSignals":[{"id":"watch_trend","title":"","short":"B觀察","icon":"B","reason":"趨勢轉強但尚未觸發突破買點；趨勢分 5/8，量比 0.00，位階 中位階。"}]},{"code":"2330","name":"台積電","close":2365,"percent":-0.8385744234800839,"tradeVolume":32568,"value":77023320000,"swingScore":81,"score":81,"swingZone":"B","swingStage":{"label":"高基期","ratio":"0.84","tone":"high","value":0.8404255319148937},"swingSignals":[{"id":"watch_trend","title":"","short":"B觀察","icon":"B","reason":"趨勢轉強但尚未觸發突破買點；趨勢分 6/8，量比 0.00，位階 高基期。"}]},{"code":"5871","name":"中租-KY","close":118,"percent":-0.8403361344537815,"tradeVolume":21821,"value":2574878000,"swingScore":81,"score":81,"swingZone":"B","swingStage":{"label":"高基期","ratio":"0.71","tone":"high","value":0.7058823529411765},"swingSignals":[{"id":"watch_trend","title":"","short":"B觀察","icon":"B","reason":"趨勢轉強但尚未觸發突破買點；趨勢分 6/8，量比 0.00，位階 高基期。"}]},{"code":"5904","name":"寶雅","close":577,"percent":-0.859106529209622,"tradeVolume":385,"value":222145000,"swingScore":81,"score":81,"swingZone":"B","swingStage":{"label":"高基期","ratio":"0.76","tone":"high","value":0.7572815533980582},"swingSignals":[{"id":"watch_trend","title":"","short":"B觀察","icon":"B","reason":"趨勢轉強但尚未觸發突破買點；趨勢分 6/8，量比 0.00，位階 高基期。"}]},{"code":"4942","name":"嘉彰","close":38.2,"percent":-0.9079118028534224,"tradeVolume":71,"value":2712200,"swingScore":81,"score":81,"swingZone":"B","swingStage":{"label":"高基期","ratio":"0.64","tone":"high","value":0.6444444444444457},"swingSignals":[{"id":"watch_trend","title":"","short":"B觀察","icon":"B","reason":"趨勢轉強但尚未觸發突破買點；趨勢分 6/8，量比 0.00，位階 高基期。"}]},{"code":"2488","name":"漢平","close":53.5,"percent":-0.9259259259259258,"tradeVolume":71,"value":3798500,"swingScore":81,"score":81,"swingZone":"B","swingStage":{"label":"高基期","ratio":"0.81","tone":"high","value":0.8148148148148148},"swingSignals":[{"id":"watch_trend","title":"","short":"B觀察","icon":"B","reason":"趨勢轉強但尚未觸發突破買點；趨勢分 6/8，量比 0.00，位階 高基期。"}]},{"code":"2414","name":"精技","close":52.8,"percent":-0.9380863039399625,"tradeVolume":617,"value":32577600,"swingScore":81,"score":81,"swingZone":"B","swingStage":{"label":"高基期","ratio":"0.89","tone":"high","value":0.8894009216589859},"swingSignals":[{"id":"watch_trend","title":"","short":"B觀察","icon":"B","reason":"趨勢轉強但尚未觸發突破買點；趨勢分 6/8，量比 0.00，位階 高基期。"}]}]}
