{"ok":true,"updatedAt":"2026-06-18T10:18:43.130Z","scanStamp":"20260618","source":"strategy4-score-page","page":2,"pageSize":25,"totalPages":5,"totalCount":120,"count":25,"rows":[{"code":"6415","name":"矽力*-KY","close":629,"percent":6.972789115646258,"tradeVolume":6148,"avgVolume5":4364.81,"value":3867092000,"swingScore":100,"score":100,"swingZone":"A","swingStage":{"label":"高基期","ratio":"0.85","tone":"high","value":0.8479809976247031},"swingSignals":[{"id":"runaway_gap","title":"","short":"逃逸缺口","icon":"🚀","reason":"跳空且站上MA20，多頭段延續，偏逃逸缺口。"},{"id":"wallet_strong_buy","title":"多方寶石","short":"主力多","icon":"◆","reason":"主力爸爸錢包多方寶石（2026-06-18）：控盤線由負翻正且日K收紅。"}]},{"code":"4958","name":"臻鼎-KY","close":631,"percent":6.768189509306261,"tradeVolume":31596,"avgVolume5":20834.66,"value":19937076000,"swingScore":100,"score":100,"swingZone":"A","swingStage":{"label":"高基期","ratio":"0.98","tone":"high","value":0.9770992366412213},"swingSignals":[{"id":"breakaway_gap","title":"","short":"突破缺口","icon":"◆","reason":"跳空突破近20日整理高點，偏突破缺口。"}]},{"code":"2520","name":"冠德","close":36.4,"percent":6.432748538011683,"tradeVolume":9309,"avgVolume5":4964.23,"value":338847600,"swingScore":100,"score":100,"swingZone":"A","swingStage":{"label":"高基期","ratio":"0.89","tone":"high","value":0.8926553672316381},"swingSignals":[{"id":"breakaway_gap","title":"","short":"突破缺口","icon":"◆","reason":"跳空突破近20日整理高點，偏突破缺口。"},{"id":"wallet_volume_cross","title":"紅色三角形","short":"量叉","icon":"🔺","reason":"主力爸爸錢包量能紅K交叉（2026-06-09）：5日資金量均線 2,597 上穿 60日 1,006。"}]},{"code":"1301","name":"台塑","close":51.7,"percent":6.378600823045271,"tradeVolume":57188.889,"avgVolume5":29142.19,"value":2956665561.3,"swingScore":100,"score":100,"swingZone":"A","swingStage":{"label":"高基期","ratio":"0.83","tone":"high","value":0.83495145631068},"swingSignals":[{"id":"bull_attack","title":"","short":"攻擊","icon":"🔥","reason":"站上MA20/EMA21，MACD多頭，量比 1.80，日K多頭攻擊。"},{"id":"runaway_gap","title":"","short":"逃逸缺口","icon":"🚀","reason":"跳空且站上MA20，多頭段延續，偏逃逸缺口。"},{"id":"golden_cross","title":"","short":"金釵","icon":"✦","reason":"MA5 > MA10 > MA20 且收紅，多金釵候選。"}]},{"code":"6488","name":"環球晶","close":1110,"percent":6.220095693779904,"tradeVolume":12271.7,"avgVolume5":6431.74,"value":13508309303,"swingScore":100,"score":100,"swingZone":"B","swingStage":{"label":"高基期","ratio":"0.94","tone":"high","value":0.9427168576104746},"swingSignals":[{"id":"watch_trend","title":"","short":"B觀察","icon":"B","reason":"趨勢轉強但尚未觸發突破買點；趨勢分 7/8，量比 1.91，位階 高基期。"}]},{"code":"3290","name":"東浦","close":69.8,"percent":6.079027355623101,"tradeVolume":4349.691,"avgVolume5":4355.79,"value":299889303,"swingScore":100,"score":100,"swingZone":"A","swingStage":{"label":"高基期","ratio":"0.96","tone":"high","value":0.9589552238805967},"swingSignals":[{"id":"bull_attack","title":"","short":"攻擊","icon":"🔥","reason":"站上MA20/EMA21，MACD多頭，量比 1.92，日K多頭攻擊。"},{"id":"saucer","title":"","short":"圓弧","icon":"◜","reason":"突破40日整理頸線，量能放大，偏圓弧底突破。"}]},{"code":"6175","name":"立敦","close":114,"percent":6.046511627906977,"tradeVolume":28591.141,"avgVolume5":20076.8,"value":3188553045,"swingScore":100,"score":100,"swingZone":"A","swingStage":{"label":"高基期","ratio":"0.95","tone":"high","value":0.9473684210526315},"swingSignals":[{"id":"saucer","title":"","short":"圓弧","icon":"◜","reason":"突破40日整理頸線，量能放大，偏圓弧底突破。"},{"id":"runaway_gap","title":"","short":"逃逸缺口","icon":"🚀","reason":"跳空且站上MA20，多頭段延續，偏逃逸缺口。"}]},{"code":"1304","name":"台聚","close":13.55,"percent":5.859375,"tradeVolume":9331,"avgVolume5":3778.8,"value":126435050,"swingScore":100,"score":100,"swingZone":"A","swingStage":{"label":"中位階","ratio":"0.49","tone":"mid","value":0.49275362318840593},"swingSignals":[{"id":"bull_attack","title":"","short":"攻擊","icon":"🔥","reason":"站上MA20/EMA21，MACD多頭，量比 1.42，日K多頭攻擊。"},{"id":"runaway_gap","title":"","short":"逃逸缺口","icon":"🚀","reason":"跳空且站上MA20，多頭段延續，偏逃逸缺口。"}]},{"code":"3016","name":"嘉晶","close":128.5,"percent":5.327868852459016,"tradeVolume":17607,"avgVolume5":8334.31,"value":2262499500,"swingScore":100,"score":100,"swingZone":"A","swingStage":{"label":"高基期","ratio":"0.78","tone":"high","value":0.782608695652174},"swingSignals":[{"id":"runaway_gap","title":"","short":"逃逸缺口","icon":"🚀","reason":"跳空且站上MA20，多頭段延續，偏逃逸缺口。"}]},{"code":"8131","name":"福懋科","close":77.3,"percent":5.027173913043483,"tradeVolume":14095,"avgVolume5":8098.49,"value":1089543500,"swingScore":100,"score":100,"swingZone":"A","swingStage":{"label":"高基期","ratio":"0.92","tone":"high","value":0.9181034482758619},"swingSignals":[{"id":"wallet_strong_buy","title":"多方寶石","short":"主力多","icon":"◆","reason":"主力爸爸錢包多方寶石（2026-06-09）：控盤線由負翻正且日K收紅。"}]},{"code":"8215","name":"明基材","close":32.05,"percent":4.909983633387878,"tradeVolume":10855,"avgVolume5":6195.14,"value":347902750,"swingScore":100,"score":100,"swingZone":"A","swingStage":{"label":"高基期","ratio":"0.86","tone":"high","value":0.8563829787234041},"swingSignals":[{"id":"saucer","title":"","short":"圓弧","icon":"◜","reason":"突破40日整理頸線，量能放大，偏圓弧底突破。"},{"id":"wallet_volume_cross","title":"紅色三角形","short":"量叉","icon":"🔺","reason":"主力爸爸錢包量能紅K交叉（2026-06-17）：5日資金量均線 3,307 上穿 60日 2,923。"}]},{"code":"6191","name":"精成科","close":104,"percent":4.838709677419352,"tradeVolume":12581,"avgVolume5":10322.22,"value":1308424000,"swingScore":100,"score":100,"swingZone":"A","swingStage":{"label":"中位階","ratio":"0.55","tone":"mid","value":0.550561797752809},"swingSignals":[{"id":"wallet_strong_buy","title":"多方寶石","short":"主力多","icon":"◆","reason":"主力爸爸錢包多方寶石（2026-06-09）：控盤線由負翻正且日K收紅。"}]},{"code":"3406","name":"玉晶光","close":762,"percent":4.670329670329671,"tradeVolume":6054,"avgVolume5":6847.6,"value":4613148000,"swingScore":100,"score":100,"swingZone":"A","swingStage":{"label":"高基期","ratio":"0.97","tone":"high","value":0.9709618874773139},"swingSignals":[{"id":"breakaway_gap","title":"","short":"突破缺口","icon":"◆","reason":"跳空突破近20日整理高點，偏突破缺口。"}]},{"code":"5351","name":"鈺創","close":94,"percent":4.5606229143492705,"tradeVolume":28339.439,"avgVolume5":30723.97,"value":2637176720,"swingScore":100,"score":100,"swingZone":"A","swingStage":{"label":"高基期","ratio":"0.95","tone":"high","value":0.9452054794520548},"swingSignals":[{"id":"runaway_gap","title":"","short":"逃逸缺口","icon":"🚀","reason":"跳空且站上MA20，多頭段延續，偏逃逸缺口。"},{"id":"wallet_volume_cross","title":"紅色三角形","short":"量叉","icon":"🔺","reason":"主力爸爸錢包量能紅K交叉（2026-06-18）：5日資金量均線 13,442 上穿 60日 12,137。"}]},{"code":"2610","name":"華航","close":22.1,"percent":4.000000000000007,"tradeVolume":72570,"avgVolume5":57657.35,"value":1603797000,"swingScore":100,"score":100,"swingZone":"A","swingStage":{"label":"高基期","ratio":"0.94","tone":"high","value":0.936170212765958},"swingSignals":[{"id":"wallet_volume_cross","title":"紅色三角形","short":"量叉","icon":"🔺","reason":"主力爸爸錢包量能紅K交叉（2026-06-09）：5日資金量均線 20,821 上穿 60日 20,986。"}]},{"code":"3707","name":"漢磊","close":83.2,"percent":4.0000000000000036,"tradeVolume":19128.855,"avgVolume5":13281.24,"value":1578312096,"swingScore":100,"score":100,"swingZone":"A","swingStage":{"label":"高基期","ratio":"0.68","tone":"high","value":0.6768867924528301},"swingSignals":[{"id":"wallet_strong_buy","title":"多方寶石","short":"主力多","icon":"◆","reason":"主力爸爸錢包多方寶石（2026-06-18）：控盤線由負翻正且日K收紅。"}]},{"code":"2402","name":"毅嘉","close":70.8,"percent":3.964757709251106,"tradeVolume":6087,"avgVolume5":6782.59,"value":430959600,"swingScore":100,"score":100,"swingZone":"A","swingStage":{"label":"中位階","ratio":"0.44","tone":"mid","value":0.43873517786561245},"swingSignals":[{"id":"n_base","title":"","short":"N字","icon":"","reason":"爆量突破後回檔不破半分位，再突破前高 70.20，N字共振。"}]},{"code":"3045","name":"台灣大","close":119.5,"percent":3.91304347826087,"tradeVolume":6567,"avgVolume5":10460.44,"value":784756500,"swingScore":100,"score":100,"swingZone":"A","swingStage":{"label":"高基期","ratio":"0.91","tone":"high","value":0.9090909090909091},"swingSignals":[{"id":"n_base","title":"","short":"N字","icon":"","reason":"爆量突破後回檔不破半分位，再突破前高 117.50，N字共振。"},{"id":"breakaway_gap","title":"","short":"突破缺口","icon":"◆","reason":"跳空突破近20日整理高點，偏突破缺口。"}]},{"code":"2302","name":"麗正","close":46.75,"percent":3.888888888888889,"tradeVolume":19266,"avgVolume5":10403.75,"value":900685500,"swingScore":100,"score":100,"swingZone":"A","swingStage":{"label":"高基期","ratio":"0.94","tone":"high","value":0.9441786283891547},"swingSignals":[{"id":"saucer","title":"","short":"圓弧","icon":"◜","reason":"突破40日整理頸線，量能放大，偏圓弧底突破。"},{"id":"breakaway_gap","title":"","short":"突破缺口","icon":"◆","reason":"跳空突破近20日整理高點，偏突破缺口。"},{"id":"wallet_volume_cross","title":"紅色三角形","short":"量叉","icon":"🔺","reason":"主力爸爸錢包量能紅K交叉（2026-06-16）：5日資金量均線 7,139 上穿 60日 2,907。"}]},{"code":"2327","name":"國巨*","close":972,"percent":3.404255319148936,"tradeVolume":25823,"avgVolume5":67925.91,"value":25099956000,"swingScore":100,"score":100,"swingZone":"A","swingStage":{"label":"高基期","ratio":"0.96","tone":"high","value":0.9605911330049262},"swingSignals":[{"id":"breakaway_gap","title":"","short":"突破缺口","icon":"◆","reason":"跳空突破近20日整理高點，偏突破缺口。"},{"id":"wallet_volume_cross","title":"紅色三角形","short":"量叉","icon":"🔺","reason":"主力爸爸錢包量能紅K交叉（2026-06-09）：5日資金量均線 22,247 上穿 60日 17,436。"}]},{"code":"8163","name":"達方","close":45.15,"percent":3.3180778032036513,"tradeVolume":9000,"avgVolume5":7945.42,"value":406350000,"swingScore":100,"score":100,"swingZone":"A","swingStage":{"label":"高基期","ratio":"0.92","tone":"high","value":0.9160493827160492},"swingSignals":[{"id":"wallet_volume_cross","title":"紅色三角形","short":"量叉","icon":"🔺","reason":"主力爸爸錢包量能紅K交叉（2026-06-09）：5日資金量均線 2,787 上穿 60日 1,442。"}]},{"code":"3532","name":"台勝科","close":393,"percent":2.8795811518324608,"tradeVolume":13897,"avgVolume5":3790.89,"value":5461521000,"swingScore":100,"score":100,"swingZone":"A","swingStage":{"label":"高基期","ratio":"0.87","tone":"high","value":0.8725868725868726},"swingSignals":[{"id":"golden_cross","title":"","short":"金釵","icon":"✦","reason":"MA5 > MA10 > MA20 且收紅，多金釵候選。"}]},{"code":"2542","name":"興富發","close":46.7,"percent":2.6373626373626435,"tradeVolume":15177,"avgVolume5":18957.67,"value":708765900,"swingScore":100,"score":100,"swingZone":"A","swingStage":{"label":"高基期","ratio":"0.98","tone":"high","value":0.9774436090225566},"swingSignals":[{"id":"n_base","title":"","short":"N字","icon":"","reason":"爆量突破後回檔不破半分位，再突破前高 46.10，N字共振。"}]},{"code":"3049","name":"精金","close":14.45,"percent":2.482269503546097,"tradeVolume":7650,"avgVolume5":30144.64,"value":110542500,"swingScore":100,"score":100,"swingZone":"A","swingStage":{"label":"中位階","ratio":"0.49","tone":"mid","value":0.4869565217391304},"swingSignals":[{"id":"wallet_volume_cross","title":"紅色三角形","short":"量叉","icon":"🔺","reason":"主力爸爸錢包量能紅K交叉（2026-06-04）：5日資金量均線 23,474 上穿 60日 9,505。"}]},{"code":"2515","name":"中工","close":13.3,"percent":2.307692307692313,"tradeVolume":9350,"avgVolume5":11440.43,"value":124355000,"swingScore":100,"score":100,"swingZone":"A","swingStage":{"label":"中位階","ratio":"0.51","tone":"mid","value":0.5106382978723409},"swingSignals":[{"id":"wallet_volume_cross","title":"紅色三角形","short":"量叉","icon":"🔺","reason":"主力爸爸錢包量能紅K交叉（2026-06-08）：5日資金量均線 3,149 上穿 60日 4,481。"}]}],"matches":[{"code":"6415","name":"矽力*-KY","close":629,"percent":6.972789115646258,"tradeVolume":6148,"avgVolume5":4364.81,"value":3867092000,"swingScore":100,"score":100,"swingZone":"A","swingStage":{"label":"高基期","ratio":"0.85","tone":"high","value":0.8479809976247031},"swingSignals":[{"id":"runaway_gap","title":"","short":"逃逸缺口","icon":"🚀","reason":"跳空且站上MA20，多頭段延續，偏逃逸缺口。"},{"id":"wallet_strong_buy","title":"多方寶石","short":"主力多","icon":"◆","reason":"主力爸爸錢包多方寶石（2026-06-18）：控盤線由負翻正且日K收紅。"}]},{"code":"4958","name":"臻鼎-KY","close":631,"percent":6.768189509306261,"tradeVolume":31596,"avgVolume5":20834.66,"value":19937076000,"swingScore":100,"score":100,"swingZone":"A","swingStage":{"label":"高基期","ratio":"0.98","tone":"high","value":0.9770992366412213},"swingSignals":[{"id":"breakaway_gap","title":"","short":"突破缺口","icon":"◆","reason":"跳空突破近20日整理高點，偏突破缺口。"}]},{"code":"2520","name":"冠德","close":36.4,"percent":6.432748538011683,"tradeVolume":9309,"avgVolume5":4964.23,"value":338847600,"swingScore":100,"score":100,"swingZone":"A","swingStage":{"label":"高基期","ratio":"0.89","tone":"high","value":0.8926553672316381},"swingSignals":[{"id":"breakaway_gap","title":"","short":"突破缺口","icon":"◆","reason":"跳空突破近20日整理高點，偏突破缺口。"},{"id":"wallet_volume_cross","title":"紅色三角形","short":"量叉","icon":"🔺","reason":"主力爸爸錢包量能紅K交叉（2026-06-09）：5日資金量均線 2,597 上穿 60日 1,006。"}]},{"code":"1301","name":"台塑","close":51.7,"percent":6.378600823045271,"tradeVolume":57188.889,"avgVolume5":29142.19,"value":2956665561.3,"swingScore":100,"score":100,"swingZone":"A","swingStage":{"label":"高基期","ratio":"0.83","tone":"high","value":0.83495145631068},"swingSignals":[{"id":"bull_attack","title":"","short":"攻擊","icon":"🔥","reason":"站上MA20/EMA21，MACD多頭，量比 1.80，日K多頭攻擊。"},{"id":"runaway_gap","title":"","short":"逃逸缺口","icon":"🚀","reason":"跳空且站上MA20，多頭段延續，偏逃逸缺口。"},{"id":"golden_cross","title":"","short":"金釵","icon":"✦","reason":"MA5 > MA10 > MA20 且收紅，多金釵候選。"}]},{"code":"6488","name":"環球晶","close":1110,"percent":6.220095693779904,"tradeVolume":12271.7,"avgVolume5":6431.74,"value":13508309303,"swingScore":100,"score":100,"swingZone":"B","swingStage":{"label":"高基期","ratio":"0.94","tone":"high","value":0.9427168576104746},"swingSignals":[{"id":"watch_trend","title":"","short":"B觀察","icon":"B","reason":"趨勢轉強但尚未觸發突破買點；趨勢分 7/8，量比 1.91，位階 高基期。"}]},{"code":"3290","name":"東浦","close":69.8,"percent":6.079027355623101,"tradeVolume":4349.691,"avgVolume5":4355.79,"value":299889303,"swingScore":100,"score":100,"swingZone":"A","swingStage":{"label":"高基期","ratio":"0.96","tone":"high","value":0.9589552238805967},"swingSignals":[{"id":"bull_attack","title":"","short":"攻擊","icon":"🔥","reason":"站上MA20/EMA21，MACD多頭，量比 1.92，日K多頭攻擊。"},{"id":"saucer","title":"","short":"圓弧","icon":"◜","reason":"突破40日整理頸線，量能放大，偏圓弧底突破。"}]},{"code":"6175","name":"立敦","close":114,"percent":6.046511627906977,"tradeVolume":28591.141,"avgVolume5":20076.8,"value":3188553045,"swingScore":100,"score":100,"swingZone":"A","swingStage":{"label":"高基期","ratio":"0.95","tone":"high","value":0.9473684210526315},"swingSignals":[{"id":"saucer","title":"","short":"圓弧","icon":"◜","reason":"突破40日整理頸線，量能放大，偏圓弧底突破。"},{"id":"runaway_gap","title":"","short":"逃逸缺口","icon":"🚀","reason":"跳空且站上MA20，多頭段延續，偏逃逸缺口。"}]},{"code":"1304","name":"台聚","close":13.55,"percent":5.859375,"tradeVolume":9331,"avgVolume5":3778.8,"value":126435050,"swingScore":100,"score":100,"swingZone":"A","swingStage":{"label":"中位階","ratio":"0.49","tone":"mid","value":0.49275362318840593},"swingSignals":[{"id":"bull_attack","title":"","short":"攻擊","icon":"🔥","reason":"站上MA20/EMA21，MACD多頭，量比 1.42，日K多頭攻擊。"},{"id":"runaway_gap","title":"","short":"逃逸缺口","icon":"🚀","reason":"跳空且站上MA20，多頭段延續，偏逃逸缺口。"}]},{"code":"3016","name":"嘉晶","close":128.5,"percent":5.327868852459016,"tradeVolume":17607,"avgVolume5":8334.31,"value":2262499500,"swingScore":100,"score":100,"swingZone":"A","swingStage":{"label":"高基期","ratio":"0.78","tone":"high","value":0.782608695652174},"swingSignals":[{"id":"runaway_gap","title":"","short":"逃逸缺口","icon":"🚀","reason":"跳空且站上MA20，多頭段延續，偏逃逸缺口。"}]},{"code":"8131","name":"福懋科","close":77.3,"percent":5.027173913043483,"tradeVolume":14095,"avgVolume5":8098.49,"value":1089543500,"swingScore":100,"score":100,"swingZone":"A","swingStage":{"label":"高基期","ratio":"0.92","tone":"high","value":0.9181034482758619},"swingSignals":[{"id":"wallet_strong_buy","title":"多方寶石","short":"主力多","icon":"◆","reason":"主力爸爸錢包多方寶石（2026-06-09）：控盤線由負翻正且日K收紅。"}]},{"code":"8215","name":"明基材","close":32.05,"percent":4.909983633387878,"tradeVolume":10855,"avgVolume5":6195.14,"value":347902750,"swingScore":100,"score":100,"swingZone":"A","swingStage":{"label":"高基期","ratio":"0.86","tone":"high","value":0.8563829787234041},"swingSignals":[{"id":"saucer","title":"","short":"圓弧","icon":"◜","reason":"突破40日整理頸線，量能放大，偏圓弧底突破。"},{"id":"wallet_volume_cross","title":"紅色三角形","short":"量叉","icon":"🔺","reason":"主力爸爸錢包量能紅K交叉（2026-06-17）：5日資金量均線 3,307 上穿 60日 2,923。"}]},{"code":"6191","name":"精成科","close":104,"percent":4.838709677419352,"tradeVolume":12581,"avgVolume5":10322.22,"value":1308424000,"swingScore":100,"score":100,"swingZone":"A","swingStage":{"label":"中位階","ratio":"0.55","tone":"mid","value":0.550561797752809},"swingSignals":[{"id":"wallet_strong_buy","title":"多方寶石","short":"主力多","icon":"◆","reason":"主力爸爸錢包多方寶石（2026-06-09）：控盤線由負翻正且日K收紅。"}]},{"code":"3406","name":"玉晶光","close":762,"percent":4.670329670329671,"tradeVolume":6054,"avgVolume5":6847.6,"value":4613148000,"swingScore":100,"score":100,"swingZone":"A","swingStage":{"label":"高基期","ratio":"0.97","tone":"high","value":0.9709618874773139},"swingSignals":[{"id":"breakaway_gap","title":"","short":"突破缺口","icon":"◆","reason":"跳空突破近20日整理高點，偏突破缺口。"}]},{"code":"5351","name":"鈺創","close":94,"percent":4.5606229143492705,"tradeVolume":28339.439,"avgVolume5":30723.97,"value":2637176720,"swingScore":100,"score":100,"swingZone":"A","swingStage":{"label":"高基期","ratio":"0.95","tone":"high","value":0.9452054794520548},"swingSignals":[{"id":"runaway_gap","title":"","short":"逃逸缺口","icon":"🚀","reason":"跳空且站上MA20，多頭段延續，偏逃逸缺口。"},{"id":"wallet_volume_cross","title":"紅色三角形","short":"量叉","icon":"🔺","reason":"主力爸爸錢包量能紅K交叉（2026-06-18）：5日資金量均線 13,442 上穿 60日 12,137。"}]},{"code":"2610","name":"華航","close":22.1,"percent":4.000000000000007,"tradeVolume":72570,"avgVolume5":57657.35,"value":1603797000,"swingScore":100,"score":100,"swingZone":"A","swingStage":{"label":"高基期","ratio":"0.94","tone":"high","value":0.936170212765958},"swingSignals":[{"id":"wallet_volume_cross","title":"紅色三角形","short":"量叉","icon":"🔺","reason":"主力爸爸錢包量能紅K交叉（2026-06-09）：5日資金量均線 20,821 上穿 60日 20,986。"}]},{"code":"3707","name":"漢磊","close":83.2,"percent":4.0000000000000036,"tradeVolume":19128.855,"avgVolume5":13281.24,"value":1578312096,"swingScore":100,"score":100,"swingZone":"A","swingStage":{"label":"高基期","ratio":"0.68","tone":"high","value":0.6768867924528301},"swingSignals":[{"id":"wallet_strong_buy","title":"多方寶石","short":"主力多","icon":"◆","reason":"主力爸爸錢包多方寶石（2026-06-18）：控盤線由負翻正且日K收紅。"}]},{"code":"2402","name":"毅嘉","close":70.8,"percent":3.964757709251106,"tradeVolume":6087,"avgVolume5":6782.59,"value":430959600,"swingScore":100,"score":100,"swingZone":"A","swingStage":{"label":"中位階","ratio":"0.44","tone":"mid","value":0.43873517786561245},"swingSignals":[{"id":"n_base","title":"","short":"N字","icon":"","reason":"爆量突破後回檔不破半分位，再突破前高 70.20，N字共振。"}]},{"code":"3045","name":"台灣大","close":119.5,"percent":3.91304347826087,"tradeVolume":6567,"avgVolume5":10460.44,"value":784756500,"swingScore":100,"score":100,"swingZone":"A","swingStage":{"label":"高基期","ratio":"0.91","tone":"high","value":0.9090909090909091},"swingSignals":[{"id":"n_base","title":"","short":"N字","icon":"","reason":"爆量突破後回檔不破半分位，再突破前高 117.50，N字共振。"},{"id":"breakaway_gap","title":"","short":"突破缺口","icon":"◆","reason":"跳空突破近20日整理高點，偏突破缺口。"}]},{"code":"2302","name":"麗正","close":46.75,"percent":3.888888888888889,"tradeVolume":19266,"avgVolume5":10403.75,"value":900685500,"swingScore":100,"score":100,"swingZone":"A","swingStage":{"label":"高基期","ratio":"0.94","tone":"high","value":0.9441786283891547},"swingSignals":[{"id":"saucer","title":"","short":"圓弧","icon":"◜","reason":"突破40日整理頸線，量能放大，偏圓弧底突破。"},{"id":"breakaway_gap","title":"","short":"突破缺口","icon":"◆","reason":"跳空突破近20日整理高點，偏突破缺口。"},{"id":"wallet_volume_cross","title":"紅色三角形","short":"量叉","icon":"🔺","reason":"主力爸爸錢包量能紅K交叉（2026-06-16）：5日資金量均線 7,139 上穿 60日 2,907。"}]},{"code":"2327","name":"國巨*","close":972,"percent":3.404255319148936,"tradeVolume":25823,"avgVolume5":67925.91,"value":25099956000,"swingScore":100,"score":100,"swingZone":"A","swingStage":{"label":"高基期","ratio":"0.96","tone":"high","value":0.9605911330049262},"swingSignals":[{"id":"breakaway_gap","title":"","short":"突破缺口","icon":"◆","reason":"跳空突破近20日整理高點，偏突破缺口。"},{"id":"wallet_volume_cross","title":"紅色三角形","short":"量叉","icon":"🔺","reason":"主力爸爸錢包量能紅K交叉（2026-06-09）：5日資金量均線 22,247 上穿 60日 17,436。"}]},{"code":"8163","name":"達方","close":45.15,"percent":3.3180778032036513,"tradeVolume":9000,"avgVolume5":7945.42,"value":406350000,"swingScore":100,"score":100,"swingZone":"A","swingStage":{"label":"高基期","ratio":"0.92","tone":"high","value":0.9160493827160492},"swingSignals":[{"id":"wallet_volume_cross","title":"紅色三角形","short":"量叉","icon":"🔺","reason":"主力爸爸錢包量能紅K交叉（2026-06-09）：5日資金量均線 2,787 上穿 60日 1,442。"}]},{"code":"3532","name":"台勝科","close":393,"percent":2.8795811518324608,"tradeVolume":13897,"avgVolume5":3790.89,"value":5461521000,"swingScore":100,"score":100,"swingZone":"A","swingStage":{"label":"高基期","ratio":"0.87","tone":"high","value":0.8725868725868726},"swingSignals":[{"id":"golden_cross","title":"","short":"金釵","icon":"✦","reason":"MA5 > MA10 > MA20 且收紅，多金釵候選。"}]},{"code":"2542","name":"興富發","close":46.7,"percent":2.6373626373626435,"tradeVolume":15177,"avgVolume5":18957.67,"value":708765900,"swingScore":100,"score":100,"swingZone":"A","swingStage":{"label":"高基期","ratio":"0.98","tone":"high","value":0.9774436090225566},"swingSignals":[{"id":"n_base","title":"","short":"N字","icon":"","reason":"爆量突破後回檔不破半分位，再突破前高 46.10，N字共振。"}]},{"code":"3049","name":"精金","close":14.45,"percent":2.482269503546097,"tradeVolume":7650,"avgVolume5":30144.64,"value":110542500,"swingScore":100,"score":100,"swingZone":"A","swingStage":{"label":"中位階","ratio":"0.49","tone":"mid","value":0.4869565217391304},"swingSignals":[{"id":"wallet_volume_cross","title":"紅色三角形","short":"量叉","icon":"🔺","reason":"主力爸爸錢包量能紅K交叉（2026-06-04）：5日資金量均線 23,474 上穿 60日 9,505。"}]},{"code":"2515","name":"中工","close":13.3,"percent":2.307692307692313,"tradeVolume":9350,"avgVolume5":11440.43,"value":124355000,"swingScore":100,"score":100,"swingZone":"A","swingStage":{"label":"中位階","ratio":"0.51","tone":"mid","value":0.5106382978723409},"swingSignals":[{"id":"wallet_volume_cross","title":"紅色三角形","short":"量叉","icon":"🔺","reason":"主力爸爸錢包量能紅K交叉（2026-06-08）：5日資金量均線 3,149 上穿 60日 4,481。"}]}]}
