{"ok":true,"source":"strategy4-preset","updatedAt":"2026-06-09T06:53:44.896Z","scanStamp":"20260609","total":1953,"complete":true,"zone":"C","page":23,"pageSize":25,"totalPages":23,"totalCount":554,"count":4,"matches":[{"code":"3379","name":"彬台","close":38.05,"percent":1.466666666666659,"tradeVolume":301,"value":11453050,"swingScore":57,"score":57,"swingZone":"C","swingStage":{"label":"中位階","ratio":"0.51","tone":"mid","value":0.5112107623318383},"swingSignals":[{"id":"base_setup","title":"","short":"C準備","icon":"C","reason":"低/中位階整理接近發動；準備分 5/7，RSI 40.7，量比 0.00。"}]},{"code":"4933","name":"友輝","close":69.6,"percent":1.1627906976744147,"tradeVolume":524,"value":36470400,"swingScore":57,"score":57,"swingZone":"C","swingStage":{"label":"中位階","ratio":"0.47","tone":"mid","value":0.47272727272727233},"swingSignals":[{"id":"base_setup","title":"","short":"C準備","icon":"C","reason":"低/中位階整理接近發動；準備分 5/7，RSI 42.2，量比 0.00。"}]},{"code":"1516","name":"川飛","close":20.6,"percent":0,"tradeVolume":27,"value":556200,"swingScore":57,"score":57,"swingZone":"C","swingStage":{"label":"中位階","ratio":"0.42","tone":"mid","value":0.4237288135593221},"swingSignals":[{"id":"base_setup","title":"","short":"C準備","icon":"C","reason":"低/中位階整理接近發動；準備分 5/7，RSI 41.0，量比 0.00。"}]},{"code":"4572","name":"駐龍","close":143,"percent":0,"tradeVolume":40,"value":5720000,"swingScore":57,"score":57,"swingZone":"C","swingStage":{"label":"中位階","ratio":"0.45","tone":"mid","value":0.45161290322580644},"swingSignals":[{"id":"base_setup","title":"","short":"C準備","icon":"C","reason":"低/中位階整理接近發動；準備分 5/7，RSI 43.6，量比 0.00。"}]}]}
