{"ok":true,"source":"strategy4-preset","updatedAt":"2026-06-09T06:53:44.896Z","scanStamp":"20260609","total":1953,"complete":true,"zone":"C","page":18,"pageSize":25,"totalPages":23,"totalCount":554,"count":25,"matches":[{"code":"8045","name":"達運光電","close":65.1,"percent":7.248764415156493,"tradeVolume":288,"value":18748800,"swingScore":65,"score":65,"swingZone":"C","swingStage":{"label":"低基期","ratio":"0.21","tone":"low","value":0.20848056537102447},"swingSignals":[{"id":"base_setup","title":"","short":"C準備","icon":"C","reason":"低/中位階整理接近發動；準備分 6/7，RSI 39.9，量比 0.00。"}]},{"code":"4952","name":"凌通","close":49.05,"percent":6.630434782608689,"tradeVolume":468,"value":22955400,"swingScore":65,"score":65,"swingZone":"C","swingStage":{"label":"中位階","ratio":"0.44","tone":"mid","value":0.44345238095238076},"swingSignals":[{"id":"base_setup","title":"","short":"C準備","icon":"C","reason":"低/中位階整理接近發動；準備分 6/7，RSI 48.4，量比 0.00。"}]},{"code":"6668","name":"中揚光","close":38.35,"percent":6.380029990610875,"tradeVolume":1124,"value":43105400,"swingScore":65,"score":65,"swingZone":"C","swingStage":{"label":"中位階","ratio":"0.55","tone":"mid","value":0.5519125596489314},"swingSignals":[{"id":"base_setup","title":"","short":"C準備","icon":"C","reason":"低/中位階整理接近發動；準備分 6/7，RSI 51.7，量比 0.00。"}]},{"code":"6498","name":"久禾光","close":101.5,"percent":5.729166666666666,"tradeVolume":198,"value":20097000,"swingScore":65,"score":65,"swingZone":"C","swingStage":{"label":"中位階","ratio":"0.50","tone":"mid","value":0.4982078853046596},"swingSignals":[{"id":"base_setup","title":"","short":"C準備","icon":"C","reason":"低/中位階整理接近發動；準備分 6/7，RSI 43.6，量比 0.43。"}]},{"code":"2367","name":"燿華","close":63.9,"percent":5.619834710743799,"tradeVolume":26903,"value":1719101700,"swingScore":65,"score":65,"swingZone":"C","swingStage":{"label":"中位階","ratio":"0.42","tone":"mid","value":0.4166666666666667},"swingSignals":[{"id":"base_setup","title":"","short":"C準備","icon":"C","reason":"低/中位階整理接近發動；準備分 6/7，RSI 49.8，量比 0.00。"}]},{"code":"6213","name":"聯茂","close":257,"percent":5.544147843942506,"tradeVolume":9361,"value":2405777000,"swingScore":65,"score":65,"swingZone":"C","swingStage":{"label":"中位階","ratio":"0.41","tone":"mid","value":0.4144144144144144},"swingSignals":[{"id":"base_setup","title":"","short":"C準備","icon":"C","reason":"低/中位階整理接近發動；準備分 6/7，RSI 56.6，量比 0.00。"}]},{"code":"3317","name":"尼克森","close":78.3,"percent":5.383580080753701,"tradeVolume":4381,"value":343032300,"swingScore":65,"score":65,"swingZone":"C","swingStage":{"label":"高基期","ratio":"0.75","tone":"high","value":0.7526315789473683},"swingSignals":[{"id":"base_setup","title":"","short":"C準備","icon":"C","reason":"低/中位階整理接近發動；準備分 5/7，RSI 58.8，量比 0.64。"}]},{"code":"5291","name":"邑昇","close":68.9,"percent":4.870624048706245,"tradeVolume":545,"value":37550500,"swingScore":65,"score":65,"swingZone":"C","swingStage":{"label":"中位階","ratio":"0.51","tone":"mid","value":0.5074074074074075},"swingSignals":[{"id":"base_setup","title":"","short":"C準備","icon":"C","reason":"低/中位階整理接近發動；準備分 6/7，RSI 44.4，量比 0.00。"}]},{"code":"6863","name":"永道-KY","close":103.5,"percent":4.545454545454546,"tradeVolume":229,"value":23701500,"swingScore":65,"score":65,"swingZone":"C","swingStage":{"label":"低基期","ratio":"0.32","tone":"low","value":0.32075471698113206},"swingSignals":[{"id":"base_setup","title":"","short":"C準備","icon":"C","reason":"低/中位階整理接近發動；準備分 6/7，RSI 38.9，量比 0.00。"}]},{"code":"6215","name":"和椿","close":117,"percent":4.464285714285714,"tradeVolume":1935,"value":226395000,"swingScore":65,"score":65,"swingZone":"C","swingStage":{"label":"中位階","ratio":"0.46","tone":"mid","value":0.4629156010230178},"swingSignals":[{"id":"base_setup","title":"","short":"C準備","icon":"C","reason":"低/中位階整理接近發動；準備分 6/7，RSI 45.2，量比 0.00。"}]},{"code":"6114","name":"久威","close":30.15,"percent":4.325259515570934,"tradeVolume":25,"value":753750,"swingScore":65,"score":65,"swingZone":"C","swingStage":{"label":"中位階","ratio":"0.44","tone":"mid","value":0.4356435643564354},"swingSignals":[{"id":"base_setup","title":"","short":"C準備","icon":"C","reason":"低/中位階整理接近發動；準備分 6/7，RSI 52.0，量比 0.00。"}]},{"code":"6756","name":"威鋒電子","close":94.1,"percent":2.954048140043751,"tradeVolume":229,"value":21548900,"swingScore":65,"score":65,"swingZone":"C","swingStage":{"label":"中位階","ratio":"0.51","tone":"mid","value":0.5091743119266053},"swingSignals":[{"id":"base_setup","title":"","short":"C準備","icon":"C","reason":"低/中位階整理接近發動；準備分 6/7，RSI 47.8，量比 0.00。"}]},{"code":"5347","name":"世界","close":161,"percent":2.8753993610223643,"tradeVolume":24008,"value":3865288000,"swingScore":65,"score":65,"swingZone":"C","swingStage":{"label":"中位階","ratio":"0.60","tone":"mid","value":0.5983606557377049},"swingSignals":[{"id":"base_setup","title":"","short":"C準備","icon":"C","reason":"低/中位階整理接近發動；準備分 6/7，RSI 51.5，量比 0.00。"}]},{"code":"6629","name":"泰金-KY","close":116.5,"percent":2.1929824561403506,"tradeVolume":29,"value":3378500,"swingScore":65,"score":65,"swingZone":"C","swingStage":{"label":"低基期","ratio":"0.34","tone":"low","value":0.3387096774193548},"swingSignals":[{"id":"base_setup","title":"","short":"C準備","icon":"C","reason":"低/中位階整理接近發動；準備分 5/7，RSI 34.2，量比 0.30。"}]},{"code":"6967","name":"汎瑋材料","close":69.5,"percent":2.055800293685765,"tradeVolume":20,"value":1390000,"swingScore":65,"score":65,"swingZone":"C","swingStage":{"label":"低基期","ratio":"0.17","tone":"low","value":0.1702127659574468},"swingSignals":[{"id":"base_setup","title":"","short":"C準備","icon":"C","reason":"低/中位階整理接近發動；準備分 5/7，RSI 43.9，量比 0.24。"}]},{"code":"2067","name":"嘉鋼","close":6.4,"percent":1.9108280254777086,"tradeVolume":12,"value":76800,"swingScore":65,"score":65,"swingZone":"C","swingStage":{"label":"低基期","ratio":"0.13","tone":"low","value":0.1329787234042554},"swingSignals":[{"id":"base_setup","title":"","short":"C準備","icon":"C","reason":"低/中位階整理接近發動；準備分 5/7，RSI 26.8，量比 0.26。"}]},{"code":"5902","name":"德記","close":35.85,"percent":1.558073654390947,"tradeVolume":16,"value":573600,"swingScore":65,"score":65,"swingZone":"C","swingStage":{"label":"中位階","ratio":"0.41","tone":"mid","value":0.4117647058823532},"swingSignals":[{"id":"base_setup","title":"","short":"C準備","icon":"C","reason":"低/中位階整理接近發動；準備分 5/7，RSI 33.9，量比 0.19。"}]},{"code":"3356","name":"奇偶","close":60,"percent":1.5228426395939063,"tradeVolume":775,"value":46500000,"swingScore":65,"score":65,"swingZone":"C","swingStage":{"label":"中位階","ratio":"0.55","tone":"mid","value":0.5529411764705884},"swingSignals":[{"id":"base_setup","title":"","short":"C準備","icon":"C","reason":"低/中位階整理接近發動；準備分 6/7，RSI 49.7，量比 0.00。"}]},{"code":"8437","name":"大地-KY","close":10.8,"percent":1.4084507042253553,"tradeVolume":64,"value":691200,"swingScore":65,"score":65,"swingZone":"C","swingStage":{"label":"低基期","ratio":"0.10","tone":"low","value":0.10447761194029889},"swingSignals":[{"id":"base_setup","title":"","short":"C準備","icon":"C","reason":"低/中位階整理接近發動；準備分 6/7，RSI 41.8，量比 0.00。"}]},{"code":"4560","name":"強信-KY","close":31.95,"percent":1.107594936708854,"tradeVolume":212,"value":6773400,"swingScore":65,"score":65,"swingZone":"C","swingStage":{"label":"低基期","ratio":"0.10","tone":"low","value":0.09756097560975577},"swingSignals":[{"id":"base_setup","title":"","short":"C準備","icon":"C","reason":"低/中位階整理接近發動；準備分 6/7，RSI 43.6，量比 0.00。"}]},{"code":"4527","name":"方土霖","close":41.4,"percent":1.0989010989010883,"tradeVolume":22,"value":910800,"swingScore":65,"score":65,"swingZone":"C","swingStage":{"label":"低基期","ratio":"0.10","tone":"low","value":0.10476190476190422},"swingSignals":[{"id":"base_setup","title":"","short":"C準備","icon":"C","reason":"低/中位階整理接近發動；準備分 5/7，RSI 37.8，量比 0.28。"}]},{"code":"6875","name":"國邑*","close":34.55,"percent":0.8759124087591158,"tradeVolume":39,"value":1347450,"swingScore":65,"score":65,"swingZone":"C","swingStage":{"label":"低基期","ratio":"0.10","tone":"low","value":0.10059171597633074},"swingSignals":[{"id":"base_setup","title":"","short":"C準備","icon":"C","reason":"低/中位階整理接近發動；準備分 5/7，RSI 31.0，量比 0.20。"}]},{"code":"3432","name":"台端","close":18.05,"percent":0.5571030640668604,"tradeVolume":34,"value":613700,"swingScore":65,"score":65,"swingZone":"C","swingStage":{"label":"低基期","ratio":"0.27","tone":"low","value":0.273972602739726},"swingSignals":[{"id":"base_setup","title":"","short":"C準備","icon":"C","reason":"低/中位階整理接近發動；準備分 6/7，RSI 38.5，量比 0.00。"}]},{"code":"1459","name":"聯發","close":11.65,"percent":0.4310344827586268,"tradeVolume":143,"value":1665950,"swingScore":65,"score":65,"swingZone":"C","swingStage":{"label":"中位階","ratio":"0.39","tone":"mid","value":0.3888888888888891},"swingSignals":[{"id":"base_setup","title":"","short":"C準備","icon":"C","reason":"低/中位階整理接近發動；準備分 6/7，RSI 44.4，量比 0.00。"}]},{"code":"4563","name":"百德","close":45.8,"percent":-0.7583965330444234,"tradeVolume":193,"value":8839400,"swingScore":65,"score":65,"swingZone":"C","swingStage":{"label":"低基期","ratio":"0.38","tone":"low","value":0.38170347003154553},"swingSignals":[{"id":"base_setup","title":"","short":"C準備","icon":"C","reason":"低/中位階整理接近發動；準備分 5/7，RSI 43.9，量比 0.57。"}]}]}
