{"ok":true,"source":"strategy4-preset","updatedAt":"2026-06-06T12:34:51.971Z","scanStamp":"20260606","total":1957,"complete":true,"zone":"C","page":9,"pageSize":25,"totalPages":14,"totalCount":348,"count":25,"matches":[{"code":"4533","name":"協易機","close":31,"percent":-2.5157232704402537,"tradeVolume":4493,"value":139283000,"swingScore":73,"score":73,"swingZone":"C","swingStage":{"label":"低基期","ratio":"0.07","tone":"low","value":0.07264957264957275},"swingSignals":[{"id":"base_setup","title":"","short":"C準備","icon":"C","reason":"低/中位階整理接近發動；準備分 5/7，RSI 43.9，量比 1.26。"}]},{"code":"3466","name":"德晉","close":33.05,"percent":0.608828006088267,"tradeVolume":330,"value":10906500,"swingScore":72,"score":72,"swingZone":"C","swingStage":{"label":"低基期","ratio":"0.06","tone":"low","value":0.05555555555555555},"swingSignals":[{"id":"base_setup","title":"","short":"C準備","icon":"C","reason":"低/中位階整理接近發動；準備分 6/7，RSI 27.8，量比 0.51。"}]},{"code":"6530","name":"創威","close":109.5,"percent":0,"tradeVolume":1074,"value":117603000,"swingScore":72,"score":72,"swingZone":"C","swingStage":{"label":"低基期","ratio":"0.34","tone":"low","value":0.34444444444444444},"swingSignals":[{"id":"base_setup","title":"","short":"C準備","icon":"C","reason":"低/中位階整理接近發動；準備分 6/7，RSI 52.9，量比 0.50。"}]},{"code":"8054","name":"安國","close":100.5,"percent":0,"tradeVolume":1354,"value":136077000,"swingScore":72,"score":72,"swingZone":"C","swingStage":{"label":"低基期","ratio":"0.14","tone":"low","value":0.14244186046511642},"swingSignals":[{"id":"base_setup","title":"","short":"C準備","icon":"C","reason":"低/中位階整理接近發動；準備分 6/7，RSI 49.2，量比 0.47。"}]},{"code":"4419","name":"皇家美食","close":45.3,"percent":-3.4115138592750567,"tradeVolume":3,"value":135900,"swingScore":72,"score":72,"swingZone":"C","swingStage":{"label":"低基期","ratio":"0.16","tone":"low","value":0.15652173913043455},"swingSignals":[{"id":"base_setup","title":"","short":"C準備","icon":"C","reason":"低/中位階整理接近發動；準備分 5/7，RSI 46.9，量比 0.80。"}]},{"code":"1454","name":"台富","close":13.05,"percent":3.9840637450199203,"tradeVolume":28,"value":365400,"swingScore":71,"score":71,"swingZone":"C","swingStage":{"label":"低基期","ratio":"0.27","tone":"low","value":0.26530612244897983},"swingSignals":[{"id":"base_setup","title":"","short":"C準備","icon":"C","reason":"低/中位階整理接近發動；準備分 6/7，RSI 39.0，量比 0.00。"}]},{"code":"4806","name":"桂田文創","close":10.35,"percent":3.499999999999996,"tradeVolume":29,"value":300150,"swingScore":71,"score":71,"swingZone":"C","swingStage":{"label":"低基期","ratio":"0.16","tone":"low","value":0.15662650602409645},"swingSignals":[{"id":"base_setup","title":"","short":"C準備","icon":"C","reason":"低/中位階整理接近發動；準備分 6/7，RSI 52.2，量比 0.77。"}]},{"code":"1536","name":"和大","close":50.5,"percent":2.6422764227642217,"tradeVolume":2317,"value":117008500,"swingScore":71,"score":71,"swingZone":"C","swingStage":{"label":"低基期","ratio":"0.08","tone":"low","value":0.08465608465608473},"swingSignals":[{"id":"base_setup","title":"","short":"C準備","icon":"C","reason":"低/中位階整理接近發動；準備分 5/7，RSI 41.9，量比 0.00。"}]},{"code":"3665","name":"貿聯-KY","close":2200,"percent":2.088167053364269,"tradeVolume":2597,"value":5713400000,"swingScore":71,"score":71,"swingZone":"C","swingStage":{"label":"低基期","ratio":"0.30","tone":"low","value":0.2956521739130435},"swingSignals":[{"id":"base_setup","title":"","short":"C準備","icon":"C","reason":"低/中位階整理接近發動；準備分 6/7，RSI 57.3，量比 0.00。"}]},{"code":"6949","name":"沛爾生醫-創","close":658,"percent":2.0155038759689923,"tradeVolume":134,"value":88172000,"swingScore":71,"score":71,"swingZone":"C","swingStage":{"label":"低基期","ratio":"0.16","tone":"low","value":0.15838509316770186},"swingSignals":[{"id":"base_setup","title":"","short":"C準備","icon":"C","reason":"低/中位階整理接近發動；準備分 6/7，RSI 46.8，量比 0.00。"}]},{"code":"5529","name":"鉅陞","close":22.7,"percent":1.1135857461024499,"tradeVolume":219,"value":4971300,"swingScore":71,"score":71,"swingZone":"C","swingStage":{"label":"低基期","ratio":"0.28","tone":"low","value":0.2833333333333332},"swingSignals":[{"id":"base_setup","title":"","short":"C準備","icon":"C","reason":"低/中位階整理接近發動；準備分 6/7，RSI 52.4，量比 0.00。"}]},{"code":"4554","name":"橙的","close":30.4,"percent":0.9966777408637779,"tradeVolume":48,"value":1459200,"swingScore":71,"score":71,"swingZone":"C","swingStage":{"label":"低基期","ratio":"0.27","tone":"low","value":0.2666666666666664},"swingSignals":[{"id":"base_setup","title":"","short":"C準備","icon":"C","reason":"低/中位階整理接近發動；準備分 6/7，RSI 50.0，量比 0.00。"}]},{"code":"2754","name":"亞洲藏壽司","close":68.6,"percent":0.5865102639296063,"tradeVolume":52,"value":3567200,"swingScore":71,"score":71,"swingZone":"C","swingStage":{"label":"低基期","ratio":"0.20","tone":"low","value":0.202614379084967},"swingSignals":[{"id":"base_setup","title":"","short":"C準備","icon":"C","reason":"低/中位階整理接近發動；準備分 6/7，RSI 46.1，量比 0.00。"}]},{"code":"9905","name":"大華","close":20.65,"percent":0.2427165903125325,"tradeVolume":323,"value":6669950,"swingScore":71,"score":71,"swingZone":"C","swingStage":{"label":"低基期","ratio":"0.10","tone":"low","value":0.0952378011342368},"swingSignals":[{"id":"base_setup","title":"","short":"C準備","icon":"C","reason":"低/中位階整理接近發動；準備分 5/7，RSI 45.0，量比 0.00。"}]},{"code":"8424","name":"惠普","close":72.9,"percent":0,"tradeVolume":94,"value":6852600,"swingScore":71,"score":71,"swingZone":"C","swingStage":{"label":"低基期","ratio":"0.30","tone":"low","value":0.3000000000000019},"swingSignals":[{"id":"base_setup","title":"","short":"C準備","icon":"C","reason":"低/中位階整理接近發動；準備分 5/7，RSI 38.5，量比 0.00。"}]},{"code":"3164","name":"景岳","close":16.5,"percent":-0.30211480362538196,"tradeVolume":30,"value":495000,"swingScore":71,"score":71,"swingZone":"C","swingStage":{"label":"低基期","ratio":"0.22","tone":"low","value":0.21739130434782603},"swingSignals":[{"id":"base_setup","title":"","short":"C準備","icon":"C","reason":"低/中位階整理接近發動；準備分 5/7，RSI 42.0，量比 0.00。"}]},{"code":"8942","name":"森鉅","close":41.4,"percent":-0.36101083032490633,"tradeVolume":424,"value":17553600,"swingScore":71,"score":71,"swingZone":"C","swingStage":{"label":"低基期","ratio":"0.18","tone":"low","value":0.17751479289940822},"swingSignals":[{"id":"base_setup","title":"","short":"C準備","icon":"C","reason":"低/中位階整理接近發動；準備分 6/7，RSI 44.6，量比 0.76。"}]},{"code":"8933","name":"愛地雅","close":4.77,"percent":-0.41753653444677374,"tradeVolume":151,"value":720270,"swingScore":71,"score":71,"swingZone":"C","swingStage":{"label":"低基期","ratio":"0.20","tone":"low","value":0.19691119691119685},"swingSignals":[{"id":"base_setup","title":"","short":"C準備","icon":"C","reason":"低/中位階整理接近發動；準備分 5/7，RSI 38.0，量比 0.00。"}]},{"code":"4943","name":"康控-KY","close":8.9,"percent":-0.5586592178770831,"tradeVolume":18,"value":160200,"swingScore":71,"score":71,"swingZone":"C","swingStage":{"label":"低基期","ratio":"0.15","tone":"low","value":0.1481481481481483},"swingSignals":[{"id":"base_setup","title":"","short":"C準備","icon":"C","reason":"低/中位階整理接近發動；準備分 5/7，RSI 39.9，量比 0.00。"}]},{"code":"2630","name":"亞航","close":41.75,"percent":-0.9489916963226538,"tradeVolume":889,"value":37115750,"swingScore":71,"score":71,"swingZone":"C","swingStage":{"label":"低基期","ratio":"0.06","tone":"low","value":0.055555555555555455},"swingSignals":[{"id":"base_setup","title":"","short":"C準備","icon":"C","reason":"低/中位階整理接近發動；準備分 5/7，RSI 41.7，量比 0.00。"}]},{"code":"5007","name":"三星","close":57.1,"percent":-1.0398613518197597,"tradeVolume":8,"value":456800,"swingScore":71,"score":71,"swingZone":"C","swingStage":{"label":"中位階","ratio":"0.54","tone":"mid","value":0.538461538461539},"swingSignals":[{"id":"base_setup","title":"","short":"C準備","icon":"C","reason":"低/中位階整理接近發動；準備分 5/7，RSI 53.8，量比 0.00。"}]},{"code":"1203","name":"味王","close":42.5,"percent":-1.392111368909516,"tradeVolume":7,"value":297500,"swingScore":71,"score":71,"swingZone":"C","swingStage":{"label":"中位階","ratio":"0.54","tone":"mid","value":0.5402298850574714},"swingSignals":[{"id":"base_setup","title":"","short":"C準備","icon":"C","reason":"低/中位階整理接近發動；準備分 5/7，RSI 67.0，量比 0.00。"}]},{"code":"2015","name":"豐興","close":62,"percent":-1.5873015873015872,"tradeVolume":309,"value":19158000,"swingScore":71,"score":71,"swingZone":"C","swingStage":{"label":"中位階","ratio":"0.44","tone":"mid","value":0.4390239590766949},"swingSignals":[{"id":"base_setup","title":"","short":"C準備","icon":"C","reason":"低/中位階整理接近發動；準備分 5/7，RSI 50.8，量比 0.00。"}]},{"code":"3040","name":"遠見","close":38.4,"percent":-1.9157126351148215,"tradeVolume":264,"value":10137600,"swingScore":71,"score":71,"swingZone":"C","swingStage":{"label":"低基期","ratio":"0.01","tone":"low","value":0.009523882184709686},"swingSignals":[{"id":"base_setup","title":"","short":"C準備","icon":"C","reason":"低/中位階整理接近發動；準備分 5/7，RSI 44.4，量比 0.00。"}]},{"code":"4503","name":"金雨","close":39.1,"percent":-2.6151930261519234,"tradeVolume":205,"value":8015500,"swingScore":71,"score":71,"swingZone":"C","swingStage":{"label":"低基期","ratio":"0.10","tone":"low","value":0.10426540284360206},"swingSignals":[{"id":"base_setup","title":"","short":"C準備","icon":"C","reason":"低/中位階整理接近發動；準備分 5/7，RSI 35.4，量比 0.64。"}]}]}
