{"ok":true,"source":"strategy4-preset","updatedAt":"2026-06-09T06:53:44.896Z","scanStamp":"20260609","total":1953,"complete":true,"zone":"C","page":7,"pageSize":25,"totalPages":23,"totalCount":554,"count":25,"matches":[{"code":"3419","name":"譁裕","close":13.8,"percent":1.0989010989011014,"tradeVolume":127,"value":1752600,"swingScore":76,"score":76,"swingZone":"C","swingStage":{"label":"低基期","ratio":"0.13","tone":"low","value":0.12631578947368452},"swingSignals":[{"id":"base_setup","title":"","short":"C準備","icon":"C","reason":"低/中位階整理接近發動；準備分 6/7，RSI 49.1，量比 0.00。"}]},{"code":"4935","name":"茂林-KY","close":38.1,"percent":1.0610079575596778,"tradeVolume":270,"value":10287000,"swingScore":76,"score":76,"swingZone":"C","swingStage":{"label":"低基期","ratio":"0.35","tone":"low","value":0.3481012658227849},"swingSignals":[{"id":"base_setup","title":"","short":"C準備","icon":"C","reason":"低/中位階整理接近發動；準備分 6/7，RSI 57.8，量比 0.00。"}]},{"code":"6752","name":"叡揚","close":101.5,"percent":0.9950248756218906,"tradeVolume":20,"value":2030000,"swingScore":76,"score":76,"swingZone":"C","swingStage":{"label":"低基期","ratio":"0.34","tone":"low","value":0.3406593406593408},"swingSignals":[{"id":"base_setup","title":"","short":"C準備","icon":"C","reason":"低/中位階整理接近發動；準備分 6/7，RSI 53.4，量比 0.00。"}]},{"code":"6129","name":"普誠","close":15.6,"percent":0.9708737864077693,"tradeVolume":487,"value":7597200,"swingScore":76,"score":76,"swingZone":"C","swingStage":{"label":"低基期","ratio":"0.24","tone":"low","value":0.23809523809523803},"swingSignals":[{"id":"base_setup","title":"","short":"C準備","icon":"C","reason":"低/中位階整理接近發動；準備分 6/7，RSI 54.4，量比 0.00。"}]},{"code":"4911","name":"德英","close":31.7,"percent":0.9554140127388558,"tradeVolume":22,"value":697400,"swingScore":76,"score":76,"swingZone":"C","swingStage":{"label":"低基期","ratio":"0.15","tone":"low","value":0.14864864864864838},"swingSignals":[{"id":"base_setup","title":"","short":"C準備","icon":"C","reason":"低/中位階整理接近發動；準備分 6/7，RSI 48.3，量比 0.00。"}]},{"code":"2912","name":"統一超","close":224,"percent":0.9009009009009009,"tradeVolume":3835,"value":859040000,"swingScore":76,"score":76,"swingZone":"C","swingStage":{"label":"中位階","ratio":"0.44","tone":"mid","value":0.44086021505376344},"swingSignals":[{"id":"base_setup","title":"","short":"C準備","icon":"C","reason":"低/中位階整理接近發動；準備分 6/7，RSI 51.2，量比 0.00。"}]},{"code":"6654","name":"天正國際","close":170,"percent":0.8902077151335311,"tradeVolume":107,"value":18190000,"swingScore":76,"score":76,"swingZone":"C","swingStage":{"label":"高基期","ratio":"0.85","tone":"high","value":0.846077457795432},"swingSignals":[{"id":"base_setup","title":"","short":"C準備","icon":"C","reason":"低/中位階整理接近發動；準備分 5/7，RSI 91.6，量比 0.60。"}]},{"code":"2901","name":"欣欣","close":23,"percent":0.8771929824561372,"tradeVolume":11,"value":253000,"swingScore":76,"score":76,"swingZone":"C","swingStage":{"label":"低基期","ratio":"0.22","tone":"low","value":0.22000000000000028},"swingSignals":[{"id":"base_setup","title":"","short":"C準備","icon":"C","reason":"低/中位階整理接近發動；準備分 6/7，RSI 53.8，量比 0.00。"}]},{"code":"2539","name":"櫻花建","close":36.9,"percent":0.8196721311475332,"tradeVolume":767,"value":28302300,"swingScore":76,"score":76,"swingZone":"C","swingStage":{"label":"低基期","ratio":"0.25","tone":"low","value":0.25333333333333313},"swingSignals":[{"id":"base_setup","title":"","short":"C準備","icon":"C","reason":"低/中位階整理接近發動；準備分 6/7，RSI 44.6，量比 0.00。"}]},{"code":"5283","name":"禾聯碩","close":52.1,"percent":0.7736943907156646,"tradeVolume":100,"value":5210000,"swingScore":76,"score":76,"swingZone":"C","swingStage":{"label":"低基期","ratio":"0.24","tone":"low","value":0.24000000000000057},"swingSignals":[{"id":"base_setup","title":"","short":"C準備","icon":"C","reason":"低/中位階整理接近發動；準備分 6/7，RSI 52.8，量比 0.00。"}]},{"code":"2646","name":"星宇航空","close":20.2,"percent":0.7481296758104666,"tradeVolume":4661,"value":94152200,"swingScore":76,"score":76,"swingZone":"C","swingStage":{"label":"低基期","ratio":"0.26","tone":"low","value":0.2631578947368418},"swingSignals":[{"id":"base_setup","title":"","short":"C準備","icon":"C","reason":"低/中位階整理接近發動；準備分 6/7，RSI 50.0，量比 0.00。"}]},{"code":"2904","name":"匯僑","close":13.95,"percent":0.7220216606498169,"tradeVolume":120,"value":1674000,"swingScore":76,"score":76,"swingZone":"C","swingStage":{"label":"低基期","ratio":"0.06","tone":"low","value":0.0634920634920633},"swingSignals":[{"id":"base_setup","title":"","short":"C準備","icon":"C","reason":"低/中位階整理接近發動；準備分 6/7，RSI 45.5，量比 0.00。"}]},{"code":"3092","name":"鴻碩","close":29.2,"percent":0.6896551724137907,"tradeVolume":407,"value":11884400,"swingScore":76,"score":76,"swingZone":"C","swingStage":{"label":"低基期","ratio":"0.18","tone":"low","value":0.17826086956521744},"swingSignals":[{"id":"base_setup","title":"","short":"C準備","icon":"C","reason":"低/中位階整理接近發動；準備分 6/7，RSI 55.0，量比 0.00。"}]},{"code":"5287","name":"數字","close":147.5,"percent":0.6825938566552902,"tradeVolume":38,"value":5605000,"swingScore":76,"score":76,"swingZone":"C","swingStage":{"label":"低基期","ratio":"0.18","tone":"low","value":0.1836734693877551},"swingSignals":[{"id":"base_setup","title":"","short":"C準備","icon":"C","reason":"低/中位階整理接近發動；準備分 6/7，RSI 42.9，量比 0.00。"}]},{"code":"3164","name":"景岳","close":16.4,"percent":0.6134969325153243,"tradeVolume":42,"value":688800,"swingScore":76,"score":76,"swingZone":"C","swingStage":{"label":"低基期","ratio":"0.17","tone":"low","value":0.1739130434782602},"swingSignals":[{"id":"base_setup","title":"","short":"C準備","icon":"C","reason":"低/中位階整理接近發動；準備分 6/7，RSI 38.0，量比 0.00。"}]},{"code":"5521","name":"工信","close":10.25,"percent":0.4901960784313796,"tradeVolume":2872,"value":29438000,"swingScore":76,"score":76,"swingZone":"C","swingStage":{"label":"低基期","ratio":"0.20","tone":"low","value":0.19672131147540978},"swingSignals":[{"id":"base_setup","title":"","short":"C準備","icon":"C","reason":"低/中位階整理接近發動；準備分 6/7，RSI 44.2，量比 0.00。"}]},{"code":"1102","name":"亞泥","close":33.9,"percent":0.4444444444444402,"tradeVolume":13127,"value":445005300,"swingScore":76,"score":76,"swingZone":"C","swingStage":{"label":"中位階","ratio":"0.40","tone":"mid","value":0.4},"swingSignals":[{"id":"base_setup","title":"","short":"C準備","icon":"C","reason":"低/中位階整理接近發動；準備分 6/7，RSI 45.2，量比 0.00。"}]},{"code":"1219","name":"福壽","close":12.5,"percent":0.4016064257028169,"tradeVolume":596,"value":7450000,"swingScore":76,"score":76,"swingZone":"C","swingStage":{"label":"低基期","ratio":"0.13","tone":"low","value":0.13207547169811307},"swingSignals":[{"id":"base_setup","title":"","short":"C準備","icon":"C","reason":"低/中位階整理接近發動；準備分 6/7，RSI 50.0，量比 0.00。"}]},{"code":"5301","name":"寶得利","close":6.83,"percent":0.2936857562408291,"tradeVolume":38,"value":259540,"swingScore":76,"score":76,"swingZone":"C","swingStage":{"label":"低基期","ratio":"0.11","tone":"low","value":0.11049723756906084},"swingSignals":[{"id":"base_setup","title":"","short":"C準備","icon":"C","reason":"低/中位階整理接近發動；準備分 6/7，RSI 50.4，量比 0.00。"}]},{"code":"2014","name":"中鴻","close":17.7,"percent":0.28328611898017403,"tradeVolume":6961,"value":123209700,"swingScore":76,"score":76,"swingZone":"C","swingStage":{"label":"低基期","ratio":"0.31","tone":"low","value":0.3090909090909083},"swingSignals":[{"id":"base_setup","title":"","short":"C準備","icon":"C","reason":"低/中位階整理接近發動；準備分 6/7，RSI 55.9，量比 0.00。"}]},{"code":"8424","name":"惠普","close":72.9,"percent":0.2751031636863863,"tradeVolume":112,"value":8164800,"swingScore":76,"score":76,"swingZone":"C","swingStage":{"label":"低基期","ratio":"0.30","tone":"low","value":0.3000000000000019},"swingSignals":[{"id":"base_setup","title":"","short":"C準備","icon":"C","reason":"低/中位階整理接近發動；準備分 6/7，RSI 41.2，量比 0.00。"}]},{"code":"8481","name":"政伸","close":40.85,"percent":0.24539877300613847,"tradeVolume":23,"value":939550,"swingScore":76,"score":76,"swingZone":"C","swingStage":{"label":"中位階","ratio":"0.49","tone":"mid","value":0.4905660377358496},"swingSignals":[{"id":"base_setup","title":"","short":"C準備","icon":"C","reason":"低/中位階整理接近發動；準備分 6/7，RSI 59.1，量比 0.00。"}]},{"code":"1558","name":"伸興","close":90.2,"percent":0.22222222222222537,"tradeVolume":65,"value":5863000,"swingScore":76,"score":76,"swingZone":"C","swingStage":{"label":"低基期","ratio":"0.22","tone":"low","value":0.22448979591836882},"swingSignals":[{"id":"base_setup","title":"","short":"C準備","icon":"C","reason":"低/中位階整理接近發動；準備分 6/7，RSI 51.3，量比 0.00。"}]},{"code":"1535","name":"中宇","close":49.65,"percent":0.20181634712411992,"tradeVolume":105,"value":5213250,"swingScore":76,"score":76,"swingZone":"C","swingStage":{"label":"低基期","ratio":"0.18","tone":"low","value":0.18181818181818143},"swingSignals":[{"id":"base_setup","title":"","short":"C準備","icon":"C","reason":"低/中位階整理接近發動；準備分 6/7，RSI 52.6，量比 0.00。"}]},{"code":"6582","name":"申豐","close":31.1,"percent":0.16103305690189781,"tradeVolume":56,"value":1741600,"swingScore":76,"score":76,"swingZone":"C","swingStage":{"label":"中位階","ratio":"0.39","tone":"mid","value":0.38805966410190174},"swingSignals":[{"id":"base_setup","title":"","short":"C準備","icon":"C","reason":"低/中位階整理接近發動；準備分 6/7，RSI 56.9，量比 0.00。"}]}]}
