{"ok":true,"updatedAt":"2026-06-18T10:18:43.130Z","scanStamp":"20260618","source":"strategy4-score-page","page":4,"pageSize":25,"totalPages":5,"totalCount":120,"count":25,"rows":[{"code":"5521","name":"工信","close":10.6,"percent":-5.777777777777781,"tradeVolume":2898,"avgVolume5":5812.64,"value":30718800,"swingScore":100,"score":100,"swingZone":"A","swingStage":{"label":"低基期","ratio":"0.33","tone":"low","value":0.32758620689655144},"swingSignals":[{"id":"wallet_strong_buy","title":"多方寶石","short":"主力多","icon":"◆","reason":"主力爸爸錢包多方寶石（2026-06-10）：控盤線由負翻正且日K收紅。"},{"id":"wallet_volume_cross","title":"紅色三角形","short":"量叉","icon":"🔺","reason":"主力爸爸錢包量能紅K交叉（2026-06-10）：5日資金量均線 3,856 上穿 60日 3,103。"}]},{"code":"3042","name":"晶技","close":225,"percent":-7.597535934291582,"tradeVolume":23506,"avgVolume5":24518.66,"value":5288850000,"swingScore":100,"score":100,"swingZone":"A","swingStage":{"label":"高基期","ratio":"0.82","tone":"high","value":0.823045267489712},"swingSignals":[{"id":"wallet_strong_buy","title":"多方寶石","short":"主力多","icon":"◆","reason":"主力爸爸錢包多方寶石（2026-06-08）：控盤線由負翻正且日K收紅。"}]},{"code":"8069","name":"元太","close":204,"percent":6.806282722513089,"tradeVolume":11030.08,"avgVolume5":9812.3,"value":2273459926,"swingScore":99,"score":99,"swingZone":"A","swingStage":{"label":"中位階","ratio":"0.59","tone":"mid","value":0.5948275862068966},"swingSignals":[{"id":"wallet_strong_buy","title":"多方寶石","short":"主力多","icon":"◆","reason":"主力爸爸錢包多方寶石（2026-06-08）：控盤線由負翻正且日K收紅。"}]},{"code":"3374","name":"精材","close":251,"percent":5.9071729957805905,"tradeVolume":6589.431,"avgVolume5":4497.99,"value":1647630952,"swingScore":99,"score":99,"swingZone":"A","swingStage":{"label":"高基期","ratio":"0.68","tone":"high","value":0.6792452830188679},"swingSignals":[{"id":"wallet_strong_buy","title":"多方寶石","short":"主力多","icon":"◆","reason":"主力爸爸錢包多方寶石（2026-06-18）：控盤線由負翻正且日K收紅。"}]},{"code":"2388","name":"威盛","close":77.1,"percent":12.06395348837209,"tradeVolume":8956,"avgVolume5":4661.44,"value":690507600,"swingScore":98,"score":98,"swingZone":"A","swingStage":{"label":"中位階","ratio":"0.51","tone":"mid","value":0.5136986301369861},"swingSignals":[{"id":"runaway_gap","title":"","short":"逃逸缺口","icon":"🚀","reason":"跳空且站上MA20，多頭段延續，偏逃逸缺口。"}]},{"code":"8096","name":"擎亞","close":155.5,"percent":6.872852233676976,"tradeVolume":9766.211,"avgVolume5":11241.1,"value":1487180651,"swingScore":98,"score":98,"swingZone":"A","swingStage":{"label":"高基期","ratio":"0.99","tone":"high","value":0.9859353023909986},"swingSignals":[{"id":"breakaway_gap","title":"","short":"突破缺口","icon":"◆","reason":"跳空突破近20日整理高點，偏突破缺口。"}]},{"code":"3630","name":"新鉅科","close":34.8,"percent":13.725490196078416,"tradeVolume":5529.581,"avgVolume5":4506.32,"value":191805371,"swingScore":97,"score":97,"swingZone":"B","swingStage":{"label":"高基期","ratio":"0.88","tone":"high","value":0.8771929824561399},"swingSignals":[{"id":"watch_trend","title":"","short":"B觀察","icon":"B","reason":"趨勢轉強但尚未觸發突破買點；趨勢分 6/8，量比 1.76，位階 高基期。"}]},{"code":"1785","name":"光洋科","close":149,"percent":4.929577464788732,"tradeVolume":15295.511,"avgVolume5":15059.68,"value":2260969573,"swingScore":97,"score":97,"swingZone":"A","swingStage":{"label":"中位階","ratio":"0.42","tone":"mid","value":0.41935483870967744},"swingSignals":[{"id":"runaway_gap","title":"","short":"逃逸缺口","icon":"🚀","reason":"跳空且站上MA20，多頭段延續，偏逃逸缺口。"}]},{"code":"8926","name":"台汽電","close":80.8,"percent":3.457106274007686,"tradeVolume":5804,"avgVolume5":9065.7,"value":468963200,"swingScore":97,"score":97,"swingZone":"A","swingStage":{"label":"高基期","ratio":"0.97","tone":"high","value":0.9682959048877146},"swingSignals":[{"id":"breakaway_gap","title":"","short":"突破缺口","icon":"◆","reason":"跳空突破近20日整理高點，偏突破缺口。"}]},{"code":"2885","name":"元大金","close":68.1,"percent":2.8700906344410746,"tradeVolume":18397,"avgVolume5":20099.78,"value":1252835700,"swingScore":97,"score":97,"swingZone":"A","swingStage":{"label":"高基期","ratio":"0.99","tone":"high","value":0.9945652173913039},"swingSignals":[{"id":"breakaway_gap","title":"","short":"突破缺口","icon":"◆","reason":"跳空突破近20日整理高點，偏突破缺口。"}]},{"code":"2606","name":"裕民","close":62,"percent":2.1416803953871453,"tradeVolume":12960,"avgVolume5":9836.83,"value":803520000,"swingScore":97,"score":97,"swingZone":"A","swingStage":{"label":"低基期","ratio":"0.16","tone":"low","value":0.16030534351145048},"swingSignals":[{"id":"wallet_volume_cross","title":"紅色三角形","short":"量叉","icon":"🔺","reason":"主力爸爸錢包量能紅K交叉（2026-06-18）：5日資金量均線 2,848 上穿 60日 2,560。"}]},{"code":"2889","name":"國票金","close":15.05,"percent":0,"tradeVolume":6816,"avgVolume5":7325.61,"value":102580800,"swingScore":97,"score":97,"swingZone":"B","swingStage":{"label":"高基期","ratio":"0.78","tone":"high","value":0.7777777777777787},"swingSignals":[{"id":"watch_trend","title":"","short":"B觀察","icon":"B","reason":"趨勢轉強但尚未觸發突破買點；趨勢分 7/8，量比 1.38，位階 高基期。"}]},{"code":"2104","name":"國際中橡","close":10.35,"percent":-1.895734597156408,"tradeVolume":3723.247,"avgVolume5":3016.11,"value":38535606.45,"swingScore":97,"score":97,"swingZone":"B","swingStage":{"label":"低基期","ratio":"0.35","tone":"low","value":0.34782608695652145},"swingSignals":[{"id":"watch_trend","title":"","short":"B觀察","icon":"B","reason":"趨勢轉強但尚未觸發突破買點；趨勢分 5/8，量比 1.10，位階 低基期。"}]},{"code":"9910","name":"豐泰","close":79.1,"percent":-18.453608247422686,"tradeVolume":6132,"avgVolume5":10665.94,"value":485041200,"swingScore":97,"score":97,"swingZone":"B","swingStage":{"label":"中位階","ratio":"0.39","tone":"mid","value":0.38957055214723896},"swingSignals":[{"id":"watch_trend","title":"","short":"B觀察","icon":"B","reason":"趨勢轉強但尚未觸發突破買點；趨勢分 6/8，量比 0.88，位階 中位階。"}]},{"code":"6443","name":"元晶","close":41.85,"percent":15.767634854771792,"tradeVolume":32558,"avgVolume5":22325.72,"value":1362552300,"swingScore":96,"score":96,"swingZone":"A","swingStage":{"label":"高基期","ratio":"0.67","tone":"high","value":0.6709401709401709},"swingSignals":[{"id":"runaway_gap","title":"","short":"逃逸缺口","icon":"🚀","reason":"跳空且站上MA20，多頭段延續，偏逃逸缺口。"}]},{"code":"5347","name":"世界","close":174.5,"percent":5.757575757575758,"tradeVolume":17239.914,"avgVolume5":22244.9,"value":2947863743,"swingScore":96,"score":96,"swingZone":"A","swingStage":{"label":"高基期","ratio":"0.81","tone":"high","value":0.8053097345132744},"swingSignals":[{"id":"wallet_strong_buy","title":"多方寶石","short":"主力多","icon":"◆","reason":"主力爸爸錢包多方寶石（2026-06-15）：控盤線由負翻正且日K收紅。"}]},{"code":"2458","name":"義隆","close":160.5,"percent":4.5602605863192185,"tradeVolume":14051,"avgVolume5":5944.72,"value":2255185500,"swingScore":96,"score":96,"swingZone":"B","swingStage":{"label":"高基期","ratio":"0.71","tone":"high","value":0.7051282051282052},"swingSignals":[{"id":"watch_trend","title":"","short":"B觀察","icon":"B","reason":"趨勢轉強但尚未觸發突破買點；趨勢分 7/8，量比 3.17，位階 高基期。"}]},{"code":"9945","name":"潤泰新","close":26.75,"percent":2.687140115163145,"tradeVolume":17619,"avgVolume5":14724.54,"value":471308250,"swingScore":96,"score":96,"swingZone":"B","swingStage":{"label":"高基期","ratio":"0.86","tone":"high","value":0.8555555555555558},"swingSignals":[{"id":"watch_trend","title":"","short":"B觀察","icon":"B","reason":"趨勢轉強但尚未觸發突破買點；趨勢分 6/8，量比 1.62，位階 高基期。"}]},{"code":"3504","name":"揚明光","close":87.5,"percent":2.459016393442616,"tradeVolume":13907,"avgVolume5":5970.36,"value":1216862500,"swingScore":96,"score":96,"swingZone":"B","swingStage":{"label":"高基期","ratio":"0.72","tone":"high","value":0.7162534435261708},"swingSignals":[{"id":"watch_trend","title":"","short":"B觀察","icon":"B","reason":"趨勢轉強但尚未觸發突破買點；趨勢分 7/8，量比 3.39，位階 高基期。"}]},{"code":"2330","name":"台積電","close":2400,"percent":1.694915254237288,"tradeVolume":16564,"avgVolume5":19706.7,"value":39753600000,"swingScore":96,"score":96,"swingZone":"A","swingStage":{"label":"高基期","ratio":"0.90","tone":"high","value":0.9},"swingSignals":[{"id":"runaway_gap","title":"","short":"逃逸缺口","icon":"🚀","reason":"跳空且站上MA20，多頭段延續，偏逃逸缺口。"},{"id":"golden_cross","title":"","short":"金釵","icon":"✦","reason":"MA5 > MA10 > MA20 且收紅，多金釵候選。"}]},{"code":"2501","name":"國建","close":26.9,"percent":0.18621973929235439,"tradeVolume":11296,"avgVolume5":13607.58,"value":303862400,"swingScore":96,"score":96,"swingZone":"B","swingStage":{"label":"高基期","ratio":"0.78","tone":"high","value":0.7794117647058822},"swingSignals":[{"id":"watch_trend","title":"","short":"B觀察","icon":"B","reason":"趨勢轉強但尚未觸發突破買點；趨勢分 6/8，量比 1.88，位階 高基期。"}]},{"code":"6257","name":"矽格","close":227,"percent":12.935323383084576,"tradeVolume":4714,"avgVolume5":10360.85,"value":1070078000,"swingScore":95,"score":95,"swingZone":"A","swingStage":{"label":"高基期","ratio":"0.78","tone":"high","value":0.7841726618705036},"swingSignals":[{"id":"n_base","title":"","short":"N字","icon":"","reason":"爆量突破後回檔不破半分位，再突破前高 218.00，N字共振。"},{"id":"runaway_gap","title":"","short":"逃逸缺口","icon":"🚀","reason":"跳空且站上MA20，多頭段延續，偏逃逸缺口。"}]},{"code":"3264","name":"欣銓","close":232.5,"percent":9.669811320754718,"tradeVolume":14283.816,"avgVolume5":7374.89,"value":3262742734,"swingScore":95,"score":95,"swingZone":"B","swingStage":{"label":"中位階","ratio":"0.62","tone":"mid","value":0.6159420289855072},"swingSignals":[{"id":"watch_trend","title":"","short":"B觀察","icon":"B","reason":"趨勢轉強但尚未觸發突破買點；趨勢分 7/8，量比 1.25，位階 中位階。"}]},{"code":"4973","name":"廣穎","close":193.5,"percent":2.925531914893617,"tradeVolume":3984.742,"avgVolume5":3074.73,"value":764115668,"swingScore":95,"score":95,"swingZone":"A","swingStage":{"label":"高基期","ratio":"0.97","tone":"high","value":0.9671862182116489},"swingSignals":[{"id":"breakaway_gap","title":"","short":"突破缺口","icon":"◆","reason":"跳空突破近20日整理高點，偏突破缺口。"}]},{"code":"8936","name":"國統","close":58.1,"percent":-0.3430531732418452,"tradeVolume":8888.183,"avgVolume5":21425.36,"value":509950416,"swingScore":95,"score":95,"swingZone":"B","swingStage":{"label":"高基期","ratio":"0.65","tone":"high","value":0.6462093862815886},"swingSignals":[{"id":"watch_trend","title":"","short":"B觀察","icon":"B","reason":"趨勢轉強但尚未觸發突破買點；趨勢分 7/8，量比 1.15，位階 高基期。"}]}],"matches":[{"code":"5521","name":"工信","close":10.6,"percent":-5.777777777777781,"tradeVolume":2898,"avgVolume5":5812.64,"value":30718800,"swingScore":100,"score":100,"swingZone":"A","swingStage":{"label":"低基期","ratio":"0.33","tone":"low","value":0.32758620689655144},"swingSignals":[{"id":"wallet_strong_buy","title":"多方寶石","short":"主力多","icon":"◆","reason":"主力爸爸錢包多方寶石（2026-06-10）：控盤線由負翻正且日K收紅。"},{"id":"wallet_volume_cross","title":"紅色三角形","short":"量叉","icon":"🔺","reason":"主力爸爸錢包量能紅K交叉（2026-06-10）：5日資金量均線 3,856 上穿 60日 3,103。"}]},{"code":"3042","name":"晶技","close":225,"percent":-7.597535934291582,"tradeVolume":23506,"avgVolume5":24518.66,"value":5288850000,"swingScore":100,"score":100,"swingZone":"A","swingStage":{"label":"高基期","ratio":"0.82","tone":"high","value":0.823045267489712},"swingSignals":[{"id":"wallet_strong_buy","title":"多方寶石","short":"主力多","icon":"◆","reason":"主力爸爸錢包多方寶石（2026-06-08）：控盤線由負翻正且日K收紅。"}]},{"code":"8069","name":"元太","close":204,"percent":6.806282722513089,"tradeVolume":11030.08,"avgVolume5":9812.3,"value":2273459926,"swingScore":99,"score":99,"swingZone":"A","swingStage":{"label":"中位階","ratio":"0.59","tone":"mid","value":0.5948275862068966},"swingSignals":[{"id":"wallet_strong_buy","title":"多方寶石","short":"主力多","icon":"◆","reason":"主力爸爸錢包多方寶石（2026-06-08）：控盤線由負翻正且日K收紅。"}]},{"code":"3374","name":"精材","close":251,"percent":5.9071729957805905,"tradeVolume":6589.431,"avgVolume5":4497.99,"value":1647630952,"swingScore":99,"score":99,"swingZone":"A","swingStage":{"label":"高基期","ratio":"0.68","tone":"high","value":0.6792452830188679},"swingSignals":[{"id":"wallet_strong_buy","title":"多方寶石","short":"主力多","icon":"◆","reason":"主力爸爸錢包多方寶石（2026-06-18）：控盤線由負翻正且日K收紅。"}]},{"code":"2388","name":"威盛","close":77.1,"percent":12.06395348837209,"tradeVolume":8956,"avgVolume5":4661.44,"value":690507600,"swingScore":98,"score":98,"swingZone":"A","swingStage":{"label":"中位階","ratio":"0.51","tone":"mid","value":0.5136986301369861},"swingSignals":[{"id":"runaway_gap","title":"","short":"逃逸缺口","icon":"🚀","reason":"跳空且站上MA20，多頭段延續，偏逃逸缺口。"}]},{"code":"8096","name":"擎亞","close":155.5,"percent":6.872852233676976,"tradeVolume":9766.211,"avgVolume5":11241.1,"value":1487180651,"swingScore":98,"score":98,"swingZone":"A","swingStage":{"label":"高基期","ratio":"0.99","tone":"high","value":0.9859353023909986},"swingSignals":[{"id":"breakaway_gap","title":"","short":"突破缺口","icon":"◆","reason":"跳空突破近20日整理高點，偏突破缺口。"}]},{"code":"3630","name":"新鉅科","close":34.8,"percent":13.725490196078416,"tradeVolume":5529.581,"avgVolume5":4506.32,"value":191805371,"swingScore":97,"score":97,"swingZone":"B","swingStage":{"label":"高基期","ratio":"0.88","tone":"high","value":0.8771929824561399},"swingSignals":[{"id":"watch_trend","title":"","short":"B觀察","icon":"B","reason":"趨勢轉強但尚未觸發突破買點；趨勢分 6/8，量比 1.76，位階 高基期。"}]},{"code":"1785","name":"光洋科","close":149,"percent":4.929577464788732,"tradeVolume":15295.511,"avgVolume5":15059.68,"value":2260969573,"swingScore":97,"score":97,"swingZone":"A","swingStage":{"label":"中位階","ratio":"0.42","tone":"mid","value":0.41935483870967744},"swingSignals":[{"id":"runaway_gap","title":"","short":"逃逸缺口","icon":"🚀","reason":"跳空且站上MA20，多頭段延續，偏逃逸缺口。"}]},{"code":"8926","name":"台汽電","close":80.8,"percent":3.457106274007686,"tradeVolume":5804,"avgVolume5":9065.7,"value":468963200,"swingScore":97,"score":97,"swingZone":"A","swingStage":{"label":"高基期","ratio":"0.97","tone":"high","value":0.9682959048877146},"swingSignals":[{"id":"breakaway_gap","title":"","short":"突破缺口","icon":"◆","reason":"跳空突破近20日整理高點，偏突破缺口。"}]},{"code":"2885","name":"元大金","close":68.1,"percent":2.8700906344410746,"tradeVolume":18397,"avgVolume5":20099.78,"value":1252835700,"swingScore":97,"score":97,"swingZone":"A","swingStage":{"label":"高基期","ratio":"0.99","tone":"high","value":0.9945652173913039},"swingSignals":[{"id":"breakaway_gap","title":"","short":"突破缺口","icon":"◆","reason":"跳空突破近20日整理高點，偏突破缺口。"}]},{"code":"2606","name":"裕民","close":62,"percent":2.1416803953871453,"tradeVolume":12960,"avgVolume5":9836.83,"value":803520000,"swingScore":97,"score":97,"swingZone":"A","swingStage":{"label":"低基期","ratio":"0.16","tone":"low","value":0.16030534351145048},"swingSignals":[{"id":"wallet_volume_cross","title":"紅色三角形","short":"量叉","icon":"🔺","reason":"主力爸爸錢包量能紅K交叉（2026-06-18）：5日資金量均線 2,848 上穿 60日 2,560。"}]},{"code":"2889","name":"國票金","close":15.05,"percent":0,"tradeVolume":6816,"avgVolume5":7325.61,"value":102580800,"swingScore":97,"score":97,"swingZone":"B","swingStage":{"label":"高基期","ratio":"0.78","tone":"high","value":0.7777777777777787},"swingSignals":[{"id":"watch_trend","title":"","short":"B觀察","icon":"B","reason":"趨勢轉強但尚未觸發突破買點；趨勢分 7/8，量比 1.38，位階 高基期。"}]},{"code":"2104","name":"國際中橡","close":10.35,"percent":-1.895734597156408,"tradeVolume":3723.247,"avgVolume5":3016.11,"value":38535606.45,"swingScore":97,"score":97,"swingZone":"B","swingStage":{"label":"低基期","ratio":"0.35","tone":"low","value":0.34782608695652145},"swingSignals":[{"id":"watch_trend","title":"","short":"B觀察","icon":"B","reason":"趨勢轉強但尚未觸發突破買點；趨勢分 5/8，量比 1.10，位階 低基期。"}]},{"code":"9910","name":"豐泰","close":79.1,"percent":-18.453608247422686,"tradeVolume":6132,"avgVolume5":10665.94,"value":485041200,"swingScore":97,"score":97,"swingZone":"B","swingStage":{"label":"中位階","ratio":"0.39","tone":"mid","value":0.38957055214723896},"swingSignals":[{"id":"watch_trend","title":"","short":"B觀察","icon":"B","reason":"趨勢轉強但尚未觸發突破買點；趨勢分 6/8，量比 0.88，位階 中位階。"}]},{"code":"6443","name":"元晶","close":41.85,"percent":15.767634854771792,"tradeVolume":32558,"avgVolume5":22325.72,"value":1362552300,"swingScore":96,"score":96,"swingZone":"A","swingStage":{"label":"高基期","ratio":"0.67","tone":"high","value":0.6709401709401709},"swingSignals":[{"id":"runaway_gap","title":"","short":"逃逸缺口","icon":"🚀","reason":"跳空且站上MA20，多頭段延續，偏逃逸缺口。"}]},{"code":"5347","name":"世界","close":174.5,"percent":5.757575757575758,"tradeVolume":17239.914,"avgVolume5":22244.9,"value":2947863743,"swingScore":96,"score":96,"swingZone":"A","swingStage":{"label":"高基期","ratio":"0.81","tone":"high","value":0.8053097345132744},"swingSignals":[{"id":"wallet_strong_buy","title":"多方寶石","short":"主力多","icon":"◆","reason":"主力爸爸錢包多方寶石（2026-06-15）：控盤線由負翻正且日K收紅。"}]},{"code":"2458","name":"義隆","close":160.5,"percent":4.5602605863192185,"tradeVolume":14051,"avgVolume5":5944.72,"value":2255185500,"swingScore":96,"score":96,"swingZone":"B","swingStage":{"label":"高基期","ratio":"0.71","tone":"high","value":0.7051282051282052},"swingSignals":[{"id":"watch_trend","title":"","short":"B觀察","icon":"B","reason":"趨勢轉強但尚未觸發突破買點；趨勢分 7/8，量比 3.17，位階 高基期。"}]},{"code":"9945","name":"潤泰新","close":26.75,"percent":2.687140115163145,"tradeVolume":17619,"avgVolume5":14724.54,"value":471308250,"swingScore":96,"score":96,"swingZone":"B","swingStage":{"label":"高基期","ratio":"0.86","tone":"high","value":0.8555555555555558},"swingSignals":[{"id":"watch_trend","title":"","short":"B觀察","icon":"B","reason":"趨勢轉強但尚未觸發突破買點；趨勢分 6/8，量比 1.62，位階 高基期。"}]},{"code":"3504","name":"揚明光","close":87.5,"percent":2.459016393442616,"tradeVolume":13907,"avgVolume5":5970.36,"value":1216862500,"swingScore":96,"score":96,"swingZone":"B","swingStage":{"label":"高基期","ratio":"0.72","tone":"high","value":0.7162534435261708},"swingSignals":[{"id":"watch_trend","title":"","short":"B觀察","icon":"B","reason":"趨勢轉強但尚未觸發突破買點；趨勢分 7/8，量比 3.39，位階 高基期。"}]},{"code":"2330","name":"台積電","close":2400,"percent":1.694915254237288,"tradeVolume":16564,"avgVolume5":19706.7,"value":39753600000,"swingScore":96,"score":96,"swingZone":"A","swingStage":{"label":"高基期","ratio":"0.90","tone":"high","value":0.9},"swingSignals":[{"id":"runaway_gap","title":"","short":"逃逸缺口","icon":"🚀","reason":"跳空且站上MA20，多頭段延續，偏逃逸缺口。"},{"id":"golden_cross","title":"","short":"金釵","icon":"✦","reason":"MA5 > MA10 > MA20 且收紅，多金釵候選。"}]},{"code":"2501","name":"國建","close":26.9,"percent":0.18621973929235439,"tradeVolume":11296,"avgVolume5":13607.58,"value":303862400,"swingScore":96,"score":96,"swingZone":"B","swingStage":{"label":"高基期","ratio":"0.78","tone":"high","value":0.7794117647058822},"swingSignals":[{"id":"watch_trend","title":"","short":"B觀察","icon":"B","reason":"趨勢轉強但尚未觸發突破買點；趨勢分 6/8，量比 1.88，位階 高基期。"}]},{"code":"6257","name":"矽格","close":227,"percent":12.935323383084576,"tradeVolume":4714,"avgVolume5":10360.85,"value":1070078000,"swingScore":95,"score":95,"swingZone":"A","swingStage":{"label":"高基期","ratio":"0.78","tone":"high","value":0.7841726618705036},"swingSignals":[{"id":"n_base","title":"","short":"N字","icon":"","reason":"爆量突破後回檔不破半分位，再突破前高 218.00，N字共振。"},{"id":"runaway_gap","title":"","short":"逃逸缺口","icon":"🚀","reason":"跳空且站上MA20，多頭段延續，偏逃逸缺口。"}]},{"code":"3264","name":"欣銓","close":232.5,"percent":9.669811320754718,"tradeVolume":14283.816,"avgVolume5":7374.89,"value":3262742734,"swingScore":95,"score":95,"swingZone":"B","swingStage":{"label":"中位階","ratio":"0.62","tone":"mid","value":0.6159420289855072},"swingSignals":[{"id":"watch_trend","title":"","short":"B觀察","icon":"B","reason":"趨勢轉強但尚未觸發突破買點；趨勢分 7/8，量比 1.25，位階 中位階。"}]},{"code":"4973","name":"廣穎","close":193.5,"percent":2.925531914893617,"tradeVolume":3984.742,"avgVolume5":3074.73,"value":764115668,"swingScore":95,"score":95,"swingZone":"A","swingStage":{"label":"高基期","ratio":"0.97","tone":"high","value":0.9671862182116489},"swingSignals":[{"id":"breakaway_gap","title":"","short":"突破缺口","icon":"◆","reason":"跳空突破近20日整理高點，偏突破缺口。"}]},{"code":"8936","name":"國統","close":58.1,"percent":-0.3430531732418452,"tradeVolume":8888.183,"avgVolume5":21425.36,"value":509950416,"swingScore":95,"score":95,"swingZone":"B","swingStage":{"label":"高基期","ratio":"0.65","tone":"high","value":0.6462093862815886},"swingSignals":[{"id":"watch_trend","title":"","short":"B觀察","icon":"B","reason":"趨勢轉強但尚未觸發突破買點；趨勢分 7/8，量比 1.15，位階 高基期。"}]}]}
