{"ok":true,"source":"strategy4-preset","updatedAt":"2026-06-09T06:53:44.896Z","scanStamp":"20260609","total":1953,"complete":true,"zone":"B","page":18,"pageSize":25,"totalPages":26,"totalCount":630,"count":25,"matches":[{"code":"1434","name":"福懋","close":16.35,"percent":1.2383900928792748,"tradeVolume":2536,"value":41463600,"swingScore":81,"score":81,"swingZone":"B","swingStage":{"label":"高基期","ratio":"0.65","tone":"high","value":0.645833333333334},"swingSignals":[{"id":"watch_trend","title":"","short":"B觀察","icon":"B","reason":"趨勢轉強但尚未觸發突破買點；趨勢分 6/8，量比 0.00，位階 高基期。"}]},{"code":"1446","name":"宏和","close":16.5,"percent":1.2269938650306704,"tradeVolume":220,"value":3630000,"swingScore":81,"score":81,"swingZone":"B","swingStage":{"label":"高基期","ratio":"0.76","tone":"high","value":0.7631578947368423},"swingSignals":[{"id":"watch_trend","title":"","short":"B觀察","icon":"B","reason":"趨勢轉強但尚未觸發突破買點；趨勢分 6/8，量比 0.00，位階 高基期。"}]},{"code":"3231","name":"緯創","close":165.5,"percent":1.2232415902140672,"tradeVolume":63949,"value":10583559500,"swingScore":81,"score":81,"swingZone":"B","swingStage":{"label":"中位階","ratio":"0.49","tone":"mid","value":0.4892086330935252},"swingSignals":[{"id":"watch_trend","title":"","short":"B觀察","icon":"B","reason":"趨勢轉強但尚未觸發突破買點；趨勢分 5/8，量比 0.00，位階 中位階。"}]},{"code":"1598","name":"岱宇","close":21.25,"percent":1.1904761904761905,"tradeVolume":469,"value":9966250,"swingScore":81,"score":81,"swingZone":"B","swingStage":{"label":"高基期","ratio":"0.62","tone":"high","value":0.6212121212121213},"swingSignals":[{"id":"watch_trend","title":"","short":"B觀察","icon":"B","reason":"趨勢轉強但尚未觸發突破買點；趨勢分 6/8，量比 0.00，位階 高基期。"}]},{"code":"1540","name":"喬福","close":22.2,"percent":1.1389521640091116,"tradeVolume":204,"value":4528800,"swingScore":81,"score":81,"swingZone":"B","swingStage":{"label":"中位階","ratio":"0.60","tone":"mid","value":0.6027397260273973},"swingSignals":[{"id":"watch_trend","title":"","short":"B觀察","icon":"B","reason":"趨勢轉強但尚未觸發突破買點；趨勢分 5/8，量比 0.00，位階 中位階。"}]},{"code":"9911","name":"櫻花","close":84.9,"percent":1.0714285714285783,"tradeVolume":630,"value":53487000,"swingScore":81,"score":81,"swingZone":"B","swingStage":{"label":"高基期","ratio":"0.78","tone":"high","value":0.7800000000000011},"swingSignals":[{"id":"watch_trend","title":"","short":"B觀察","icon":"B","reason":"趨勢轉強但尚未觸發突破買點；趨勢分 6/8，量比 0.00，位階 高基期。"}]},{"code":"3005","name":"神基","close":105.5,"percent":0.9569377990430622,"tradeVolume":3994,"value":421367000,"swingScore":81,"score":81,"swingZone":"B","swingStage":{"label":"中位階","ratio":"0.60","tone":"mid","value":0.5977011494252875},"swingSignals":[{"id":"watch_trend","title":"","short":"B觀察","icon":"B","reason":"趨勢轉強但尚未觸發突破買點；趨勢分 5/8，量比 0.00，位階 中位階。"}]},{"code":"3705","name":"永信","close":57,"percent":0.8849557522123894,"tradeVolume":400,"value":22800000,"swingScore":81,"score":81,"swingZone":"B","swingStage":{"label":"高基期","ratio":"0.80","tone":"high","value":0.7999999999999992},"swingSignals":[{"id":"watch_trend","title":"","short":"B觀察","icon":"B","reason":"趨勢轉強但尚未觸發突破買點；趨勢分 6/8，量比 0.00，位階 高基期。"}]},{"code":"1414","name":"東和","close":17.5,"percent":0.8645533141210292,"tradeVolume":550,"value":9625000,"swingScore":81,"score":81,"swingZone":"B","swingStage":{"label":"高基期","ratio":"0.89","tone":"high","value":0.8902439024390245},"swingSignals":[{"id":"watch_trend","title":"","short":"B觀察","icon":"B","reason":"趨勢轉強但尚未觸發突破買點；趨勢分 6/8，量比 0.00，位階 高基期。"}]},{"code":"8908","name":"欣雄","close":41.6,"percent":0.8484848484848518,"tradeVolume":138,"value":5740800,"swingScore":81,"score":81,"swingZone":"B","swingStage":{"label":"高基期","ratio":"0.71","tone":"high","value":0.7126436781609197},"swingSignals":[{"id":"watch_trend","title":"","short":"B觀察","icon":"B","reason":"趨勢轉強但尚未觸發突破買點；趨勢分 6/8，量比 0.00，位階 高基期。"}]},{"code":"6153","name":"嘉聯益","close":20.5,"percent":0.7371007371007301,"tradeVolume":32034,"value":656697000,"swingScore":81,"score":81,"swingZone":"B","swingStage":{"label":"高基期","ratio":"0.76","tone":"high","value":0.7636363636363636},"swingSignals":[{"id":"watch_trend","title":"","short":"B觀察","icon":"B","reason":"趨勢轉強但尚未觸發突破買點；趨勢分 6/8，量比 0.01，位階 高基期。"}]},{"code":"2903","name":"遠百","close":23,"percent":0.6564551422319412,"tradeVolume":2565,"value":58995000,"swingScore":81,"score":81,"swingZone":"B","swingStage":{"label":"高基期","ratio":"0.70","tone":"high","value":0.6999999999999993},"swingSignals":[{"id":"watch_trend","title":"","short":"B觀察","icon":"B","reason":"趨勢轉強但尚未觸發突破買點；趨勢分 6/8，量比 0.00，位階 高基期。"}]},{"code":"3043","name":"科風","close":24,"percent":0.6289308176100569,"tradeVolume":844,"value":20256000,"swingScore":81,"score":81,"swingZone":"B","swingStage":{"label":"高基期","ratio":"0.89","tone":"high","value":0.8878504672897194},"swingSignals":[{"id":"watch_trend","title":"","short":"B觀察","icon":"B","reason":"趨勢轉強但尚未觸發突破買點；趨勢分 6/8，量比 0.00，位階 高基期。"}]},{"code":"9927","name":"泰銘","close":69.3,"percent":0.5805515239477379,"tradeVolume":63,"value":4365900,"swingScore":81,"score":81,"swingZone":"B","swingStage":{"label":"高基期","ratio":"0.64","tone":"high","value":0.6382978723404251},"swingSignals":[{"id":"watch_trend","title":"","short":"B觀察","icon":"B","reason":"趨勢轉強但尚未觸發突破買點；趨勢分 6/8，量比 0.00，位階 高基期。"}]},{"code":"6124","name":"業強","close":32.8,"percent":0.4594180704440998,"tradeVolume":165,"value":5412000,"swingScore":81,"score":81,"swingZone":"B","swingStage":{"label":"中位階","ratio":"0.52","tone":"mid","value":0.5202312138728318},"swingSignals":[{"id":"watch_trend","title":"","short":"B觀察","icon":"B","reason":"趨勢轉強但尚未觸發突破買點；趨勢分 5/8，量比 0.00，位階 中位階。"}]},{"code":"1781","name":"合世","close":12.05,"percent":0.41666666666667257,"tradeVolume":103,"value":1241150,"swingScore":81,"score":81,"swingZone":"B","swingStage":{"label":"高基期","ratio":"0.78","tone":"high","value":0.7755102040816331},"swingSignals":[{"id":"watch_trend","title":"","short":"B觀察","icon":"B","reason":"趨勢轉強但尚未觸發突破買點；趨勢分 6/8，量比 0.00，位階 高基期。"}]},{"code":"6115","name":"鎰勝","close":48.9,"percent":0.41067761806980646,"tradeVolume":316,"value":15452400,"swingScore":81,"score":81,"swingZone":"B","swingStage":{"label":"高基期","ratio":"0.68","tone":"high","value":0.6756756756756751},"swingSignals":[{"id":"watch_trend","title":"","short":"B觀察","icon":"B","reason":"趨勢轉強但尚未觸發突破買點；趨勢分 6/8，量比 0.00，位階 高基期。"}]},{"code":"1409","name":"新纖","close":24.9,"percent":0.40322580645160433,"tradeVolume":13746,"value":342275400,"swingScore":81,"score":81,"swingZone":"B","swingStage":{"label":"中位階","ratio":"0.62","tone":"mid","value":0.6170212765957446},"swingSignals":[{"id":"watch_trend","title":"","short":"B觀察","icon":"B","reason":"趨勢轉強但尚未觸發突破買點；趨勢分 5/8，量比 0.00，位階 中位階。"}]},{"code":"1726","name":"永記","close":78.2,"percent":0.25641025641026005,"tradeVolume":130,"value":10166000,"swingScore":81,"score":81,"swingZone":"B","swingStage":{"label":"高基期","ratio":"0.62","tone":"high","value":0.6222222222222216},"swingSignals":[{"id":"watch_trend","title":"","short":"B觀察","icon":"B","reason":"趨勢轉強但尚未觸發突破買點；趨勢分 6/8，量比 0.00，位階 高基期。"}]},{"code":"2069","name":"運錩","close":20.05,"percent":0.25000000000000355,"tradeVolume":363,"value":7278150,"swingScore":81,"score":81,"swingZone":"B","swingStage":{"label":"高基期","ratio":"0.65","tone":"high","value":0.6538461538461541},"swingSignals":[{"id":"watch_trend","title":"","short":"B觀察","icon":"B","reason":"趨勢轉強但尚未觸發突破買點；趨勢分 6/8，量比 0.00，位階 高基期。"}]},{"code":"1465","name":"偉全","close":12.4,"percent":0,"tradeVolume":181,"value":2244400,"swingScore":81,"score":81,"swingZone":"B","swingStage":{"label":"中位階","ratio":"0.43","tone":"mid","value":0.42857142857142877},"swingSignals":[{"id":"watch_trend","title":"","short":"B觀察","icon":"B","reason":"趨勢轉強但尚未觸發突破買點；趨勢分 5/8，量比 0.00，位階 中位階。"}]},{"code":"2474","name":"可成","close":220,"percent":0,"tradeVolume":11024,"value":2425280000,"swingScore":81,"score":81,"swingZone":"B","swingStage":{"label":"中位階","ratio":"0.45","tone":"mid","value":0.4491017964071856},"swingSignals":[{"id":"watch_trend","title":"","short":"B觀察","icon":"B","reason":"趨勢轉強但尚未觸發突破買點；趨勢分 5/8，量比 0.00，位階 中位階。"}]},{"code":"2718","name":"全心投控","close":47.3,"percent":0,"tradeVolume":58,"value":2743400,"swingScore":81,"score":81,"swingZone":"B","swingStage":{"label":"高基期","ratio":"0.87","tone":"high","value":0.8661971830985912},"swingSignals":[{"id":"watch_trend","title":"","short":"B觀察","icon":"B","reason":"趨勢轉強但尚未觸發突破買點；趨勢分 6/8，量比 0.00，位階 高基期。"}]},{"code":"3056","name":"富華新","close":14.4,"percent":0,"tradeVolume":1490,"value":21456000,"swingScore":81,"score":81,"swingZone":"B","swingStage":{"label":"高基期","ratio":"0.68","tone":"high","value":0.6842105263157897},"swingSignals":[{"id":"watch_trend","title":"","short":"B觀察","icon":"B","reason":"趨勢轉強但尚未觸發突破買點；趨勢分 6/8，量比 0.00，位階 高基期。"}]},{"code":"5547","name":"久舜","close":21.85,"percent":0,"tradeVolume":163,"value":3561550,"swingScore":81,"score":81,"swingZone":"B","swingStage":{"label":"中位階","ratio":"0.61","tone":"mid","value":0.6060606060606066},"swingSignals":[{"id":"watch_trend","title":"","short":"B觀察","icon":"B","reason":"趨勢轉強但尚未觸發突破買點；趨勢分 5/8，量比 0.01，位階 中位階。"}]}]}
