{"ok":true,"source":"strategy4-preset","updatedAt":"2026-06-06T12:34:51.971Z","scanStamp":"20260606","total":1957,"complete":true,"zone":"B","page":25,"pageSize":25,"totalPages":41,"totalCount":1020,"count":25,"matches":[{"code":"3306","name":"鼎天","close":49,"percent":0.5128205128205128,"tradeVolume":339,"value":16611000,"swingScore":81,"score":81,"swingZone":"B","swingStage":{"label":"高基期","ratio":"0.72","tone":"high","value":0.7222222222222223},"swingSignals":[{"id":"watch_trend","title":"","short":"B觀察","icon":"B","reason":"趨勢轉強但尚未觸發突破買點；趨勢分 6/8，量比 0.00，位階 高基期。"}]},{"code":"8341","name":"日友","close":79,"percent":0.5089078036186044,"tradeVolume":378,"value":29862000,"swingScore":81,"score":81,"swingZone":"B","swingStage":{"label":"高基期","ratio":"0.93","tone":"high","value":0.931034255963421},"swingSignals":[{"id":"watch_trend","title":"","short":"B觀察","icon":"B","reason":"趨勢轉強但尚未觸發突破買點；趨勢分 6/8，量比 0.00，位階 高基期。"}]},{"code":"6104","name":"創惟","close":103,"percent":0.4878048780487805,"tradeVolume":2063,"value":212489000,"swingScore":81,"score":81,"swingZone":"B","swingStage":{"label":"高基期","ratio":"0.71","tone":"high","value":0.7085201793721972},"swingSignals":[{"id":"watch_trend","title":"","short":"B觀察","icon":"B","reason":"趨勢轉強但尚未觸發突破買點；趨勢分 6/8，量比 0.00，位階 高基期。"}]},{"code":"3052","name":"夆典","close":10.95,"percent":0.4587191121064257,"tradeVolume":472,"value":5168400,"swingScore":81,"score":81,"swingZone":"B","swingStage":{"label":"高基期","ratio":"0.76","tone":"high","value":0.7647061727453153},"swingSignals":[{"id":"watch_trend","title":"","short":"B觀察","icon":"B","reason":"趨勢轉強但尚未觸發突破買點；趨勢分 6/8，量比 0.00，位階 高基期。"}]},{"code":"3550","name":"聯穎","close":24.05,"percent":0.41753653444677,"tradeVolume":10901,"value":262169050,"swingScore":81,"score":81,"swingZone":"B","swingStage":{"label":"高基期","ratio":"0.88","tone":"high","value":0.8750000000000002},"swingSignals":[{"id":"watch_trend","title":"","short":"B觀察","icon":"B","reason":"趨勢轉強但尚未觸發突破買點；趨勢分 6/8，量比 0.00，位階 高基期。"}]},{"code":"1210","name":"大成","close":54.4,"percent":0.3690036900368925,"tradeVolume":10886,"value":592198400,"swingScore":81,"score":81,"swingZone":"B","swingStage":{"label":"高基期","ratio":"0.72","tone":"high","value":0.7179487179487175},"swingSignals":[{"id":"watch_trend","title":"","short":"B觀察","icon":"B","reason":"趨勢轉強但尚未觸發突破買點；趨勢分 6/8，量比 0.00，位階 高基期。"}]},{"code":"6712","name":"長聖","close":140,"percent":0.35842293906810035,"tradeVolume":306,"value":42840000,"swingScore":81,"score":81,"swingZone":"B","swingStage":{"label":"高基期","ratio":"0.74","tone":"high","value":0.7428571428571429},"swingSignals":[{"id":"watch_trend","title":"","short":"B觀察","icon":"B","reason":"趨勢轉強但尚未觸發突破買點；趨勢分 6/8，量比 0.00，位階 高基期。"}]},{"code":"1734","name":"杏輝","close":31.45,"percent":0.3189780456569954,"tradeVolume":437,"value":13743650,"swingScore":81,"score":81,"swingZone":"B","swingStage":{"label":"高基期","ratio":"0.65","tone":"high","value":0.6470593163162875},"swingSignals":[{"id":"watch_trend","title":"","short":"B觀察","icon":"B","reason":"趨勢轉強但尚未觸發突破買點；趨勢分 6/8，量比 0.00，位階 高基期。"}]},{"code":"6804","name":"明係","close":16.35,"percent":0.30674846625767305,"tradeVolume":19,"value":310650,"swingScore":81,"score":81,"swingZone":"B","swingStage":{"label":"高基期","ratio":"0.74","tone":"high","value":0.7435897435897437},"swingSignals":[{"id":"watch_trend","title":"","short":"B觀察","icon":"B","reason":"趨勢轉強但尚未觸發突破買點；趨勢分 6/8，量比 0.00，位階 高基期。"}]},{"code":"1777","name":"生泰","close":71.9,"percent":0.27894002789400674,"tradeVolume":37,"value":2660300,"swingScore":81,"score":81,"swingZone":"B","swingStage":{"label":"高基期","ratio":"0.73","tone":"high","value":0.7307692307692345},"swingSignals":[{"id":"watch_trend","title":"","short":"B觀察","icon":"B","reason":"趨勢轉強但尚未觸發突破買點；趨勢分 6/8，量比 0.00，位階 高基期。"}]},{"code":"2014","name":"中鴻","close":18.75,"percent":0.2673796791443888,"tradeVolume":6332,"value":118725000,"swingScore":81,"score":81,"swingZone":"B","swingStage":{"label":"高基期","ratio":"0.69","tone":"high","value":0.6909090909090904},"swingSignals":[{"id":"watch_trend","title":"","short":"B觀察","icon":"B","reason":"趨勢轉強但尚未觸發突破買點；趨勢分 6/8，量比 0.00，位階 高基期。"}]},{"code":"2915","name":"潤泰全","close":49,"percent":0.20449585071724888,"tradeVolume":3468,"value":169932000,"swingScore":81,"score":81,"swingZone":"B","swingStage":{"label":"高基期","ratio":"0.94","tone":"high","value":0.9352516958934651},"swingSignals":[{"id":"watch_trend","title":"","short":"B觀察","icon":"B","reason":"趨勢轉強但尚未觸發突破買點；趨勢分 6/8，量比 0.00，位階 高基期。"}]},{"code":"2607","name":"榮運","close":49.4,"percent":0.202839756592295,"tradeVolume":460,"value":22724000,"swingScore":81,"score":81,"swingZone":"B","swingStage":{"label":"高基期","ratio":"0.65","tone":"high","value":0.6538461538461532},"swingSignals":[{"id":"watch_trend","title":"","short":"B觀察","icon":"B","reason":"趨勢轉強但尚未觸發突破買點；趨勢分 6/8，量比 0.00，位階 高基期。"}]},{"code":"4168","name":"醣聯","close":26.1,"percent":0.19193857965451327,"tradeVolume":250,"value":6525000,"swingScore":81,"score":81,"swingZone":"B","swingStage":{"label":"中位階","ratio":"0.58","tone":"mid","value":0.5797101449275364},"swingSignals":[{"id":"watch_trend","title":"","short":"B觀察","icon":"B","reason":"趨勢轉強但尚未觸發突破買點；趨勢分 5/8，量比 0.50，位階 中位階。"}]},{"code":"2832","name":"台產","close":54.8,"percent":0.18281535648993474,"tradeVolume":239,"value":13097200,"swingScore":81,"score":81,"swingZone":"B","swingStage":{"label":"高基期","ratio":"0.95","tone":"high","value":0.9480519480519474},"swingSignals":[{"id":"watch_trend","title":"","short":"B觀察","icon":"B","reason":"趨勢轉強但尚未觸發突破買點；趨勢分 6/8，量比 0.00，位階 高基期。"}]},{"code":"1720","name":"生達","close":63.1,"percent":0.158730158730161,"tradeVolume":493,"value":31108300,"swingScore":81,"score":81,"swingZone":"B","swingStage":{"label":"高基期","ratio":"0.72","tone":"high","value":0.7209302325581404},"swingSignals":[{"id":"watch_trend","title":"","short":"B觀察","icon":"B","reason":"趨勢轉強但尚未觸發突破買點；趨勢分 6/8，量比 0.00，位階 高基期。"}]},{"code":"6242","name":"立康","close":38.35,"percent":0.1305483028720738,"tradeVolume":17,"value":651950,"swingScore":81,"score":81,"swingZone":"B","swingStage":{"label":"高基期","ratio":"0.88","tone":"high","value":0.875},"swingSignals":[{"id":"watch_trend","title":"","short":"B觀察","icon":"B","reason":"趨勢轉強但尚未觸發突破買點；趨勢分 6/8，量比 0.00，位階 高基期。"}]},{"code":"1341","name":"富林-KY","close":63.5,"percent":0,"tradeVolume":5,"value":317500,"swingScore":81,"score":81,"swingZone":"B","swingStage":{"label":"高基期","ratio":"0.96","tone":"high","value":0.9555555555555549},"swingSignals":[{"id":"watch_trend","title":"","short":"B觀察","icon":"B","reason":"趨勢轉強但尚未觸發突破買點；趨勢分 6/8，量比 0.00，位階 高基期。"}]},{"code":"2945","name":"三商家購","close":42,"percent":0,"tradeVolume":26,"value":1092000,"swingScore":81,"score":81,"swingZone":"B","swingStage":{"label":"高基期","ratio":"0.78","tone":"high","value":0.7777778955153976},"swingSignals":[{"id":"watch_trend","title":"","short":"B觀察","icon":"B","reason":"趨勢轉強但尚未觸發突破買點；趨勢分 6/8，量比 0.00，位階 高基期。"}]},{"code":"4536","name":"拓凱","close":162.5,"percent":0,"tradeVolume":204,"value":33150000,"swingScore":81,"score":81,"swingZone":"B","swingStage":{"label":"高基期","ratio":"0.82","tone":"high","value":0.8235294117647058},"swingSignals":[{"id":"watch_trend","title":"","short":"B觀察","icon":"B","reason":"趨勢轉強但尚未觸發突破買點；趨勢分 6/8，量比 0.00，位階 高基期。"}]},{"code":"5546","name":"永固-KY","close":17.1,"percent":0,"tradeVolume":45,"value":769500,"swingScore":81,"score":81,"swingZone":"B","swingStage":{"label":"高基期","ratio":"0.75","tone":"high","value":0.7500000000000002},"swingSignals":[{"id":"watch_trend","title":"","short":"B觀察","icon":"B","reason":"趨勢轉強但尚未觸發突破買點；趨勢分 6/8，量比 0.00，位階 高基期。"}]},{"code":"6859","name":"伯特光","close":132,"percent":0,"tradeVolume":57,"value":7524000,"swingScore":81,"score":81,"swingZone":"B","swingStage":{"label":"高基期","ratio":"0.85","tone":"high","value":0.8490566037735849},"swingSignals":[{"id":"watch_trend","title":"","short":"B觀察","icon":"B","reason":"趨勢轉強但尚未觸發突破買點；趨勢分 5/8，量比 0.38，位階 高基期。"}]},{"code":"6446","name":"藥華藥","close":937,"percent":-0.10660980810234541,"tradeVolume":2432,"value":2278784000,"swingScore":81,"score":81,"swingZone":"B","swingStage":{"label":"高基期","ratio":"0.90","tone":"high","value":0.8975},"swingSignals":[{"id":"watch_trend","title":"","short":"B觀察","icon":"B","reason":"趨勢轉強但尚未觸發突破買點；趨勢分 6/8，量比 0.00，位階 高基期。"}]},{"code":"2420","name":"新巨","close":65.2,"percent":-0.15313935681469268,"tradeVolume":585,"value":38142000,"swingScore":81,"score":81,"swingZone":"B","swingStage":{"label":"高基期","ratio":"0.93","tone":"high","value":0.9347826086956528},"swingSignals":[{"id":"watch_trend","title":"","short":"B觀察","icon":"B","reason":"趨勢轉強但尚未觸發突破買點；趨勢分 6/8，量比 0.00，位階 高基期。"}]},{"code":"9945","name":"潤泰新","close":25.15,"percent":-0.19841269841270123,"tradeVolume":10368,"value":260755200,"swingScore":81,"score":81,"swingZone":"B","swingStage":{"label":"高基期","ratio":"0.75","tone":"high","value":0.75},"swingSignals":[{"id":"watch_trend","title":"","short":"B觀察","icon":"B","reason":"趨勢轉強但尚未觸發突破買點；趨勢分 6/8，量比 0.00，位階 高基期。"}]}]}
