{"ok":true,"source":"strategy4-preset","updatedAt":"2026-06-11T12:31:33.792Z","scanStamp":"20260611","total":1958,"complete":true,"zone":"B","page":15,"pageSize":25,"totalPages":15,"totalCount":372,"count":22,"matches":[{"code":"6512","name":"啟發電","close":19.55,"percent":-1.2626224580484398,"tradeVolume":14.743,"avgVolume5":5103.15,"value":290402,"swingScore":78,"score":78,"swingZone":"B","swingStage":{"label":"高基期","ratio":"0.68","tone":"high","value":0.67857134098907},"swingSignals":[{"id":"watch_trend","title":"","short":"B觀察","icon":"B","reason":"趨勢轉強但尚未觸發突破買點；趨勢分 5/8，量比 0.00，位階 高基期。"}]},{"code":"5351","name":"鈺創","close":84.3,"percent":-1.4035087719298278,"tradeVolume":29482.922,"avgVolume5":35926.13,"value":2519923558,"swingScore":78,"score":78,"swingZone":"B","swingStage":{"label":"高基期","ratio":"0.68","tone":"high","value":0.6794520547945204},"swingSignals":[{"id":"watch_trend","title":"","short":"B觀察","icon":"B","reason":"趨勢轉強但尚未觸發突破買點；趨勢分 5/8，量比 0.95，位階 高基期。"}]},{"code":"1516","name":"川飛","close":21.299999237060547,"percent":-2.9612824751075806,"tradeVolume":150.756,"avgVolume5":9868.22,"value":0,"swingScore":78,"score":78,"swingZone":"B","swingStage":{"label":"高基期","ratio":"0.66","tone":"high","value":0.6610168176489947},"swingSignals":[{"id":"watch_trend","title":"","short":"B觀察","icon":"B","reason":"趨勢轉強但尚未觸發突破買點；趨勢分 5/8，量比 0.01，位階 高基期。"}]},{"code":"6265","name":"方土昶","close":57.7,"percent":2.486679896822945,"tradeVolume":11904.838,"avgVolume5":11316.94,"value":682061512,"swingScore":77,"score":77,"swingZone":"B","swingStage":{"label":"高基期","ratio":"0.76","tone":"high","value":0.7639123949880665},"swingSignals":[{"id":"watch_trend","title":"","short":"B觀察","icon":"B","reason":"趨勢轉強但尚未觸發突破買點；趨勢分 5/8，量比 0.86，位階 高基期。"}]},{"code":"4706","name":"大恭","close":31.95,"percent":1.7515935928392519,"tradeVolume":23.08,"avgVolume5":13784.27,"value":732644,"swingScore":77,"score":77,"swingZone":"B","swingStage":{"label":"中位階","ratio":"0.41","tone":"mid","value":0.4090910312558113},"swingSignals":[{"id":"watch_trend","title":"","short":"B觀察","icon":"B","reason":"趨勢轉強但尚未觸發突破買點；趨勢分 5/8，量比 0.00，位階 中位階。"}]},{"code":"5432","name":"新門","close":138.5,"percent":1.465201465201465,"tradeVolume":487.817,"avgVolume5":27998.29,"value":69347715,"swingScore":77,"score":77,"swingZone":"B","swingStage":{"label":"中位階","ratio":"0.41","tone":"mid","value":0.41333333333333333},"swingSignals":[{"id":"watch_trend","title":"","short":"B觀察","icon":"B","reason":"趨勢轉強但尚未觸發突破買點；趨勢分 5/8，量比 0.01，位階 中位階。"}]},{"code":"6207","name":"雷科","close":125,"percent":-7.063197026022305,"tradeVolume":24391.403,"avgVolume5":23165.7,"value":3095923019,"swingScore":77,"score":77,"swingZone":"B","swingStage":{"label":"高基期","ratio":"0.65","tone":"high","value":0.646418855215222},"swingSignals":[{"id":"watch_trend","title":"","short":"B觀察","icon":"B","reason":"趨勢轉強但尚未觸發突破買點；趨勢分 5/8，量比 1.09，位階 高基期。"}]},{"code":"8466","name":"美吉吉-KY","close":16,"percent":3.559871828639352,"tradeVolume":128.655,"avgVolume5":21049.53,"value":0,"swingScore":76,"score":76,"swingZone":"B","swingStage":{"label":"高基期","ratio":"0.63","tone":"high","value":0.6296296034657234},"swingSignals":[{"id":"watch_trend","title":"","short":"B觀察","icon":"B","reason":"趨勢轉強但尚未觸發突破買點；趨勢分 5/8，量比 0.00，位階 高基期。"}]},{"code":"2615","name":"萬海","close":83.80000305175781,"percent":0.842364128147022,"tradeVolume":7269.81,"avgVolume5":14315.65,"value":0,"swingScore":76,"score":76,"swingZone":"B","swingStage":{"label":"高基期","ratio":"0.76","tone":"high","value":0.7573532505431737},"swingSignals":[{"id":"watch_trend","title":"","short":"B觀察","icon":"B","reason":"趨勢轉強但尚未觸發突破買點；趨勢分 5/8，量比 0.53，位階 高基期。"}]},{"code":"8908","name":"欣雄","close":41.85,"percent":0.6009652284829551,"tradeVolume":140.918,"avgVolume5":13141.82,"value":5862999,"swingScore":76,"score":76,"swingZone":"B","swingStage":{"label":"高基期","ratio":"0.77","tone":"high","value":0.7701152126672551},"swingSignals":[{"id":"watch_trend","title":"","short":"B觀察","icon":"B","reason":"趨勢轉強但尚未觸發突破買點；趨勢分 5/8，量比 0.02，位階 高基期。"}]},{"code":"2064","name":"晉椿","close":14.5,"percent":-5.84415351184383,"tradeVolume":49.617,"avgVolume5":34671.53,"value":733522,"swingScore":76,"score":76,"swingZone":"B","swingStage":{"label":"高基期","ratio":"0.63","tone":"high","value":0.6336633046343472},"swingSignals":[{"id":"watch_trend","title":"","short":"B觀察","icon":"B","reason":"趨勢轉強但尚未觸發突破買點；趨勢分 5/8，量比 0.00，位階 高基期。"}]},{"code":"2492","name":"華新科","close":417.5,"percent":2.4539877300613497,"tradeVolume":4208.495,"avgVolume5":4113.36,"value":0,"swingScore":75,"score":75,"swingZone":"B","swingStage":{"label":"高基期","ratio":"0.82","tone":"high","value":0.8186889818688982},"swingSignals":[{"id":"watch_trend","title":"","short":"B觀察","icon":"B","reason":"趨勢轉強但尚未觸發突破買點；趨勢分 5/8，量比 0.64，位階 高基期。"}]},{"code":"9960","name":"邁達康","close":31.5,"percent":0.31847255632039156,"tradeVolume":32.146,"avgVolume5":30043.83,"value":1011724,"swingScore":75,"score":75,"swingZone":"B","swingStage":{"label":"中位階","ratio":"0.54","tone":"mid","value":0.5431472258147718},"swingSignals":[{"id":"watch_trend","title":"","short":"B觀察","icon":"B","reason":"趨勢轉強但尚未觸發突破買點；趨勢分 5/8，量比 0.00，位階 中位階。"}]},{"code":"8097","name":"常珵","close":59.1,"percent":0.16949152542373122,"tradeVolume":140.456,"avgVolume5":24290.69,"value":8484535,"swingScore":75,"score":75,"swingZone":"B","swingStage":{"label":"高基期","ratio":"0.70","tone":"high","value":0.7033899406426602},"swingSignals":[{"id":"watch_trend","title":"","short":"B觀察","icon":"B","reason":"趨勢轉強但尚未觸發突破買點；趨勢分 6/8，量比 0.00，位階 高基期。"}]},{"code":"6762","name":"達亞","close":181.5,"percent":6.764705882352941,"tradeVolume":3.304,"avgVolume5":4667.77,"value":599802,"swingScore":72,"score":72,"swingZone":"B","swingStage":{"label":"高基期","ratio":"0.72","tone":"high","value":0.725},"swingSignals":[{"id":"watch_trend","title":"","short":"B觀察","icon":"B","reason":"趨勢轉強但尚未觸發突破買點；趨勢分 5/8，量比 0.00，位階 高基期。"}]},{"code":"8342","name":"益張","close":90.4,"percent":3.1963488295106446,"tradeVolume":4.383,"avgVolume5":6601.28,"value":391273,"swingScore":72,"score":72,"swingZone":"B","swingStage":{"label":"高基期","ratio":"0.73","tone":"high","value":0.7279412581433983},"swingSignals":[{"id":"watch_trend","title":"","short":"B觀察","icon":"B","reason":"趨勢轉強但尚未觸發突破買點；趨勢分 5/8，量比 0.00，位階 高基期。"}]},{"code":"2937","name":"集雅社","close":48.25,"percent":1.25917828941775,"tradeVolume":9.02,"avgVolume5":8018.6,"value":430016,"swingScore":72,"score":72,"swingZone":"B","swingStage":{"label":"高基期","ratio":"0.82","tone":"high","value":0.8198756645511286},"swingSignals":[{"id":"watch_trend","title":"","short":"B觀察","icon":"B","reason":"趨勢轉強但尚未觸發突破買點；趨勢分 5/8，量比 0.00，位階 高基期。"}]},{"code":"2375","name":"凱美","close":161,"percent":1.5772870662460567,"tradeVolume":4254.98,"avgVolume5":4661.12,"value":0,"swingScore":70,"score":70,"swingZone":"B","swingStage":{"label":"高基期","ratio":"0.83","tone":"high","value":0.8313492114551723},"swingSignals":[{"id":"watch_trend","title":"","short":"B觀察","icon":"B","reason":"趨勢轉強但尚未觸發突破買點；趨勢分 5/8，量比 0.28，位階 高基期。"}]},{"code":"5468","name":"凱鈺","close":19.8,"percent":10.000000000000004,"tradeVolume":472.186,"avgVolume5":25338.74,"value":9349269,"swingScore":68,"score":68,"swingZone":"B","swingStage":{"label":"過熱","ratio":"1.00+","tone":"hot","value":1},"swingSignals":[{"id":"watch_trend","title":"","short":"B觀察","icon":"B","reason":"趨勢轉強但尚未觸發突破買點；趨勢分 5/8，量比 0.02，位階 過熱。"}]},{"code":"6241","name":"鑫永洋","close":12.65,"percent":10.000000000000004,"tradeVolume":623.489,"avgVolume5":36202.5,"value":7760023,"swingScore":68,"score":68,"swingZone":"B","swingStage":{"label":"過熱","ratio":"1.00+","tone":"hot","value":1},"swingSignals":[{"id":"watch_trend","title":"","short":"B觀察","icon":"B","reason":"趨勢轉強但尚未觸發突破買點；趨勢分 5/8，量比 0.05，位階 過熱。"}]},{"code":"6154","name":"順發","close":14,"percent":0.7194272245620404,"tradeVolume":45.891,"avgVolume5":48315.18,"value":638426,"swingScore":68,"score":68,"swingZone":"B","swingStage":{"label":"過熱","ratio":"1.00+","tone":"hot","value":1},"swingSignals":[{"id":"watch_trend","title":"","short":"B觀察","icon":"B","reason":"趨勢轉強但尚未觸發突破買點；趨勢分 5/8，量比 0.00，位階 過熱。"}]},{"code":"2066","name":"世德","close":60.6,"percent":0.16528925619834947,"tradeVolume":111.071,"avgVolume5":18320.02,"value":6667534,"swingScore":68,"score":68,"swingZone":"B","swingStage":{"label":"高基期","ratio":"0.97","tone":"high","value":0.9723757725816399},"swingSignals":[{"id":"watch_trend","title":"","short":"B觀察","icon":"B","reason":"趨勢轉強但尚未觸發突破買點；趨勢分 5/8，量比 0.01，位階 高基期。"}]}]}
