{"ok":true,"source":"strategy4-preset","updatedAt":"2026-06-09T06:53:44.896Z","scanStamp":"20260609","total":1953,"complete":true,"zone":"B","page":17,"pageSize":25,"totalPages":26,"totalCount":630,"count":25,"matches":[{"code":"6885","name":"全福生技","close":26.1,"percent":2.7559070550499176,"tradeVolume":1968,"value":51364800,"swingScore":81,"score":81,"swingZone":"B","swingStage":{"label":"高基期","ratio":"0.81","tone":"high","value":0.8057553072312932},"swingSignals":[{"id":"watch_trend","title":"","short":"B觀察","icon":"B","reason":"趨勢轉強但尚未觸發突破買點；趨勢分 6/8，量比 0.00，位階 高基期。"}]},{"code":"2243","name":"宏旭-KY","close":28.5,"percent":2.7027027027027026,"tradeVolume":989,"value":28186500,"swingScore":81,"score":81,"swingZone":"B","swingStage":{"label":"高基期","ratio":"0.92","tone":"high","value":0.922680412371134},"swingSignals":[{"id":"watch_trend","title":"","short":"B觀察","icon":"B","reason":"趨勢轉強但尚未觸發突破買點；趨勢分 6/8，量比 0.00，位階 高基期。"}]},{"code":"3617","name":"碩天","close":213.5,"percent":2.644230769230769,"tradeVolume":286,"value":61061000,"swingScore":81,"score":81,"swingZone":"B","swingStage":{"label":"高基期","ratio":"0.67","tone":"high","value":0.6699029126213593},"swingSignals":[{"id":"watch_trend","title":"","short":"B觀察","icon":"B","reason":"趨勢轉強但尚未觸發突破買點；趨勢分 6/8，量比 0.00，位階 高基期。"}]},{"code":"1708","name":"東鹼","close":45.35,"percent":2.6018099547511278,"tradeVolume":14049,"value":637122150,"swingScore":81,"score":81,"swingZone":"B","swingStage":{"label":"高基期","ratio":"0.66","tone":"high","value":0.6579925650557621},"swingSignals":[{"id":"watch_trend","title":"","short":"B觀察","icon":"B","reason":"趨勢轉強但尚未觸發突破買點；趨勢分 6/8，量比 0.00，位階 高基期。"}]},{"code":"3312","name":"弘憶股","close":62.3,"percent":2.4671052631578947,"tradeVolume":8561,"value":533350300,"swingScore":81,"score":81,"swingZone":"B","swingStage":{"label":"高基期","ratio":"0.67","tone":"high","value":0.6731634182908545},"swingSignals":[{"id":"watch_trend","title":"","short":"B觀察","icon":"B","reason":"趨勢轉強但尚未觸發突破買點；趨勢分 6/8，量比 0.00，位階 高基期。"}]},{"code":"2732","name":"六角","close":67.4,"percent":2.4316109422492533,"tradeVolume":175,"value":11795000,"swingScore":81,"score":81,"swingZone":"B","swingStage":{"label":"高基期","ratio":"0.77","tone":"high","value":0.7714285714285722},"swingSignals":[{"id":"watch_trend","title":"","short":"B觀察","icon":"B","reason":"趨勢轉強但尚未觸發突破買點；趨勢分 6/8，量比 0.00，位階 高基期。"}]},{"code":"5522","name":"遠雄","close":76,"percent":2.4258760107816673,"tradeVolume":1643,"value":124868000,"swingScore":81,"score":81,"swingZone":"B","swingStage":{"label":"高基期","ratio":"0.84","tone":"high","value":0.8404255319148937},"swingSignals":[{"id":"watch_trend","title":"","short":"B觀察","icon":"B","reason":"趨勢轉強但尚未觸發突破買點；趨勢分 6/8，量比 0.00，位階 高基期。"}]},{"code":"2008","name":"高興昌","close":29.75,"percent":2.409638554216865,"tradeVolume":43,"value":1279250,"swingScore":81,"score":81,"swingZone":"B","swingStage":{"label":"高基期","ratio":"0.83","tone":"high","value":0.8333333333333331},"swingSignals":[{"id":"watch_trend","title":"","short":"B觀察","icon":"B","reason":"趨勢轉強但尚未觸發突破買點；趨勢分 6/8，量比 0.00，位階 高基期。"}]},{"code":"9938","name":"百和","close":46,"percent":2.2222222222222223,"tradeVolume":1692,"value":77832000,"swingScore":81,"score":81,"swingZone":"B","swingStage":{"label":"高基期","ratio":"0.66","tone":"high","value":0.6638655462184876},"swingSignals":[{"id":"watch_trend","title":"","short":"B觀察","icon":"B","reason":"趨勢轉強但尚未觸發突破買點；趨勢分 6/8，量比 0.00，位階 高基期。"}]},{"code":"6121","name":"新普","close":415,"percent":2.2167487684729066,"tradeVolume":1577,"value":654455000,"swingScore":81,"score":81,"swingZone":"B","swingStage":{"label":"高基期","ratio":"0.76","tone":"high","value":0.7613636363636364},"swingSignals":[{"id":"watch_trend","title":"","short":"B觀察","icon":"B","reason":"趨勢轉強但尚未觸發突破買點；趨勢分 6/8，量比 0.00，位階 高基期。"}]},{"code":"3716","name":"中化控股","close":35.55,"percent":2.1551724137931036,"tradeVolume":458,"value":16281900,"swingScore":81,"score":81,"swingZone":"B","swingStage":{"label":"高基期","ratio":"0.79","tone":"high","value":0.7920792079207912},"swingSignals":[{"id":"watch_trend","title":"","short":"B觀察","icon":"B","reason":"趨勢轉強但尚未觸發突破買點；趨勢分 6/8，量比 0.00，位階 高基期。"}]},{"code":"3703","name":"欣陸","close":21.45,"percent":2.1428571428571392,"tradeVolume":1348,"value":28914600,"swingScore":81,"score":81,"swingZone":"B","swingStage":{"label":"高基期","ratio":"0.66","tone":"high","value":0.6599999999999995},"swingSignals":[{"id":"watch_trend","title":"","short":"B觀察","icon":"B","reason":"趨勢轉強但尚未觸發突破買點；趨勢分 6/8，量比 0.00，位階 高基期。"}]},{"code":"2105","name":"正新","close":34.2,"percent":2.0895522388059784,"tradeVolume":31283,"value":1069878600,"swingScore":81,"score":81,"swingZone":"B","swingStage":{"label":"高基期","ratio":"0.77","tone":"high","value":0.76842105263158},"swingSignals":[{"id":"watch_trend","title":"","short":"B觀察","icon":"B","reason":"趨勢轉強但尚未觸發突破買點；趨勢分 6/8，量比 0.00，位階 高基期。"}]},{"code":"2852","name":"第一保","close":27.8,"percent":2.0183486238532136,"tradeVolume":948,"value":26354400,"swingScore":81,"score":81,"swingZone":"B","swingStage":{"label":"高基期","ratio":"0.87","tone":"high","value":0.8695652173913041},"swingSignals":[{"id":"watch_trend","title":"","short":"B觀察","icon":"B","reason":"趨勢轉強但尚未觸發突破買點；趨勢分 6/8，量比 0.00，位階 高基期。"}]},{"code":"3023","name":"信邦","close":329,"percent":2.0155038759689923,"tradeVolume":2871,"value":944559000,"swingScore":81,"score":81,"swingZone":"B","swingStage":{"label":"高基期","ratio":"0.85","tone":"high","value":0.8523489932885906},"swingSignals":[{"id":"watch_trend","title":"","short":"B觀察","icon":"B","reason":"趨勢轉強但尚未觸發突破買點；趨勢分 6/8，量比 0.00，位階 高基期。"}]},{"code":"2727","name":"王品","close":246,"percent":1.8633540372670807,"tradeVolume":634,"value":155964000,"swingScore":81,"score":81,"swingZone":"B","swingStage":{"label":"高基期","ratio":"0.77","tone":"high","value":0.7704918032786885},"swingSignals":[{"id":"watch_trend","title":"","short":"B觀察","icon":"B","reason":"趨勢轉強但尚未觸發突破買點；趨勢分 6/8，量比 0.00，位階 高基期。"}]},{"code":"3057","name":"喬鼎","close":21.95,"percent":1.8561484918793436,"tradeVolume":423,"value":9284850,"swingScore":81,"score":81,"swingZone":"B","swingStage":{"label":"高基期","ratio":"0.69","tone":"high","value":0.6861313868613136},"swingSignals":[{"id":"watch_trend","title":"","short":"B觀察","icon":"B","reason":"趨勢轉強但尚未觸發突破買點；趨勢分 6/8，量比 0.00，位階 高基期。"}]},{"code":"1611","name":"中電","close":13.75,"percent":1.8518518518518516,"tradeVolume":1967,"value":27046250,"swingScore":81,"score":81,"swingZone":"B","swingStage":{"label":"高基期","ratio":"0.69","tone":"high","value":0.6875},"swingSignals":[{"id":"watch_trend","title":"","short":"B觀察","icon":"B","reason":"趨勢轉強但尚未觸發突破買點；趨勢分 6/8，量比 0.00，位階 高基期。"}]},{"code":"2352","name":"佳世達","close":30.65,"percent":1.827242524916934,"tradeVolume":9177,"value":281275050,"swingScore":81,"score":81,"swingZone":"B","swingStage":{"label":"中位階","ratio":"0.58","tone":"mid","value":0.5829787234042553},"swingSignals":[{"id":"watch_trend","title":"","short":"B觀察","icon":"B","reason":"趨勢轉強但尚未觸發突破買點；趨勢分 5/8，量比 0.00，位階 中位階。"}]},{"code":"1303","name":"南亞","close":99.2,"percent":1.7435897435897467,"tradeVolume":67680,"value":6713856000,"swingScore":81,"score":81,"swingZone":"B","swingStage":{"label":"中位階","ratio":"0.49","tone":"mid","value":0.49343832020997375},"swingSignals":[{"id":"watch_trend","title":"","short":"B觀察","icon":"B","reason":"趨勢轉強但尚未觸發突破買點；趨勢分 5/8，量比 0.00，位階 中位階。"}]},{"code":"2915","name":"潤泰全","close":48.65,"percent":1.6718913270637348,"tradeVolume":2051,"value":99781150,"swingScore":81,"score":81,"swingZone":"B","swingStage":{"label":"高基期","ratio":"0.88","tone":"high","value":0.8848920863309346},"swingSignals":[{"id":"watch_trend","title":"","short":"B觀察","icon":"B","reason":"趨勢轉強但尚未觸發突破買點；趨勢分 6/8，量比 0.00，位階 高基期。"}]},{"code":"2607","name":"榮運","close":49.4,"percent":1.6460905349794182,"tradeVolume":592,"value":29244800,"swingScore":81,"score":81,"swingZone":"B","swingStage":{"label":"高基期","ratio":"0.67","tone":"high","value":0.6666666666666662},"swingSignals":[{"id":"watch_trend","title":"","short":"B觀察","icon":"B","reason":"趨勢轉強但尚未觸發突破買點；趨勢分 6/8，量比 0.00，位階 高基期。"}]},{"code":"2413","name":"環科","close":54.2,"percent":1.4981273408239781,"tradeVolume":6444,"value":349264800,"swingScore":81,"score":81,"swingZone":"B","swingStage":{"label":"高基期","ratio":"0.82","tone":"high","value":0.8243243243243247},"swingSignals":[{"id":"watch_trend","title":"","short":"B觀察","icon":"B","reason":"趨勢轉強但尚未觸發突破買點；趨勢分 6/8，量比 0.00，位階 高基期。"}]},{"code":"3058","name":"立德","close":9.6,"percent":1.3727560718056915,"tradeVolume":1104,"value":10598400,"swingScore":81,"score":81,"swingZone":"B","swingStage":{"label":"中位階","ratio":"0.53","tone":"mid","value":0.5333333333333332},"swingSignals":[{"id":"watch_trend","title":"","short":"B觀察","icon":"B","reason":"趨勢轉強但尚未觸發突破買點；趨勢分 5/8，量比 0.00，位階 中位階。"}]},{"code":"2390","name":"云辰","close":12,"percent":1.2658227848101298,"tradeVolume":1503,"value":18036000,"swingScore":81,"score":81,"swingZone":"B","swingStage":{"label":"高基期","ratio":"0.62","tone":"high","value":0.6196868008948546},"swingSignals":[{"id":"watch_trend","title":"","short":"B觀察","icon":"B","reason":"趨勢轉強但尚未觸發突破買點；趨勢分 6/8，量比 0.00，位階 高基期。"}]}]}
