{"ok":true,"source":"strategy4-preset","updatedAt":"2026-06-09T06:53:44.896Z","scanStamp":"20260609","total":1953,"complete":true,"zone":"B","page":23,"pageSize":25,"totalPages":26,"totalCount":630,"count":25,"matches":[{"code":"1532","name":"勤美","close":22.15,"percent":0.6818181818181753,"tradeVolume":701,"value":15527150,"swingScore":78,"score":78,"swingZone":"B","swingStage":{"label":"高基期","ratio":"0.86","tone":"high","value":0.8571428571428565},"swingSignals":[{"id":"watch_trend","title":"","short":"B觀察","icon":"B","reason":"趨勢轉強但尚未觸發突破買點；趨勢分 5/8，量比 0.00，位階 高基期。"}]},{"code":"2506","name":"太設","close":8.95,"percent":0.5617977528089768,"tradeVolume":162,"value":1449900,"swingScore":78,"score":78,"swingZone":"B","swingStage":{"label":"高基期","ratio":"0.86","tone":"high","value":0.8571428571428571},"swingSignals":[{"id":"watch_trend","title":"","short":"B觀察","icon":"B","reason":"趨勢轉強但尚未觸發突破買點；趨勢分 5/8，量比 0.00，位階 高基期。"}]},{"code":"1104","name":"環泥","close":29.05,"percent":0.5190311418685195,"tradeVolume":817,"value":23733850,"swingScore":78,"score":78,"swingZone":"B","swingStage":{"label":"高基期","ratio":"0.75","tone":"high","value":0.7454545454545457},"swingSignals":[{"id":"watch_trend","title":"","short":"B觀察","icon":"B","reason":"趨勢轉強但尚未觸發突破買點；趨勢分 5/8，量比 0.00，位階 高基期。"}]},{"code":"3149","name":"正達","close":87.2,"percent":0.4608294930875642,"tradeVolume":4811,"value":419519200,"swingScore":78,"score":78,"swingZone":"B","swingStage":{"label":"高基期","ratio":"0.83","tone":"high","value":0.8333333333333334},"swingSignals":[{"id":"watch_trend","title":"","short":"B觀察","icon":"B","reason":"趨勢轉強但尚未觸發突破買點；趨勢分 5/8，量比 0.00，位階 高基期。"}]},{"code":"2483","name":"百容","close":33.6,"percent":0.44843049327353834,"tradeVolume":18851,"value":633393600,"swingScore":78,"score":78,"swingZone":"B","swingStage":{"label":"高基期","ratio":"0.80","tone":"high","value":0.8},"swingSignals":[{"id":"watch_trend","title":"","short":"B觀察","icon":"B","reason":"趨勢轉強但尚未觸發突破買點；趨勢分 5/8，量比 0.01，位階 高基期。"}]},{"code":"5014","name":"建錩","close":11.2,"percent":0.44843049327353307,"tradeVolume":169,"value":1892800,"swingScore":78,"score":78,"swingZone":"B","swingStage":{"label":"高基期","ratio":"0.81","tone":"high","value":0.8076923076923073},"swingSignals":[{"id":"watch_trend","title":"","short":"B觀察","icon":"B","reason":"趨勢轉強但尚未觸發突破買點；趨勢分 5/8，量比 0.00，位階 高基期。"}]},{"code":"1477","name":"聚陽","close":226,"percent":0.4444444444444444,"tradeVolume":1608,"value":363408000,"swingScore":78,"score":78,"swingZone":"B","swingStage":{"label":"高基期","ratio":"0.74","tone":"high","value":0.7419354838709677},"swingSignals":[{"id":"watch_trend","title":"","short":"B觀察","icon":"B","reason":"趨勢轉強但尚未觸發突破買點；趨勢分 5/8，量比 0.00，位階 高基期。"}]},{"code":"4106","name":"雃博","close":24.05,"percent":0.41753653444677,"tradeVolume":118,"value":2837900,"swingScore":78,"score":78,"swingZone":"B","swingStage":{"label":"高基期","ratio":"0.76","tone":"high","value":0.7592592592592597},"swingSignals":[{"id":"watch_trend","title":"","short":"B觀察","icon":"B","reason":"趨勢轉強但尚未觸發突破買點；趨勢分 5/8，量比 0.00，位階 高基期。"}]},{"code":"4543","name":"萬在","close":39.4,"percent":0.38216560509553776,"tradeVolume":378,"value":14893200,"swingScore":78,"score":78,"swingZone":"B","swingStage":{"label":"高基期","ratio":"0.67","tone":"high","value":0.667870036101083},"swingSignals":[{"id":"watch_trend","title":"","short":"B觀察","icon":"B","reason":"趨勢轉強但尚未觸發突破買點；趨勢分 5/8，量比 0.79，位階 高基期。"}]},{"code":"5607","name":"遠雄港","close":52.6,"percent":0.38167938931298256,"tradeVolume":687,"value":36136200,"swingScore":78,"score":78,"swingZone":"B","swingStage":{"label":"高基期","ratio":"0.87","tone":"high","value":0.8714285714285717},"swingSignals":[{"id":"watch_trend","title":"","short":"B觀察","icon":"B","reason":"趨勢轉強但尚未觸發突破買點；趨勢分 5/8，量比 0.00，位階 高基期。"}]},{"code":"6957","name":"裕慶-KY","close":192,"percent":0.26109660574412535,"tradeVolume":226,"value":43392000,"swingScore":78,"score":78,"swingZone":"B","swingStage":{"label":"高基期","ratio":"0.85","tone":"high","value":0.8461538461538461},"swingSignals":[{"id":"watch_trend","title":"","short":"B觀察","icon":"B","reason":"趨勢轉強但尚未觸發突破買點；趨勢分 5/8，量比 0.00，位階 高基期。"}]},{"code":"6005","name":"群益證","close":40.65,"percent":0.2466091245376114,"tradeVolume":36707,"value":1492139550,"swingScore":78,"score":78,"swingZone":"B","swingStage":{"label":"高基期","ratio":"0.73","tone":"high","value":0.7300275482093664},"swingSignals":[{"id":"watch_trend","title":"","short":"B觀察","icon":"B","reason":"趨勢轉強但尚未觸發突破買點；趨勢分 5/8，量比 0.00，位階 高基期。"}]},{"code":"8070","name":"長華*","close":59.4,"percent":0.16863406408094675,"tradeVolume":18478,"value":1097593200,"swingScore":78,"score":78,"swingZone":"B","swingStage":{"label":"高基期","ratio":"0.72","tone":"high","value":0.7203389830508474},"swingSignals":[{"id":"watch_trend","title":"","short":"B觀察","icon":"B","reason":"趨勢轉強但尚未觸發突破買點；趨勢分 5/8，量比 0.00，位階 高基期。"}]},{"code":"1307","name":"三芳","close":34.6,"percent":0.14471780028944795,"tradeVolume":2264,"value":78334400,"swingScore":78,"score":78,"swingZone":"B","swingStage":{"label":"高基期","ratio":"0.78","tone":"high","value":0.7766990291262138},"swingSignals":[{"id":"watch_trend","title":"","short":"B觀察","icon":"B","reason":"趨勢轉強但尚未觸發突破買點；趨勢分 5/8，量比 0.00，位階 高基期。"}]},{"code":"5309","name":"系統電","close":74.1,"percent":0.13513513513512745,"tradeVolume":13179,"value":976563900,"swingScore":78,"score":78,"swingZone":"B","swingStage":{"label":"高基期","ratio":"0.63","tone":"high","value":0.6334519572953734},"swingSignals":[{"id":"watch_trend","title":"","short":"B觀察","icon":"B","reason":"趨勢轉強但尚未觸發突破買點；趨勢分 5/8，量比 0.00，位階 高基期。"}]},{"code":"3011","name":"今皓","close":14.55,"percent":0,"tradeVolume":1417,"value":20617350,"swingScore":78,"score":78,"swingZone":"B","swingStage":{"label":"高基期","ratio":"0.62","tone":"high","value":0.6202531645569621},"swingSignals":[{"id":"watch_trend","title":"","short":"B觀察","icon":"B","reason":"趨勢轉強但尚未觸發突破買點；趨勢分 5/8，量比 0.00，位階 高基期。"}]},{"code":"3018","name":"隆銘綠能","close":12.1,"percent":0,"tradeVolume":32,"value":387200,"swingScore":78,"score":78,"swingZone":"B","swingStage":{"label":"高基期","ratio":"0.88","tone":"high","value":0.8769230769230768},"swingSignals":[{"id":"watch_trend","title":"","short":"B觀察","icon":"B","reason":"趨勢轉強但尚未觸發突破買點；趨勢分 5/8，量比 0.00，位階 高基期。"}]},{"code":"4552","name":"力達-KY","close":21,"percent":0,"tradeVolume":130,"value":2730000,"swingScore":78,"score":78,"swingZone":"B","swingStage":{"label":"高基期","ratio":"0.70","tone":"high","value":0.6956521739130439},"swingSignals":[{"id":"watch_trend","title":"","short":"B觀察","icon":"B","reason":"趨勢轉強但尚未觸發突破買點；趨勢分 5/8，量比 0.00，位階 高基期。"}]},{"code":"4939","name":"亞電","close":65.6,"percent":0,"tradeVolume":68088,"value":4466572800,"swingScore":78,"score":78,"swingZone":"B","swingStage":{"label":"高基期","ratio":"0.84","tone":"high","value":0.8387096774193549},"swingSignals":[{"id":"watch_trend","title":"","short":"B觀察","icon":"B","reason":"趨勢轉強但尚未觸發突破買點；趨勢分 5/8，量比 0.01，位階 高基期。"}]},{"code":"6128","name":"上福","close":20.65,"percent":-0.24154589371981022,"tradeVolume":185,"value":3820250,"swingScore":78,"score":78,"swingZone":"B","swingStage":{"label":"高基期","ratio":"0.72","tone":"high","value":0.7222222222222221},"swingSignals":[{"id":"watch_trend","title":"","short":"B觀察","icon":"B","reason":"趨勢轉強但尚未觸發突破買點；趨勢分 5/8，量比 0.00，位階 高基期。"}]},{"code":"2108","name":"南帝","close":29.2,"percent":-0.3412969283276499,"tradeVolume":2843,"value":83015600,"swingScore":78,"score":78,"swingZone":"B","swingStage":{"label":"高基期","ratio":"0.65","tone":"high","value":0.6534653465346532},"swingSignals":[{"id":"watch_trend","title":"","short":"B觀察","icon":"B","reason":"趨勢轉強但尚未觸發突破買點；趨勢分 5/8，量比 0.00，位階 高基期。"}]},{"code":"1455","name":"集盛","close":9.96,"percent":-0.39999999999999153,"tradeVolume":6319,"value":62937240,"swingScore":78,"score":78,"swingZone":"B","swingStage":{"label":"高基期","ratio":"0.90","tone":"high","value":0.8987341772151906},"swingSignals":[{"id":"watch_trend","title":"","short":"B觀察","icon":"B","reason":"趨勢轉強但尚未觸發突破買點；趨勢分 5/8，量比 0.01，位階 高基期。"}]},{"code":"1342","name":"八貫","close":111.5,"percent":-0.4464285714285714,"tradeVolume":2467,"value":275070500,"swingScore":78,"score":78,"swingZone":"B","swingStage":{"label":"高基期","ratio":"0.92","tone":"high","value":0.9209486166007905},"swingSignals":[{"id":"watch_trend","title":"","short":"B觀察","icon":"B","reason":"趨勢轉強但尚未觸發突破買點；趨勢分 5/8，量比 0.00，位階 高基期。"}]},{"code":"2491","name":"吉祥全","close":31.1,"percent":-0.47999999999999543,"tradeVolume":739,"value":22982900,"swingScore":78,"score":78,"swingZone":"B","swingStage":{"label":"高基期","ratio":"0.72","tone":"high","value":0.7200000000000001},"swingSignals":[{"id":"watch_trend","title":"","short":"B觀察","icon":"B","reason":"趨勢轉強但尚未觸發突破買點；趨勢分 5/8，量比 0.00，位階 高基期。"}]},{"code":"2032","name":"新鋼","close":17.8,"percent":-0.5586592178770831,"tradeVolume":918,"value":16340400,"swingScore":78,"score":78,"swingZone":"B","swingStage":{"label":"高基期","ratio":"0.76","tone":"high","value":0.7600000000000001},"swingSignals":[{"id":"watch_trend","title":"","short":"B觀察","icon":"B","reason":"趨勢轉強但尚未觸發突破買點；趨勢分 5/8，量比 0.00，位階 高基期。"}]}]}
