{"ok":true,"source":"strategy4-preset","updatedAt":"2026-06-06T12:34:51.971Z","scanStamp":"20260606","total":1957,"complete":true,"zone":"C","page":5,"pageSize":25,"totalPages":14,"totalCount":348,"count":25,"matches":[{"code":"6844","name":"諾貝兒","close":64.5,"percent":-0.7692307692307693,"tradeVolume":69,"value":4450500,"swingScore":77,"score":77,"swingZone":"C","swingStage":{"label":"中位階","ratio":"0.59","tone":"mid","value":0.5892857142857144},"swingSignals":[{"id":"base_setup","title":"","short":"C準備","icon":"C","reason":"低/中位階整理接近發動；準備分 5/7，RSI 42.9，量比 2.16。"}]},{"code":"6728","name":"上洋","close":112,"percent":-1.3215859030837005,"tradeVolume":23,"value":2576000,"swingScore":77,"score":77,"swingZone":"C","swingStage":{"label":"低基期","ratio":"0.32","tone":"low","value":0.32},"swingSignals":[{"id":"base_setup","title":"","short":"C準備","icon":"C","reason":"低/中位階整理接近發動；準備分 5/7，RSI 54.3，量比 0.00。"}]},{"code":"3552","name":"同致","close":54,"percent":-1.459854014598535,"tradeVolume":162,"value":8748000,"swingScore":77,"score":77,"swingZone":"C","swingStage":{"label":"低基期","ratio":"0.20","tone":"low","value":0.20289855072463753},"swingSignals":[{"id":"base_setup","title":"","short":"C準備","icon":"C","reason":"低/中位階整理接近發動；準備分 5/7，RSI 57.5，量比 0.00。"}]},{"code":"6230","name":"尼得科超眾","close":139,"percent":-2.456140350877193,"tradeVolume":59,"value":8201000,"swingScore":77,"score":77,"swingZone":"C","swingStage":{"label":"低基期","ratio":"0.23","tone":"low","value":0.2336448598130841},"swingSignals":[{"id":"base_setup","title":"","short":"C準備","icon":"C","reason":"低/中位階整理接近發動；準備分 5/7，RSI 62.8，量比 0.00。"}]},{"code":"1903","name":"士紙","close":48.9,"percent":-2.7832987242453924,"tradeVolume":301,"value":14718900,"swingScore":77,"score":77,"swingZone":"C","swingStage":{"label":"低基期","ratio":"0.26","tone":"low","value":0.2571430024646575},"swingSignals":[{"id":"base_setup","title":"","short":"C準備","icon":"C","reason":"低/中位階整理接近發動；準備分 5/7，RSI 57.5，量比 0.00。"}]},{"code":"6233","name":"旺玖","close":24.7,"percent":-2.9469548133595285,"tradeVolume":854,"value":21093800,"swingScore":77,"score":77,"swingZone":"C","swingStage":{"label":"低基期","ratio":"0.05","tone":"low","value":0.04615384615384626},"swingSignals":[{"id":"base_setup","title":"","short":"C準備","icon":"C","reason":"低/中位階整理接近發動；準備分 5/7，RSI 42.5，量比 1.73。"}]},{"code":"3529","name":"力旺","close":3435,"percent":-3.1029619181946404,"tradeVolume":458,"value":1573230000,"swingScore":77,"score":77,"swingZone":"C","swingStage":{"label":"低基期","ratio":"0.27","tone":"low","value":0.2702702702702703},"swingSignals":[{"id":"base_setup","title":"","short":"C準備","icon":"C","reason":"低/中位階整理接近發動；準備分 7/7，RSI 49.6，量比 0.46。"}]},{"code":"5302","name":"太欣","close":10.7,"percent":-4.035871156286106,"tradeVolume":798,"value":8538600,"swingScore":77,"score":77,"swingZone":"C","swingStage":{"label":"低基期","ratio":"0.34","tone":"low","value":0.3434343200814314},"swingSignals":[{"id":"base_setup","title":"","short":"C準備","icon":"C","reason":"低/中位階整理接近發動；準備分 5/7，RSI 59.0，量比 0.00。"}]},{"code":"7740","name":"熙特爾-創","close":172.5,"percent":-4.958677685950414,"tradeVolume":301,"value":51922500,"swingScore":77,"score":77,"swingZone":"C","swingStage":{"label":"低基期","ratio":"0.32","tone":"low","value":0.31958762886597936},"swingSignals":[{"id":"base_setup","title":"","short":"C準備","icon":"C","reason":"低/中位階整理接近發動；準備分 5/7，RSI 55.7，量比 0.00。"}]},{"code":"7584","name":"樂意","close":26.4,"percent":5.179282868525885,"tradeVolume":21,"value":554400,"swingScore":76,"score":76,"swingZone":"C","swingStage":{"label":"低基期","ratio":"0.34","tone":"low","value":0.3373493975903614},"swingSignals":[{"id":"base_setup","title":"","short":"C準備","icon":"C","reason":"低/中位階整理接近發動；準備分 6/7，RSI 40.9，量比 0.00。"}]},{"code":"2530","name":"華建","close":19.6,"percent":2.617798997613425,"tradeVolume":1183,"value":23186800,"swingScore":76,"score":76,"swingZone":"C","swingStage":{"label":"低基期","ratio":"0.32","tone":"low","value":0.3193276642860603},"swingSignals":[{"id":"base_setup","title":"","short":"C準備","icon":"C","reason":"低/中位階整理接近發動；準備分 6/7，RSI 40.8，量比 0.00。"}]},{"code":"3349","name":"寶德","close":18.05,"percent":1.6901408450704265,"tradeVolume":54,"value":974700,"swingScore":76,"score":76,"swingZone":"C","swingStage":{"label":"低基期","ratio":"0.08","tone":"low","value":0.07725321888412034},"swingSignals":[{"id":"base_setup","title":"","short":"C準備","icon":"C","reason":"低/中位階整理接近發動；準備分 5/7，RSI 28.6，量比 0.30。"}]},{"code":"8906","name":"花王","close":24.5,"percent":1.2396694214876063,"tradeVolume":43,"value":1053500,"swingScore":76,"score":76,"swingZone":"C","swingStage":{"label":"低基期","ratio":"0.18","tone":"low","value":0.18181818181818177},"swingSignals":[{"id":"base_setup","title":"","short":"C準備","icon":"C","reason":"低/中位階整理接近發動；準備分 6/7，RSI 44.6，量比 0.00。"}]},{"code":"2208","name":"台船","close":18.35,"percent":1.101930499577186,"tradeVolume":4165,"value":76427750,"swingScore":76,"score":76,"swingZone":"C","swingStage":{"label":"低基期","ratio":"0.15","tone":"low","value":0.15476176527888885},"swingSignals":[{"id":"base_setup","title":"","short":"C準備","icon":"C","reason":"低/中位階整理接近發動；準備分 6/7，RSI 44.9，量比 0.00。"}]},{"code":"6028","name":"公勝保經","close":79.8,"percent":1.0126582278480976,"tradeVolume":25,"value":1995000,"swingScore":76,"score":76,"swingZone":"C","swingStage":{"label":"低基期","ratio":"0.24","tone":"low","value":0.2424244806236673},"swingSignals":[{"id":"base_setup","title":"","short":"C準備","icon":"C","reason":"低/中位階整理接近發動；準備分 6/7，RSI 40.0，量比 0.00。"}]},{"code":"7738","name":"東聯互動","close":168,"percent":0.5988023952095809,"tradeVolume":33,"value":5544000,"swingScore":76,"score":76,"swingZone":"C","swingStage":{"label":"低基期","ratio":"0.27","tone":"low","value":0.26666666666666666},"swingSignals":[{"id":"base_setup","title":"","short":"C準備","icon":"C","reason":"低/中位階整理接近發動；準備分 6/7，RSI 48.1，量比 0.00。"}]},{"code":"4148","name":"全宇生技-KY","close":32.5,"percent":0.3086372512705649,"tradeVolume":23,"value":747500,"swingScore":76,"score":76,"swingZone":"C","swingStage":{"label":"低基期","ratio":"0.21","tone":"low","value":0.2060085576923864},"swingSignals":[{"id":"base_setup","title":"","short":"C準備","icon":"C","reason":"低/中位階整理接近發動；準備分 6/7，RSI 42.3，量比 0.00。"}]},{"code":"6967","name":"汎瑋材料","close":71.5,"percent":0.2805049088359086,"tradeVolume":76,"value":5434000,"swingScore":76,"score":76,"swingZone":"C","swingStage":{"label":"低基期","ratio":"0.23","tone":"low","value":0.2290748898678415},"swingSignals":[{"id":"base_setup","title":"","short":"C準備","icon":"C","reason":"低/中位階整理接近發動；準備分 7/7，RSI 43.1，量比 0.73。"}]},{"code":"3206","name":"志豐","close":38.7,"percent":0.259067357512957,"tradeVolume":134,"value":5185800,"swingScore":76,"score":76,"swingZone":"C","swingStage":{"label":"中位階","ratio":"0.57","tone":"mid","value":0.569148936170213},"swingSignals":[{"id":"base_setup","title":"","short":"C準備","icon":"C","reason":"低/中位階整理接近發動；準備分 6/7，RSI 53.2，量比 0.00。"}]},{"code":"6264","name":"富裔","close":6.08,"percent":0.16474464579900802,"tradeVolume":146,"value":887680,"swingScore":76,"score":76,"swingZone":"C","swingStage":{"label":"中位階","ratio":"0.43","tone":"mid","value":0.4285714285714289},"swingSignals":[{"id":"base_setup","title":"","short":"C準備","icon":"C","reason":"低/中位階整理接近發動；準備分 6/7，RSI 48.9，量比 0.00。"}]},{"code":"2067","name":"嘉鋼","close":6.53,"percent":0.1533742331288447,"tradeVolume":30,"value":195900,"swingScore":76,"score":76,"swingZone":"C","swingStage":{"label":"低基期","ratio":"0.07","tone":"low","value":0.06832298136645985},"swingSignals":[{"id":"base_setup","title":"","short":"C準備","icon":"C","reason":"低/中位階整理接近發動；準備分 5/7，RSI 22.6，量比 0.61。"}]},{"code":"4557","name":"永新-KY","close":45.7,"percent":0,"tradeVolume":102,"value":4661400,"swingScore":76,"score":76,"swingZone":"C","swingStage":{"label":"低基期","ratio":"0.24","tone":"low","value":0.23741007194244637},"swingSignals":[{"id":"base_setup","title":"","short":"C準備","icon":"C","reason":"低/中位階整理接近發動；準備分 6/7，RSI 38.5，量比 0.00。"}]},{"code":"1264","name":"德麥","close":271,"percent":-0.1841620626151013,"tradeVolume":42,"value":11382000,"swingScore":76,"score":76,"swingZone":"C","swingStage":{"label":"中位階","ratio":"0.54","tone":"mid","value":0.5365853658536586},"swingSignals":[{"id":"base_setup","title":"","short":"C準備","icon":"C","reason":"低/中位階整理接近發動；準備分 6/7，RSI 46.4，量比 0.00。"}]},{"code":"6228","name":"全譜","close":20.8,"percent":-0.23980815347722165,"tradeVolume":6,"value":124800,"swingScore":76,"score":76,"swingZone":"C","swingStage":{"label":"低基期","ratio":"0.07","tone":"low","value":0.07207207207207245},"swingSignals":[{"id":"base_setup","title":"","short":"C準備","icon":"C","reason":"低/中位階整理接近發動；準備分 5/7，RSI 36.8，量比 0.26。"}]},{"code":"3224","name":"三顧","close":38.5,"percent":-0.259067357512957,"tradeVolume":226,"value":8701000,"swingScore":76,"score":76,"swingZone":"C","swingStage":{"label":"低基期","ratio":"0.10","tone":"low","value":0.10493827160493843},"swingSignals":[{"id":"base_setup","title":"","short":"C準備","icon":"C","reason":"低/中位階整理接近發動；準備分 5/7，RSI 20.4，量比 1.24。"}]}]}
