{"ok":true,"source":"strategy4-preset","updatedAt":"2026-06-11T12:31:33.792Z","scanStamp":"20260611","total":1958,"complete":true,"zone":"B","page":10,"pageSize":25,"totalPages":15,"totalCount":372,"count":25,"matches":[{"code":"3576","name":"聯合再生","close":18,"percent":-1.36986301369863,"tradeVolume":30773.848,"avgVolume5":27300.45,"value":0,"swingScore":87,"score":87,"swingZone":"B","swingStage":{"label":"中位階","ratio":"0.57","tone":"mid","value":0.5669291598745535},"swingSignals":[{"id":"watch_trend","title":"","short":"B觀察","icon":"B","reason":"趨勢轉強但尚未觸發突破買點；趨勢分 5/8，量比 1.05，位階 中位階。"}]},{"code":"6189","name":"豐藝","close":52.29999923706055,"percent":-1.5065899435956402,"tradeVolume":1627.484,"avgVolume5":3893.83,"value":0,"swingScore":87,"score":87,"swingZone":"B","swingStage":{"label":"高基期","ratio":"0.64","tone":"high","value":0.6372091603833575},"swingSignals":[{"id":"watch_trend","title":"","short":"B觀察","icon":"B","reason":"趨勢轉強但尚未觸發突破買點；趨勢分 5/8，量比 0.67，位階 高基期。"}]},{"code":"2355","name":"敬鵬","close":58.70000076293945,"percent":9.925091920628581,"tradeVolume":28284.851,"avgVolume5":15364.99,"value":0,"swingScore":86,"score":86,"swingZone":"B","swingStage":{"label":"中位階","ratio":"0.43","tone":"mid","value":0.427907012229742},"swingSignals":[{"id":"watch_trend","title":"","short":"B觀察","icon":"B","reason":"趨勢轉強但尚未觸發突破買點；趨勢分 5/8，量比 0.91，位階 中位階。"}]},{"code":"6130","name":"上亞科技","close":25,"percent":3.0927835051546393,"tradeVolume":165.692,"avgVolume5":19639.15,"value":3989212,"swingScore":86,"score":86,"swingZone":"B","swingStage":{"label":"中位階","ratio":"0.51","tone":"mid","value":0.5149700626158686},"swingSignals":[{"id":"watch_trend","title":"","short":"B觀察","icon":"B","reason":"趨勢轉強但尚未觸發突破買點；趨勢分 6/8，量比 0.01，位階 中位階。"}]},{"code":"6542","name":"隆中","close":47.3,"percent":1.829922977608912,"tradeVolume":16.001,"avgVolume5":13604.8,"value":764298,"swingScore":86,"score":86,"swingZone":"B","swingStage":{"label":"低基期","ratio":"0.25","tone":"low","value":0.2527472951276663},"swingSignals":[{"id":"watch_trend","title":"","short":"B觀察","icon":"B","reason":"趨勢轉強但尚未觸發突破買點；趨勢分 5/8，量比 0.00，位階 低基期。"}]},{"code":"6884","name":"海柏特","close":34.8,"percent":1.7543836949580665,"tradeVolume":2,"avgVolume5":10000.4,"value":69600,"swingScore":86,"score":86,"swingZone":"B","swingStage":{"label":"中位階","ratio":"0.61","tone":"mid","value":0.6060609773719033},"swingSignals":[{"id":"watch_trend","title":"","short":"B觀察","icon":"B","reason":"趨勢轉強但尚未觸發突破買點；趨勢分 6/8，量比 0.00，位階 中位階。"}]},{"code":"8176","name":"智捷","close":10.25,"percent":1.4851446818306544,"tradeVolume":211.878,"avgVolume5":19532.68,"value":2146179,"swingScore":86,"score":86,"swingZone":"B","swingStage":{"label":"低基期","ratio":"0.33","tone":"low","value":0.3253966451862919},"swingSignals":[{"id":"watch_trend","title":"","short":"B觀察","icon":"B","reason":"趨勢轉強但尚未觸發突破買點；趨勢分 5/8，量比 0.03，位階 低基期。"}]},{"code":"2618","name":"長榮航","close":37.70000076293945,"percent":1.2080557394347735,"tradeVolume":41899.21,"avgVolume5":42617.33,"value":0,"swingScore":86,"score":86,"swingZone":"B","swingStage":{"label":"高基期","ratio":"0.86","tone":"high","value":0.8571428571428571},"swingSignals":[{"id":"watch_trend","title":"","short":"B觀察","icon":"B","reason":"趨勢轉強但尚未觸發突破買點；趨勢分 5/8，量比 0.75，位階 高基期。"}]},{"code":"3259","name":"鑫創","close":17.15,"percent":1.179936448721798,"tradeVolume":42.312,"avgVolume5":27472.46,"value":715578,"swingScore":86,"score":86,"swingZone":"B","swingStage":{"label":"低基期","ratio":"0.38","tone":"low","value":0.375000050434701},"swingSignals":[{"id":"watch_trend","title":"","short":"B觀察","icon":"B","reason":"趨勢轉強但尚未觸發突破買點；趨勢分 5/8，量比 0.00，位階 低基期。"}]},{"code":"3266","name":"昇陽","close":13.300000190734863,"percent":1.1406887951024507,"tradeVolume":149.117,"avgVolume5":14134.83,"value":0,"swingScore":86,"score":86,"swingZone":"B","swingStage":{"label":"中位階","ratio":"0.61","tone":"mid","value":0.6086958504804653},"swingSignals":[{"id":"watch_trend","title":"","short":"B觀察","icon":"B","reason":"趨勢轉強但尚未觸發突破買點；趨勢分 6/8，量比 0.01，位階 中位階。"}]},{"code":"8446","name":"華研","close":88.3,"percent":0.914285714285711,"tradeVolume":84.661,"avgVolume5":14710.57,"value":7433425,"swingScore":86,"score":86,"swingZone":"B","swingStage":{"label":"中位階","ratio":"0.48","tone":"mid","value":0.4846153846153844},"swingSignals":[{"id":"watch_trend","title":"","short":"B觀察","icon":"B","reason":"趨勢轉強但尚未觸發突破買點；趨勢分 6/8，量比 0.00，位階 中位階。"}]},{"code":"2880","name":"華南金","close":35.650001525878906,"percent":0.8486649638116328,"tradeVolume":28468.377,"avgVolume5":35003.35,"value":0,"swingScore":86,"score":86,"swingZone":"B","swingStage":{"label":"高基期","ratio":"0.67","tone":"high","value":0.6722224918413144},"swingSignals":[{"id":"watch_trend","title":"","short":"B觀察","icon":"B","reason":"趨勢轉強但尚未觸發突破買點；趨勢分 5/8，量比 0.49，位階 高基期。"}]},{"code":"2912","name":"統一超","close":229,"percent":0.6593406593406593,"tradeVolume":3276.681,"avgVolume5":4345.04,"value":0,"swingScore":86,"score":86,"swingZone":"B","swingStage":{"label":"中位階","ratio":"0.55","tone":"mid","value":0.5483870967741935},"swingSignals":[{"id":"watch_trend","title":"","short":"B觀察","icon":"B","reason":"趨勢轉強但尚未觸發突破買點；趨勢分 5/8，量比 0.40，位階 中位階。"}]},{"code":"2882","name":"國泰金","close":100.5,"percent":0.6005990640207001,"tradeVolume":36050.707,"avgVolume5":51750.71,"value":0,"swingScore":86,"score":86,"swingZone":"B","swingStage":{"label":"高基期","ratio":"0.89","tone":"high","value":0.8870967741935484},"swingSignals":[{"id":"watch_trend","title":"","short":"B觀察","icon":"B","reason":"趨勢轉強但尚未觸發突破買點；趨勢分 5/8，量比 0.70，位階 高基期。"}]},{"code":"6874","name":"倍力","close":85,"percent":0.4728150509379331,"tradeVolume":80.399,"avgVolume5":18444.28,"value":6795895,"swingScore":86,"score":86,"swingZone":"B","swingStage":{"label":"中位階","ratio":"0.40","tone":"mid","value":0.40000015650040066},"swingSignals":[{"id":"watch_trend","title":"","short":"B觀察","icon":"B","reason":"趨勢轉強但尚未觸發突破買點；趨勢分 6/8，量比 0.00，位階 中位階。"}]},{"code":"2892","name":"第一金","close":30.649999618530273,"percent":0.32733349907392134,"tradeVolume":46616.895,"avgVolume5":64198.27,"value":0,"swingScore":86,"score":86,"swingZone":"B","swingStage":{"label":"高基期","ratio":"0.92","tone":"high","value":0.9199996948242187},"swingSignals":[{"id":"watch_trend","title":"","short":"B觀察","icon":"B","reason":"趨勢轉強但尚未觸發突破買點；趨勢分 5/8，量比 0.69，位階 高基期。"}]},{"code":"6264","name":"富裔","close":6.1,"percent":0.0000015634005373168618,"tradeVolume":42.259,"avgVolume5":36267.65,"value":258926,"swingScore":86,"score":86,"swingZone":"B","swingStage":{"label":"中位階","ratio":"0.52","tone":"mid","value":0.5223880002163555},"swingSignals":[{"id":"watch_trend","title":"","short":"B觀察","icon":"B","reason":"趨勢轉強但尚未觸發突破買點；趨勢分 6/8，量比 0.00，位階 中位階。"}]},{"code":"2886","name":"兆豐金","close":43.400001525878906,"percent":0,"tradeVolume":30278.267,"avgVolume5":37610.54,"value":0,"swingScore":86,"score":86,"swingZone":"B","swingStage":{"label":"高基期","ratio":"0.94","tone":"high","value":0.9400001525878906},"swingSignals":[{"id":"watch_trend","title":"","short":"B觀察","icon":"B","reason":"趨勢轉強但尚未觸發突破買點；趨勢分 5/8，量比 0.71，位階 高基期。"}]},{"code":"8083","name":"瑞穎","close":172,"percent":0,"tradeVolume":41.327,"avgVolume5":19268.07,"value":7064691,"swingScore":86,"score":86,"swingZone":"B","swingStage":{"label":"中位階","ratio":"0.50","tone":"mid","value":0.5},"swingSignals":[{"id":"watch_trend","title":"","short":"B觀察","icon":"B","reason":"趨勢轉強但尚未觸發突破買點；趨勢分 6/8，量比 0.00，位階 中位階。"}]},{"code":"5312","name":"寶島科","close":95.3,"percent":-0.31380594028179415,"tradeVolume":40.678,"avgVolume5":34810.94,"value":3861523,"swingScore":86,"score":86,"swingZone":"B","swingStage":{"label":"低基期","ratio":"0.37","tone":"low","value":0.369863068102246},"swingSignals":[{"id":"watch_trend","title":"","short":"B觀察","icon":"B","reason":"趨勢轉強但尚未觸發突破買點；趨勢分 5/8，量比 0.00，位階 低基期。"}]},{"code":"2610","name":"華航","close":19.450000762939453,"percent":-0.5115011663608079,"tradeVolume":38994.425,"avgVolume5":45574.46,"value":0,"swingScore":86,"score":86,"swingZone":"B","swingStage":{"label":"高基期","ratio":"0.71","tone":"high","value":0.7142860479328613},"swingSignals":[{"id":"watch_trend","title":"","short":"B觀察","icon":"B","reason":"趨勢轉強但尚未觸發突破買點；趨勢分 5/8，量比 0.72，位階 高基期。"}]},{"code":"4442","name":"竣邦-KY","close":53.7,"percent":-0.5555555555555503,"tradeVolume":16.362,"avgVolume5":31406.27,"value":880479,"swingScore":86,"score":86,"swingZone":"B","swingStage":{"label":"中位階","ratio":"0.59","tone":"mid","value":0.5879828865826803},"swingSignals":[{"id":"watch_trend","title":"","short":"B觀察","icon":"B","reason":"趨勢轉強但尚未觸發突破買點；趨勢分 6/8，量比 0.00，位階 中位階。"}]},{"code":"3512","name":"皇龍","close":20.65,"percent":-1.6666666666666736,"tradeVolume":61.046,"avgVolume5":33641.87,"value":1273760,"swingScore":86,"score":86,"swingZone":"B","swingStage":{"label":"低基期","ratio":"0.36","tone":"low","value":0.3571429739192822},"swingSignals":[{"id":"watch_trend","title":"","short":"B觀察","icon":"B","reason":"趨勢轉強但尚未觸發突破買點；趨勢分 5/8，量比 0.00，位階 低基期。"}]},{"code":"1742","name":"台蠟","close":15.75,"percent":7.87670951015761,"tradeVolume":43.275,"avgVolume5":25080.33,"value":651923,"swingScore":85,"score":85,"swingZone":"B","swingStage":{"label":"中位階","ratio":"0.44","tone":"mid","value":0.4423074806935999},"swingSignals":[{"id":"watch_trend","title":"","short":"B觀察","icon":"B","reason":"趨勢轉強但尚未觸發突破買點；趨勢分 5/8，量比 0.00，位階 中位階。"}]},{"code":"9136","name":"巨騰-DR","close":15.800000190734863,"percent":6.397304948561314,"tradeVolume":2390.64,"avgVolume5":6527.74,"value":0,"swingScore":85,"score":85,"swingZone":"B","swingStage":{"label":"高基期","ratio":"0.67","tone":"high","value":0.6716102155091899},"swingSignals":[{"id":"watch_trend","title":"","short":"B觀察","icon":"B","reason":"趨勢轉強但尚未觸發突破買點；趨勢分 5/8，量比 0.59，位階 高基期。"}]}]}
