{"ok":true,"source":"strategy4-preset","updatedAt":"2026-06-11T12:31:33.792Z","scanStamp":"20260611","total":1958,"complete":true,"zone":"B","page":13,"pageSize":25,"totalPages":15,"totalCount":372,"count":25,"matches":[{"code":"4139","name":"馬光-KY","close":24.45,"percent":-1.212121212121215,"tradeVolume":14.298,"avgVolume5":16802.86,"value":345296,"swingScore":83,"score":83,"swingZone":"B","swingStage":{"label":"高基期","ratio":"0.85","tone":"high","value":0.852941018074925},"swingSignals":[{"id":"watch_trend","title":"","short":"B觀察","icon":"B","reason":"趨勢轉強但尚未觸發突破買點；趨勢分 6/8，量比 0.00，位階 高基期。"}]},{"code":"5355","name":"佳總","close":6.69,"percent":-1.6176498183741284,"tradeVolume":52.116,"avgVolume5":49012.02,"value":343243,"swingScore":83,"score":83,"swingZone":"B","swingStage":{"label":"中位階","ratio":"0.48","tone":"mid","value":0.4791666476262951},"swingSignals":[{"id":"watch_trend","title":"","short":"B觀察","icon":"B","reason":"趨勢轉強但尚未觸發突破買點；趨勢分 5/8，量比 0.00，位階 中位階。"}]},{"code":"6482","name":"弘煜科","close":29.8,"percent":-2.4549893806567225,"tradeVolume":31.208,"avgVolume5":6015.59,"value":928062,"swingScore":83,"score":83,"swingZone":"B","swingStage":{"label":"中位階","ratio":"0.48","tone":"mid","value":0.4774774477549825},"swingSignals":[{"id":"watch_trend","title":"","short":"B觀察","icon":"B","reason":"趨勢轉強但尚未觸發突破買點；趨勢分 5/8，量比 0.00，位階 中位階。"}]},{"code":"4907","name":"富宇","close":38.3,"percent":-2.5445273701622213,"tradeVolume":201.467,"avgVolume5":14987.21,"value":7833205,"swingScore":83,"score":83,"swingZone":"B","swingStage":{"label":"中位階","ratio":"0.54","tone":"mid","value":0.5423729997090481},"swingSignals":[{"id":"watch_trend","title":"","short":"B觀察","icon":"B","reason":"趨勢轉強但尚未觸發突破買點；趨勢分 5/8，量比 0.01，位階 中位階。"}]},{"code":"2596","name":"綠意","close":30.55,"percent":-3.1695697662201088,"tradeVolume":67.136,"avgVolume5":40068.65,"value":2068866,"swingScore":83,"score":83,"swingZone":"B","swingStage":{"label":"高基期","ratio":"0.65","tone":"high","value":0.6538462712214544},"swingSignals":[{"id":"watch_trend","title":"","short":"B觀察","icon":"B","reason":"趨勢轉強但尚未觸發突破買點；趨勢分 6/8，量比 0.00，位階 高基期。"}]},{"code":"2524","name":"京城","close":35.900001525878906,"percent":-4.26666259765625,"tradeVolume":1392.182,"avgVolume5":14224.66,"value":0,"swingScore":83,"score":83,"swingZone":"B","swingStage":{"label":"中位階","ratio":"0.44","tone":"mid","value":0.4358976741592871},"swingSignals":[{"id":"watch_trend","title":"","short":"B觀察","icon":"B","reason":"趨勢轉強但尚未觸發突破買點；趨勢分 5/8，量比 0.06，位階 中位階。"}]},{"code":"6574","name":"霈方","close":119.5,"percent":-5.533596837944664,"tradeVolume":208.42,"avgVolume5":27137.04,"value":25318253,"swingScore":83,"score":83,"swingZone":"B","swingStage":{"label":"高基期","ratio":"0.68","tone":"high","value":0.6764705882352942},"swingSignals":[{"id":"watch_trend","title":"","short":"B觀察","icon":"B","reason":"趨勢轉強但尚未觸發突破買點；趨勢分 6/8，量比 0.01，位階 高基期。"}]},{"code":"2357","name":"華碩","close":784,"percent":-1.507537688442211,"tradeVolume":5239.431,"avgVolume5":6266.31,"value":0,"swingScore":82,"score":82,"swingZone":"B","swingStage":{"label":"中位階","ratio":"0.53","tone":"mid","value":0.5300261096605744},"swingSignals":[{"id":"watch_trend","title":"","short":"B觀察","icon":"B","reason":"趨勢轉強但尚未觸發突破買點；趨勢分 5/8，量比 0.82，位階 中位階。"}]},{"code":"5455","name":"昇益","close":26.75,"percent":4.901960784313726,"tradeVolume":117.901,"avgVolume5":6623.78,"value":3102851,"swingScore":81,"score":81,"swingZone":"B","swingStage":{"label":"高基期","ratio":"0.95","tone":"high","value":0.95},"swingSignals":[{"id":"watch_trend","title":"","short":"B觀察","icon":"B","reason":"趨勢轉強但尚未觸發突破買點；趨勢分 6/8，量比 0.01，位階 高基期。"}]},{"code":"3276","name":"宇環","close":14.6,"percent":3.1802147957687836,"tradeVolume":655.127,"avgVolume5":18040.84,"value":9740907,"swingScore":81,"score":81,"swingZone":"B","swingStage":{"label":"低基期","ratio":"0.27","tone":"low","value":0.2749999999999999},"swingSignals":[{"id":"watch_trend","title":"","short":"B觀察","icon":"B","reason":"趨勢轉強但尚未觸發突破買點；趨勢分 5/8，量比 0.14，位階 低基期。"}]},{"code":"6662","name":"樂斯科","close":30.9,"percent":2.9999999999999956,"tradeVolume":5.103,"avgVolume5":7401.42,"value":154953,"swingScore":81,"score":81,"swingZone":"B","swingStage":{"label":"高基期","ratio":"0.66","tone":"high","value":0.6590906805244163},"swingSignals":[{"id":"watch_trend","title":"","short":"B觀察","icon":"B","reason":"趨勢轉強但尚未觸發突破買點；趨勢分 6/8，量比 0.00，位階 高基期。"}]},{"code":"4192","name":"杏國","close":21.1,"percent":2.9268292682926895,"tradeVolume":12.335,"avgVolume5":11219.27,"value":244700,"swingScore":81,"score":81,"swingZone":"B","swingStage":{"label":"高基期","ratio":"1.00","tone":"high","value":0.999999818347783},"swingSignals":[{"id":"watch_trend","title":"","short":"B觀察","icon":"B","reason":"趨勢轉強但尚未觸發突破買點；趨勢分 6/8，量比 0.00，位階 高基期。"}]},{"code":"6804","name":"明係","close":16.45,"percent":1.857587545237523,"tradeVolume":67.13,"avgVolume5":21885.03,"value":1097480,"swingScore":81,"score":81,"swingZone":"B","swingStage":{"label":"高基期","ratio":"0.79","tone":"high","value":0.7948716795029546},"swingSignals":[{"id":"watch_trend","title":"","short":"B觀察","icon":"B","reason":"趨勢轉強但尚未觸發突破買點；趨勢分 6/8，量比 0.00，位階 高基期。"}]},{"code":"2432","name":"倚天酷碁-創","close":28.399999618530273,"percent":1.610013750652559,"tradeVolume":107.31,"avgVolume5":13919.88,"value":0,"swingScore":81,"score":81,"swingZone":"B","swingStage":{"label":"高基期","ratio":"0.65","tone":"high","value":0.6530610417783341},"swingSignals":[{"id":"watch_trend","title":"","short":"B觀察","icon":"B","reason":"趨勢轉強但尚未觸發突破買點；趨勢分 6/8，量比 0.00，位階 高基期。"}]},{"code":"3465","name":"進泰電子","close":32.45,"percent":1.0903474844744279,"tradeVolume":27.011,"avgVolume5":38464.6,"value":872552,"swingScore":81,"score":81,"swingZone":"B","swingStage":{"label":"高基期","ratio":"0.65","tone":"high","value":0.6538462634824422},"swingSignals":[{"id":"watch_trend","title":"","short":"B觀察","icon":"B","reason":"趨勢轉強但尚未觸發突破買點；趨勢分 6/8，量比 0.00，位階 高基期。"}]},{"code":"3523","name":"迎輝","close":16.2,"percent":0.9345842371947931,"tradeVolume":29.434,"avgVolume5":31056.25,"value":474246,"swingScore":81,"score":81,"swingZone":"B","swingStage":{"label":"中位階","ratio":"0.49","tone":"mid","value":0.4850255503219957},"swingSignals":[{"id":"watch_trend","title":"","short":"B觀察","icon":"B","reason":"趨勢轉強但尚未觸發突破買點；趨勢分 5/8，量比 0.00，位階 中位階。"}]},{"code":"2412","name":"中華電","close":145,"percent":0.6944444444444444,"tradeVolume":17482.514,"avgVolume5":15808.39,"value":0,"swingScore":81,"score":81,"swingZone":"B","swingStage":{"label":"過熱","ratio":"1.00+","tone":"hot","value":1},"swingSignals":[{"id":"watch_trend","title":"","short":"B觀察","icon":"B","reason":"趨勢轉強但尚未觸發突破買點；趨勢分 6/8，量比 0.98，位階 過熱。"}]},{"code":"8432","name":"東生華","close":53.1,"percent":0.18867924528302155,"tradeVolume":108.746,"avgVolume5":26266.78,"value":5757768,"swingScore":81,"score":81,"swingZone":"B","swingStage":{"label":"高基期","ratio":"0.94","tone":"high","value":0.9374997218451682},"swingSignals":[{"id":"watch_trend","title":"","short":"B觀察","icon":"B","reason":"趨勢轉強但尚未觸發突破買點；趨勢分 6/8，量比 0.00，位階 高基期。"}]},{"code":"7708","name":"全家餐飲","close":93.2,"percent":0.10741302633501804,"tradeVolume":12.504,"avgVolume5":12239.3,"value":1160152,"swingScore":81,"score":81,"swingZone":"B","swingStage":{"label":"高基期","ratio":"0.63","tone":"high","value":0.6304343283062247},"swingSignals":[{"id":"watch_trend","title":"","short":"B觀察","icon":"B","reason":"趨勢轉強但尚未觸發突破買點；趨勢分 6/8，量比 0.00，位階 高基期。"}]},{"code":"4702","name":"中美實","close":10,"percent":0,"tradeVolume":179.566,"avgVolume5":18952.81,"value":1795276,"swingScore":81,"score":81,"swingZone":"B","swingStage":{"label":"中位階","ratio":"0.44","tone":"mid","value":0.44444412334190675},"swingSignals":[{"id":"watch_trend","title":"","short":"B觀察","icon":"B","reason":"趨勢轉強但尚未觸發突破買點；趨勢分 5/8，量比 0.01，位階 中位階。"}]},{"code":"6128","name":"上福","close":20.299999237060547,"percent":0,"tradeVolume":275.373,"avgVolume5":18962.11,"value":0,"swingScore":81,"score":81,"swingZone":"B","swingStage":{"label":"中位階","ratio":"0.62","tone":"mid","value":0.6153843896627512},"swingSignals":[{"id":"watch_trend","title":"","short":"B觀察","icon":"B","reason":"趨勢轉強但尚未觸發突破買點；趨勢分 5/8，量比 0.03，位階 中位階。"}]},{"code":"2887","name":"台新新光金","close":28.75,"percent":-0.5190298287550695,"tradeVolume":65034.414,"avgVolume5":112658.93,"value":0,"swingScore":81,"score":81,"swingZone":"B","swingStage":{"label":"高基期","ratio":"0.87","tone":"high","value":0.8676471000724232},"swingSignals":[{"id":"watch_trend","title":"","short":"B觀察","icon":"B","reason":"趨勢轉強但尚未觸發突破買點；趨勢分 5/8，量比 0.43，位階 高基期。"}]},{"code":"2718","name":"全心投控","close":47.6,"percent":-0.5224628674884911,"tradeVolume":57.057,"avgVolume5":51412.41,"value":2704096,"swingScore":81,"score":81,"swingZone":"B","swingStage":{"label":"高基期","ratio":"0.94","tone":"high","value":0.9416058264084035},"swingSignals":[{"id":"watch_trend","title":"","short":"B觀察","icon":"B","reason":"趨勢轉強但尚未觸發突破買點；趨勢分 6/8，量比 0.00，位階 高基期。"}]},{"code":"8084","name":"巨虹","close":46.9,"percent":-1.054855505871498,"tradeVolume":52.382,"avgVolume5":18522.08,"value":2435233,"swingScore":81,"score":81,"swingZone":"B","swingStage":{"label":"中位階","ratio":"0.59","tone":"mid","value":0.5869564730638857},"swingSignals":[{"id":"watch_trend","title":"","short":"B觀察","icon":"B","reason":"趨勢轉強但尚未觸發突破買點；趨勢分 5/8，量比 0.00，位階 中位階。"}]},{"code":"3018","name":"隆銘綠能","close":11.850000381469727,"percent":-1.2499968210856118,"tradeVolume":8260,"avgVolume5":21225,"value":0,"swingScore":81,"score":81,"swingZone":"B","swingStage":{"label":"高基期","ratio":"0.80","tone":"high","value":0.8000001173753005},"swingSignals":[{"id":"watch_trend","title":"","short":"B觀察","icon":"B","reason":"趨勢轉強但尚未觸發突破買點；趨勢分 5/8，量比 0.34，位階 高基期。"}]}]}
