{"ok":true,"source":"strategy4-preset","updatedAt":"2026-06-09T06:53:44.896Z","scanStamp":"20260609","total":1953,"complete":true,"zone":"B","page":24,"pageSize":25,"totalPages":26,"totalCount":630,"count":25,"matches":[{"code":"9906","name":"欣巴巴","close":42.05,"percent":-0.591016548463357,"tradeVolume":207,"value":8704350,"swingScore":78,"score":78,"swingZone":"B","swingStage":{"label":"高基期","ratio":"0.86","tone":"high","value":0.8587786259541983},"swingSignals":[{"id":"watch_trend","title":"","short":"B觀察","icon":"B","reason":"趨勢轉強但尚未觸發突破買點；趨勢分 5/8，量比 0.00，位階 高基期。"}]},{"code":"3346","name":"麗清","close":24.8,"percent":-0.7999999999999973,"tradeVolume":964,"value":23907200,"swingScore":78,"score":78,"swingZone":"B","swingStage":{"label":"高基期","ratio":"0.81","tone":"high","value":0.8135593220338984},"swingSignals":[{"id":"watch_trend","title":"","short":"B觀察","icon":"B","reason":"趨勢轉強但尚未觸發突破買點；趨勢分 5/8，量比 0.00，位階 高基期。"}]},{"code":"9110","name":"越南控-DR","close":3.74,"percent":-1.5789473684210422,"tradeVolume":58,"value":216920,"swingScore":78,"score":78,"swingZone":"B","swingStage":{"label":"高基期","ratio":"0.85","tone":"high","value":0.8533333333333335},"swingSignals":[{"id":"watch_trend","title":"","short":"B觀察","icon":"B","reason":"趨勢轉強但尚未觸發突破買點；趨勢分 5/8，量比 0.00，位階 高基期。"}]},{"code":"3311","name":"閎暉","close":39.8,"percent":-1.7283950617284023,"tradeVolume":2105,"value":83779000,"swingScore":78,"score":78,"swingZone":"B","swingStage":{"label":"高基期","ratio":"0.76","tone":"high","value":0.7620967741935482},"swingSignals":[{"id":"watch_trend","title":"","short":"B觀察","icon":"B","reason":"趨勢轉強但尚未觸發突破買點；趨勢分 5/8，量比 0.00，位階 高基期。"}]},{"code":"4807","name":"日成-KY","close":33.95,"percent":-2.020202020202008,"tradeVolume":387,"value":13138650,"swingScore":78,"score":78,"swingZone":"B","swingStage":{"label":"高基期","ratio":"0.80","tone":"high","value":0.7962577962577964},"swingSignals":[{"id":"watch_trend","title":"","short":"B觀察","icon":"B","reason":"趨勢轉強但尚未觸發突破買點；趨勢分 5/8，量比 0.00，位階 高基期。"}]},{"code":"5381","name":"光譜","close":33.2,"percent":-2.35294117647058,"tradeVolume":14857,"value":493252400,"swingScore":78,"score":78,"swingZone":"B","swingStage":{"label":"高基期","ratio":"0.82","tone":"high","value":0.8223938223938226},"swingSignals":[{"id":"watch_trend","title":"","short":"B觀察","icon":"B","reason":"趨勢轉強但尚未觸發突破買點；趨勢分 5/8，量比 0.01，位階 高基期。"}]},{"code":"5864","name":"致和證","close":46.7,"percent":-3.2124352331606163,"tradeVolume":21294,"value":994429800,"swingScore":78,"score":78,"swingZone":"B","swingStage":{"label":"高基期","ratio":"0.77","tone":"high","value":0.7653061224489797},"swingSignals":[{"id":"watch_trend","title":"","short":"B觀察","icon":"B","reason":"趨勢轉強但尚未觸發突破買點；趨勢分 5/8，量比 0.00，位階 高基期。"}]},{"code":"8935","name":"邦泰","close":23,"percent":-3.3613445378151288,"tradeVolume":1574,"value":36202000,"swingScore":78,"score":78,"swingZone":"B","swingStage":{"label":"高基期","ratio":"0.74","tone":"high","value":0.7375886524822693},"swingSignals":[{"id":"watch_trend","title":"","short":"B觀察","icon":"B","reason":"趨勢轉強但尚未觸發突破買點；趨勢分 5/8，量比 0.00，位階 高基期。"}]},{"code":"2461","name":"光群雷","close":19.25,"percent":-4.2288557213930416,"tradeVolume":7620,"value":146685000,"swingScore":78,"score":78,"swingZone":"B","swingStage":{"label":"高基期","ratio":"0.69","tone":"high","value":0.6875},"swingSignals":[{"id":"watch_trend","title":"","short":"B觀察","icon":"B","reason":"趨勢轉強但尚未觸發突破買點；趨勢分 5/8，量比 0.00，位階 高基期。"}]},{"code":"5202","name":"力新","close":16.35,"percent":-5.491329479768782,"tradeVolume":4761,"value":77842350,"swingScore":78,"score":78,"swingZone":"B","swingStage":{"label":"高基期","ratio":"0.75","tone":"high","value":0.7462686567164181},"swingSignals":[{"id":"watch_trend","title":"","short":"B觀察","icon":"B","reason":"趨勢轉強但尚未觸發突破買點；趨勢分 5/8，量比 0.01，位階 高基期。"}]},{"code":"1718","name":"中纖","close":9.41,"percent":-5.899999999999999,"tradeVolume":39139,"value":368297990,"swingScore":78,"score":78,"swingZone":"B","swingStage":{"label":"高基期","ratio":"0.70","tone":"high","value":0.7022222222222223},"swingSignals":[{"id":"watch_trend","title":"","short":"B觀察","icon":"B","reason":"趨勢轉強但尚未觸發突破買點；趨勢分 5/8，量比 0.00，位階 高基期。"}]},{"code":"3114","name":"好德","close":41.35,"percent":-7.494407158836691,"tradeVolume":2081,"value":86049350,"swingScore":78,"score":78,"swingZone":"B","swingStage":{"label":"高基期","ratio":"0.68","tone":"high","value":0.6802575107296138},"swingSignals":[{"id":"watch_trend","title":"","short":"B觀察","icon":"B","reason":"趨勢轉強但尚未觸發突破買點；趨勢分 5/8，量比 0.00，位階 高基期。"}]},{"code":"9136","name":"巨騰-DR","close":16.2,"percent":-8.732394366197187,"tradeVolume":10084,"value":163360800,"swingScore":78,"score":78,"swingZone":"B","swingStage":{"label":"高基期","ratio":"0.74","tone":"high","value":0.7445600756859035},"swingSignals":[{"id":"watch_trend","title":"","short":"B觀察","icon":"B","reason":"趨勢轉強但尚未觸發突破買點；趨勢分 5/8，量比 0.00，位階 高基期。"}]},{"code":"5701","name":"劍湖山","close":5.53,"percent":-9.787928221859701,"tradeVolume":1136,"value":6282080,"swingScore":78,"score":78,"swingZone":"B","swingStage":{"label":"高基期","ratio":"0.71","tone":"high","value":0.7078313253012049},"swingSignals":[{"id":"watch_trend","title":"","short":"B觀察","icon":"B","reason":"趨勢轉強但尚未觸發突破買點；趨勢分 5/8，量比 0.00，位階 高基期。"}]},{"code":"3583","name":"辛耘","close":866,"percent":7.311028500619579,"tradeVolume":1945,"value":1684370000,"swingScore":77,"score":77,"swingZone":"B","swingStage":{"label":"中位階","ratio":"0.58","tone":"mid","value":0.5764705882352941},"swingSignals":[{"id":"watch_trend","title":"","short":"B觀察","icon":"B","reason":"趨勢轉強但尚未觸發突破買點；趨勢分 5/8，量比 0.00，位階 中位階。"}]},{"code":"7795","name":"長廣","close":390,"percent":6.8493150684931505,"tradeVolume":246,"value":95940000,"swingScore":77,"score":77,"swingZone":"B","swingStage":{"label":"中位階","ratio":"0.41","tone":"mid","value":0.4075471698113208},"swingSignals":[{"id":"watch_trend","title":"","short":"B觀察","icon":"B","reason":"趨勢轉強但尚未觸發突破買點；趨勢分 5/8，量比 0.00，位階 中位階。"}]},{"code":"1776","name":"展宇","close":18.45,"percent":1.6528925619834753,"tradeVolume":230,"value":4243500,"swingScore":77,"score":77,"swingZone":"B","swingStage":{"label":"中位階","ratio":"0.54","tone":"mid","value":0.5434782608695651},"swingSignals":[{"id":"watch_trend","title":"","short":"B觀察","icon":"B","reason":"趨勢轉強但尚未觸發突破買點；趨勢分 5/8，量比 0.00，位階 中位階。"}]},{"code":"9944","name":"新麗","close":16.9,"percent":0.5952380952380826,"tradeVolume":76,"value":1284400,"swingScore":77,"score":77,"swingZone":"B","swingStage":{"label":"中位階","ratio":"0.47","tone":"mid","value":0.4705882352941162},"swingSignals":[{"id":"watch_trend","title":"","short":"B觀察","icon":"B","reason":"趨勢轉強但尚未觸發突破買點；趨勢分 5/8，量比 0.00，位階 中位階。"}]},{"code":"8064","name":"東捷","close":149,"percent":-1.9736842105263157,"tradeVolume":12220,"value":1820780000,"swingScore":77,"score":77,"swingZone":"B","swingStage":{"label":"高基期","ratio":"0.65","tone":"high","value":0.6484375},"swingSignals":[{"id":"watch_trend","title":"","short":"B觀察","icon":"B","reason":"趨勢轉強但尚未觸發突破買點；趨勢分 5/8，量比 0.87，位階 高基期。"}]},{"code":"3485","name":"敘豐","close":328,"percent":2.5,"tradeVolume":267,"value":87576000,"swingScore":76,"score":76,"swingZone":"B","swingStage":{"label":"高基期","ratio":"0.63","tone":"high","value":0.6287425149700598},"swingSignals":[{"id":"watch_trend","title":"","short":"B觀察","icon":"B","reason":"趨勢轉強但尚未觸發突破買點；趨勢分 5/8，量比 0.00，位階 高基期。"}]},{"code":"2344","name":"華邦電","close":156.5,"percent":1.6233766233766231,"tradeVolume":200837,"value":31430990500,"swingScore":76,"score":76,"swingZone":"B","swingStage":{"label":"高基期","ratio":"0.67","tone":"high","value":0.6657509157509157},"swingSignals":[{"id":"watch_trend","title":"","short":"B觀察","icon":"B","reason":"趨勢轉強但尚未觸發突破買點；趨勢分 5/8，量比 0.00，位階 高基期。"}]},{"code":"2641","name":"正德","close":19.25,"percent":1.3157894736842104,"tradeVolume":4163,"value":80137750,"swingScore":76,"score":76,"swingZone":"B","swingStage":{"label":"高基期","ratio":"0.66","tone":"high","value":0.6621621621621621},"swingSignals":[{"id":"watch_trend","title":"","short":"B觀察","icon":"B","reason":"趨勢轉強但尚未觸發突破買點；趨勢分 5/8，量比 0.00，位階 高基期。"}]},{"code":"6266","name":"泰詠","close":27.9,"percent":0.9041591320072333,"tradeVolume":410,"value":11439000,"swingScore":76,"score":76,"swingZone":"B","swingStage":{"label":"高基期","ratio":"0.67","tone":"high","value":0.6666666666666659},"swingSignals":[{"id":"watch_trend","title":"","short":"B觀察","icon":"B","reason":"趨勢轉強但尚未觸發突破買點；趨勢分 5/8，量比 0.00，位階 高基期。"}]},{"code":"7713","name":"威力德生醫","close":71.1,"percent":0.5657708628005537,"tradeVolume":5,"value":355500,"swingScore":76,"score":76,"swingZone":"B","swingStage":{"label":"高基期","ratio":"0.64","tone":"high","value":0.636363636363635},"swingSignals":[{"id":"watch_trend","title":"","short":"B觀察","icon":"B","reason":"趨勢轉強但尚未觸發突破買點；趨勢分 5/8，量比 0.00，位階 高基期。"}]},{"code":"2439","name":"美律","close":90.6,"percent":0.5549389567147615,"tradeVolume":1560,"value":141336000,"swingScore":76,"score":76,"swingZone":"B","swingStage":{"label":"高基期","ratio":"0.62","tone":"high","value":0.6220472440944874},"swingSignals":[{"id":"watch_trend","title":"","short":"B觀察","icon":"B","reason":"趨勢轉強但尚未觸發突破買點；趨勢分 5/8，量比 0.00，位階 高基期。"}]}]}
