{"ok":true,"source":"strategy4-preset","updatedAt":"2026-06-06T12:34:51.971Z","scanStamp":"20260606","total":1957,"complete":true,"zone":"C","page":13,"pageSize":25,"totalPages":14,"totalCount":348,"count":25,"matches":[{"code":"6150","name":"撼訊","close":67.8,"percent":-5.0420168067227005,"tradeVolume":953,"value":64613400,"swingScore":65,"score":65,"swingZone":"C","swingStage":{"label":"中位階","ratio":"0.48","tone":"mid","value":0.48196721311475405},"swingSignals":[{"id":"base_setup","title":"","short":"C準備","icon":"C","reason":"低/中位階整理接近發動；準備分 5/7，RSI 51.5，量比 0.62。"}]},{"code":"4131","name":"浩泰","close":33.4,"percent":0,"tradeVolume":7,"value":233800,"swingScore":64,"score":64,"swingZone":"C","swingStage":{"label":"低基期","ratio":"0.18","tone":"low","value":0.18181818181818124},"swingSignals":[{"id":"base_setup","title":"","short":"C準備","icon":"C","reason":"低/中位階整理接近發動；準備分 5/7，RSI 35.0，量比 0.14。"}]},{"code":"6767","name":"台微醫","close":25.6,"percent":-1.538461538461533,"tradeVolume":10,"value":256000,"swingScore":64,"score":64,"swingZone":"C","swingStage":{"label":"低基期","ratio":"0.32","tone":"low","value":0.32142857142857184},"swingSignals":[{"id":"base_setup","title":"","short":"C準備","icon":"C","reason":"低/中位階整理接近發動；準備分 5/7，RSI 34.8，量比 0.48。"}]},{"code":"8086","name":"宏捷科","close":156,"percent":-1.8867924528301887,"tradeVolume":3946,"value":615576000,"swingScore":64,"score":64,"swingZone":"C","swingStage":{"label":"中位階","ratio":"0.49","tone":"mid","value":0.4857142857142857},"swingSignals":[{"id":"base_setup","title":"","short":"C準備","icon":"C","reason":"低/中位階整理接近發動；準備分 5/7，RSI 55.5，量比 0.54。"}]},{"code":"3666","name":"光耀","close":26.75,"percent":-2.0146520146520173,"tradeVolume":80,"value":2140000,"swingScore":64,"score":64,"swingZone":"C","swingStage":{"label":"中位階","ratio":"0.52","tone":"mid","value":0.5190839694656488},"swingSignals":[{"id":"base_setup","title":"","short":"C準備","icon":"C","reason":"低/中位階整理接近發動；準備分 5/7，RSI 47.1，量比 0.50。"}]},{"code":"3163","name":"波若威","close":1020,"percent":3.0303030303030303,"tradeVolume":4666,"value":4759320000,"swingScore":63,"score":63,"swingZone":"C","swingStage":{"label":"低基期","ratio":"0.34","tone":"low","value":0.34444444444444444},"swingSignals":[{"id":"base_setup","title":"","short":"C準備","icon":"C","reason":"低/中位階整理接近發動；準備分 5/7，RSI 57.2，量比 0.00。"}]},{"code":"8227","name":"巨有科技","close":203,"percent":2.7848101265822782,"tradeVolume":1269,"value":257607000,"swingScore":63,"score":63,"swingZone":"C","swingStage":{"label":"高基期","ratio":"0.64","tone":"high","value":0.640625},"swingSignals":[{"id":"base_setup","title":"","short":"C準備","icon":"C","reason":"低/中位階整理接近發動；準備分 5/7，RSI 48.3，量比 0.71。"}]},{"code":"1457","name":"宜進","close":15.5,"percent":2.6490066225165587,"tradeVolume":1084,"value":16802000,"swingScore":63,"score":63,"swingZone":"C","swingStage":{"label":"中位階","ratio":"0.42","tone":"mid","value":0.41935483870967794},"swingSignals":[{"id":"base_setup","title":"","short":"C準備","icon":"C","reason":"低/中位階整理接近發動；準備分 5/7，RSI 52.2，量比 0.01。"}]},{"code":"2367","name":"燿華","close":63.1,"percent":1.7741935483870992,"tradeVolume":35287,"value":2226609700,"swingScore":63,"score":63,"swingZone":"C","swingStage":{"label":"低基期","ratio":"0.32","tone":"low","value":0.31950207468879677},"swingSignals":[{"id":"base_setup","title":"","short":"C準備","icon":"C","reason":"低/中位階整理接近發動；準備分 5/7，RSI 47.3，量比 0.00。"}]},{"code":"6661","name":"威健生技","close":16.35,"percent":1.5527950310559004,"tradeVolume":22,"value":359700,"swingScore":63,"score":63,"swingZone":"C","swingStage":{"label":"低基期","ratio":"0.16","tone":"low","value":0.1551724137931038},"swingSignals":[{"id":"base_setup","title":"","short":"C準備","icon":"C","reason":"低/中位階整理接近發動；準備分 5/7，RSI 32.1，量比 0.00。"}]},{"code":"8147","name":"正淩","close":165,"percent":1.5384615384615385,"tradeVolume":622,"value":102630000,"swingScore":63,"score":63,"swingZone":"C","swingStage":{"label":"中位階","ratio":"0.41","tone":"mid","value":0.4144144144144144},"swingSignals":[{"id":"base_setup","title":"","short":"C準備","icon":"C","reason":"低/中位階整理接近發動；準備分 5/7，RSI 30.8，量比 0.42。"}]},{"code":"6111","name":"光聚晶電","close":44,"percent":1.1494252873563218,"tradeVolume":262,"value":11528000,"swingScore":63,"score":63,"swingZone":"C","swingStage":{"label":"低基期","ratio":"0.20","tone":"low","value":0.197530864197531},"swingSignals":[{"id":"base_setup","title":"","short":"C準備","icon":"C","reason":"低/中位階整理接近發動；準備分 5/7，RSI 31.7，量比 0.00。"}]},{"code":"2640","name":"大車隊","close":159.5,"percent":0.949367088607595,"tradeVolume":3,"value":478500,"swingScore":63,"score":63,"swingZone":"C","swingStage":{"label":"低基期","ratio":"0.14","tone":"low","value":0.13513513513513514},"swingSignals":[{"id":"base_setup","title":"","short":"C準備","icon":"C","reason":"低/中位階整理接近發動；準備分 5/7，RSI 31.0，量比 0.00。"}]},{"code":"3715","name":"定穎投控","close":170,"percent":0.591715976331361,"tradeVolume":5713,"value":971210000,"swingScore":63,"score":63,"swingZone":"C","swingStage":{"label":"低基期","ratio":"0.26","tone":"low","value":0.2619047619047619},"swingSignals":[{"id":"base_setup","title":"","short":"C準備","icon":"C","reason":"低/中位階整理接近發動；準備分 5/7，RSI 49.7，量比 0.00。"}]},{"code":"8109","name":"博大","close":120,"percent":0.41841004184100417,"tradeVolume":175,"value":21000000,"swingScore":63,"score":63,"swingZone":"C","swingStage":{"label":"中位階","ratio":"0.50","tone":"mid","value":0.5},"swingSignals":[{"id":"base_setup","title":"","short":"C準備","icon":"C","reason":"低/中位階整理接近發動；準備分 5/7，RSI 59.5，量比 0.42。"}]},{"code":"9944","name":"新麗","close":16.95,"percent":0.2958579881656847,"tradeVolume":51,"value":864450,"swingScore":63,"score":63,"swingZone":"C","swingStage":{"label":"高基期","ratio":"0.68","tone":"high","value":0.6799999999999983},"swingSignals":[{"id":"base_setup","title":"","short":"C準備","icon":"C","reason":"低/中位階整理接近發動；準備分 5/7，RSI 47.6，量比 0.00。"}]},{"code":"3593","name":"力銘","close":16.45,"percent":0,"tradeVolume":30,"value":493500,"swingScore":63,"score":63,"swingZone":"C","swingStage":{"label":"低基期","ratio":"0.33","tone":"low","value":0.33050847457627114},"swingSignals":[{"id":"base_setup","title":"","short":"C準備","icon":"C","reason":"低/中位階整理接近發動；準備分 5/7，RSI 36.0，量比 0.00。"}]},{"code":"8039","name":"台虹","close":140.5,"percent":0,"tradeVolume":8749,"value":1229234500,"swingScore":63,"score":63,"swingZone":"C","swingStage":{"label":"低基期","ratio":"0.33","tone":"low","value":0.3333333333333333},"swingSignals":[{"id":"base_setup","title":"","short":"C準備","icon":"C","reason":"低/中位階整理接近發動；準備分 5/7，RSI 50.0，量比 0.00。"}]},{"code":"3583","name":"辛耘","close":868,"percent":-0.45871559633027525,"tradeVolume":2121,"value":1841028000,"swingScore":63,"score":63,"swingZone":"C","swingStage":{"label":"高基期","ratio":"0.63","tone":"high","value":0.6311688311688312},"swingSignals":[{"id":"base_setup","title":"","short":"C準備","icon":"C","reason":"低/中位階整理接近發動；準備分 5/7，RSI 44.0，量比 0.00。"}]},{"code":"4950","name":"金耘國際","close":16.05,"percent":-0.619192699023563,"tradeVolume":11,"value":176550,"swingScore":63,"score":63,"swingZone":"C","swingStage":{"label":"低基期","ratio":"0.11","tone":"low","value":0.10975599430772805},"swingSignals":[{"id":"base_setup","title":"","short":"C準備","icon":"C","reason":"低/中位階整理接近發動；準備分 5/7，RSI 44.3，量比 0.00。"}]},{"code":"4154","name":"樂威科-KY","close":12.9,"percent":-1.1494252873563244,"tradeVolume":24,"value":309600,"swingScore":63,"score":63,"swingZone":"C","swingStage":{"label":"中位階","ratio":"0.42","tone":"mid","value":0.41573033707865165},"swingSignals":[{"id":"base_setup","title":"","short":"C準備","icon":"C","reason":"低/中位階整理接近發動；準備分 5/7，RSI 43.3，量比 0.70。"}]},{"code":"1711","name":"永光","close":47.45,"percent":-1.24869927159208,"tradeVolume":12104,"value":574334800,"swingScore":63,"score":63,"swingZone":"C","swingStage":{"label":"低基期","ratio":"0.36","tone":"low","value":0.3629489603024576},"swingSignals":[{"id":"base_setup","title":"","short":"C準備","icon":"C","reason":"低/中位階整理接近發動；準備分 5/7，RSI 44.3，量比 0.00。"}]},{"code":"3591","name":"艾笛森","close":24.25,"percent":-1.422764227642282,"tradeVolume":1194,"value":28954500,"swingScore":63,"score":63,"swingZone":"C","swingStage":{"label":"低基期","ratio":"0.30","tone":"low","value":0.30246913580246915},"swingSignals":[{"id":"base_setup","title":"","short":"C準備","icon":"C","reason":"低/中位階整理接近發動；準備分 5/7，RSI 47.0，量比 0.00。"}]},{"code":"6533","name":"晶心科","close":221.5,"percent":-1.5555555555555556,"tradeVolume":588,"value":130242000,"swingScore":63,"score":63,"swingZone":"C","swingStage":{"label":"中位階","ratio":"0.45","tone":"mid","value":0.45365853658536587},"swingSignals":[{"id":"base_setup","title":"","short":"C準備","icon":"C","reason":"低/中位階整理接近發動；準備分 5/7，RSI 49.1，量比 0.00。"}]},{"code":"7631","name":"聚賢研發-創","close":125,"percent":-1.574803149606299,"tradeVolume":18,"value":2250000,"swingScore":63,"score":63,"swingZone":"C","swingStage":{"label":"中位階","ratio":"0.41","tone":"mid","value":0.4117647058823529},"swingSignals":[{"id":"base_setup","title":"","short":"C準備","icon":"C","reason":"低/中位階整理接近發動；準備分 5/7，RSI 54.3，量比 0.00。"}]}]}
