{"ok":true,"source":"strategy4-preset","updatedAt":"2026-06-06T12:34:51.971Z","scanStamp":"20260606","total":1957,"complete":true,"zone":"B","page":30,"pageSize":25,"totalPages":41,"totalCount":1020,"count":25,"matches":[{"code":"2390","name":"云辰","close":12.1,"percent":-7.633587786259542,"tradeVolume":2823,"value":34158300,"swingScore":81,"score":81,"swingZone":"B","swingStage":{"label":"高基期","ratio":"0.64","tone":"high","value":0.6420581655480985},"swingSignals":[{"id":"watch_trend","title":"","short":"B觀察","icon":"B","reason":"趨勢轉強但尚未觸發突破買點；趨勢分 6/8，量比 0.00，位階 高基期。"}]},{"code":"6770","name":"力積電","close":74.6,"percent":-7.901234567901241,"tradeVolume":103591,"value":7727888600,"swingScore":81,"score":81,"swingZone":"B","swingStage":{"label":"中位階","ratio":"0.54","tone":"mid","value":0.5425287356321837},"swingSignals":[{"id":"watch_trend","title":"","short":"B觀察","icon":"B","reason":"趨勢轉強但尚未觸發突破買點；趨勢分 5/8，量比 0.00，位階 中位階。"}]},{"code":"3234","name":"光環","close":125,"percent":-8.424908424908425,"tradeVolume":4366,"value":545750000,"swingScore":81,"score":81,"swingZone":"B","swingStage":{"label":"高基期","ratio":"0.65","tone":"high","value":0.6538461538461539},"swingSignals":[{"id":"watch_trend","title":"","short":"B觀察","icon":"B","reason":"趨勢轉強但尚未觸發突破買點；趨勢分 6/8，量比 0.00，位階 高基期。"}]},{"code":"6742","name":"澤米","close":58,"percent":-8.805031446540882,"tradeVolume":1334,"value":77372000,"swingScore":81,"score":81,"swingZone":"B","swingStage":{"label":"高基期","ratio":"0.77","tone":"high","value":0.7743785850860421},"swingSignals":[{"id":"watch_trend","title":"","short":"B觀察","icon":"B","reason":"趨勢轉強但尚未觸發突破買點；趨勢分 6/8，量比 0.00，位階 高基期。"}]},{"code":"1609","name":"大亞","close":39.1,"percent":-9.069767441860462,"tradeVolume":23159,"value":905516900,"swingScore":81,"score":81,"swingZone":"B","swingStage":{"label":"中位階","ratio":"0.57","tone":"mid","value":0.5714285714285716},"swingSignals":[{"id":"watch_trend","title":"","short":"B觀察","icon":"B","reason":"趨勢轉強但尚未觸發突破買點；趨勢分 5/8，量比 0.00，位階 中位階。"}]},{"code":"2061","name":"風青","close":39.8,"percent":-9.132420091324201,"tradeVolume":1014,"value":40357200,"swingScore":81,"score":81,"swingZone":"B","swingStage":{"label":"高基期","ratio":"0.83","tone":"high","value":0.8280467445742903},"swingSignals":[{"id":"watch_trend","title":"","short":"B觀察","icon":"B","reason":"趨勢轉強但尚未觸發突破買點；趨勢分 5/8，量比 0.40，位階 高基期。"}]},{"code":"2352","name":"佳世達","close":31.1,"percent":-9.1970802919708,"tradeVolume":26425,"value":821817500,"swingScore":81,"score":81,"swingZone":"B","swingStage":{"label":"高基期","ratio":"0.62","tone":"high","value":0.6212765957446811},"swingSignals":[{"id":"watch_trend","title":"","short":"B觀察","icon":"B","reason":"趨勢轉強但尚未觸發突破買點；趨勢分 6/8，量比 0.00，位階 高基期。"}]},{"code":"1514","name":"亞力","close":135,"percent":-9.698996655518394,"tradeVolume":13375,"value":1805625000,"swingScore":81,"score":81,"swingZone":"B","swingStage":{"label":"高基期","ratio":"0.69","tone":"high","value":0.6914893617021277},"swingSignals":[{"id":"watch_trend","title":"","short":"B觀察","icon":"B","reason":"趨勢轉強但尚未觸發突破買點；趨勢分 6/8，量比 0.00，位階 高基期。"}]},{"code":"6265","name":"方土昶","close":57.6,"percent":-9.85915492957746,"tradeVolume":15051,"value":866937600,"swingScore":81,"score":81,"swingZone":"B","swingStage":{"label":"高基期","ratio":"0.76","tone":"high","value":0.760539629005059},"swingSignals":[{"id":"watch_trend","title":"","short":"B觀察","icon":"B","reason":"趨勢轉強但尚未觸發突破買點；趨勢分 6/8，量比 0.00，位階 高基期。"}]},{"code":"1504","name":"東元","close":78.4,"percent":-9.88505747126436,"tradeVolume":101139,"value":7929297600,"swingScore":81,"score":81,"swingZone":"B","swingStage":{"label":"高基期","ratio":"0.64","tone":"high","value":0.6363636363636367},"swingSignals":[{"id":"watch_trend","title":"","short":"B觀察","icon":"B","reason":"趨勢轉強但尚未觸發突破買點；趨勢分 6/8，量比 0.00，位階 高基期。"}]},{"code":"6282","name":"康舒","close":63.8,"percent":-9.887005649717514,"tradeVolume":112078,"value":7150576400,"swingScore":81,"score":81,"swingZone":"B","swingStage":{"label":"高基期","ratio":"0.73","tone":"high","value":0.7286821705426356},"swingSignals":[{"id":"watch_trend","title":"","short":"B觀察","icon":"B","reason":"趨勢轉強但尚未觸發突破買點；趨勢分 6/8，量比 0.00，位階 高基期。"}]},{"code":"1503","name":"士電","close":241.5,"percent":-9.888059701492537,"tradeVolume":26557,"value":6413515500,"swingScore":81,"score":81,"swingZone":"B","swingStage":{"label":"高基期","ratio":"0.68","tone":"high","value":0.6836158192090396},"swingSignals":[{"id":"watch_trend","title":"","short":"B觀察","icon":"B","reason":"趨勢轉強但尚未觸發突破買點；趨勢分 6/8，量比 0.00，位階 高基期。"}]},{"code":"4908","name":"前鼎","close":226.5,"percent":125.37313432835822,"tradeVolume":1881,"value":426046500,"swingScore":80,"score":80,"swingZone":"B","swingStage":{"label":"高基期","ratio":"0.95","tone":"high","value":0.9543239951278928},"swingSignals":[{"id":"watch_trend","title":"","short":"B觀察","icon":"B","reason":"趨勢轉強但尚未觸發突破買點；趨勢分 5/8，量比 0.25，位階 高基期。"}]},{"code":"8358","name":"金居","close":596,"percent":5.486725663716814,"tradeVolume":3197,"value":1905412000,"swingScore":80,"score":80,"swingZone":"B","swingStage":{"label":"高基期","ratio":"0.78","tone":"high","value":0.7833333333333333},"swingSignals":[{"id":"watch_trend","title":"","short":"B觀察","icon":"B","reason":"趨勢轉強但尚未觸發突破買點；趨勢分 5/8，量比 0.25，位階 高基期。"}]},{"code":"6788","name":"華景電","close":430.5,"percent":5.385556915544676,"tradeVolume":1411,"value":607435500,"swingScore":80,"score":80,"swingZone":"B","swingStage":{"label":"中位階","ratio":"0.39","tone":"mid","value":0.3860103626943005},"swingSignals":[{"id":"watch_trend","title":"","short":"B觀察","icon":"B","reason":"趨勢轉強但尚未觸發突破買點；趨勢分 6/8，量比 0.00，位階 中位階。"}]},{"code":"4995","name":"晶達","close":46.15,"percent":1.2061437374631527,"tradeVolume":32,"value":1476800,"swingScore":80,"score":80,"swingZone":"B","swingStage":{"label":"中位階","ratio":"0.51","tone":"mid","value":0.5101010856087291},"swingSignals":[{"id":"watch_trend","title":"","short":"B觀察","icon":"B","reason":"趨勢轉強但尚未觸發突破買點；趨勢分 6/8，量比 0.00，位階 中位階。"}]},{"code":"6570","name":"維田","close":58.4,"percent":1.0380622837370268,"tradeVolume":151,"value":8818400,"swingScore":80,"score":80,"swingZone":"B","swingStage":{"label":"高基期","ratio":"0.74","tone":"high","value":0.740875912408759},"swingSignals":[{"id":"watch_trend","title":"","short":"B觀察","icon":"B","reason":"趨勢轉強但尚未觸發突破買點；趨勢分 5/8，量比 0.27，位階 高基期。"}]},{"code":"6944","name":"兆聯實業","close":939,"percent":0.5353319057815845,"tradeVolume":622,"value":584058000,"swingScore":80,"score":80,"swingZone":"B","swingStage":{"label":"低基期","ratio":"0.37","tone":"low","value":0.3727810650887574},"swingSignals":[{"id":"watch_trend","title":"","short":"B觀察","icon":"B","reason":"趨勢轉強但尚未觸發突破買點；趨勢分 5/8，量比 0.00，位階 低基期。"}]},{"code":"8996","name":"高力","close":1125,"percent":0.4464285714285714,"tradeVolume":2825,"value":3178125000,"swingScore":80,"score":80,"swingZone":"B","swingStage":{"label":"中位階","ratio":"0.44","tone":"mid","value":0.4393939393939394},"swingSignals":[{"id":"watch_trend","title":"","short":"B觀察","icon":"B","reason":"趨勢轉強但尚未觸發突破買點；趨勢分 6/8，量比 0.00，位階 中位階。"}]},{"code":"8390","name":"金益鼎","close":125,"percent":0,"tradeVolume":1078,"value":134750000,"swingScore":80,"score":80,"swingZone":"B","swingStage":{"label":"高基期","ratio":"0.90","tone":"high","value":0.895397489539749},"swingSignals":[{"id":"watch_trend","title":"","short":"B觀察","icon":"B","reason":"趨勢轉強但尚未觸發突破買點；趨勢分 6/8，量比 0.59，位階 高基期。"}]},{"code":"6474","name":"華豫寧","close":38.2,"percent":-0.13071895424835858,"tradeVolume":42,"value":1604400,"swingScore":80,"score":80,"swingZone":"B","swingStage":{"label":"中位階","ratio":"0.42","tone":"mid","value":0.4190476190476196},"swingSignals":[{"id":"watch_trend","title":"","short":"B觀察","icon":"B","reason":"趨勢轉強但尚未觸發突破買點；趨勢分 6/8，量比 0.00，位階 中位階。"}]},{"code":"8150","name":"南茂","close":96.8,"percent":-2.320886487926351,"tradeVolume":33765,"value":3268452000,"swingScore":80,"score":80,"swingZone":"B","swingStage":{"label":"高基期","ratio":"0.68","tone":"high","value":0.6754716981132075},"swingSignals":[{"id":"watch_trend","title":"","short":"B觀察","icon":"B","reason":"趨勢轉強但尚未觸發突破買點；趨勢分 5/8，量比 0.00，位階 高基期。"}]},{"code":"3555","name":"博士旺","close":226,"percent":-3.004291845493562,"tradeVolume":1405,"value":317530000,"swingScore":80,"score":80,"swingZone":"B","swingStage":{"label":"中位階","ratio":"0.47","tone":"mid","value":0.46634615384615385},"swingSignals":[{"id":"watch_trend","title":"","short":"B觀察","icon":"B","reason":"趨勢轉強但尚未觸發突破買點；趨勢分 6/8，量比 0.01，位階 中位階。"}]},{"code":"5386","name":"青雲","close":511,"percent":-13.827993254637436,"tradeVolume":2542,"value":1298962000,"swingScore":80,"score":80,"swingZone":"B","swingStage":{"label":"高基期","ratio":"0.79","tone":"high","value":0.7864963503649635},"swingSignals":[{"id":"watch_trend","title":"","short":"B觀察","icon":"B","reason":"趨勢轉強但尚未觸發突破買點；趨勢分 5/8，量比 1.23，位階 高基期。"}]},{"code":"3444","name":"利機","close":103,"percent":-0.9615384615384616,"tradeVolume":1501,"value":154603000,"swingScore":79,"score":79,"swingZone":"B","swingStage":{"label":"高基期","ratio":"0.62","tone":"high","value":0.6243291592128802},"swingSignals":[{"id":"watch_trend","title":"","short":"B觀察","icon":"B","reason":"趨勢轉強但尚未觸發突破買點；趨勢分 5/8，量比 1.14，位階 高基期。"}]}]}
