{"ok":true,"source":"strategy4-preset","updatedAt":"2026-06-06T12:34:51.971Z","scanStamp":"20260606","total":1957,"complete":true,"zone":"B","page":6,"pageSize":50,"totalPages":21,"totalCount":1020,"count":50,"matches":[{"code":"8467","name":"波力-KY","close":130.5,"percent":0.7722007722007722,"tradeVolume":3,"value":391500,"swingScore":88,"score":88,"swingZone":"B","swingStage":{"label":"低基期","ratio":"0.18","tone":"low","value":0.18055555555555555},"swingSignals":[{"id":"watch_trend","title":"","short":"B觀察","icon":"B","reason":"趨勢轉強但尚未觸發突破買點；趨勢分 5/8，量比 0.00，位階 低基期。"}]},{"code":"6581","name":"鋼聯","close":110,"percent":0.45662100456621,"tradeVolume":19,"value":2090000,"swingScore":88,"score":88,"swingZone":"B","swingStage":{"label":"中位階","ratio":"0.50","tone":"mid","value":0.5},"swingSignals":[{"id":"watch_trend","title":"","short":"B觀察","icon":"B","reason":"趨勢轉強但尚未觸發突破買點；趨勢分 6/8，量比 0.00，位階 中位階。"}]},{"code":"2613","name":"中櫃","close":22.4,"percent":0.4484339298687492,"tradeVolume":451,"value":10102400,"swingScore":88,"score":88,"swingZone":"B","swingStage":{"label":"中位階","ratio":"0.52","tone":"mid","value":0.5217389717894745},"swingSignals":[{"id":"watch_trend","title":"","short":"B觀察","icon":"B","reason":"趨勢轉強但尚未觸發突破買點；趨勢分 6/8，量比 0.00，位階 中位階。"}]},{"code":"8443","name":"阿瘦","close":11.4,"percent":0.4405286343612398,"tradeVolume":8,"value":91200,"swingScore":88,"score":88,"swingZone":"B","swingStage":{"label":"低基期","ratio":"0.35","tone":"low","value":0.34782608695652195},"swingSignals":[{"id":"watch_trend","title":"","short":"B觀察","icon":"B","reason":"趨勢轉強但尚未觸發突破買點；趨勢分 5/8，量比 0.00，位階 低基期。"}]},{"code":"2023","name":"燁輝","close":13.95,"percent":0.3597149844743138,"tradeVolume":1384,"value":19306800,"swingScore":88,"score":88,"swingZone":"B","swingStage":{"label":"中位階","ratio":"0.52","tone":"mid","value":0.5217389717894745},"swingSignals":[{"id":"watch_trend","title":"","short":"B觀察","icon":"B","reason":"趨勢轉強但尚未觸發突破買點；趨勢分 6/8，量比 0.00，位階 中位階。"}]},{"code":"1232","name":"大統益","close":149.5,"percent":0.33557046979865773,"tradeVolume":154,"value":23023000,"swingScore":88,"score":88,"swingZone":"B","swingStage":{"label":"中位階","ratio":"0.45","tone":"mid","value":0.45454545454545453},"swingSignals":[{"id":"watch_trend","title":"","short":"B觀察","icon":"B","reason":"趨勢轉強但尚未觸發突破買點；趨勢分 6/8，量比 0.00，位階 中位階。"}]},{"code":"4513","name":"福裕","close":15.25,"percent":0.3289473684210573,"tradeVolume":561,"value":8555250,"swingScore":88,"score":88,"swingZone":"B","swingStage":{"label":"中位階","ratio":"0.44","tone":"mid","value":0.4426229508196722},"swingSignals":[{"id":"watch_trend","title":"","short":"B觀察","icon":"B","reason":"趨勢轉強但尚未觸發突破買點；趨勢分 6/8，量比 0.00，位階 中位階。"}]},{"code":"4142","name":"國光生","close":17.85,"percent":0.2809031746212117,"tradeVolume":1147,"value":20473950,"swingScore":88,"score":88,"swingZone":"B","swingStage":{"label":"中位階","ratio":"0.44","tone":"mid","value":0.43750003973640517},"swingSignals":[{"id":"watch_trend","title":"","short":"B觀察","icon":"B","reason":"趨勢轉強但尚未觸發突破買點；趨勢分 6/8，量比 0.00，位階 中位階。"}]},{"code":"6153","name":"嘉聯益","close":18.5,"percent":0.2709985636476527,"tradeVolume":4557,"value":84304500,"swingScore":88,"score":88,"swingZone":"B","swingStage":{"label":"中位階","ratio":"0.40","tone":"mid","value":0.4000001387162642},"swingSignals":[{"id":"watch_trend","title":"","short":"B觀察","icon":"B","reason":"趨勢轉強但尚未觸發突破買點；趨勢分 6/8，量比 0.00，位階 中位階。"}]},{"code":"4746","name":"台耀","close":53.2,"percent":0.18832391713747915,"tradeVolume":500,"value":26600000,"swingScore":88,"score":88,"swingZone":"B","swingStage":{"label":"中位階","ratio":"0.45","tone":"mid","value":0.44927536231884085},"swingSignals":[{"id":"watch_trend","title":"","short":"B觀察","icon":"B","reason":"趨勢轉強但尚未觸發突破買點；趨勢分 6/8，量比 0.00，位階 中位階。"}]},{"code":"1760","name":"寶齡富錦","close":61.3,"percent":0.16339869281044822,"tradeVolume":260,"value":15938000,"swingScore":88,"score":88,"swingZone":"B","swingStage":{"label":"低基期","ratio":"0.12","tone":"low","value":0.11695906432748532},"swingSignals":[{"id":"watch_trend","title":"","short":"B觀察","icon":"B","reason":"趨勢轉強但尚未觸發突破買點；趨勢分 5/8，量比 0.00，位階 低基期。"}]},{"code":"1102","name":"亞泥","close":34.4,"percent":0.1455604075691329,"tradeVolume":14830,"value":510152000,"swingScore":88,"score":88,"swingZone":"B","swingStage":{"label":"中位階","ratio":"0.53","tone":"mid","value":0.5333333333333333},"swingSignals":[{"id":"watch_trend","title":"","short":"B觀察","icon":"B","reason":"趨勢轉強但尚未觸發突破買點；趨勢分 6/8，量比 0.00，位階 中位階。"}]},{"code":"5312","name":"寶島科","close":95.6,"percent":0.0000015961076620505527,"tradeVolume":71,"value":6787600,"swingScore":88,"score":88,"swingZone":"B","swingStage":{"label":"中位階","ratio":"0.41","tone":"mid","value":0.41095894133311517},"swingSignals":[{"id":"watch_trend","title":"","short":"B觀察","icon":"B","reason":"趨勢轉強但尚未觸發突破買點；趨勢分 6/8，量比 0.00，位階 中位階。"}]},{"code":"1220","name":"台榮","close":11.95,"percent":0,"tradeVolume":70,"value":836500,"swingScore":88,"score":88,"swingZone":"B","swingStage":{"label":"低基期","ratio":"0.28","tone":"low","value":0.2799999999999997},"swingSignals":[{"id":"watch_trend","title":"","short":"B觀察","icon":"B","reason":"趨勢轉強但尚未觸發突破買點；趨勢分 5/8，量比 0.00，位階 低基期。"}]},{"code":"2444","name":"兆勁","close":13.5,"percent":0,"tradeVolume":918,"value":12393000,"swingScore":88,"score":88,"swingZone":"B","swingStage":{"label":"中位階","ratio":"0.53","tone":"mid","value":0.5283018867924529},"swingSignals":[{"id":"watch_trend","title":"","short":"B觀察","icon":"B","reason":"趨勢轉強但尚未觸發突破買點；趨勢分 6/8，量比 0.00，位階 中位階。"}]},{"code":"2524","name":"京城","close":36.25,"percent":0,"tradeVolume":69,"value":2501250,"swingScore":88,"score":88,"swingZone":"B","swingStage":{"label":"中位階","ratio":"0.48","tone":"mid","value":0.48076927779459616},"swingSignals":[{"id":"watch_trend","title":"","short":"B觀察","icon":"B","reason":"趨勢轉強但尚未觸發突破買點；趨勢分 6/8，量比 0.00，位階 中位階。"}]},{"code":"3130","name":"一零四","close":222,"percent":0,"tradeVolume":32,"value":7104000,"swingScore":88,"score":88,"swingZone":"B","swingStage":{"label":"中位階","ratio":"0.38","tone":"mid","value":0.38461538461538464},"swingSignals":[{"id":"watch_trend","title":"","short":"B觀察","icon":"B","reason":"趨勢轉強但尚未觸發突破買點；趨勢分 6/8，量比 0.00，位階 中位階。"}]},{"code":"4153","name":"鈺緯","close":31.45,"percent":0,"tradeVolume":18,"value":566100,"swingScore":88,"score":88,"swingZone":"B","swingStage":{"label":"中位階","ratio":"0.56","tone":"mid","value":0.5571428571428569},"swingSignals":[{"id":"watch_trend","title":"","short":"B觀察","icon":"B","reason":"趨勢轉強但尚未觸發突破買點；趨勢分 5/8，量比 0.57，位階 中位階。"}]},{"code":"6246","name":"臺龍","close":16.1,"percent":0,"tradeVolume":96,"value":1545600,"swingScore":88,"score":88,"swingZone":"B","swingStage":{"label":"中位階","ratio":"0.40","tone":"mid","value":0.3978494623655918},"swingSignals":[{"id":"watch_trend","title":"","short":"B觀察","icon":"B","reason":"趨勢轉強但尚未觸發突破買點；趨勢分 6/8，量比 0.00，位階 中位階。"}]},{"code":"8097","name":"常珵","close":57.2,"percent":0,"tradeVolume":44,"value":2516800,"swingScore":88,"score":88,"swingZone":"B","swingStage":{"label":"中位階","ratio":"0.54","tone":"mid","value":0.5423728813559325},"swingSignals":[{"id":"watch_trend","title":"","short":"B觀察","icon":"B","reason":"趨勢轉強但尚未觸發突破買點；趨勢分 5/8，量比 0.40，位階 中位階。"}]},{"code":"9912","name":"偉聯","close":12.55,"percent":0,"tradeVolume":21,"value":263550,"swingScore":88,"score":88,"swingZone":"B","swingStage":{"label":"中位階","ratio":"0.61","tone":"mid","value":0.6086956521739137},"swingSignals":[{"id":"watch_trend","title":"","short":"B觀察","icon":"B","reason":"趨勢轉強但尚未觸發突破買點；趨勢分 6/8，量比 0.00，位階 中位階。"}]},{"code":"6807","name":"峰源-KY","close":33.8,"percent":-0.14771048744462115,"tradeVolume":22,"value":743600,"swingScore":88,"score":88,"swingZone":"B","swingStage":{"label":"低基期","ratio":"0.17","tone":"low","value":0.17171717171717132},"swingSignals":[{"id":"watch_trend","title":"","short":"B觀察","icon":"B","reason":"趨勢轉強但尚未觸發突破買點；趨勢分 5/8，量比 0.00，位階 低基期。"}]},{"code":"1101","name":"台泥","close":24.4,"percent":-0.2044989775051154,"tradeVolume":31180,"value":760792000,"swingScore":88,"score":88,"swingZone":"B","swingStage":{"label":"低基期","ratio":"0.27","tone":"low","value":0.2727272727272727},"swingSignals":[{"id":"watch_trend","title":"","short":"B觀察","icon":"B","reason":"趨勢轉強但尚未觸發突破買點；趨勢分 5/8，量比 0.00，位階 低基期。"}]},{"code":"1731","name":"美吾華","close":21.65,"percent":-0.2304147465437821,"tradeVolume":116,"value":2511400,"swingScore":88,"score":88,"swingZone":"B","swingStage":{"label":"中位階","ratio":"0.60","tone":"mid","value":0.5999999999999991},"swingSignals":[{"id":"watch_trend","title":"","short":"B觀察","icon":"B","reason":"趨勢轉強但尚未觸發突破買點；趨勢分 6/8，量比 0.00，位階 中位階。"}]},{"code":"8931","name":"大汽電","close":43.1,"percent":-0.23148148148148476,"tradeVolume":130,"value":5603000,"swingScore":88,"score":88,"swingZone":"B","swingStage":{"label":"中位階","ratio":"0.55","tone":"mid","value":0.5526315789473693},"swingSignals":[{"id":"watch_trend","title":"","short":"B觀察","icon":"B","reason":"趨勢轉強但尚未觸發突破買點；趨勢分 6/8，量比 0.00，位階 中位階。"}]},{"code":"6614","name":"資拓宏宇","close":39.85,"percent":-0.37499999999999645,"tradeVolume":94,"value":3745900,"swingScore":88,"score":88,"swingZone":"B","swingStage":{"label":"低基期","ratio":"0.29","tone":"low","value":0.28571457635788716},"swingSignals":[{"id":"watch_trend","title":"","short":"B觀察","icon":"B","reason":"趨勢轉強但尚未觸發突破買點；趨勢分 5/8，量比 0.00，位階 低基期。"}]},{"code":"2723","name":"美食-KY","close":63.9,"percent":-0.4672897196261749,"tradeVolume":259,"value":16550100,"swingScore":88,"score":88,"swingZone":"B","swingStage":{"label":"中位階","ratio":"0.40","tone":"mid","value":0.3962264150943394},"swingSignals":[{"id":"watch_trend","title":"","short":"B觀察","icon":"B","reason":"趨勢轉強但尚未觸發突破買點；趨勢分 6/8，量比 0.00，位階 中位階。"}]},{"code":"6794","name":"向榮生技","close":82.8,"percent":-0.4807655804254706,"tradeVolume":32,"value":2649600,"swingScore":88,"score":88,"swingZone":"B","swingStage":{"label":"中位階","ratio":"0.44","tone":"mid","value":0.4363636363636361},"swingSignals":[{"id":"watch_trend","title":"","short":"B觀察","icon":"B","reason":"趨勢轉強但尚未觸發突破買點；趨勢分 6/8，量比 0.00，位階 中位階。"}]},{"code":"2812","name":"台中銀","close":19.3,"percent":-0.5154639175257623,"tradeVolume":20070,"value":387351000,"swingScore":88,"score":88,"swingZone":"B","swingStage":{"label":"中位階","ratio":"0.39","tone":"mid","value":0.39344262295081983},"swingSignals":[{"id":"watch_trend","title":"","short":"B觀察","icon":"B","reason":"趨勢轉強但尚未觸發突破買點；趨勢分 6/8，量比 0.00，位階 中位階。"}]},{"code":"6248","name":"沛波","close":18.95,"percent":-0.5249343832021072,"tradeVolume":101,"value":1913950,"swingScore":88,"score":88,"swingZone":"B","swingStage":{"label":"中位階","ratio":"0.40","tone":"mid","value":0.39999999999999936},"swingSignals":[{"id":"watch_trend","title":"","short":"B觀察","icon":"B","reason":"趨勢轉強但尚未觸發突破買點；趨勢分 6/8，量比 0.00，位階 中位階。"}]},{"code":"6790","name":"永豐實","close":39.75,"percent":-0.625,"tradeVolume":338,"value":13435500,"swingScore":88,"score":88,"swingZone":"B","swingStage":{"label":"中位階","ratio":"0.43","tone":"mid","value":0.4285714285714276},"swingSignals":[{"id":"watch_trend","title":"","short":"B觀察","icon":"B","reason":"趨勢轉強但尚未觸發突破買點；趨勢分 6/8，量比 0.00，位階 中位階。"}]},{"code":"3419","name":"譁裕","close":14.2,"percent":-0.699302023783575,"tradeVolume":262,"value":3720400,"swingScore":88,"score":88,"swingZone":"B","swingStage":{"label":"低基期","ratio":"0.17","tone":"low","value":0.1666666737309192},"swingSignals":[{"id":"watch_trend","title":"","short":"B觀察","icon":"B","reason":"趨勢轉強但尚未觸發突破買點；趨勢分 5/8，量比 0.00，位階 低基期。"}]},{"code":"2515","name":"中工","close":13.15,"percent":-0.7547169811320728,"tradeVolume":5676,"value":74639400,"swingScore":88,"score":88,"swingZone":"B","swingStage":{"label":"中位階","ratio":"0.45","tone":"mid","value":0.4468084571047335},"swingSignals":[{"id":"watch_trend","title":"","short":"B觀察","icon":"B","reason":"趨勢轉強但尚未觸發突破買點；趨勢分 6/8，量比 0.00，位階 中位階。"}]},{"code":"3611","name":"鼎翰","close":190.5,"percent":-0.78125,"tradeVolume":89,"value":16954500,"swingScore":88,"score":88,"swingZone":"B","swingStage":{"label":"中位階","ratio":"0.43","tone":"mid","value":0.43478260869565216},"swingSignals":[{"id":"watch_trend","title":"","short":"B觀察","icon":"B","reason":"趨勢轉強但尚未觸發突破買點；趨勢分 6/8，量比 0.00，位階 中位階。"}]},{"code":"5468","name":"凱鈺","close":17.8,"percent":-0.8356588109408449,"tradeVolume":64,"value":1139200,"swingScore":88,"score":88,"swingZone":"B","swingStage":{"label":"低基期","ratio":"0.26","tone":"low","value":0.2638887549624175},"swingSignals":[{"id":"watch_trend","title":"","short":"B觀察","icon":"B","reason":"趨勢轉強但尚未觸發突破買點；趨勢分 5/8，量比 0.00，位階 低基期。"}]},{"code":"2211","name":"長榮鋼","close":93.8,"percent":-0.845664362605614,"tradeVolume":615,"value":57687000,"swingScore":88,"score":88,"swingZone":"B","swingStage":{"label":"低基期","ratio":"0.27","tone":"low","value":0.2666666666666664},"swingSignals":[{"id":"watch_trend","title":"","short":"B觀察","icon":"B","reason":"趨勢轉強但尚未觸發突破買點；趨勢分 5/8，量比 0.00，位階 低基期。"}]},{"code":"2496","name":"卓越","close":65.3,"percent":-0.9104727040761732,"tradeVolume":30,"value":1959000,"swingScore":88,"score":88,"swingZone":"B","swingStage":{"label":"中位階","ratio":"0.44","tone":"mid","value":0.4374999403952975},"swingSignals":[{"id":"watch_trend","title":"","short":"B觀察","icon":"B","reason":"趨勢轉強但尚未觸發突破買點；趨勢分 6/8，量比 0.00，位階 中位階。"}]},{"code":"1441","name":"大東","close":9.5,"percent":-1.041666666666663,"tradeVolume":46,"value":437000,"swingScore":88,"score":88,"swingZone":"B","swingStage":{"label":"低基期","ratio":"0.06","tone":"low","value":0.06187624750499012},"swingSignals":[{"id":"watch_trend","title":"","short":"B觀察","icon":"B","reason":"趨勢轉強但尚未觸發突破買點；趨勢分 5/8，量比 0.00，位階 低基期。"}]},{"code":"2430","name":"燦坤","close":18.9,"percent":-1.0471223951584976,"tradeVolume":125,"value":2362500,"swingScore":88,"score":88,"swingZone":"B","swingStage":{"label":"低基期","ratio":"0.22","tone":"low","value":0.22368434393500924},"swingSignals":[{"id":"watch_trend","title":"","short":"B觀察","icon":"B","reason":"趨勢轉強但尚未觸發突破買點；趨勢分 5/8，量比 0.00，位階 低基期。"}]},{"code":"8222","name":"寶一","close":36.85,"percent":-1.073825503355701,"tradeVolume":331,"value":12197350,"swingScore":88,"score":88,"swingZone":"B","swingStage":{"label":"中位階","ratio":"0.55","tone":"mid","value":0.5533978942877336},"swingSignals":[{"id":"watch_trend","title":"","short":"B觀察","icon":"B","reason":"趨勢轉強但尚未觸發突破買點；趨勢分 6/8，量比 0.00，位階 中位階。"}]},{"code":"6754","name":"匯僑設計","close":45.6,"percent":-1.0845986984815619,"tradeVolume":13,"value":592800,"swingScore":88,"score":88,"swingZone":"B","swingStage":{"label":"中位階","ratio":"0.52","tone":"mid","value":0.5208333333333336},"swingSignals":[{"id":"watch_trend","title":"","short":"B觀察","icon":"B","reason":"趨勢轉強但尚未觸發突破買點；趨勢分 6/8，量比 0.00，位階 中位階。"}]},{"code":"2739","name":"寒舍","close":35.9,"percent":-1.1019283746556436,"tradeVolume":171,"value":6138900,"swingScore":88,"score":88,"swingZone":"B","swingStage":{"label":"中位階","ratio":"0.55","tone":"mid","value":0.5487804878048779},"swingSignals":[{"id":"watch_trend","title":"","short":"B觀察","icon":"B","reason":"趨勢轉強但尚未觸發突破買點；趨勢分 6/8，量比 0.00，位階 中位階。"}]},{"code":"2020","name":"美亞","close":21.6,"percent":-1.1441647597254003,"tradeVolume":435,"value":9396000,"swingScore":88,"score":88,"swingZone":"B","swingStage":{"label":"低基期","ratio":"0.15","tone":"low","value":0.1458333333333339},"swingSignals":[{"id":"watch_trend","title":"","short":"B觀察","icon":"B","reason":"趨勢轉強但尚未觸發突破買點；趨勢分 5/8，量比 0.00，位階 低基期。"}]},{"code":"4133","name":"亞諾法","close":21.35,"percent":-1.1574091530303687,"tradeVolume":349,"value":7451150,"swingScore":88,"score":88,"swingZone":"B","swingStage":{"label":"中位階","ratio":"0.38","tone":"mid","value":0.38461518146585644},"swingSignals":[{"id":"watch_trend","title":"","short":"B觀察","icon":"B","reason":"趨勢轉強但尚未觸發突破買點；趨勢分 6/8，量比 0.00，位階 中位階。"}]},{"code":"2646","name":"星宇航空","close":20.5,"percent":-1.2048192771084338,"tradeVolume":5162,"value":105821000,"swingScore":88,"score":88,"swingZone":"B","swingStage":{"label":"低基期","ratio":"0.37","tone":"low","value":0.3714285714285706},"swingSignals":[{"id":"watch_trend","title":"","short":"B觀察","icon":"B","reason":"趨勢轉強但尚未觸發突破買點；趨勢分 5/8，量比 0.00，位階 低基期。"}]},{"code":"1795","name":"美時","close":198.5,"percent":-1.2437810945273633,"tradeVolume":2478,"value":491883000,"swingScore":88,"score":88,"swingZone":"B","swingStage":{"label":"低基期","ratio":"0.21","tone":"low","value":0.20909090909090908},"swingSignals":[{"id":"watch_trend","title":"","short":"B觀察","icon":"B","reason":"趨勢轉強但尚未觸發突破買點；趨勢分 5/8，量比 0.00，位階 低基期。"}]},{"code":"5283","name":"禾聯碩","close":52.5,"percent":-1.315790888911213,"tradeVolume":84,"value":4410000,"swingScore":88,"score":88,"swingZone":"B","swingStage":{"label":"低基期","ratio":"0.32","tone":"low","value":0.31999969482421875},"swingSignals":[{"id":"watch_trend","title":"","short":"B觀察","icon":"B","reason":"趨勢轉強但尚未觸發突破買點；趨勢分 5/8，量比 0.00，位階 低基期。"}]},{"code":"6901","name":"鑽石投資","close":14.3,"percent":-1.3793103448275814,"tradeVolume":1176,"value":16816800,"swingScore":88,"score":88,"swingZone":"B","swingStage":{"label":"中位階","ratio":"0.62","tone":"mid","value":0.6164383683336201},"swingSignals":[{"id":"watch_trend","title":"","short":"B觀察","icon":"B","reason":"趨勢轉強但尚未觸發突破買點；趨勢分 6/8，量比 0.00，位階 中位階。"}]},{"code":"2038","name":"海光","close":14.1,"percent":-1.3986027137569277,"tradeVolume":575,"value":8107500,"swingScore":88,"score":88,"swingZone":"B","swingStage":{"label":"中位階","ratio":"0.40","tone":"mid","value":0.39999999999999986},"swingSignals":[{"id":"watch_trend","title":"","short":"B觀察","icon":"B","reason":"趨勢轉強但尚未觸發突破買點；趨勢分 6/8，量比 0.00，位階 中位階。"}]},{"code":"6752","name":"叡揚","close":103.5,"percent":-1.4285714285714286,"tradeVolume":73,"value":7555500,"swingScore":88,"score":88,"swingZone":"B","swingStage":{"label":"中位階","ratio":"0.45","tone":"mid","value":0.4505494505494506},"swingSignals":[{"id":"watch_trend","title":"","short":"B觀察","icon":"B","reason":"趨勢轉強但尚未觸發突破買點；趨勢分 6/8，量比 0.00，位階 中位階。"}]}]}
