{"ok":true,"source":"strategy4-preset","updatedAt":"2026-06-06T12:34:51.971Z","scanStamp":"20260606","total":1957,"complete":true,"zone":"B","page":37,"pageSize":25,"totalPages":41,"totalCount":1020,"count":25,"matches":[{"code":"2731","name":"雄獅","close":173.5,"percent":-0.8571428571428572,"tradeVolume":2333,"value":404775500,"swingScore":78,"score":78,"swingZone":"B","swingStage":{"label":"高基期","ratio":"0.79","tone":"high","value":0.7906976744186046},"swingSignals":[{"id":"watch_trend","title":"","short":"B觀察","icon":"B","reason":"趨勢轉強但尚未觸發突破買點；趨勢分 5/8，量比 0.00，位階 高基期。"}]},{"code":"1446","name":"宏和","close":16.6,"percent":-0.8955223880596931,"tradeVolume":272,"value":4515200,"swingScore":78,"score":78,"swingZone":"B","swingStage":{"label":"高基期","ratio":"0.82","tone":"high","value":0.8157894736842115},"swingSignals":[{"id":"watch_trend","title":"","short":"B觀察","icon":"B","reason":"趨勢轉強但尚未觸發突破買點；趨勢分 5/8，量比 0.00，位階 高基期。"}]},{"code":"3005","name":"神基","close":109,"percent":-0.9090909090909091,"tradeVolume":6393,"value":696837000,"swingScore":78,"score":78,"swingZone":"B","swingStage":{"label":"高基期","ratio":"0.80","tone":"high","value":0.7988505923522781},"swingSignals":[{"id":"watch_trend","title":"","short":"B觀察","icon":"B","reason":"趨勢轉強但尚未觸發突破買點；趨勢分 5/8，量比 0.00，位階 高基期。"}]},{"code":"3311","name":"閎暉","close":39.75,"percent":-0.99626777254562,"tradeVolume":6008,"value":238818000,"swingScore":78,"score":78,"swingZone":"B","swingStage":{"label":"高基期","ratio":"0.76","tone":"high","value":0.7580645086862043},"swingSignals":[{"id":"watch_trend","title":"","short":"B觀察","icon":"B","reason":"趨勢轉強但尚未觸發突破買點；趨勢分 5/8，量比 0.01，位階 高基期。"}]},{"code":"6115","name":"鎰勝","close":49.4,"percent":-1.002004008016032,"tradeVolume":613,"value":30282200,"swingScore":78,"score":78,"swingZone":"B","swingStage":{"label":"高基期","ratio":"0.81","tone":"high","value":0.8108108108108102},"swingSignals":[{"id":"watch_trend","title":"","short":"B觀察","icon":"B","reason":"趨勢轉強但尚未觸發突破買點；趨勢分 5/8，量比 0.00，位階 高基期。"}]},{"code":"2905","name":"三商","close":14.2,"percent":-1.0452987977855666,"tradeVolume":435,"value":6177000,"swingScore":78,"score":78,"swingZone":"B","swingStage":{"label":"高基期","ratio":"0.64","tone":"high","value":0.6388887152259912},"swingSignals":[{"id":"watch_trend","title":"","short":"B觀察","icon":"B","reason":"趨勢轉強但尚未觸發突破買點；趨勢分 5/8，量比 0.00，位階 高基期。"}]},{"code":"6491","name":"晶碩","close":324.5,"percent":-1.0670731707317074,"tradeVolume":435,"value":141157500,"swingScore":78,"score":78,"swingZone":"B","swingStage":{"label":"高基期","ratio":"0.88","tone":"high","value":0.8773584905660378},"swingSignals":[{"id":"watch_trend","title":"","short":"B觀察","icon":"B","reason":"趨勢轉強但尚未觸發突破買點；趨勢分 5/8，量比 0.00，位階 高基期。"}]},{"code":"6126","name":"信音","close":42.5,"percent":-1.1627906976744187,"tradeVolume":12380,"value":526150000,"swingScore":78,"score":78,"swingZone":"B","swingStage":{"label":"高基期","ratio":"0.86","tone":"high","value":0.8561151079136691},"swingSignals":[{"id":"watch_trend","title":"","short":"B觀察","icon":"B","reason":"趨勢轉強但尚未觸發突破買點；趨勢分 5/8，量比 0.00，位階 高基期。"}]},{"code":"3293","name":"鈊象","close":790,"percent":-1.25,"tradeVolume":3645,"value":2879550000,"swingScore":78,"score":78,"swingZone":"B","swingStage":{"label":"高基期","ratio":"0.81","tone":"high","value":0.8080808080808081},"swingSignals":[{"id":"watch_trend","title":"","short":"B觀察","icon":"B","reason":"趨勢轉強但尚未觸發突破買點；趨勢分 5/8，量比 0.00，位階 高基期。"}]},{"code":"4438","name":"廣越","close":61.9,"percent":-1.2759182666745943,"tradeVolume":62,"value":3837800,"swingScore":78,"score":78,"swingZone":"B","swingStage":{"label":"高基期","ratio":"0.77","tone":"high","value":0.770114787299953},"swingSignals":[{"id":"watch_trend","title":"","short":"B觀察","icon":"B","reason":"趨勢轉強但尚未觸發突破買點；趨勢分 5/8，量比 0.00，位階 高基期。"}]},{"code":"2450","name":"神腦","close":30.9,"percent":-1.2779528652094407,"tradeVolume":336,"value":10382400,"swingScore":78,"score":78,"swingZone":"B","swingStage":{"label":"高基期","ratio":"0.64","tone":"high","value":0.6393441720791602},"swingSignals":[{"id":"watch_trend","title":"","short":"B觀察","icon":"B","reason":"趨勢轉強但尚未觸發突破買點；趨勢分 5/8，量比 0.00，位階 高基期。"}]},{"code":"2247","name":"汎德永業","close":231.5,"percent":-1.279317697228145,"tradeVolume":136,"value":31484000,"swingScore":78,"score":78,"swingZone":"B","swingStage":{"label":"高基期","ratio":"0.69","tone":"high","value":0.686046511627907},"swingSignals":[{"id":"watch_trend","title":"","short":"B觀察","icon":"B","reason":"趨勢轉強但尚未觸發突破買點；趨勢分 5/8，量比 0.00，位階 高基期。"}]},{"code":"2356","name":"英業達","close":76.8,"percent":-1.2853470437017995,"tradeVolume":112001,"value":8601676800,"swingScore":78,"score":78,"swingZone":"B","swingStage":{"label":"高基期","ratio":"0.74","tone":"high","value":0.7389380530973452},"swingSignals":[{"id":"watch_trend","title":"","short":"B觀察","icon":"B","reason":"趨勢轉強但尚未觸發突破買點；趨勢分 5/8，量比 0.00，位階 高基期。"}]},{"code":"6957","name":"裕慶-KY","close":191.5,"percent":-1.2886597938144329,"tradeVolume":242,"value":46343000,"swingScore":78,"score":78,"swingZone":"B","swingStage":{"label":"高基期","ratio":"0.84","tone":"high","value":0.8351648351648352},"swingSignals":[{"id":"watch_trend","title":"","short":"B觀察","icon":"B","reason":"趨勢轉強但尚未觸發突破買點；趨勢分 5/8，量比 0.00，位階 高基期。"}]},{"code":"2376","name":"技嘉","close":369,"percent":-1.3368983957219251,"tradeVolume":16941,"value":6251229000,"swingScore":78,"score":78,"swingZone":"B","swingStage":{"label":"高基期","ratio":"0.78","tone":"high","value":0.7807308970099668},"swingSignals":[{"id":"watch_trend","title":"","short":"B觀察","icon":"B","reason":"趨勢轉強但尚未觸發突破買點；趨勢分 5/8，量比 0.00，位階 高基期。"}]},{"code":"1614","name":"三洋電","close":32.95,"percent":-1.3473053892215443,"tradeVolume":44,"value":1449800,"swingScore":78,"score":78,"swingZone":"B","swingStage":{"label":"高基期","ratio":"0.72","tone":"high","value":0.7246376811594215},"swingSignals":[{"id":"watch_trend","title":"","short":"B觀察","icon":"B","reason":"趨勢轉強但尚未觸發突破買點；趨勢分 5/8，量比 0.00，位階 高基期。"}]},{"code":"6414","name":"樺漢","close":384,"percent":-1.4120667522464698,"tradeVolume":1758,"value":675072000,"swingScore":78,"score":78,"swingZone":"B","swingStage":{"label":"高基期","ratio":"0.92","tone":"high","value":0.9203539823008849},"swingSignals":[{"id":"watch_trend","title":"","short":"B觀察","icon":"B","reason":"趨勢轉強但尚未觸發突破買點；趨勢分 5/8，量比 0.00，位階 高基期。"}]},{"code":"3528","name":"安馳","close":138,"percent":-1.4285714285714286,"tradeVolume":512,"value":70656000,"swingScore":78,"score":78,"swingZone":"B","swingStage":{"label":"高基期","ratio":"0.94","tone":"high","value":0.9403973509933775},"swingSignals":[{"id":"watch_trend","title":"","short":"B觀察","icon":"B","reason":"趨勢轉強但尚未觸發突破買點；趨勢分 5/8，量比 0.00，位階 高基期。"}]},{"code":"4580","name":"捷流閥業","close":82.5,"percent":-1.5513126491646745,"tradeVolume":57,"value":4702500,"swingScore":78,"score":78,"swingZone":"B","swingStage":{"label":"高基期","ratio":"0.64","tone":"high","value":0.6428571428571425},"swingSignals":[{"id":"watch_trend","title":"","short":"B觀察","icon":"B","reason":"趨勢轉強但尚未觸發突破買點；趨勢分 5/8，量比 0.00，位階 高基期。"}]},{"code":"2603","name":"長榮","close":232,"percent":-1.694915254237288,"tradeVolume":23322,"value":5410704000,"swingScore":78,"score":78,"swingZone":"B","swingStage":{"label":"高基期","ratio":"0.78","tone":"high","value":0.776595744680851},"swingSignals":[{"id":"watch_trend","title":"","short":"B觀察","icon":"B","reason":"趨勢轉強但尚未觸發突破買點；趨勢分 5/8，量比 0.00，位階 高基期。"}]},{"code":"4545","name":"銘鈺","close":40.1,"percent":-1.7156862745097936,"tradeVolume":456,"value":18285600,"swingScore":78,"score":78,"swingZone":"B","swingStage":{"label":"高基期","ratio":"0.66","tone":"high","value":0.6647727272727274},"swingSignals":[{"id":"watch_trend","title":"","short":"B觀察","icon":"B","reason":"趨勢轉強但尚未觸發突破買點；趨勢分 5/8，量比 0.00，位階 高基期。"}]},{"code":"2641","name":"正德","close":19.55,"percent":-1.7587939698492359,"tradeVolume":16654,"value":325585700,"swingScore":78,"score":78,"swingZone":"B","swingStage":{"label":"高基期","ratio":"0.74","tone":"high","value":0.7432432432432434},"swingSignals":[{"id":"watch_trend","title":"","short":"B觀察","icon":"B","reason":"趨勢轉強但尚未觸發突破買點；趨勢分 5/8，量比 0.00，位階 高基期。"}]},{"code":"1434","name":"福懋","close":16.6,"percent":-1.7751479289940661,"tradeVolume":2818,"value":46778800,"swingScore":78,"score":78,"swingZone":"B","swingStage":{"label":"高基期","ratio":"0.75","tone":"high","value":0.7500000000000008},"swingSignals":[{"id":"watch_trend","title":"","short":"B觀察","icon":"B","reason":"趨勢轉強但尚未觸發突破買點；趨勢分 5/8，量比 0.00，位階 高基期。"}]},{"code":"8472","name":"夠麻吉","close":88.5,"percent":-1.7758046614872303,"tradeVolume":42,"value":3717000,"swingScore":78,"score":78,"swingZone":"B","swingStage":{"label":"高基期","ratio":"0.67","tone":"high","value":0.6739130434782609},"swingSignals":[{"id":"watch_trend","title":"","short":"B觀察","icon":"B","reason":"趨勢轉強但尚未觸發突破買點；趨勢分 5/8，量比 0.00，位階 高基期。"}]},{"code":"9934","name":"成霖","close":11.05,"percent":-1.7777777777777715,"tradeVolume":9323,"value":103019150,"swingScore":78,"score":78,"swingZone":"B","swingStage":{"label":"高基期","ratio":"0.89","tone":"high","value":0.8936170212765958},"swingSignals":[{"id":"watch_trend","title":"","short":"B觀察","icon":"B","reason":"趨勢轉強但尚未觸發突破買點；趨勢分 5/8，量比 0.01，位階 高基期。"}]}]}
