{"ok":true,"source":"strategy4-preset","updatedAt":"2026-06-06T12:34:51.971Z","scanStamp":"20260606","total":1957,"complete":true,"zone":"B","page":38,"pageSize":25,"totalPages":41,"totalCount":1020,"count":25,"matches":[{"code":"2353","name":"宏碁","close":38.4,"percent":-1.790281329923281,"tradeVolume":86257,"value":3312268800,"swingScore":78,"score":78,"swingZone":"B","swingStage":{"label":"高基期","ratio":"0.66","tone":"high","value":0.6618075801749269},"swingSignals":[{"id":"watch_trend","title":"","short":"B觀察","icon":"B","reason":"趨勢轉強但尚未觸發突破買點；趨勢分 5/8，量比 0.00，位階 高基期。"}]},{"code":"1904","name":"正隆","close":21.9,"percent":-1.7937219730941798,"tradeVolume":17384,"value":380709600,"swingScore":78,"score":78,"swingZone":"B","swingStage":{"label":"高基期","ratio":"0.82","tone":"high","value":0.8245614035087719},"swingSignals":[{"id":"watch_trend","title":"","short":"B觀察","icon":"B","reason":"趨勢轉強但尚未觸發突破買點；趨勢分 5/8，量比 0.00，位階 高基期。"}]},{"code":"2471","name":"資通","close":53.6,"percent":-1.8315018315018317,"tradeVolume":302,"value":16187200,"swingScore":78,"score":78,"swingZone":"B","swingStage":{"label":"高基期","ratio":"0.63","tone":"high","value":0.6338028169014083},"swingSignals":[{"id":"watch_trend","title":"","short":"B觀察","icon":"B","reason":"趨勢轉強但尚未觸發突破買點；趨勢分 5/8，量比 0.00，位階 高基期。"}]},{"code":"2477","name":"美隆電","close":23.35,"percent":-1.8907563025210055,"tradeVolume":282,"value":6584700,"swingScore":78,"score":78,"swingZone":"B","swingStage":{"label":"高基期","ratio":"0.65","tone":"high","value":0.6521739130434786},"swingSignals":[{"id":"watch_trend","title":"","short":"B觀察","icon":"B","reason":"趨勢轉強但尚未觸發突破買點；趨勢分 5/8，量比 0.00，位階 高基期。"}]},{"code":"2106","name":"建大","close":18.05,"percent":-1.902171879274362,"tradeVolume":1400,"value":25270000,"swingScore":78,"score":78,"swingZone":"B","swingStage":{"label":"高基期","ratio":"0.69","tone":"high","value":0.6875002682209445},"swingSignals":[{"id":"watch_trend","title":"","short":"B觀察","icon":"B","reason":"趨勢轉強但尚未觸發突破買點；趨勢分 5/8，量比 0.00，位階 高基期。"}]},{"code":"1909","name":"榮成","close":9.74,"percent":-1.9133937562940535,"tradeVolume":7784,"value":75816160,"swingScore":78,"score":78,"swingZone":"B","swingStage":{"label":"高基期","ratio":"0.67","tone":"high","value":0.6714285714285717},"swingSignals":[{"id":"watch_trend","title":"","short":"B觀察","icon":"B","reason":"趨勢轉強但尚未觸發突破買點；趨勢分 5/8，量比 0.00，位階 高基期。"}]},{"code":"1314","name":"中石化","close":8.09,"percent":-1.9393939393939412,"tradeVolume":49693,"value":402016370,"swingScore":78,"score":78,"swingZone":"B","swingStage":{"label":"高基期","ratio":"0.80","tone":"high","value":0.8045977011494253},"swingSignals":[{"id":"watch_trend","title":"","short":"B觀察","icon":"B","reason":"趨勢轉強但尚未觸發突破買點；趨勢分 5/8，量比 0.00，位階 高基期。"}]},{"code":"3617","name":"碩天","close":217,"percent":-2.0316027088036117,"tradeVolume":542,"value":117614000,"swingScore":78,"score":78,"swingZone":"B","swingStage":{"label":"高基期","ratio":"0.76","tone":"high","value":0.7589285714285714},"swingSignals":[{"id":"watch_trend","title":"","short":"B觀察","icon":"B","reason":"趨勢轉強但尚未觸發突破買點；趨勢分 5/8，量比 0.00，位階 高基期。"}]},{"code":"4916","name":"事欣科","close":120,"percent":-2.0408163265306123,"tradeVolume":3212,"value":385440000,"swingScore":78,"score":78,"swingZone":"B","swingStage":{"label":"高基期","ratio":"0.90","tone":"high","value":0.8952513966480447},"swingSignals":[{"id":"watch_trend","title":"","short":"B觀察","icon":"B","reason":"趨勢轉強但尚未觸發突破買點；趨勢分 5/8，量比 0.00，位階 高基期。"}]},{"code":"2891","name":"中信金","close":66.6,"percent":-2.058823529411773,"tradeVolume":63410,"value":4223106000,"swingScore":78,"score":78,"swingZone":"B","swingStage":{"label":"高基期","ratio":"0.79","tone":"high","value":0.7857142946970886},"swingSignals":[{"id":"watch_trend","title":"","short":"B觀察","icon":"B","reason":"趨勢轉強但尚未觸發突破買點；趨勢分 5/8，量比 0.00，位階 高基期。"}]},{"code":"6591","name":"動力-KY","close":57.8,"percent":-2.1996590654572423,"tradeVolume":295,"value":17051000,"swingScore":78,"score":78,"swingZone":"B","swingStage":{"label":"高基期","ratio":"0.80","tone":"high","value":0.7959184293099559},"swingSignals":[{"id":"watch_trend","title":"","short":"B觀察","icon":"B","reason":"趨勢轉強但尚未觸發突破買點；趨勢分 5/8，量比 0.00，位階 高基期。"}]},{"code":"2324","name":"仁寶","close":41.4,"percent":-2.2432078119238015,"tradeVolume":193368,"value":8005435200,"swingScore":78,"score":78,"swingZone":"B","swingStage":{"label":"高基期","ratio":"0.69","tone":"high","value":0.6864197530864197},"swingSignals":[{"id":"watch_trend","title":"","short":"B觀察","icon":"B","reason":"趨勢轉強但尚未觸發突破買點；趨勢分 5/8，量比 0.00，位階 高基期。"}]},{"code":"6141","name":"柏承","close":38.5,"percent":-2.2842639593908594,"tradeVolume":2174,"value":83699000,"swingScore":78,"score":78,"swingZone":"B","swingStage":{"label":"高基期","ratio":"0.63","tone":"high","value":0.6324435318275153},"swingSignals":[{"id":"watch_trend","title":"","short":"B觀察","icon":"B","reason":"趨勢轉強但尚未觸發突破買點；趨勢分 5/8，量比 0.00，位階 高基期。"}]},{"code":"2017","name":"官田鋼","close":9.63,"percent":-2.3326572008113455,"tradeVolume":711,"value":6846930,"swingScore":78,"score":78,"swingZone":"B","swingStage":{"label":"高基期","ratio":"0.70","tone":"high","value":0.6976744186046515},"swingSignals":[{"id":"watch_trend","title":"","short":"B觀察","icon":"B","reason":"趨勢轉強但尚未觸發突破買點；趨勢分 5/8，量比 0.00，位階 高基期。"}]},{"code":"8042","name":"金山電","close":145.5,"percent":-2.348993288590604,"tradeVolume":1399,"value":203554500,"swingScore":78,"score":78,"swingZone":"B","swingStage":{"label":"高基期","ratio":"0.78","tone":"high","value":0.7765598650927488},"swingSignals":[{"id":"watch_trend","title":"","short":"B觀察","icon":"B","reason":"趨勢轉強但尚未觸發突破買點；趨勢分 5/8，量比 0.00，位階 高基期。"}]},{"code":"1709","name":"和益","close":20.2,"percent":-2.4154589371980677,"tradeVolume":1361,"value":27492200,"swingScore":78,"score":78,"swingZone":"B","swingStage":{"label":"高基期","ratio":"0.69","tone":"high","value":0.691176470588235},"swingSignals":[{"id":"watch_trend","title":"","short":"B觀察","icon":"B","reason":"趨勢轉強但尚未觸發突破買點；趨勢分 5/8，量比 0.00，位階 高基期。"}]},{"code":"4973","name":"廣穎","close":171.5,"percent":-2.556818181818182,"tradeVolume":2639,"value":452588500,"swingScore":78,"score":78,"swingZone":"B","swingStage":{"label":"高基期","ratio":"0.93","tone":"high","value":0.932950192550861},"swingSignals":[{"id":"watch_trend","title":"","short":"B觀察","icon":"B","reason":"趨勢轉強但尚未觸發突破買點；趨勢分 5/8，量比 0.00，位階 高基期。"}]},{"code":"2239","name":"英利-KY","close":24.35,"percent":-2.5999999999999943,"tradeVolume":95,"value":2313250,"swingScore":78,"score":78,"swingZone":"B","swingStage":{"label":"高基期","ratio":"0.73","tone":"high","value":0.7272726151787939},"swingSignals":[{"id":"watch_trend","title":"","short":"B觀察","icon":"B","reason":"趨勢轉強但尚未觸發突破買點；趨勢分 5/8，量比 0.00，位階 高基期。"}]},{"code":"3011","name":"今皓","close":14.8,"percent":-2.6315777255557378,"tradeVolume":1559,"value":23073200,"swingScore":78,"score":78,"swingZone":"B","swingStage":{"label":"高基期","ratio":"0.68","tone":"high","value":0.6835444052619661},"swingSignals":[{"id":"watch_trend","title":"","short":"B觀察","icon":"B","reason":"趨勢轉強但尚未觸發突破買點；趨勢分 5/8，量比 0.00，位階 高基期。"}]},{"code":"1612","name":"宏泰","close":39.5,"percent":-2.8290282902828996,"tradeVolume":3735,"value":147532500,"swingScore":78,"score":78,"swingZone":"B","swingStage":{"label":"高基期","ratio":"0.63","tone":"high","value":0.6296296296296297},"swingSignals":[{"id":"watch_trend","title":"","short":"B觀察","icon":"B","reason":"趨勢轉強但尚未觸發突破買點；趨勢分 5/8，量比 0.00，位階 高基期。"}]},{"code":"2413","name":"環科","close":51.1,"percent":-3.0360531309297936,"tradeVolume":1756,"value":89731600,"swingScore":78,"score":78,"swingZone":"B","swingStage":{"label":"高基期","ratio":"0.62","tone":"high","value":0.6190476190476191},"swingSignals":[{"id":"watch_trend","title":"","short":"B觀察","icon":"B","reason":"趨勢轉強但尚未觸發突破買點；趨勢分 5/8，量比 0.00，位階 高基期。"}]},{"code":"3288","name":"點晶","close":23.45,"percent":-3.2989690721649514,"tradeVolume":417,"value":9778650,"swingScore":78,"score":78,"swingZone":"B","swingStage":{"label":"高基期","ratio":"0.74","tone":"high","value":0.7428571428571428},"swingSignals":[{"id":"watch_trend","title":"","short":"B觀察","icon":"B","reason":"趨勢轉強但尚未觸發突破買點；趨勢分 5/8，量比 0.01，位階 高基期。"}]},{"code":"2382","name":"廣達","close":390.5,"percent":-3.341584158415842,"tradeVolume":67327,"value":26291193500,"swingScore":78,"score":78,"swingZone":"B","swingStage":{"label":"高基期","ratio":"0.68","tone":"high","value":0.6822742474916388},"swingSignals":[{"id":"watch_trend","title":"","short":"B觀察","icon":"B","reason":"趨勢轉強但尚未觸發突破買點；趨勢分 5/8，量比 0.00，位階 高基期。"}]},{"code":"6290","name":"良維","close":350.5,"percent":-3.576341127922971,"tradeVolume":4526,"value":1586363000,"swingScore":78,"score":78,"swingZone":"B","swingStage":{"label":"高基期","ratio":"0.85","tone":"high","value":0.8528528528528528},"swingSignals":[{"id":"watch_trend","title":"","short":"B觀察","icon":"B","reason":"趨勢轉強但尚未觸發突破買點；趨勢分 5/8，量比 0.00，位階 高基期。"}]},{"code":"6449","name":"鈺邦","close":371,"percent":-3.6363636363636362,"tradeVolume":284,"value":105364000,"swingScore":78,"score":78,"swingZone":"B","swingStage":{"label":"高基期","ratio":"0.77","tone":"high","value":0.7744227353463587},"swingSignals":[{"id":"watch_trend","title":"","short":"B觀察","icon":"B","reason":"趨勢轉強但尚未觸發突破買點；趨勢分 5/8，量比 0.00，位階 高基期。"}]}]}
