{"ok":true,"source":"strategy4-preset","updatedAt":"2026-06-09T06:53:44.896Z","scanStamp":"20260609","total":1953,"complete":true,"zone":"C","page":22,"pageSize":25,"totalPages":23,"totalCount":554,"count":25,"matches":[{"code":"3310","name":"佳穎","close":70.2,"percent":1.0071942446043207,"tradeVolume":22,"value":1544400,"swingScore":60,"score":60,"swingZone":"C","swingStage":{"label":"中位階","ratio":"0.39","tone":"mid","value":0.3858267716535437},"swingSignals":[{"id":"base_setup","title":"","short":"C準備","icon":"C","reason":"低/中位階整理接近發動；準備分 5/7，RSI 52.4，量比 0.05。"}]},{"code":"6757","name":"台灣虎航","close":52.7,"percent":0.9578544061302682,"tradeVolume":5275,"value":277992500,"swingScore":60,"score":60,"swingZone":"C","swingStage":{"label":"中位階","ratio":"0.43","tone":"mid","value":0.4296875000000001},"swingSignals":[{"id":"base_setup","title":"","short":"C準備","icon":"C","reason":"低/中位階整理接近發動；準備分 5/7，RSI 51.0，量比 0.00。"}]},{"code":"6928","name":"攸泰科技","close":44.5,"percent":0.9070329698846509,"tradeVolume":76,"value":3382000,"swingScore":60,"score":60,"swingZone":"C","swingStage":{"label":"低基期","ratio":"0.16","tone":"low","value":0.1551154342674685},"swingSignals":[{"id":"base_setup","title":"","short":"C準備","icon":"C","reason":"低/中位階整理接近發動；準備分 5/7，RSI 41.9，量比 0.00。"}]},{"code":"3373","name":"熱映","close":16.75,"percent":0.9036144578313166,"tradeVolume":83,"value":1390250,"swingScore":60,"score":60,"swingZone":"C","swingStage":{"label":"低基期","ratio":"0.22","tone":"low","value":0.22222222222222252},"swingSignals":[{"id":"base_setup","title":"","short":"C準備","icon":"C","reason":"低/中位階整理接近發動；準備分 5/7，RSI 40.6，量比 0.00。"}]},{"code":"2453","name":"凌群","close":58.3,"percent":0.8650519031141869,"tradeVolume":521,"value":30374300,"swingScore":60,"score":60,"swingZone":"C","swingStage":{"label":"中位階","ratio":"0.44","tone":"mid","value":0.43846153846153835},"swingSignals":[{"id":"base_setup","title":"","short":"C準備","icon":"C","reason":"低/中位階整理接近發動；準備分 5/7，RSI 58.7，量比 0.00。"}]},{"code":"5222","name":"全訊","close":117,"percent":0.8620689655172413,"tradeVolume":437,"value":51129000,"swingScore":60,"score":60,"swingZone":"C","swingStage":{"label":"低基期","ratio":"0.14","tone":"low","value":0.14285714285714285},"swingSignals":[{"id":"base_setup","title":"","short":"C準備","icon":"C","reason":"低/中位階整理接近發動；準備分 5/7，RSI 40.4，量比 0.00。"}]},{"code":"8249","name":"菱光","close":51.9,"percent":0.7766990291262109,"tradeVolume":571,"value":29634900,"swingScore":60,"score":60,"swingZone":"C","swingStage":{"label":"中位階","ratio":"0.42","tone":"mid","value":0.4201680672268908},"swingSignals":[{"id":"base_setup","title":"","short":"C準備","icon":"C","reason":"低/中位階整理接近發動；準備分 5/7，RSI 52.5，量比 0.00。"}]},{"code":"6415","name":"矽力*-KY","close":528,"percent":0.7633587786259541,"tradeVolume":6811,"value":3596208000,"swingScore":60,"score":60,"swingZone":"C","swingStage":{"label":"中位階","ratio":"0.61","tone":"mid","value":0.6126760563380281},"swingSignals":[{"id":"base_setup","title":"","short":"C準備","icon":"C","reason":"低/中位階整理接近發動；準備分 5/7，RSI 52.8，量比 0.00。"}]},{"code":"1732","name":"毛寶","close":26.4,"percent":0.7633587786259515,"tradeVolume":119,"value":3141600,"swingScore":60,"score":60,"swingZone":"C","swingStage":{"label":"中位階","ratio":"0.43","tone":"mid","value":0.4285714285714282},"swingSignals":[{"id":"base_setup","title":"","short":"C準備","icon":"C","reason":"低/中位階整理接近發動；準備分 5/7，RSI 44.4，量比 0.00。"}]},{"code":"6113","name":"亞矽","close":24.75,"percent":0.6097560975609698,"tradeVolume":200,"value":4950000,"swingScore":60,"score":60,"swingZone":"C","swingStage":{"label":"中位階","ratio":"0.46","tone":"mid","value":0.4605263157894736},"swingSignals":[{"id":"base_setup","title":"","short":"C準備","icon":"C","reason":"低/中位階整理接近發動；準備分 5/7，RSI 50.2，量比 0.00。"}]},{"code":"1773","name":"勝一","close":173,"percent":0.5813953488372093,"tradeVolume":522,"value":90306000,"swingScore":60,"score":60,"swingZone":"C","swingStage":{"label":"中位階","ratio":"0.40","tone":"mid","value":0.40384615384615385},"swingSignals":[{"id":"base_setup","title":"","short":"C準備","icon":"C","reason":"低/中位階整理接近發動；準備分 5/7，RSI 57.3，量比 0.00。"}]},{"code":"4771","name":"望隼","close":192.5,"percent":0.5221932114882507,"tradeVolume":115,"value":22137500,"swingScore":60,"score":60,"swingZone":"C","swingStage":{"label":"中位階","ratio":"0.39","tone":"mid","value":0.39215686274509803},"swingSignals":[{"id":"base_setup","title":"","short":"C準備","icon":"C","reason":"低/中位階整理接近發動；準備分 5/7，RSI 48.4，量比 0.00。"}]},{"code":"6708","name":"天擎","close":39.7,"percent":0.5063291139240579,"tradeVolume":36,"value":1429200,"swingScore":60,"score":60,"swingZone":"C","swingStage":{"label":"低基期","ratio":"0.21","tone":"low","value":0.21250000000000036},"swingSignals":[{"id":"base_setup","title":"","short":"C準備","icon":"C","reason":"低/中位階整理接近發動；準備分 5/7，RSI 43.5，量比 0.00。"}]},{"code":"9905","name":"大華","close":20.55,"percent":0.48899755501223185,"tradeVolume":83,"value":1705650,"swingScore":60,"score":60,"swingZone":"C","swingStage":{"label":"低基期","ratio":"0.09","tone":"low","value":0.09090909090909062},"swingSignals":[{"id":"base_setup","title":"","short":"C準備","icon":"C","reason":"低/中位階整理接近發動；準備分 5/7，RSI 39.1，量比 0.00。"}]},{"code":"8917","name":"欣泰","close":51.8,"percent":-0.3846153846153901,"tradeVolume":25,"value":1295000,"swingScore":60,"score":60,"swingZone":"C","swingStage":{"label":"低基期","ratio":"0.11","tone":"low","value":0.11111111111111067},"swingSignals":[{"id":"base_setup","title":"","short":"C準備","icon":"C","reason":"低/中位階整理接近發動；準備分 5/7，RSI 40.7，量比 0.00。"}]},{"code":"6277","name":"宏正","close":75.1,"percent":-0.5298013245033188,"tradeVolume":299,"value":22454900,"swingScore":60,"score":60,"swingZone":"C","swingStage":{"label":"中位階","ratio":"0.42","tone":"mid","value":0.4155844155844153},"swingSignals":[{"id":"base_setup","title":"","short":"C準備","icon":"C","reason":"低/中位階整理接近發動；準備分 5/7，RSI 56.9，量比 0.00。"}]},{"code":"4562","name":"穎漢","close":38.5,"percent":-0.7731958762886525,"tradeVolume":804,"value":30954000,"swingScore":60,"score":60,"swingZone":"C","swingStage":{"label":"中位階","ratio":"0.40","tone":"mid","value":0.40099009900990096},"swingSignals":[{"id":"base_setup","title":"","short":"C準備","icon":"C","reason":"低/中位階整理接近發動；準備分 5/7，RSI 58.0，量比 0.00。"}]},{"code":"1203","name":"味王","close":42,"percent":-0.8264462809917389,"tradeVolume":33,"value":1386000,"swingScore":60,"score":60,"swingZone":"C","swingStage":{"label":"中位階","ratio":"0.43","tone":"mid","value":0.4252873563218393},"swingSignals":[{"id":"base_setup","title":"","short":"C準備","icon":"C","reason":"低/中位階整理接近發動；準備分 5/7，RSI 53.7，量比 0.00。"}]},{"code":"7805","name":"威聯通","close":737,"percent":-1.0738255033557047,"tradeVolume":156,"value":114972000,"swingScore":60,"score":60,"swingZone":"C","swingStage":{"label":"中位階","ratio":"0.51","tone":"mid","value":0.5123456790123457},"swingSignals":[{"id":"base_setup","title":"","short":"C準備","icon":"C","reason":"低/中位階整理接近發動；準備分 5/7，RSI 60.5，量比 0.00。"}]},{"code":"5321","name":"美而快","close":40.3,"percent":-1.7073170731707388,"tradeVolume":735,"value":29620500,"swingScore":60,"score":60,"swingZone":"C","swingStage":{"label":"中位階","ratio":"0.43","tone":"mid","value":0.4314159292035397},"swingSignals":[{"id":"base_setup","title":"","short":"C準備","icon":"C","reason":"低/中位階整理接近發動；準備分 5/7，RSI 57.5，量比 0.00。"}]},{"code":"8482","name":"商億-KY","close":47.55,"percent":-1.8575851393188971,"tradeVolume":33,"value":1569150,"swingScore":60,"score":60,"swingZone":"C","swingStage":{"label":"低基期","ratio":"0.26","tone":"low","value":0.26041666666666646},"swingSignals":[{"id":"base_setup","title":"","short":"C準備","icon":"C","reason":"低/中位階整理接近發動；準備分 5/7，RSI 40.4，量比 0.01。"}]},{"code":"7747","name":"昕奇雲端","close":125,"percent":-1.9607843137254901,"tradeVolume":4,"value":500000,"swingScore":60,"score":60,"swingZone":"C","swingStage":{"label":"中位階","ratio":"0.49","tone":"mid","value":0.49019607843137253},"swingSignals":[{"id":"base_setup","title":"","short":"C準備","icon":"C","reason":"低/中位階整理接近發動；準備分 5/7，RSI 47.7，量比 0.00。"}]},{"code":"4994","name":"傳奇","close":87.2,"percent":-3.111111111111108,"tradeVolume":35,"value":3052000,"swingScore":60,"score":60,"swingZone":"C","swingStage":{"label":"低基期","ratio":"0.36","tone":"low","value":0.3593073593073593},"swingSignals":[{"id":"base_setup","title":"","short":"C準備","icon":"C","reason":"低/中位階整理接近發動；準備分 5/7，RSI 44.1，量比 0.00。"}]},{"code":"2731","name":"雄獅","close":156,"percent":-9.30232558139535,"tradeVolume":4004,"value":624624000,"swingScore":60,"score":60,"swingZone":"C","swingStage":{"label":"低基期","ratio":"0.02","tone":"low","value":0.022222222222222223},"swingSignals":[{"id":"base_setup","title":"","short":"C準備","icon":"C","reason":"低/中位階整理接近發動；準備分 5/7，RSI 44.9，量比 0.00。"}]},{"code":"5471","name":"松翰","close":49.7,"percent":3.5416666666666727,"tradeVolume":1682,"value":83595400,"swingScore":57,"score":57,"swingZone":"C","swingStage":{"label":"中位階","ratio":"0.53","tone":"mid","value":0.5329670329670331},"swingSignals":[{"id":"base_setup","title":"","short":"C準備","icon":"C","reason":"低/中位階整理接近發動；準備分 5/7，RSI 42.3，量比 0.00。"}]}]}
