{"ok":true,"source":"strategy4-preset","updatedAt":"2026-06-06T12:34:51.971Z","scanStamp":"20260606","total":1957,"complete":true,"zone":"B","page":29,"pageSize":25,"totalPages":41,"totalCount":1020,"count":25,"matches":[{"code":"3059","name":"華晶科","close":48.9,"percent":-3.7401560346371543,"tradeVolume":25752,"value":1259272800,"swingScore":81,"score":81,"swingZone":"B","swingStage":{"label":"高基期","ratio":"0.70","tone":"high","value":0.6981131951309243},"swingSignals":[{"id":"watch_trend","title":"","short":"B觀察","icon":"B","reason":"趨勢轉強但尚未觸發突破買點；趨勢分 6/8，量比 0.00，位階 高基期。"}]},{"code":"3481","name":"群創","close":53.7,"percent":-3.7634395443966113,"tradeVolume":170414,"value":9151231800,"swingScore":81,"score":81,"swingZone":"B","swingStage":{"label":"高基期","ratio":"0.82","tone":"high","value":0.8189081188239111},"swingSignals":[{"id":"watch_trend","title":"","short":"B觀察","icon":"B","reason":"趨勢轉強但尚未觸發突破買點；趨勢分 6/8，量比 0.00，位階 高基期。"}]},{"code":"6505","name":"台塑化","close":55.3,"percent":-3.8260869565217437,"tradeVolume":10899,"value":602714700,"swingScore":81,"score":81,"swingZone":"B","swingStage":{"label":"高基期","ratio":"0.69","tone":"high","value":0.6888890584309892},"swingSignals":[{"id":"watch_trend","title":"","short":"B觀察","icon":"B","reason":"趨勢轉強但尚未觸發突破買點；趨勢分 6/8，量比 0.00，位階 高基期。"}]},{"code":"3380","name":"明泰","close":37.5,"percent":-3.8461538461538463,"tradeVolume":4625,"value":173437500,"swingScore":81,"score":81,"swingZone":"B","swingStage":{"label":"中位階","ratio":"0.61","tone":"mid","value":0.6086956521739131},"swingSignals":[{"id":"watch_trend","title":"","short":"B觀察","icon":"B","reason":"趨勢轉強但尚未觸發突破買點；趨勢分 5/8，量比 0.00，位階 中位階。"}]},{"code":"8926","name":"台汽電","close":69.6,"percent":-3.867405340976505,"tradeVolume":12208,"value":849676800,"swingScore":81,"score":81,"swingZone":"B","swingStage":{"label":"高基期","ratio":"0.87","tone":"high","value":0.8670989578271283},"swingSignals":[{"id":"watch_trend","title":"","short":"B觀察","icon":"B","reason":"趨勢轉強但尚未觸發突破買點；趨勢分 6/8，量比 0.00，位階 高基期。"}]},{"code":"3038","name":"全台","close":24.1,"percent":-4.174948844757209,"tradeVolume":600,"value":14460000,"swingScore":81,"score":81,"swingZone":"B","swingStage":{"label":"高基期","ratio":"0.74","tone":"high","value":0.737373753720776},"swingSignals":[{"id":"watch_trend","title":"","short":"B觀察","icon":"B","reason":"趨勢轉強但尚未觸發突破買點；趨勢分 6/8，量比 0.00，位階 高基期。"}]},{"code":"2312","name":"金寶","close":39.3,"percent":-4.26309200873413,"tradeVolume":66560,"value":2615808000,"swingScore":81,"score":81,"swingZone":"B","swingStage":{"label":"高基期","ratio":"0.77","tone":"high","value":0.7718120356331943},"swingSignals":[{"id":"watch_trend","title":"","short":"B觀察","icon":"B","reason":"趨勢轉強但尚未觸發突破買點；趨勢分 6/8，量比 0.00，位階 高基期。"}]},{"code":"3713","name":"新晶投控","close":16.45,"percent":-4.3604651162790695,"tradeVolume":92,"value":1513400,"swingScore":81,"score":81,"swingZone":"B","swingStage":{"label":"高基期","ratio":"0.65","tone":"high","value":0.6528925619834709},"swingSignals":[{"id":"watch_trend","title":"","short":"B觀察","icon":"B","reason":"趨勢轉強但尚未觸發突破買點；趨勢分 5/8，量比 0.39，位階 高基期。"}]},{"code":"3226","name":"龍鋒","close":45.55,"percent":-4.607329842931943,"tradeVolume":14,"value":637700,"swingScore":81,"score":81,"swingZone":"B","swingStage":{"label":"高基期","ratio":"0.72","tone":"high","value":0.7239819004524884},"swingSignals":[{"id":"watch_trend","title":"","short":"B觀察","icon":"B","reason":"趨勢轉強但尚未觸發突破買點；趨勢分 6/8，量比 0.00，位階 高基期。"}]},{"code":"3285","name":"微端","close":31.7,"percent":-4.661654135338348,"tradeVolume":111,"value":3518700,"swingScore":81,"score":81,"swingZone":"B","swingStage":{"label":"高基期","ratio":"0.64","tone":"high","value":0.6377952755905512},"swingSignals":[{"id":"watch_trend","title":"","short":"B觀察","icon":"B","reason":"趨勢轉強但尚未觸發突破買點；趨勢分 6/8，量比 0.00，位階 高基期。"}]},{"code":"6272","name":"驊陞","close":37.7,"percent":-4.797979797979794,"tradeVolume":820,"value":30914000,"swingScore":81,"score":81,"swingZone":"B","swingStage":{"label":"高基期","ratio":"0.68","tone":"high","value":0.6752136752136755},"swingSignals":[{"id":"watch_trend","title":"","short":"B觀察","icon":"B","reason":"趨勢轉強但尚未觸發突破買點；趨勢分 6/8，量比 0.00，位階 高基期。"}]},{"code":"3485","name":"敘豐","close":350,"percent":-4.891304347826087,"tradeVolume":398,"value":139300000,"swingScore":81,"score":81,"swingZone":"B","swingStage":{"label":"高基期","ratio":"0.76","tone":"high","value":0.7604790419161677},"swingSignals":[{"id":"watch_trend","title":"","short":"B觀察","icon":"B","reason":"趨勢轉強但尚未觸發突破買點；趨勢分 6/8，量比 0.00，位階 高基期。"}]},{"code":"1605","name":"華新","close":39.55,"percent":-4.927884615384626,"tradeVolume":70326,"value":2781393300,"swingScore":81,"score":81,"swingZone":"B","swingStage":{"label":"高基期","ratio":"0.69","tone":"high","value":0.6920415224913493},"swingSignals":[{"id":"watch_trend","title":"","short":"B觀察","icon":"B","reason":"趨勢轉強但尚未觸發突破買點；趨勢分 6/8，量比 0.00，位階 高基期。"}]},{"code":"1714","name":"和桐","close":11.5,"percent":-4.958680682263314,"tradeVolume":64664,"value":743636000,"swingScore":81,"score":81,"swingZone":"B","swingStage":{"label":"高基期","ratio":"0.79","tone":"high","value":0.792332237999119},"swingSignals":[{"id":"watch_trend","title":"","short":"B觀察","icon":"B","reason":"趨勢轉強但尚未觸發突破買點；趨勢分 6/8，量比 0.01，位階 高基期。"}]},{"code":"1618","name":"合機","close":42,"percent":-5.084745762711865,"tradeVolume":2111,"value":88662000,"swingScore":81,"score":81,"swingZone":"B","swingStage":{"label":"中位階","ratio":"0.51","tone":"mid","value":0.5090909090909095},"swingSignals":[{"id":"watch_trend","title":"","short":"B觀察","icon":"B","reason":"趨勢轉強但尚未觸發突破買點；趨勢分 5/8，量比 0.00，位階 中位階。"}]},{"code":"6465","name":"威潤","close":54.9,"percent":-5.344827586206899,"tradeVolume":622,"value":34147800,"swingScore":81,"score":81,"swingZone":"B","swingStage":{"label":"高基期","ratio":"0.71","tone":"high","value":0.7085714285714285},"swingSignals":[{"id":"watch_trend","title":"","short":"B觀察","icon":"B","reason":"趨勢轉強但尚未觸發突破買點；趨勢分 6/8，量比 0.00，位階 高基期。"}]},{"code":"2243","name":"宏旭-KY","close":28.05,"percent":-5.396288833441757,"tradeVolume":1829,"value":51303450,"swingScore":81,"score":81,"swingZone":"B","swingStage":{"label":"高基期","ratio":"0.79","tone":"high","value":0.785714294697089},"swingSignals":[{"id":"watch_trend","title":"","short":"B觀察","icon":"B","reason":"趨勢轉強但尚未觸發突破買點；趨勢分 6/8，量比 0.00，位階 高基期。"}]},{"code":"2364","name":"倫飛","close":76.1,"percent":-5.583126550868487,"tradeVolume":1041,"value":79220100,"swingScore":81,"score":81,"swingZone":"B","swingStage":{"label":"高基期","ratio":"0.65","tone":"high","value":0.6527777777777777},"swingSignals":[{"id":"watch_trend","title":"","short":"B觀察","icon":"B","reason":"趨勢轉強但尚未觸發突破買點；趨勢分 6/8，量比 0.00，位階 高基期。"}]},{"code":"1303","name":"南亞","close":104.5,"percent":-5.8558558558558556,"tradeVolume":53196,"value":5558982000,"swingScore":81,"score":81,"swingZone":"B","swingStage":{"label":"高基期","ratio":"0.63","tone":"high","value":0.6325459317585301},"swingSignals":[{"id":"watch_trend","title":"","short":"B觀察","icon":"B","reason":"趨勢轉強但尚未觸發突破買點；趨勢分 6/8，量比 0.00，位階 高基期。"}]},{"code":"2457","name":"飛宏","close":30.15,"percent":-5.928234890138507,"tradeVolume":29325,"value":884148750,"swingScore":81,"score":81,"swingZone":"B","swingStage":{"label":"高基期","ratio":"0.79","tone":"high","value":0.7865169305058566},"swingSignals":[{"id":"watch_trend","title":"","short":"B觀察","icon":"B","reason":"趨勢轉強但尚未觸發突破買點；趨勢分 6/8，量比 0.01，位階 高基期。"}]},{"code":"4931","name":"新盛力","close":242.5,"percent":-6.730769230769231,"tradeVolume":13181,"value":3196392500,"swingScore":81,"score":81,"swingZone":"B","swingStage":{"label":"高基期","ratio":"0.78","tone":"high","value":0.7758007117437722},"swingSignals":[{"id":"watch_trend","title":"","short":"B觀察","icon":"B","reason":"趨勢轉強但尚未觸發突破買點；趨勢分 6/8，量比 0.00，位階 高基期。"}]},{"code":"3057","name":"喬鼎","close":21.9,"percent":-7.006366414075932,"tradeVolume":515,"value":11278500,"swingScore":81,"score":81,"swingZone":"B","swingStage":{"label":"高基期","ratio":"0.70","tone":"high","value":0.6986301319754404},"swingSignals":[{"id":"watch_trend","title":"","short":"B觀察","icon":"B","reason":"趨勢轉強但尚未觸發突破買點；趨勢分 6/8，量比 0.00，位階 高基期。"}]},{"code":"2409","name":"友達","close":27.1,"percent":-7.350427350427345,"tradeVolume":604789,"value":16389781900,"swingScore":81,"score":81,"swingZone":"B","swingStage":{"label":"高基期","ratio":"0.81","tone":"high","value":0.8076923076923077},"swingSignals":[{"id":"watch_trend","title":"","short":"B觀察","icon":"B","reason":"趨勢轉強但尚未觸發突破買點；趨勢分 6/8，量比 0.00，位階 高基期。"}]},{"code":"2301","name":"光寶科","close":230,"percent":-7.44466800804829,"tradeVolume":44773,"value":10297790000,"swingScore":81,"score":81,"swingZone":"B","swingStage":{"label":"高基期","ratio":"0.76","tone":"high","value":0.7605042016806722},"swingSignals":[{"id":"watch_trend","title":"","short":"B觀察","icon":"B","reason":"趨勢轉強但尚未觸發突破買點；趨勢分 6/8，量比 0.00，位階 高基期。"}]},{"code":"5285","name":"界霖","close":91.8,"percent":-7.552872931784919,"tradeVolume":7353,"value":675005400,"swingScore":81,"score":81,"swingZone":"B","swingStage":{"label":"高基期","ratio":"0.84","tone":"high","value":0.840490821284077},"swingSignals":[{"id":"watch_trend","title":"","short":"B觀察","icon":"B","reason":"趨勢轉強但尚未觸發突破買點；趨勢分 6/8，量比 0.00，位階 高基期。"}]}]}
