{"ok":true,"source":"strategy4-preset","updatedAt":"2026-06-18T10:18:43.130Z","scanStamp":"20260618","total":1655,"complete":true,"zone":"C","page":3,"pageSize":25,"totalPages":4,"totalCount":79,"count":25,"matches":[{"code":"2615","name":"萬海","close":81.3,"percent":-0.12285012285013332,"tradeVolume":6118,"avgVolume5":9887.89,"value":497393400,"swingScore":60,"score":60,"swingZone":"C","swingStage":{"label":"中位階","ratio":"0.55","tone":"mid","value":0.5454545454545454},"swingSignals":[{"id":"base_setup","title":"","short":"C準備","icon":"C","reason":"低/中位階整理接近發動；準備分 5/7，RSI 49.3，量比 0.44。"}]},{"code":"4906","name":"正文","close":44.65,"percent":-2.0833333333333393,"tradeVolume":4620,"avgVolume5":14324.97,"value":206283000,"swingScore":60,"score":60,"swingZone":"C","swingStage":{"label":"中位階","ratio":"0.50","tone":"mid","value":0.5044444444444445},"swingSignals":[{"id":"base_setup","title":"","short":"C準備","icon":"C","reason":"低/中位階整理接近發動；準備分 5/7，RSI 59.6，量比 0.16。"}]},{"code":"1717","name":"長興","close":72.4,"percent":1.2587412587412667,"tradeVolume":6435,"avgVolume5":9770.9,"value":465894000,"swingScore":59,"score":59,"swingZone":"C","swingStage":{"label":"低基期","ratio":"0.15","tone":"low","value":0.15458937198067643},"swingSignals":[{"id":"full_scan_watch","title":"","short":"全掃","icon":"C","reason":"完整掃描保留：扣除剔除名單後納入策略4股票池；趨勢分 2/8，準備分 4/7，量比 0.21，位階 低基期。"}]},{"code":"2371","name":"大同","close":28.15,"percent":0.896057347670251,"tradeVolume":7684,"avgVolume5":10130.05,"value":216304600,"swingScore":59,"score":59,"swingZone":"C","swingStage":{"label":"低基期","ratio":"0.07","tone":"low","value":0.07207207207207185},"swingSignals":[{"id":"base_setup","title":"","short":"C準備","icon":"C","reason":"低/中位階整理接近發動；準備分 5/7，RSI 41.5，量比 0.33。"}]},{"code":"2301","name":"光寶科","close":210.5,"percent":0.47732696897374705,"tradeVolume":11489,"avgVolume5":18238.42,"value":2418434500,"swingScore":59,"score":59,"swingZone":"C","swingStage":{"label":"中位階","ratio":"0.49","tone":"mid","value":0.49261083743842365},"swingSignals":[{"id":"base_setup","title":"","short":"C準備","icon":"C","reason":"低/中位階整理接近發動；準備分 5/7，RSI 41.4，量比 0.31。"}]},{"code":"2474","name":"可成","close":203.5,"percent":-0.9732360097323601,"tradeVolume":3572,"avgVolume5":4975.12,"value":726902000,"swingScore":59,"score":59,"swingZone":"C","swingStage":{"label":"低基期","ratio":"0.25","tone":"low","value":0.25149700598802394},"swingSignals":[{"id":"full_scan_watch","title":"","short":"全掃","icon":"C","reason":"完整掃描保留：扣除剔除名單後納入策略4股票池；趨勢分 2/8，準備分 4/7，量比 0.22，位階 低基期。"}]},{"code":"5309","name":"系統電","close":69,"percent":-2.266288951841352,"tradeVolume":4570.237,"avgVolume5":16454.5,"value":315883197,"swingScore":59,"score":59,"swingZone":"C","swingStage":{"label":"中位階","ratio":"0.43","tone":"mid","value":0.4253731343283581},"swingSignals":[{"id":"base_setup","title":"","short":"C準備","icon":"C","reason":"低/中位階整理接近發動；準備分 5/7，RSI 52.2，量比 0.32。"}]},{"code":"6451","name":"訊芯-KY","close":557,"percent":-3.298611111111111,"tradeVolume":1914,"avgVolume5":5096.38,"value":1066098000,"swingScore":59,"score":59,"swingZone":"C","swingStage":{"label":"中位階","ratio":"0.49","tone":"mid","value":0.4949238578680203},"swingSignals":[{"id":"base_setup","title":"","short":"C準備","icon":"C","reason":"低/中位階整理接近發動；準備分 5/7，RSI 52.7，量比 0.31。"}]},{"code":"2367","name":"燿華","close":61,"percent":-3.481012658227853,"tradeVolume":27375,"avgVolume5":32738.44,"value":1669875000,"swingScore":59,"score":59,"swingZone":"C","swingStage":{"label":"低基期","ratio":"0.33","tone":"low","value":0.3274853801169591},"swingSignals":[{"id":"full_scan_watch","title":"","short":"全掃","icon":"C","reason":"完整掃描保留：扣除剔除名單後納入策略4股票池；趨勢分 1/8，準備分 4/7，量比 0.60，位階 低基期。"}]},{"code":"1504","name":"東元","close":69.5,"percent":1.6081871345029155,"tradeVolume":4700,"avgVolume5":16929.18,"value":326650000,"swingScore":58,"score":58,"swingZone":"C","swingStage":{"label":"低基期","ratio":"0.32","tone":"low","value":0.3232323232323233},"swingSignals":[{"id":"full_scan_watch","title":"","short":"全掃","icon":"C","reason":"完整掃描保留：扣除剔除名單後納入策略4股票池；趨勢分 2/8，準備分 4/7，量比 0.10，位階 低基期。"}]},{"code":"3702","name":"大聯大","close":107,"percent":1.4218009478672986,"tradeVolume":8378,"avgVolume5":15070.51,"value":896446000,"swingScore":58,"score":58,"swingZone":"C","swingStage":{"label":"中位階","ratio":"0.41","tone":"mid","value":0.4057971014492754},"swingSignals":[{"id":"full_scan_watch","title":"","short":"全掃","icon":"C","reason":"完整掃描保留：扣除剔除名單後納入策略4股票池；趨勢分 2/8，準備分 4/7，量比 0.56，位階 中位階。"}]},{"code":"3005","name":"神基","close":103,"percent":-1.4354066985645932,"tradeVolume":1846,"avgVolume5":5009.09,"value":190138000,"swingScore":58,"score":58,"swingZone":"C","swingStage":{"label":"中位階","ratio":"0.45","tone":"mid","value":0.4540229885057473},"swingSignals":[{"id":"base_setup","title":"","short":"C準備","icon":"C","reason":"低/中位階整理接近發動；準備分 5/7，RSI 52.6，量比 0.27。"}]},{"code":"3704","name":"合勤控","close":45.9,"percent":-4.3750000000000036,"tradeVolume":2615,"avgVolume5":5163.71,"value":120028500,"swingScore":58,"score":58,"swingZone":"C","swingStage":{"label":"高基期","ratio":"0.76","tone":"high","value":0.7566765578635014},"swingSignals":[{"id":"full_scan_watch","title":"","short":"全掃","icon":"C","reason":"完整掃描保留：扣除剔除名單後納入策略4股票池；趨勢分 4/8，準備分 3/7，量比 0.39，位階 高基期。"}]},{"code":"2377","name":"微星","close":136.5,"percent":1.486988847583643,"tradeVolume":6942,"avgVolume5":12935.19,"value":947583000,"swingScore":57,"score":57,"swingZone":"C","swingStage":{"label":"高基期","ratio":"0.74","tone":"high","value":0.738562091503268},"swingSignals":[{"id":"full_scan_watch","title":"","short":"全掃","icon":"C","reason":"完整掃描保留：扣除剔除名單後納入策略4股票池；趨勢分 4/8，準備分 3/7，量比 0.20，位階 高基期。"}]},{"code":"2385","name":"群光","close":114.5,"percent":0,"tradeVolume":3794,"avgVolume5":9494.79,"value":434413000,"swingScore":57,"score":57,"swingZone":"C","swingStage":{"label":"低基期","ratio":"0.01","tone":"low","value":0.014084507042253521},"swingSignals":[{"id":"full_scan_watch","title":"","short":"全掃","icon":"C","reason":"完整掃描保留：扣除剔除名單後納入策略4股票池；趨勢分 1/8，準備分 3/7，量比 0.66，位階 低基期。"}]},{"code":"2353","name":"宏碁","close":34.45,"percent":-0.5772005772005648,"tradeVolume":32182,"avgVolume5":51307.63,"value":1108669900,"swingScore":57,"score":57,"swingZone":"C","swingStage":{"label":"中位階","ratio":"0.43","tone":"mid","value":0.42982456140350883},"swingSignals":[{"id":"full_scan_watch","title":"","short":"全掃","icon":"C","reason":"完整掃描保留：扣除剔除名單後納入策略4股票池；趨勢分 2/8，準備分 4/7，量比 0.36，位階 中位階。"}]},{"code":"2485","name":"兆赫","close":61.8,"percent":-2.2151898734177307,"tradeVolume":6517,"avgVolume5":11773.77,"value":402750600,"swingScore":57,"score":57,"swingZone":"C","swingStage":{"label":"低基期","ratio":"0.18","tone":"low","value":0.18048780487804864},"swingSignals":[{"id":"full_scan_watch","title":"","short":"全掃","icon":"C","reason":"完整掃描保留：扣除剔除名單後納入策略4股票池；趨勢分 2/8，準備分 3/7，量比 0.29，位階 低基期。"}]},{"code":"4927","name":"泰鼎-KY","close":49.5,"percent":-2.941176470588235,"tradeVolume":2726,"avgVolume5":6653.76,"value":134937000,"swingScore":57,"score":57,"swingZone":"C","swingStage":{"label":"低基期","ratio":"0.21","tone":"low","value":0.21342925659472428},"swingSignals":[{"id":"full_scan_watch","title":"","short":"全掃","icon":"C","reason":"完整掃描保留：扣除剔除名單後納入策略4股票池；趨勢分 2/8，準備分 3/7，量比 0.21，位階 低基期。"}]},{"code":"2313","name":"華通","close":249.5,"percent":-3.481624758220503,"tradeVolume":57076,"avgVolume5":72565.2,"value":14240462000,"swingScore":57,"score":57,"swingZone":"C","swingStage":{"label":"中位階","ratio":"0.44","tone":"mid","value":0.4427860696517413},"swingSignals":[{"id":"full_scan_watch","title":"","short":"全掃","icon":"C","reason":"完整掃描保留：扣除剔除名單後納入策略4股票池；趨勢分 1/8，準備分 4/7，量比 0.74，位階 中位階。"}]},{"code":"8070","name":"長華*","close":53.5,"percent":-6.956521739130435,"tradeVolume":484,"avgVolume5":8934.12,"value":25894000,"swingScore":57,"score":57,"swingZone":"C","swingStage":{"label":"中位階","ratio":"0.47","tone":"mid","value":0.4703389830508475},"swingSignals":[{"id":"full_scan_watch","title":"","short":"全掃","icon":"C","reason":"完整掃描保留：扣除剔除名單後納入策略4股票池；趨勢分 3/8，準備分 4/7，量比 0.04，位階 中位階。"}]},{"code":"2351","name":"順德","close":182.5,"percent":-0.544959128065395,"tradeVolume":2222,"avgVolume5":4605.4,"value":405515000,"swingScore":56,"score":56,"swingZone":"C","swingStage":{"label":"中位階","ratio":"0.55","tone":"mid","value":0.5491071428571429},"swingSignals":[{"id":"full_scan_watch","title":"","short":"全掃","icon":"C","reason":"完整掃描保留：扣除剔除名單後納入策略4股票池；趨勢分 2/8，準備分 4/7，量比 0.31，位階 中位階。"}]},{"code":"4960","name":"誠美材","close":29.7,"percent":-0.6688963210702318,"tradeVolume":5575,"avgVolume5":6303.44,"value":165577500,"swingScore":56,"score":56,"swingZone":"C","swingStage":{"label":"低基期","ratio":"0.15","tone":"low","value":0.15081206496519722},"swingSignals":[{"id":"full_scan_watch","title":"","short":"全掃","icon":"C","reason":"完整掃描保留：扣除剔除名單後納入策略4股票池；趨勢分 1/8，準備分 3/7，量比 0.47，位階 低基期。"}]},{"code":"3062","name":"建漢","close":25.8,"percent":-1.526717557251903,"tradeVolume":2750,"avgVolume5":7310.46,"value":70950000,"swingScore":56,"score":56,"swingZone":"C","swingStage":{"label":"低基期","ratio":"0.17","tone":"low","value":0.16556291390728475},"swingSignals":[{"id":"full_scan_watch","title":"","short":"全掃","icon":"C","reason":"完整掃描保留：扣除剔除名單後納入策略4股票池；趨勢分 1/8，準備分 4/7，量比 0.27，位階 低基期。"}]},{"code":"3376","name":"新日興","close":197.5,"percent":-1.0025062656641603,"tradeVolume":4035,"avgVolume5":14016.32,"value":796912500,"swingScore":55,"score":55,"swingZone":"C","swingStage":{"label":"低基期","ratio":"0.15","tone":"low","value":0.14754098360655737},"swingSignals":[{"id":"full_scan_watch","title":"","short":"全掃","icon":"C","reason":"完整掃描保留：扣除剔除名單後納入策略4股票池；趨勢分 1/8，準備分 3/7，量比 0.38，位階 低基期。"}]},{"code":"2368","name":"金像電","close":1345,"percent":1.1278195488721803,"tradeVolume":2443,"avgVolume5":5720.66,"value":3285835000,"swingScore":54,"score":54,"swingZone":"C","swingStage":{"label":"中位階","ratio":"0.46","tone":"mid","value":0.45977011494252873},"swingSignals":[{"id":"full_scan_watch","title":"","short":"全掃","icon":"C","reason":"完整掃描保留：扣除剔除名單後納入策略4股票池；趨勢分 1/8，準備分 4/7，量比 0.42，位階 中位階。"}]}]}
