{"ok":true,"source":"strategy4-preset","updatedAt":"2026-06-12T08:03:21.079Z","scanStamp":"20260612","total":1607,"complete":true,"zone":"B","page":1,"pageSize":25,"totalPages":8,"totalCount":189,"count":25,"matches":[{"code":"2413","name":"環科","close":61.2,"percent":6.434782608695658,"tradeVolume":23177,"avgVolume5":14807.12,"value":1418432400,"swingScore":100,"score":100,"swingZone":"B","swingStage":{"label":"高基期","ratio":"0.91","tone":"high","value":0.9056603773584906},"swingSignals":[{"id":"watch_trend","title":"","short":"B觀察","icon":"B","reason":"趨勢轉強但尚未觸發突破買點；趨勢分 7/8，量比 2.67，位階 高基期。"}]},{"code":"2605","name":"新興","close":31.6,"percent":3.947368421052641,"tradeVolume":8195,"avgVolume5":6139.39,"value":258962000,"swingScore":100,"score":100,"swingZone":"B","swingStage":{"label":"低基期","ratio":"0.32","tone":"low","value":0.32394366197183116},"swingSignals":[{"id":"watch_trend","title":"","short":"B觀察","icon":"B","reason":"趨勢轉強但尚未觸發突破買點；趨勢分 5/8，量比 1.26，位階 低基期。"}]},{"code":"5521","name":"工信","close":10.55,"percent":2.9268292682926895,"tradeVolume":7182,"avgVolume5":9060.04,"value":75770100,"swingScore":100,"score":100,"swingZone":"B","swingStage":{"label":"低基期","ratio":"0.31","tone":"low","value":0.31034482758620696},"swingSignals":[{"id":"watch_trend","title":"","short":"B觀察","icon":"B","reason":"趨勢轉強但尚未觸發突破買點；趨勢分 6/8，量比 1.22，位階 低基期。"}]},{"code":"8996","name":"高力","close":1145,"percent":0.43859649122807015,"tradeVolume":3053,"avgVolume5":5057,"value":3495685000,"swingScore":100,"score":100,"swingZone":"B","swingStage":{"label":"中位階","ratio":"0.41","tone":"mid","value":0.4074074074074074},"swingSignals":[{"id":"watch_trend","title":"","short":"B觀察","icon":"B","reason":"趨勢轉強但尚未觸發突破買點；趨勢分 7/8，量比 0.84，位階 中位階。"}]},{"code":"5212","name":"凌網","close":47.2,"percent":0.4255319148936231,"tradeVolume":24157,"avgVolume5":23266.4,"value":0,"swingScore":100,"score":100,"swingZone":"B","swingStage":{"label":"中位階","ratio":"0.58","tone":"mid","value":0.5824175824175831},"swingSignals":[{"id":"watch_trend","title":"","short":"B觀察","icon":"B","reason":"趨勢轉強但尚未觸發突破買點；趨勢分 7/8，量比 1.16，位階 中位階。"}]},{"code":"2889","name":"國票金","close":15,"percent":0.33444816053512183,"tradeVolume":8087,"avgVolume5":7730.2,"value":121305000,"swingScore":100,"score":100,"swingZone":"B","swingStage":{"label":"中位階","ratio":"0.57","tone":"mid","value":0.565217391304348},"swingSignals":[{"id":"watch_trend","title":"","short":"B觀察","icon":"B","reason":"趨勢轉強但尚未觸發突破買點；趨勢分 6/8，量比 1.71，位階 中位階。"}]},{"code":"6244","name":"茂迪","close":31.1,"percent":-0.47999999999999543,"tradeVolume":31859,"avgVolume5":20433.62,"value":990814900,"swingScore":100,"score":100,"swingZone":"B","swingStage":{"label":"高基期","ratio":"0.66","tone":"high","value":0.6603773584905664},"swingSignals":[{"id":"watch_trend","title":"","short":"B觀察","icon":"B","reason":"趨勢轉強但尚未觸發突破買點；趨勢分 7/8，量比 2.53，位階 高基期。"}]},{"code":"8422","name":"可寧衛*","close":29,"percent":-0.8547008547008548,"tradeVolume":14647,"avgVolume5":34837.52,"value":424763000,"swingScore":100,"score":100,"swingZone":"B","swingStage":{"label":"中位階","ratio":"0.58","tone":"mid","value":0.5760000000000002},"swingSignals":[{"id":"watch_trend","title":"","short":"B觀察","icon":"B","reason":"趨勢轉強但尚未觸發突破買點；趨勢分 7/8，量比 0.89，位階 中位階。"}]},{"code":"8182","name":"加高","close":53.6,"percent":-1.651376146788988,"tradeVolume":22283,"avgVolume5":14650.01,"value":1194368800,"swingScore":100,"score":100,"swingZone":"B","swingStage":{"label":"高基期","ratio":"0.80","tone":"high","value":0.7962264150943397},"swingSignals":[{"id":"watch_trend","title":"","short":"B觀察","icon":"B","reason":"趨勢轉強但尚未觸發突破買點；趨勢分 7/8，量比 3.21，位階 高基期。"}]},{"code":"8071","name":"能率網通","close":24.5,"percent":-1.803607214428855,"tradeVolume":11181,"avgVolume5":6906.53,"value":273934500,"swingScore":100,"score":100,"swingZone":"B","swingStage":{"label":"高基期","ratio":"0.76","tone":"high","value":0.7613168724279836},"swingSignals":[{"id":"watch_trend","title":"","short":"B觀察","icon":"B","reason":"趨勢轉強但尚未觸發突破買點；趨勢分 7/8，量比 2.77，位階 高基期。"}]},{"code":"3441","name":"聯一光","close":70,"percent":-2.097902097902098,"tradeVolume":18876,"avgVolume5":10566.8,"value":1321320000,"swingScore":100,"score":100,"swingZone":"B","swingStage":{"label":"高基期","ratio":"0.87","tone":"high","value":0.8728323699421965},"swingSignals":[{"id":"watch_trend","title":"","short":"B觀察","icon":"B","reason":"趨勢轉強但尚未觸發突破買點；趨勢分 7/8，量比 3.11，位階 高基期。"}]},{"code":"6270","name":"倍微","close":34.4,"percent":-2.2727272727272845,"tradeVolume":3216,"avgVolume5":7133.38,"value":110630400,"swingScore":100,"score":100,"swingZone":"B","swingStage":{"label":"中位階","ratio":"0.54","tone":"mid","value":0.544159544159544},"swingSignals":[{"id":"watch_trend","title":"","short":"B觀察","icon":"B","reason":"趨勢轉強但尚未觸發突破買點；趨勢分 7/8，量比 1.23，位階 中位階。"}]},{"code":"6155","name":"鈞寶","close":82,"percent":-2.4970273483947616,"tradeVolume":35506,"avgVolume5":40512.27,"value":2911492000,"swingScore":100,"score":100,"swingZone":"B","swingStage":{"label":"高基期","ratio":"0.84","tone":"high","value":0.8407643312101911},"swingSignals":[{"id":"watch_trend","title":"","short":"B觀察","icon":"B","reason":"趨勢轉強但尚未觸發突破買點；趨勢分 7/8，量比 1.72，位階 高基期。"}]},{"code":"3042","name":"晶技","close":224.5,"percent":-4.468085106382979,"tradeVolume":72615,"avgVolume5":59683.03,"value":16302067500,"swingScore":100,"score":100,"swingZone":"B","swingStage":{"label":"高基期","ratio":"0.80","tone":"high","value":0.8026315789473685},"swingSignals":[{"id":"watch_trend","title":"","short":"B觀察","icon":"B","reason":"趨勢轉強但尚未觸發突破買點；趨勢分 7/8，量比 2.09，位階 高基期。"}]},{"code":"8021","name":"尖點","close":522,"percent":-8.421052631578947,"tradeVolume":25995,"avgVolume5":16855.42,"value":13569390000,"swingScore":100,"score":100,"swingZone":"B","swingStage":{"label":"中位階","ratio":"0.62","tone":"mid","value":0.6167883211678832},"swingSignals":[{"id":"watch_trend","title":"","short":"B觀察","icon":"B","reason":"趨勢轉強但尚未觸發突破買點；趨勢分 7/8，量比 3.09，位階 中位階。"}]},{"code":"2327","name":"國巨*","close":855,"percent":1.5439429928741093,"tradeVolume":85848,"avgVolume5":77237.08,"value":73400040000,"swingScore":99,"score":99,"swingZone":"B","swingStage":{"label":"高基期","ratio":"0.90","tone":"high","value":0.8983320095313742},"swingSignals":[{"id":"watch_trend","title":"","short":"B觀察","icon":"B","reason":"趨勢轉強但尚未觸發突破買點；趨勢分 7/8，量比 1.63，位階 高基期。"}]},{"code":"1449","name":"佳和","close":14.35,"percent":0.7017543859649098,"tradeVolume":2751,"avgVolume5":6946.83,"value":39476850,"swingScore":99,"score":99,"swingZone":"B","swingStage":{"label":"中位階","ratio":"0.48","tone":"mid","value":0.48421052631578926},"swingSignals":[{"id":"watch_trend","title":"","short":"B觀察","icon":"B","reason":"趨勢轉強但尚未觸發突破買點；趨勢分 7/8，量比 0.95，位階 中位階。"}]},{"code":"2542","name":"興富發","close":44.95,"percent":-0.8820286659316396,"tradeVolume":31206,"avgVolume5":33865.63,"value":1402709700,"swingScore":99,"score":99,"swingZone":"B","swingStage":{"label":"高基期","ratio":"0.84","tone":"high","value":0.8395522388059702},"swingSignals":[{"id":"watch_trend","title":"","short":"B觀察","icon":"B","reason":"趨勢轉強但尚未觸發突破買點；趨勢分 7/8，量比 1.63，位階 高基期。"}]},{"code":"2362","name":"藍天","close":48,"percent":-1.0309278350515463,"tradeVolume":5337,"avgVolume5":3890.86,"value":256176000,"swingScore":99,"score":99,"swingZone":"B","swingStage":{"label":"高基期","ratio":"0.72","tone":"high","value":0.7172413793103447},"swingSignals":[{"id":"watch_trend","title":"","short":"B觀察","icon":"B","reason":"趨勢轉強但尚未觸發突破買點；趨勢分 7/8，量比 1.38，位階 高基期。"}]},{"code":"3362","name":"先進光","close":160.5,"percent":-2.1341463414634148,"tradeVolume":11797,"avgVolume5":8962.87,"value":1893418500,"swingScore":99,"score":99,"swingZone":"B","swingStage":{"label":"高基期","ratio":"0.80","tone":"high","value":0.8013245033112583},"swingSignals":[{"id":"watch_trend","title":"","short":"B觀察","icon":"B","reason":"趨勢轉強但尚未觸發突破買點；趨勢分 6/8，量比 2.43，位階 高基期。"}]},{"code":"3290","name":"東浦","close":61.4,"percent":-3.45911949685535,"tradeVolume":7024,"avgVolume5":5309.9,"value":431273600,"swingScore":99,"score":99,"swingZone":"B","swingStage":{"label":"高基期","ratio":"0.85","tone":"high","value":0.8480392156862744},"swingSignals":[{"id":"watch_trend","title":"","short":"B觀察","icon":"B","reason":"趨勢轉強但尚未觸發突破買點；趨勢分 6/8，量比 3.11，位階 高基期。"}]},{"code":"4306","name":"炎洲","close":16.1,"percent":1.577287066246068,"tradeVolume":5890,"avgVolume5":4003.45,"value":94829000,"swingScore":98,"score":98,"swingZone":"B","swingStage":{"label":"高基期","ratio":"0.92","tone":"high","value":0.9242424242424243},"swingSignals":[{"id":"watch_trend","title":"","short":"B觀察","icon":"B","reason":"趨勢轉強但尚未觸發突破買點；趨勢分 6/8，量比 2.13，位階 高基期。"}]},{"code":"8936","name":"國統","close":56,"percent":1.4492753623188355,"tradeVolume":9887,"avgVolume5":9527.91,"value":553672000,"swingScore":98,"score":98,"swingZone":"B","swingStage":{"label":"中位階","ratio":"0.49","tone":"mid","value":0.4945848375451264},"swingSignals":[{"id":"watch_trend","title":"","short":"B觀察","icon":"B","reason":"趨勢轉強但尚未觸發突破買點；趨勢分 6/8，量比 1.21，位階 中位階。"}]},{"code":"2537","name":"聯上發","close":11.4,"percent":0.8849557522123862,"tradeVolume":5248,"avgVolume5":6133.46,"value":59827200,"swingScore":98,"score":98,"swingZone":"B","swingStage":{"label":"高基期","ratio":"0.87","tone":"high","value":0.8706896551724141},"swingSignals":[{"id":"watch_trend","title":"","short":"B觀察","icon":"B","reason":"趨勢轉強但尚未觸發突破買點；趨勢分 6/8，量比 2.16，位階 高基期。"}]},{"code":"2103","name":"台橡","close":22.1,"percent":-0.2257336343114996,"tradeVolume":8025,"avgVolume5":5808.09,"value":177352500,"swingScore":98,"score":98,"swingZone":"B","swingStage":{"label":"高基期","ratio":"0.87","tone":"high","value":0.8651685393258431},"swingSignals":[{"id":"watch_trend","title":"","short":"B觀察","icon":"B","reason":"趨勢轉強但尚未觸發突破買點；趨勢分 7/8，量比 1.46，位階 高基期。"}]}]}
