{"ok":true,"source":"strategy4-preset","updatedAt":"2026-06-09T06:53:44.896Z","scanStamp":"20260609","total":1953,"complete":true,"zone":"C","page":14,"pageSize":25,"totalPages":23,"totalCount":554,"count":25,"matches":[{"code":"1813","name":"寶利徠","close":11.8,"percent":0.4255319148936231,"tradeVolume":32,"value":377600,"swingScore":71,"score":71,"swingZone":"C","swingStage":{"label":"低基期","ratio":"0.14","tone":"low","value":0.13953488372093054},"swingSignals":[{"id":"base_setup","title":"","short":"C準備","icon":"C","reason":"低/中位階整理接近發動；準備分 5/7，RSI 37.0，量比 0.00。"}]},{"code":"9919","name":"康那香","close":14.05,"percent":0.3571428571428622,"tradeVolume":373,"value":5240650,"swingScore":71,"score":71,"swingZone":"C","swingStage":{"label":"低基期","ratio":"0.31","tone":"low","value":0.3055555555555558},"swingSignals":[{"id":"base_setup","title":"","short":"C準備","icon":"C","reason":"低/中位階整理接近發動；準備分 5/7，RSI 42.9，量比 0.00。"}]},{"code":"6169","name":"昱泉","close":14.1,"percent":0.35587188612098886,"tradeVolume":31,"value":437100,"swingScore":71,"score":71,"swingZone":"C","swingStage":{"label":"低基期","ratio":"0.10","tone":"low","value":0.09909909909909889},"swingSignals":[{"id":"base_setup","title":"","short":"C準備","icon":"C","reason":"低/中位階整理接近發動；準備分 5/7，RSI 32.5，量比 0.60。"}]},{"code":"2643","name":"捷迅","close":66,"percent":0.30395136778115933,"tradeVolume":37,"value":2442000,"swingScore":71,"score":71,"swingZone":"C","swingStage":{"label":"低基期","ratio":"0.20","tone":"low","value":0.20408163265306098},"swingSignals":[{"id":"base_setup","title":"","short":"C準備","icon":"C","reason":"低/中位階整理接近發動；準備分 5/7，RSI 42.2，量比 0.00。"}]},{"code":"1451","name":"年興","close":16.55,"percent":0.3030303030303073,"tradeVolume":232,"value":3839600,"swingScore":71,"score":71,"swingZone":"C","swingStage":{"label":"低基期","ratio":"0.10","tone":"low","value":0.10204081632653064},"swingSignals":[{"id":"base_setup","title":"","short":"C準備","icon":"C","reason":"低/中位階整理接近發動；準備分 5/7，RSI 44.0，量比 0.00。"}]},{"code":"6796","name":"晉弘","close":59.6,"percent":0.000002560199575061461,"tradeVolume":81,"value":4827600,"swingScore":71,"score":71,"swingZone":"C","swingStage":{"label":"低基期","ratio":"0.05","tone":"low","value":0.05238095238095245},"swingSignals":[{"id":"base_setup","title":"","short":"C準備","icon":"C","reason":"低/中位階整理接近發動；準備分 5/7，RSI 38.1，量比 0.00。"}]},{"code":"3444","name":"利機","close":99.8,"percent":0,"tradeVolume":733,"value":73153400,"swingScore":71,"score":71,"swingZone":"C","swingStage":{"label":"中位階","ratio":"0.61","tone":"mid","value":0.6109324758842444},"swingSignals":[{"id":"base_setup","title":"","short":"C準備","icon":"C","reason":"低/中位階整理接近發動；準備分 5/7，RSI 54.9，量比 0.61。"}]},{"code":"5533","name":"皇鼎","close":13.75,"percent":0,"tradeVolume":296,"value":4070000,"swingScore":71,"score":71,"swingZone":"C","swingStage":{"label":"低基期","ratio":"0.08","tone":"low","value":0.08333333333333309},"swingSignals":[{"id":"base_setup","title":"","short":"C準備","icon":"C","reason":"低/中位階整理接近發動；準備分 5/7，RSI 42.9，量比 0.00。"}]},{"code":"8367","name":"建新國際","close":40.15,"percent":-0.12437810945274692,"tradeVolume":47,"value":1887050,"swingScore":71,"score":71,"swingZone":"C","swingStage":{"label":"低基期","ratio":"0.14","tone":"low","value":0.13978494623655888},"swingSignals":[{"id":"base_setup","title":"","short":"C準備","icon":"C","reason":"低/中位階整理接近發動；準備分 5/7，RSI 27.4，量比 0.00。"}]},{"code":"3543","name":"州巧","close":33.85,"percent":-0.14749262536872318,"tradeVolume":651,"value":22036350,"swingScore":71,"score":71,"swingZone":"C","swingStage":{"label":"低基期","ratio":"0.12","tone":"low","value":0.11619718309859148},"swingSignals":[{"id":"base_setup","title":"","short":"C準備","icon":"C","reason":"低/中位階整理接近發動；準備分 5/7，RSI 41.2，量比 0.00。"}]},{"code":"2609","name":"陽明","close":51.6,"percent":-0.19342359767891956,"tradeVolume":61798,"value":3188776800,"swingScore":71,"score":71,"swingZone":"C","swingStage":{"label":"中位階","ratio":"0.51","tone":"mid","value":0.5089820359281436},"swingSignals":[{"id":"base_setup","title":"","short":"C準備","icon":"C","reason":"低/中位階整理接近發動；準備分 5/7，RSI 54.7，量比 0.00。"}]},{"code":"8930","name":"青鋼","close":27.9,"percent":-0.3571428571428622,"tradeVolume":38,"value":1060200,"swingScore":71,"score":71,"swingZone":"C","swingStage":{"label":"低基期","ratio":"0.31","tone":"low","value":0.3076923076923073},"swingSignals":[{"id":"base_setup","title":"","short":"C準備","icon":"C","reason":"低/中位階整理接近發動；準備分 5/7，RSI 39.6，量比 0.00。"}]},{"code":"1441","name":"大東","close":9.14,"percent":-0.43572984749454413,"tradeVolume":46,"value":420440,"swingScore":71,"score":71,"swingZone":"C","swingStage":{"label":"低基期","ratio":"0.01","tone":"low","value":0.007843137254902143},"swingSignals":[{"id":"base_setup","title":"","short":"C準備","icon":"C","reason":"低/中位階整理接近發動；準備分 5/7，RSI 43.3，量比 0.00。"}]},{"code":"1712","name":"興農","close":39.1,"percent":-0.508905852417292,"tradeVolume":964,"value":37692400,"swingScore":71,"score":71,"swingZone":"C","swingStage":{"label":"低基期","ratio":"0.17","tone":"low","value":0.1702127659574476},"swingSignals":[{"id":"base_setup","title":"","short":"C準備","icon":"C","reason":"低/中位階整理接近發動；準備分 5/7，RSI 30.0，量比 0.00。"}]},{"code":"8450","name":"霹靂","close":15.7,"percent":-0.6329113924050722,"tradeVolume":19,"value":298300,"swingScore":71,"score":71,"swingZone":"C","swingStage":{"label":"低基期","ratio":"0.21","tone":"low","value":0.2105263157894736},"swingSignals":[{"id":"base_setup","title":"","short":"C準備","icon":"C","reason":"低/中位階整理接近發動；準備分 5/7，RSI 37.5，量比 0.00。"}]},{"code":"2945","name":"三商家購","close":40.7,"percent":-1.093560145808009,"tradeVolume":30,"value":1221000,"swingScore":71,"score":71,"swingZone":"C","swingStage":{"label":"中位階","ratio":"0.42","tone":"mid","value":0.41666666666666735},"swingSignals":[{"id":"base_setup","title":"","short":"C準備","icon":"C","reason":"低/中位階整理接近發動；準備分 5/7，RSI 50.4，量比 0.00。"}]},{"code":"9937","name":"全國","close":55.1,"percent":-1.2544802867383438,"tradeVolume":83,"value":4573300,"swingScore":71,"score":71,"swingZone":"C","swingStage":{"label":"低基期","ratio":"0.12","tone":"low","value":0.12499999999999972},"swingSignals":[{"id":"base_setup","title":"","short":"C準備","icon":"C","reason":"低/中位階整理接近發動；準備分 5/7，RSI 38.5，量比 0.00。"}]},{"code":"1466","name":"聚隆","close":14.15,"percent":-1.7361111111111112,"tradeVolume":699,"value":9890850,"swingScore":71,"score":71,"swingZone":"C","swingStage":{"label":"低基期","ratio":"0.15","tone":"low","value":0.14606741573033719},"swingSignals":[{"id":"base_setup","title":"","short":"C準備","icon":"C","reason":"低/中位階整理接近發動；準備分 5/7，RSI 41.1，量比 0.00。"}]},{"code":"1410","name":"南染","close":25.3,"percent":-1.7475728155339778,"tradeVolume":49,"value":1239700,"swingScore":71,"score":71,"swingZone":"C","swingStage":{"label":"低基期","ratio":"0.01","tone":"low","value":0.012820512820513002},"swingSignals":[{"id":"base_setup","title":"","short":"C準備","icon":"C","reason":"低/中位階整理接近發動；準備分 5/7，RSI 41.5，量比 0.00。"}]},{"code":"9918","name":"欣天然","close":42.7,"percent":-2.5114155251141423,"tradeVolume":146,"value":6234200,"swingScore":71,"score":71,"swingZone":"C","swingStage":{"label":"低基期","ratio":"0.07","tone":"low","value":0.07042253521126766},"swingSignals":[{"id":"base_setup","title":"","short":"C準備","icon":"C","reason":"低/中位階整理接近發動；準備分 5/7，RSI 44.8，量比 0.00。"}]},{"code":"2948","name":"寶陞","close":36.75,"percent":-2.6490066225165565,"tradeVolume":7,"value":257250,"swingScore":71,"score":71,"swingZone":"C","swingStage":{"label":"中位階","ratio":"0.42","tone":"mid","value":0.4184397163120569},"swingSignals":[{"id":"base_setup","title":"","short":"C準備","icon":"C","reason":"低/中位階整理接近發動；準備分 5/7，RSI 46.6，量比 0.00。"}]},{"code":"9924","name":"福興","close":40.4,"percent":-5.607476635514016,"tradeVolume":428,"value":17291200,"swingScore":71,"score":71,"swingZone":"C","swingStage":{"label":"低基期","ratio":"0.06","tone":"low","value":0.06422018348623876},"swingSignals":[{"id":"base_setup","title":"","short":"C準備","icon":"C","reason":"低/中位階整理接近發動；準備分 5/7，RSI 37.3，量比 0.00。"}]},{"code":"8349","name":"恒耀","close":42.45,"percent":-9.77683315621678,"tradeVolume":360,"value":15282000,"swingScore":71,"score":71,"swingZone":"C","swingStage":{"label":"中位階","ratio":"0.47","tone":"mid","value":0.4702702702702704},"swingSignals":[{"id":"base_setup","title":"","short":"C準備","icon":"C","reason":"低/中位階整理接近發動；準備分 6/7，RSI 41.5，量比 1.11。"}]},{"code":"3088","name":"艾訊","close":136,"percent":5.019305019305019,"tradeVolume":1369,"value":186184000,"swingScore":70,"score":70,"swingZone":"C","swingStage":{"label":"高基期","ratio":"0.74","tone":"high","value":0.7355371900826446},"swingSignals":[{"id":"base_setup","title":"","short":"C準備","icon":"C","reason":"低/中位階整理接近發動；準備分 6/7，RSI 51.4，量比 0.68。"}]},{"code":"6872","name":"浩宇生醫","close":16.8,"percent":0,"tradeVolume":28,"value":470400,"swingScore":70,"score":70,"swingZone":"C","swingStage":{"label":"低基期","ratio":"0.05","tone":"low","value":0.05263157894736827},"swingSignals":[{"id":"base_setup","title":"","short":"C準備","icon":"C","reason":"低/中位階整理接近發動；準備分 6/7，RSI 25.5，量比 0.64。"}]}]}
