{"ok":true,"source":"strategy4-preset","updatedAt":"2026-06-11T08:03:09.921Z","scanStamp":"20260611","total":1607,"complete":true,"zone":"C","page":6,"pageSize":25,"totalPages":12,"totalCount":300,"count":25,"matches":[{"code":"2609","name":"陽明","close":51.1,"percent":0.9881422924901186,"tradeVolume":52268,"avgVolume5":63297.97,"value":2670894800,"swingScore":72,"score":72,"swingZone":"C","swingStage":{"label":"中位階","ratio":"0.45","tone":"mid","value":0.44910179640718556},"swingSignals":[{"id":"base_setup","title":"","short":"C準備","icon":"C","reason":"低/中位階整理接近發動；準備分 6/7，RSI 42.4，量比 1.27。"}]},{"code":"2330","name":"台積電","close":2250,"percent":-0.22172949002217296,"tradeVolume":34726,"avgVolume5":44689.06,"value":78133500000,"swingScore":72,"score":72,"swingZone":"C","swingStage":{"label":"中位階","ratio":"0.54","tone":"mid","value":0.5421686746987951},"swingSignals":[{"id":"base_setup","title":"","short":"C準備","icon":"C","reason":"低/中位階整理接近發動；準備分 6/7，RSI 49.5，量比 0.83。"}]},{"code":"2395","name":"研華","close":464,"percent":-0.322234156820623,"tradeVolume":4064,"avgVolume5":4183.65,"value":1885696000,"swingScore":72,"score":72,"swingZone":"C","swingStage":{"label":"中位階","ratio":"0.61","tone":"mid","value":0.6073298429319371},"swingSignals":[{"id":"base_setup","title":"","short":"C準備","icon":"C","reason":"低/中位階整理接近發動；準備分 6/7，RSI 48.7，量比 0.86。"}]},{"code":"2357","name":"華碩","close":784,"percent":-1.507537688442211,"tradeVolume":5036,"avgVolume5":6435.79,"value":3948224000,"swingScore":72,"score":72,"swingZone":"C","swingStage":{"label":"中位階","ratio":"0.53","tone":"mid","value":0.5300261096605744},"swingSignals":[{"id":"base_setup","title":"","short":"C準備","icon":"C","reason":"低/中位階整理接近發動；準備分 5/7，RSI 61.0，量比 0.76。"}]},{"code":"2308","name":"台達電","close":2160,"percent":-1.8181818181818181,"tradeVolume":13872,"avgVolume5":15184.17,"value":29963520000,"swingScore":72,"score":72,"swingZone":"C","swingStage":{"label":"中位階","ratio":"0.47","tone":"mid","value":0.46875},"swingSignals":[{"id":"base_setup","title":"","short":"C準備","icon":"C","reason":"低/中位階整理接近發動；準備分 5/7，RSI 52.3，量比 1.09。"}]},{"code":"3059","name":"華晶科","close":45.25,"percent":-3.723404255319149,"tradeVolume":10820,"avgVolume5":14854.09,"value":489605000,"swingScore":72,"score":72,"swingZone":"C","swingStage":{"label":"中位階","ratio":"0.50","tone":"mid","value":0.5013477088948787},"swingSignals":[{"id":"base_setup","title":"","short":"C準備","icon":"C","reason":"低/中位階整理接近發動；準備分 5/7，RSI 54.4，量比 0.71。"}]},{"code":"3450","name":"聯鈞","close":452.5,"percent":-4.13135593220339,"tradeVolume":11254,"avgVolume5":12620.19,"value":5092435000,"swingScore":72,"score":72,"swingZone":"C","swingStage":{"label":"中位階","ratio":"0.52","tone":"mid","value":0.5161812297734628},"swingSignals":[{"id":"base_setup","title":"","short":"C準備","icon":"C","reason":"低/中位階整理接近發動；準備分 5/7，RSI 49.1，量比 1.11。"}]},{"code":"2401","name":"凌陽","close":27.55,"percent":8.67850098619329,"tradeVolume":9302,"avgVolume5":6628.58,"value":256270100,"swingScore":71,"score":71,"swingZone":"C","swingStage":{"label":"中位階","ratio":"0.49","tone":"mid","value":0.4906542056074767},"swingSignals":[{"id":"base_setup","title":"","short":"C準備","icon":"C","reason":"低/中位階整理接近發動；準備分 7/7，RSI 38.7，量比 0.56。"}]},{"code":"8039","name":"台虹","close":136,"percent":5.426356589147287,"tradeVolume":7757,"avgVolume5":7680.55,"value":1054952000,"swingScore":71,"score":71,"swingZone":"C","swingStage":{"label":"低基期","ratio":"0.23","tone":"low","value":0.23333333333333334},"swingSignals":[{"id":"base_setup","title":"","short":"C準備","icon":"C","reason":"低/中位階整理接近發動；準備分 7/7，RSI 40.6，量比 0.45。"}]},{"code":"4994","name":"傳奇","close":87.5,"percent":2.4590145627628917,"tradeVolume":18,"avgVolume5":28807.6,"value":1575000,"swingScore":71,"score":71,"swingZone":"C","swingStage":{"label":"低基期","ratio":"0.37","tone":"low","value":0.3722943308310459},"swingSignals":[{"id":"base_setup","title":"","short":"C準備","icon":"C","reason":"低/中位階整理接近發動；準備分 6/7，RSI 46.5，量比 0.00。"}]},{"code":"3715","name":"定穎投控","close":166,"percent":2.1538461538461537,"tradeVolume":11686,"avgVolume5":10709.25,"value":1939876000,"swingScore":71,"score":71,"swingZone":"C","swingStage":{"label":"低基期","ratio":"0.27","tone":"low","value":0.2708333333333333},"swingSignals":[{"id":"base_setup","title":"","short":"C準備","icon":"C","reason":"低/中位階整理接近發動；準備分 5/7，RSI 44.7，量比 1.00。"}]},{"code":"2353","name":"宏碁","close":36.9,"percent":1.9337016574585517,"tradeVolume":52150,"avgVolume5":62756.57,"value":1924335000,"swingScore":71,"score":71,"swingZone":"C","swingStage":{"label":"中位階","ratio":"0.57","tone":"mid","value":0.5730994152046781},"swingSignals":[{"id":"base_setup","title":"","short":"C準備","icon":"C","reason":"低/中位階整理接近發動；準備分 5/7，RSI 63.5，量比 0.62。"}]},{"code":"6934","name":"心誠鎂","close":70.7,"percent":1.8731988472622436,"tradeVolume":30,"avgVolume5":5563.09,"value":2121000,"swingScore":71,"score":71,"swingZone":"C","swingStage":{"label":"低基期","ratio":"0.11","tone":"low","value":0.10670731707317074},"swingSignals":[{"id":"base_setup","title":"","short":"C準備","icon":"C","reason":"低/中位階整理接近發動；準備分 5/7，RSI 33.1，量比 0.00。"}]},{"code":"1538","name":"正峰","close":11.8,"percent":1.7241379310344922,"tradeVolume":9,"avgVolume5":8242.8,"value":106200,"swingScore":71,"score":71,"swingZone":"C","swingStage":{"label":"低基期","ratio":"0.24","tone":"low","value":0.2361111111111114},"swingSignals":[{"id":"base_setup","title":"","short":"C準備","icon":"C","reason":"低/中位階整理接近發動；準備分 5/7，RSI 39.3，量比 0.00。"}]},{"code":"6952","name":"大武山","close":36,"percent":0.5586613608986063,"tradeVolume":22,"avgVolume5":20816.2,"value":792000,"swingScore":71,"score":71,"swingZone":"C","swingStage":{"label":"低基期","ratio":"0.07","tone":"low","value":0.06849315784330581},"swingSignals":[{"id":"base_setup","title":"","short":"C準備","icon":"C","reason":"低/中位階整理接近發動；準備分 5/7，RSI 40.3，量比 0.00。"}]},{"code":"5287","name":"數字","close":146.5,"percent":0.3424657534246575,"tradeVolume":51,"avgVolume5":42404.34,"value":7471500,"swingScore":71,"score":71,"swingZone":"C","swingStage":{"label":"低基期","ratio":"0.17","tone":"low","value":0.175},"swingSignals":[{"id":"base_setup","title":"","short":"C準備","icon":"C","reason":"低/中位階整理接近發動；準備分 5/7，RSI 30.8，量比 0.00。"}]},{"code":"2719","name":"燦星旅","close":24.95,"percent":0.20080321285140845,"tradeVolume":19,"avgVolume5":11808.6,"value":474050,"swingScore":71,"score":71,"swingZone":"C","swingStage":{"label":"低基期","ratio":"0.08","tone":"low","value":0.07894736842105252},"swingSignals":[{"id":"base_setup","title":"","short":"C準備","icon":"C","reason":"低/中位階整理接近發動；準備分 5/7，RSI 40.0，量比 0.00。"}]},{"code":"6486","name":"互動","close":81.2,"percent":0.12330644606709758,"tradeVolume":71,"avgVolume5":15713.64,"value":5765200,"swingScore":71,"score":71,"swingZone":"C","swingStage":{"label":"低基期","ratio":"0.10","tone":"low","value":0.1028038369420832},"swingSignals":[{"id":"base_setup","title":"","short":"C準備","icon":"C","reason":"低/中位階整理接近發動；準備分 5/7，RSI 42.4，量比 0.00。"}]},{"code":"5902","name":"德記","close":36,"percent":0,"tradeVolume":19,"avgVolume5":25407.8,"value":684000,"swingScore":71,"score":71,"swingZone":"C","swingStage":{"label":"中位階","ratio":"0.44","tone":"mid","value":0.43697475759028975},"swingSignals":[{"id":"base_setup","title":"","short":"C準備","icon":"C","reason":"低/中位階整理接近發動；準備分 5/7，RSI 35.8，量比 0.00。"}]},{"code":"6028","name":"公勝保經","close":78.5,"percent":0,"tradeVolume":5,"avgVolume5":23417,"value":392500,"swingScore":71,"score":71,"swingZone":"C","swingStage":{"label":"低基期","ratio":"0.07","tone":"low","value":0.06666734483506945},"swingSignals":[{"id":"base_setup","title":"","short":"C準備","icon":"C","reason":"低/中位階整理接近發動；準備分 5/7，RSI 38.8，量比 0.00。"}]},{"code":"6936","name":"永鴻生技","close":33,"percent":0,"tradeVolume":25,"avgVolume5":28184.46,"value":825000,"swingScore":71,"score":71,"swingZone":"C","swingStage":{"label":"低基期","ratio":"0.11","tone":"low","value":0.10606060606060635},"swingSignals":[{"id":"base_setup","title":"","short":"C準備","icon":"C","reason":"低/中位階整理接近發動；準備分 5/7，RSI 43.0，量比 0.00。"}]},{"code":"8409","name":"商之器","close":19,"percent":0,"tradeVolume":2,"avgVolume5":10021.4,"value":38000,"swingScore":71,"score":71,"swingZone":"C","swingStage":{"label":"低基期","ratio":"0.07","tone":"low","value":0.07317074532313311},"swingSignals":[{"id":"base_setup","title":"","short":"C準備","icon":"C","reason":"低/中位階整理接近發動；準備分 5/7，RSI 22.9，量比 0.00。"}]},{"code":"5015","name":"華祺","close":23.6,"percent":-0.0000016163971143023255,"tradeVolume":9,"avgVolume5":16802.4,"value":212400,"swingScore":71,"score":71,"swingZone":"C","swingStage":{"label":"中位階","ratio":"0.39","tone":"mid","value":0.3939394102864262},"swingSignals":[{"id":"base_setup","title":"","short":"C準備","icon":"C","reason":"低/中位階整理接近發動；準備分 5/7，RSI 62.5，量比 0.00。"}]},{"code":"4205","name":"中華食","close":72.4,"percent":-0.2754820936638962,"tradeVolume":28,"avgVolume5":40294.4,"value":2027200,"swingScore":71,"score":71,"swingZone":"C","swingStage":{"label":"低基期","ratio":"0.07","tone":"low","value":0.06896551724138032},"swingSignals":[{"id":"base_setup","title":"","short":"C準備","icon":"C","reason":"低/中位階整理接近發動；準備分 5/7，RSI 38.9，量比 0.00。"}]},{"code":"1295","name":"生合","close":48.95,"percent":-0.3054989816700582,"tradeVolume":44,"avgVolume5":38448.86,"value":2153800,"swingScore":71,"score":71,"swingZone":"C","swingStage":{"label":"低基期","ratio":"0.10","tone":"low","value":0.1037735849056607},"swingSignals":[{"id":"base_setup","title":"","short":"C準備","icon":"C","reason":"低/中位階整理接近發動；準備分 5/7，RSI 39.7，量比 0.00。"}]}]}
