{"ok":true,"source":"strategy4-preset","updatedAt":"2026-06-06T12:34:51.971Z","scanStamp":"20260606","total":1957,"complete":true,"zone":"B","page":14,"pageSize":50,"totalPages":21,"totalCount":1020,"count":50,"matches":[{"code":"7828","name":"創新服務","close":1565,"percent":-0.949367088607595,"tradeVolume":140,"value":219100000,"swingScore":81,"score":81,"swingZone":"B","swingStage":{"label":"高基期","ratio":"0.72","tone":"high","value":0.71875},"swingSignals":[{"id":"watch_trend","title":"","short":"B觀察","icon":"B","reason":"趨勢轉強但尚未觸發突破買點；趨勢分 6/8，量比 0.00，位階 高基期。"}]},{"code":"2434","name":"統懋","close":35.2,"percent":-0.9845267076565026,"tradeVolume":65,"value":2288000,"swingScore":81,"score":81,"swingZone":"B","swingStage":{"label":"中位階","ratio":"0.57","tone":"mid","value":0.5726872344415789},"swingSignals":[{"id":"watch_trend","title":"","short":"B觀察","icon":"B","reason":"趨勢轉強但尚未觸發突破買點；趨勢分 5/8，量比 0.00，位階 中位階。"}]},{"code":"2369","name":"菱生","close":34.9,"percent":-0.9929078014184437,"tradeVolume":10474,"value":365542600,"swingScore":81,"score":81,"swingZone":"B","swingStage":{"label":"中位階","ratio":"0.50","tone":"mid","value":0.4999999999999999},"swingSignals":[{"id":"watch_trend","title":"","short":"B觀察","icon":"B","reason":"趨勢轉強但尚未觸發突破買點；趨勢分 5/8，量比 0.00，位階 中位階。"}]},{"code":"3623","name":"富晶通","close":24.8,"percent":-0.998003992015968,"tradeVolume":210,"value":5208000,"swingScore":81,"score":81,"swingZone":"B","swingStage":{"label":"高基期","ratio":"0.69","tone":"high","value":0.6888888888888892},"swingSignals":[{"id":"watch_trend","title":"","short":"B觀察","icon":"B","reason":"趨勢轉強但尚未觸發突破買點；趨勢分 6/8，量比 0.00，位階 高基期。"}]},{"code":"2459","name":"敦吉","close":69.3,"percent":-1.000000000000004,"tradeVolume":190,"value":13167000,"swingScore":81,"score":81,"swingZone":"B","swingStage":{"label":"高基期","ratio":"0.63","tone":"high","value":0.6301371409221735},"swingSignals":[{"id":"watch_trend","title":"","short":"B觀察","icon":"B","reason":"趨勢轉強但尚未觸發突破買點；趨勢分 6/8，量比 0.00，位階 高基期。"}]},{"code":"8028","name":"昇陽半導體","close":337.5,"percent":-1.0263929618768328,"tradeVolume":6767,"value":2283862500,"swingScore":81,"score":81,"swingZone":"B","swingStage":{"label":"高基期","ratio":"0.85","tone":"high","value":0.8484848484848485},"swingSignals":[{"id":"watch_trend","title":"","short":"B觀察","icon":"B","reason":"趨勢轉強但尚未觸發突破買點；趨勢分 6/8，量比 0.00，位階 高基期。"}]},{"code":"4735","name":"豪展","close":32.65,"percent":-1.0606060606060648,"tradeVolume":40,"value":1306000,"swingScore":81,"score":81,"swingZone":"B","swingStage":{"label":"高基期","ratio":"0.91","tone":"high","value":0.9113924050632908},"swingSignals":[{"id":"watch_trend","title":"","short":"B觀察","icon":"B","reason":"趨勢轉強但尚未觸發突破買點；趨勢分 6/8，量比 0.00，位階 高基期。"}]},{"code":"6689","name":"伊雲谷","close":73.5,"percent":-1.0767160161507365,"tradeVolume":453,"value":33295500,"swingScore":81,"score":81,"swingZone":"B","swingStage":{"label":"高基期","ratio":"0.73","tone":"high","value":0.7272727272727276},"swingSignals":[{"id":"watch_trend","title":"","short":"B觀察","icon":"B","reason":"趨勢轉強但尚未觸發突破買點；趨勢分 6/8，量比 0.00，位階 高基期。"}]},{"code":"2753","name":"八方雲集","close":180.5,"percent":-1.095890410958904,"tradeVolume":156,"value":28158000,"swingScore":81,"score":81,"swingZone":"B","swingStage":{"label":"高基期","ratio":"0.68","tone":"high","value":0.68},"swingSignals":[{"id":"watch_trend","title":"","short":"B觀察","icon":"B","reason":"趨勢轉強但尚未觸發突破買點；趨勢分 6/8，量比 0.00，位階 高基期。"}]},{"code":"3050","name":"鈺德","close":13.45,"percent":-1.102943950458309,"tradeVolume":1553,"value":20887850,"swingScore":81,"score":81,"swingZone":"B","swingStage":{"label":"高基期","ratio":"0.64","tone":"high","value":0.6379309868557351},"swingSignals":[{"id":"watch_trend","title":"","short":"B觀察","icon":"B","reason":"趨勢轉強但尚未觸發突破買點；趨勢分 6/8，量比 0.00，位階 高基期。"}]},{"code":"2834","name":"臺企銀","close":16.9,"percent":-1.1695906432748704,"tradeVolume":57578,"value":973068200,"swingScore":81,"score":81,"swingZone":"B","swingStage":{"label":"高基期","ratio":"0.83","tone":"high","value":0.8292682926829262},"swingSignals":[{"id":"watch_trend","title":"","short":"B觀察","icon":"B","reason":"趨勢轉強但尚未觸發突破買點；趨勢分 6/8，量比 0.00，位階 高基期。"}]},{"code":"2845","name":"遠東銀","close":12.4,"percent":-1.1952191235059788,"tradeVolume":15454,"value":191629600,"swingScore":81,"score":81,"swingZone":"B","swingStage":{"label":"高基期","ratio":"0.65","tone":"high","value":0.6470588235294129},"swingSignals":[{"id":"watch_trend","title":"","short":"B觀察","icon":"B","reason":"趨勢轉強但尚未觸發突破買點；趨勢分 6/8，量比 0.00，位階 高基期。"}]},{"code":"2836","name":"高雄銀","close":12.05,"percent":-1.2295066525429004,"tradeVolume":1419,"value":17098950,"swingScore":81,"score":81,"swingZone":"B","swingStage":{"label":"高基期","ratio":"0.62","tone":"high","value":0.6249996125699022},"swingSignals":[{"id":"watch_trend","title":"","short":"B觀察","icon":"B","reason":"趨勢轉強但尚未觸發突破買點；趨勢分 6/8，量比 0.00，位階 高基期。"}]},{"code":"7827","name":"漢康-KY創","close":159.5,"percent":-1.238390092879257,"tradeVolume":1191,"value":189964500,"swingScore":81,"score":81,"swingZone":"B","swingStage":{"label":"高基期","ratio":"0.77","tone":"high","value":0.7666666666666667},"swingSignals":[{"id":"watch_trend","title":"","short":"B觀察","icon":"B","reason":"趨勢轉強但尚未觸發突破買點；趨勢分 6/8，量比 0.00，位階 高基期。"}]},{"code":"5434","name":"崇越","close":458.5,"percent":-1.2917115177610334,"tradeVolume":1215,"value":557077500,"swingScore":81,"score":81,"swingZone":"B","swingStage":{"label":"高基期","ratio":"0.68","tone":"high","value":0.6787330316742082},"swingSignals":[{"id":"watch_trend","title":"","short":"B觀察","icon":"B","reason":"趨勢轉強但尚未觸發突破買點；趨勢分 6/8，量比 0.00，位階 高基期。"}]},{"code":"2105","name":"正新","close":34.1,"percent":-1.3024580231476457,"tradeVolume":39084,"value":1332764400,"swingScore":81,"score":81,"swingZone":"B","swingStage":{"label":"高基期","ratio":"0.75","tone":"high","value":0.7473685816714641},"swingSignals":[{"id":"watch_trend","title":"","short":"B觀察","icon":"B","reason":"趨勢轉強但尚未觸發突破買點；趨勢分 6/8，量比 0.00，位階 高基期。"}]},{"code":"8044","name":"網家","close":29.9,"percent":-1.320132013201327,"tradeVolume":1123,"value":33577700,"swingScore":81,"score":81,"swingZone":"B","swingStage":{"label":"高基期","ratio":"0.70","tone":"high","value":0.6995515695067263},"swingSignals":[{"id":"watch_trend","title":"","short":"B觀察","icon":"B","reason":"趨勢轉強但尚未觸發突破買點；趨勢分 6/8，量比 0.00，位階 高基期。"}]},{"code":"1907","name":"永豐餘","close":26.05,"percent":-1.325757575757568,"tradeVolume":3582,"value":93311100,"swingScore":81,"score":81,"swingZone":"B","swingStage":{"label":"高基期","ratio":"0.64","tone":"high","value":0.63855421686747},"swingSignals":[{"id":"watch_trend","title":"","short":"B觀察","icon":"B","reason":"趨勢轉強但尚未觸發突破買點；趨勢分 6/8，量比 0.00，位階 高基期。"}]},{"code":"2890","name":"永豐金","close":32.7,"percent":-1.3574660633484035,"tradeVolume":43527,"value":1423332900,"swingScore":81,"score":81,"swingZone":"B","swingStage":{"label":"高基期","ratio":"0.81","tone":"high","value":0.8100000000000008},"swingSignals":[{"id":"watch_trend","title":"","short":"B觀察","icon":"B","reason":"趨勢轉強但尚未觸發突破買點；趨勢分 6/8，量比 0.00，位階 高基期。"}]},{"code":"1723","name":"中碳","close":85.3,"percent":-1.387283236994223,"tradeVolume":912,"value":77793600,"swingScore":81,"score":81,"swingZone":"B","swingStage":{"label":"高基期","ratio":"0.83","tone":"high","value":0.8333332834679944},"swingSignals":[{"id":"watch_trend","title":"","short":"B觀察","icon":"B","reason":"趨勢轉強但尚未觸發突破買點；趨勢分 6/8，量比 0.00，位階 高基期。"}]},{"code":"6670","name":"復盛應用","close":276,"percent":-1.4285714285714286,"tradeVolume":466,"value":128616000,"swingScore":81,"score":81,"swingZone":"B","swingStage":{"label":"高基期","ratio":"0.77","tone":"high","value":0.7714285714285715},"swingSignals":[{"id":"watch_trend","title":"","short":"B觀察","icon":"B","reason":"趨勢轉強但尚未觸發突破買點；趨勢分 6/8，量比 0.00，位階 高基期。"}]},{"code":"1460","name":"宏遠","close":7.42,"percent":-1.460823373173975,"tradeVolume":923,"value":6848660,"swingScore":81,"score":81,"swingZone":"B","swingStage":{"label":"高基期","ratio":"0.82","tone":"high","value":0.8217821782178221},"swingSignals":[{"id":"watch_trend","title":"","short":"B觀察","icon":"B","reason":"趨勢轉強但尚未觸發突破買點；趨勢分 6/8，量比 0.00，位階 高基期。"}]},{"code":"8429","name":"金麗-KY","close":6.76,"percent":-1.7441860465116297,"tradeVolume":922,"value":6232720,"swingScore":81,"score":81,"swingZone":"B","swingStage":{"label":"高基期","ratio":"0.69","tone":"high","value":0.6944444444444444},"swingSignals":[{"id":"watch_trend","title":"","short":"B觀察","icon":"B","reason":"趨勢轉強但尚未觸發突破買點；趨勢分 6/8，量比 0.00，位階 高基期。"}]},{"code":"6128","name":"上福","close":20.8,"percent":-1.886795983699724,"tradeVolume":156,"value":3244800,"swingScore":81,"score":81,"swingZone":"B","swingStage":{"label":"高基期","ratio":"0.78","tone":"high","value":0.777777824872826},"swingSignals":[{"id":"watch_trend","title":"","short":"B觀察","icon":"B","reason":"趨勢轉強但尚未觸發突破買點；趨勢分 6/8，量比 0.00，位階 高基期。"}]},{"code":"2072","name":"世紀風電","close":195,"percent":-2.0100502512562812,"tradeVolume":1683,"value":328185000,"swingScore":81,"score":81,"swingZone":"B","swingStage":{"label":"高基期","ratio":"0.73","tone":"high","value":0.7303370786516854},"swingSignals":[{"id":"watch_trend","title":"","short":"B觀察","icon":"B","reason":"趨勢轉強但尚未觸發突破買點；趨勢分 6/8，量比 0.00，位階 高基期。"}]},{"code":"2404","name":"漢唐","close":1205,"percent":-2.0325203252032518,"tradeVolume":5877,"value":7081785000,"swingScore":81,"score":81,"swingZone":"B","swingStage":{"label":"高基期","ratio":"0.69","tone":"high","value":0.6923076923076923},"swingSignals":[{"id":"watch_trend","title":"","short":"B觀察","icon":"B","reason":"趨勢轉強但尚未觸發突破買點；趨勢分 6/8，量比 0.00，位階 高基期。"}]},{"code":"2323","name":"中環","close":11.9,"percent":-2.0576100936578823,"tradeVolume":21065,"value":250673500,"swingScore":81,"score":81,"swingZone":"B","swingStage":{"label":"高基期","ratio":"0.75","tone":"high","value":0.7485207185738225},"swingSignals":[{"id":"watch_trend","title":"","short":"B觀察","icon":"B","reason":"趨勢轉強但尚未觸發突破買點；趨勢分 6/8，量比 0.00，位階 高基期。"}]},{"code":"6451","name":"訊芯-KY","close":666,"percent":-2.0588235294117645,"tradeVolume":10042,"value":6687972000,"swingScore":81,"score":81,"swingZone":"B","swingStage":{"label":"高基期","ratio":"0.77","tone":"high","value":0.7715736040609137},"swingSignals":[{"id":"watch_trend","title":"","short":"B觀察","icon":"B","reason":"趨勢轉強但尚未觸發突破買點；趨勢分 6/8，量比 0.00，位階 高基期。"}]},{"code":"6139","name":"亞翔","close":808,"percent":-2.0606060606060606,"tradeVolume":9110,"value":7360880000,"swingScore":81,"score":81,"swingZone":"B","swingStage":{"label":"高基期","ratio":"0.83","tone":"high","value":0.8295454545454546},"swingSignals":[{"id":"watch_trend","title":"","short":"B觀察","icon":"B","reason":"趨勢轉強但尚未觸發突破買點；趨勢分 6/8，量比 0.00，位階 高基期。"}]},{"code":"2360","name":"致茂","close":2565,"percent":-2.099236641221374,"tradeVolume":2287,"value":5866155000,"swingScore":81,"score":81,"swingZone":"B","swingStage":{"label":"高基期","ratio":"0.78","tone":"high","value":0.7777777777777778},"swingSignals":[{"id":"watch_trend","title":"","short":"B觀察","icon":"B","reason":"趨勢轉強但尚未觸發突破買點；趨勢分 6/8，量比 0.00，位階 高基期。"}]},{"code":"9103","name":"美德醫療-DR","close":5.85,"percent":-2.1739130434782736,"tradeVolume":15633,"value":91453050,"swingScore":81,"score":81,"swingZone":"B","swingStage":{"label":"高基期","ratio":"0.64","tone":"high","value":0.6417910447761193},"swingSignals":[{"id":"watch_trend","title":"","short":"B觀察","icon":"B","reason":"趨勢轉強但尚未觸發突破買點；趨勢分 6/8，量比 0.01，位階 高基期。"}]},{"code":"5488","name":"松普","close":13,"percent":-2.255640499493011,"tradeVolume":1011,"value":13143000,"swingScore":81,"score":81,"swingZone":"B","swingStage":{"label":"高基期","ratio":"0.72","tone":"high","value":0.7233605840551521},"swingSignals":[{"id":"watch_trend","title":"","short":"B觀察","icon":"B","reason":"趨勢轉強但尚未觸發突破買點；趨勢分 6/8，量比 0.00，位階 高基期。"}]},{"code":"3029","name":"零壹","close":107.5,"percent":-2.272727272727273,"tradeVolume":1853,"value":199197500,"swingScore":81,"score":81,"swingZone":"B","swingStage":{"label":"高基期","ratio":"0.63","tone":"high","value":0.6320346077285441},"swingSignals":[{"id":"watch_trend","title":"","short":"B觀察","icon":"B","reason":"趨勢轉強但尚未觸發突破買點；趨勢分 6/8，量比 0.00，位階 高基期。"}]},{"code":"2385","name":"群光","close":143,"percent":-2.3890784982935154,"tradeVolume":6093,"value":871299000,"swingScore":81,"score":81,"swingZone":"B","swingStage":{"label":"高基期","ratio":"0.77","tone":"high","value":0.7678571428571429},"swingSignals":[{"id":"watch_trend","title":"","short":"B觀察","icon":"B","reason":"趨勢轉強但尚未觸發突破買點；趨勢分 6/8，量比 0.00，位階 高基期。"}]},{"code":"6558","name":"興能高","close":33.2,"percent":-2.4963267433362866,"tradeVolume":1471,"value":48837200,"swingScore":81,"score":81,"swingZone":"B","swingStage":{"label":"高基期","ratio":"0.76","tone":"high","value":0.7560974906272435},"swingSignals":[{"id":"watch_trend","title":"","short":"B觀察","icon":"B","reason":"趨勢轉強但尚未觸發突破買點；趨勢分 6/8，量比 0.00，位階 高基期。"}]},{"code":"2007","name":"燁興","close":7.75,"percent":-2.5157232704402537,"tradeVolume":307,"value":2379250,"swingScore":81,"score":81,"swingZone":"B","swingStage":{"label":"高基期","ratio":"0.67","tone":"high","value":0.6691729323308272},"swingSignals":[{"id":"watch_trend","title":"","short":"B觀察","icon":"B","reason":"趨勢轉強但尚未觸發突破買點；趨勢分 6/8，量比 0.00，位階 高基期。"}]},{"code":"3268","name":"海德威","close":20.3,"percent":-2.637889688249404,"tradeVolume":605,"value":12281500,"swingScore":81,"score":81,"swingZone":"B","swingStage":{"label":"高基期","ratio":"0.69","tone":"high","value":0.6857142857142858},"swingSignals":[{"id":"watch_trend","title":"","short":"B觀察","icon":"B","reason":"趨勢轉強但尚未觸發突破買點；趨勢分 6/8，量比 0.00，位階 高基期。"}]},{"code":"6667","name":"信紘科","close":268.5,"percent":-2.717391304347826,"tradeVolume":557,"value":149554500,"swingScore":81,"score":81,"swingZone":"B","swingStage":{"label":"中位階","ratio":"0.44","tone":"mid","value":0.4380165289256198},"swingSignals":[{"id":"watch_trend","title":"","short":"B觀察","icon":"B","reason":"趨勢轉強但尚未觸發突破買點；趨勢分 5/8，量比 0.00，位階 中位階。"}]},{"code":"3051","name":"力特","close":28.5,"percent":-2.730372893828119,"tradeVolume":2329,"value":66376500,"swingScore":81,"score":81,"swingZone":"B","swingStage":{"label":"高基期","ratio":"0.74","tone":"high","value":0.7444934342676428},"swingSignals":[{"id":"watch_trend","title":"","short":"B觀察","icon":"B","reason":"趨勢轉強但尚未觸發突破買點；趨勢分 6/8，量比 0.00，位階 高基期。"}]},{"code":"1440","name":"南紡","close":14.25,"percent":-2.730375426621163,"tradeVolume":10012,"value":142671000,"swingScore":81,"score":81,"swingZone":"B","swingStage":{"label":"高基期","ratio":"0.65","tone":"high","value":0.6521739130434783},"swingSignals":[{"id":"watch_trend","title":"","short":"B觀察","icon":"B","reason":"趨勢轉強但尚未觸發突破買點；趨勢分 6/8，量比 0.00，位階 高基期。"}]},{"code":"2258","name":"鴻華先進-創","close":31.3,"percent":-2.79503335905292,"tradeVolume":820,"value":25666000,"swingScore":81,"score":81,"swingZone":"B","swingStage":{"label":"高基期","ratio":"0.67","tone":"high","value":0.6707317379526523},"swingSignals":[{"id":"watch_trend","title":"","short":"B觀察","icon":"B","reason":"趨勢轉強但尚未觸發突破買點；趨勢分 6/8，量比 0.00，位階 高基期。"}]},{"code":"5269","name":"祥碩","close":1525,"percent":-2.8662420382165608,"tradeVolume":1192,"value":1817800000,"swingScore":81,"score":81,"swingZone":"B","swingStage":{"label":"高基期","ratio":"0.76","tone":"high","value":0.7610619469026548},"swingSignals":[{"id":"watch_trend","title":"","short":"B觀察","icon":"B","reason":"趨勢轉強但尚未觸發突破買點；趨勢分 6/8，量比 0.00，位階 高基期。"}]},{"code":"2362","name":"藍天","close":46.95,"percent":-2.8955532574974114,"tradeVolume":2120,"value":99534000,"swingScore":81,"score":81,"swingZone":"B","swingStage":{"label":"高基期","ratio":"0.64","tone":"high","value":0.6448275862068966},"swingSignals":[{"id":"watch_trend","title":"","short":"B觀察","icon":"B","reason":"趨勢轉強但尚未觸發突破買點；趨勢分 6/8，量比 0.00，位階 高基期。"}]},{"code":"3597","name":"映興","close":28.55,"percent":-3.0560271646859034,"tradeVolume":267,"value":7622850,"swingScore":81,"score":81,"swingZone":"B","swingStage":{"label":"高基期","ratio":"0.79","tone":"high","value":0.7857142857142859},"swingSignals":[{"id":"watch_trend","title":"","short":"B觀察","icon":"B","reason":"趨勢轉強但尚未觸發突破買點；趨勢分 6/8，量比 0.00，位階 高基期。"}]},{"code":"2392","name":"正崴","close":40.7,"percent":-3.0952380952380882,"tradeVolume":2413,"value":98209100,"swingScore":81,"score":81,"swingZone":"B","swingStage":{"label":"高基期","ratio":"0.70","tone":"high","value":0.7029288702928873},"swingSignals":[{"id":"watch_trend","title":"","short":"B觀察","icon":"B","reason":"趨勢轉強但尚未觸發突破買點；趨勢分 6/8，量比 0.00，位階 高基期。"}]},{"code":"8112","name":"至上","close":92.6,"percent":-3.13807376778693,"tradeVolume":43141,"value":3994856600,"swingScore":81,"score":81,"swingZone":"B","swingStage":{"label":"高基期","ratio":"0.68","tone":"high","value":0.6783919844590393},"swingSignals":[{"id":"watch_trend","title":"","short":"B觀察","icon":"B","reason":"趨勢轉強但尚未觸發突破買點；趨勢分 6/8，量比 0.00，位階 高基期。"}]},{"code":"6120","name":"達運","close":15.3,"percent":-3.4700338689753765,"tradeVolume":5481,"value":83859300,"swingScore":81,"score":81,"swingZone":"B","swingStage":{"label":"高基期","ratio":"0.72","tone":"high","value":0.7176470588235295},"swingSignals":[{"id":"watch_trend","title":"","short":"B觀察","icon":"B","reason":"趨勢轉強但尚未觸發突破買點；趨勢分 6/8，量比 0.00，位階 高基期。"}]},{"code":"3622","name":"洋華","close":59.1,"percent":-3.5889070146818858,"tradeVolume":874,"value":51653400,"swingScore":81,"score":81,"swingZone":"B","swingStage":{"label":"高基期","ratio":"0.73","tone":"high","value":0.7340425531914894},"swingSignals":[{"id":"watch_trend","title":"","short":"B觀察","icon":"B","reason":"趨勢轉強但尚未觸發突破買點；趨勢分 6/8，量比 0.00，位階 高基期。"}]},{"code":"3450","name":"聯鈞","close":501,"percent":-3.653846153846154,"tradeVolume":18547,"value":9292047000,"swingScore":81,"score":81,"swingZone":"B","swingStage":{"label":"高基期","ratio":"0.68","tone":"high","value":0.6838810641627543},"swingSignals":[{"id":"watch_trend","title":"","short":"B觀察","icon":"B","reason":"趨勢轉強但尚未觸發突破買點；趨勢分 6/8，量比 0.00，位階 高基期。"}]},{"code":"6214","name":"精誠","close":144.5,"percent":-3.6666666666666665,"tradeVolume":2596,"value":375122000,"swingScore":81,"score":81,"swingZone":"B","swingStage":{"label":"高基期","ratio":"0.64","tone":"high","value":0.6391752577319587},"swingSignals":[{"id":"watch_trend","title":"","short":"B觀察","icon":"B","reason":"趨勢轉強但尚未觸發突破買點；趨勢分 6/8，量比 0.00，位階 高基期。"}]}]}
