{"ok":true,"source":"strategy4-preset","updatedAt":"2026-06-06T12:34:51.971Z","scanStamp":"20260606","total":1957,"complete":true,"zone":"B","page":20,"pageSize":50,"totalPages":21,"totalCount":1020,"count":50,"matches":[{"code":"8070","name":"長華*","close":62.7,"percent":-3.9816277645454417,"tradeVolume":24352,"value":1526870400,"swingScore":78,"score":78,"swingZone":"B","swingStage":{"label":"高基期","ratio":"0.86","tone":"high","value":0.8601694824845578},"swingSignals":[{"id":"watch_trend","title":"","short":"B觀察","icon":"B","reason":"趨勢轉強但尚未觸發突破買點；趨勢分 5/8，量比 0.00，位階 高基期。"}]},{"code":"1409","name":"新纖","close":26.15,"percent":-4.212454212454221,"tradeVolume":44601,"value":1166316150,"swingScore":78,"score":78,"swingZone":"B","swingStage":{"label":"高基期","ratio":"0.71","tone":"high","value":0.7077464788732393},"swingSignals":[{"id":"watch_trend","title":"","short":"B觀察","icon":"B","reason":"趨勢轉強但尚未觸發突破買點；趨勢分 5/8，量比 0.00，位階 高基期。"}]},{"code":"4707","name":"磐亞","close":20,"percent":-5.213270142180101,"tradeVolume":2944,"value":58880000,"swingScore":78,"score":78,"swingZone":"B","swingStage":{"label":"高基期","ratio":"0.82","tone":"high","value":0.8223350253807107},"swingSignals":[{"id":"watch_trend","title":"","short":"B觀察","icon":"B","reason":"趨勢轉強但尚未觸發突破買點；趨勢分 5/8，量比 0.00，位階 高基期。"}]},{"code":"3058","name":"立德","close":9.91,"percent":-5.619047619047618,"tradeVolume":2898,"value":28719180,"swingScore":78,"score":78,"swingZone":"B","swingStage":{"label":"高基期","ratio":"0.64","tone":"high","value":0.6366666666666667},"swingSignals":[{"id":"watch_trend","title":"","short":"B觀察","icon":"B","reason":"趨勢轉強但尚未觸發突破買點；趨勢分 5/8，量比 0.00，位階 高基期。"}]},{"code":"2314","name":"台揚","close":15.8,"percent":-5.671641791044771,"tradeVolume":327,"value":5166600,"swingScore":78,"score":78,"swingZone":"B","swingStage":{"label":"高基期","ratio":"0.68","tone":"high","value":0.6818182120310072},"swingSignals":[{"id":"watch_trend","title":"","short":"B觀察","icon":"B","reason":"趨勢轉強但尚未觸發突破買點；趨勢分 5/8，量比 0.00，位階 高基期。"}]},{"code":"1611","name":"中電","close":14.1,"percent":-6.000000000000003,"tradeVolume":10883,"value":153450300,"swingScore":78,"score":78,"swingZone":"B","swingStage":{"label":"高基期","ratio":"0.77","tone":"high","value":0.7749999999999999},"swingSignals":[{"id":"watch_trend","title":"","short":"B觀察","icon":"B","reason":"趨勢轉強但尚未觸發突破買點；趨勢分 5/8，量比 0.01，位階 高基期。"}]},{"code":"3027","name":"盛達","close":22.7,"percent":-6.39175257731959,"tradeVolume":7066,"value":160398200,"swingScore":78,"score":78,"swingZone":"B","swingStage":{"label":"高基期","ratio":"0.78","tone":"high","value":0.7832167716508756},"swingSignals":[{"id":"watch_trend","title":"","short":"B觀察","icon":"B","reason":"趨勢轉強但尚未觸發突破買點；趨勢分 5/8，量比 0.01，位階 高基期。"}]},{"code":"3312","name":"弘憶股","close":67.5,"percent":-7.786885245901642,"tradeVolume":23398,"value":1579365000,"swingScore":78,"score":78,"swingZone":"B","swingStage":{"label":"高基期","ratio":"0.85","tone":"high","value":0.8465679676985195},"swingSignals":[{"id":"watch_trend","title":"","short":"B觀察","icon":"B","reason":"趨勢轉強但尚未觸發突破買點；趨勢分 5/8，量比 0.00，位階 高基期。"}]},{"code":"3049","name":"精金","close":15.9,"percent":-8.09248149596116,"tradeVolume":41432,"value":658768800,"swingScore":78,"score":78,"swingZone":"B","swingStage":{"label":"高基期","ratio":"0.74","tone":"high","value":0.7413792933351778},"swingSignals":[{"id":"watch_trend","title":"","short":"B觀察","icon":"B","reason":"趨勢轉強但尚未觸發突破買點；趨勢分 5/8，量比 0.00，位階 高基期。"}]},{"code":"6116","name":"彩晶","close":18.45,"percent":-9.7799511002445,"tradeVolume":18217,"value":336103650,"swingScore":78,"score":78,"swingZone":"B","swingStage":{"label":"高基期","ratio":"0.71","tone":"high","value":0.7085048010973937},"swingSignals":[{"id":"watch_trend","title":"","short":"B觀察","icon":"B","reason":"趨勢轉強但尚未觸發突破買點；趨勢分 5/8，量比 0.00，位階 高基期。"}]},{"code":"9105","name":"泰金寶-DR","close":11.45,"percent":-9.84251968503937,"tradeVolume":148295,"value":1697977750,"swingScore":78,"score":78,"swingZone":"B","swingStage":{"label":"高基期","ratio":"0.71","tone":"high","value":0.7147846332945285},"swingSignals":[{"id":"watch_trend","title":"","short":"B觀察","icon":"B","reason":"趨勢轉強但尚未觸發突破買點；趨勢分 5/8，量比 0.00，位階 高基期。"}]},{"code":"3021","name":"鴻名","close":32.4,"percent":-10.000000000000004,"tradeVolume":394,"value":12765600,"swingScore":78,"score":78,"swingZone":"B","swingStage":{"label":"高基期","ratio":"0.68","tone":"high","value":0.6839916864978711},"swingSignals":[{"id":"watch_trend","title":"","short":"B觀察","icon":"B","reason":"趨勢轉強但尚未觸發突破買點；趨勢分 5/8，量比 0.00，位階 高基期。"}]},{"code":"6835","name":"圓裕","close":38.55,"percent":2.7999999999999923,"tradeVolume":607,"value":23399850,"swingScore":77,"score":77,"swingZone":"B","swingStage":{"label":"中位階","ratio":"0.43","tone":"mid","value":0.4264708456282459},"swingSignals":[{"id":"watch_trend","title":"","short":"B觀察","icon":"B","reason":"趨勢轉強但尚未觸發突破買點；趨勢分 5/8，量比 0.00，位階 中位階。"}]},{"code":"6195","name":"詩肯","close":26.6,"percent":0.18832391713747915,"tradeVolume":20,"value":532000,"swingScore":77,"score":77,"swingZone":"B","swingStage":{"label":"高基期","ratio":"0.64","tone":"high","value":0.6435643564356439},"swingSignals":[{"id":"watch_trend","title":"","short":"B觀察","icon":"B","reason":"趨勢轉強但尚未觸發突破買點；趨勢分 6/8，量比 0.23，位階 高基期。"}]},{"code":"8415","name":"大國鋼","close":35.15,"percent":-0.7062146892655368,"tradeVolume":450,"value":15817500,"swingScore":77,"score":77,"swingZone":"B","swingStage":{"label":"中位階","ratio":"0.58","tone":"mid","value":0.5757575757575758},"swingSignals":[{"id":"watch_trend","title":"","short":"B觀察","icon":"B","reason":"趨勢轉強但尚未觸發突破買點；趨勢分 5/8，量比 0.00，位階 中位階。"}]},{"code":"3531","name":"先益","close":23.65,"percent":0.21186440677964896,"tradeVolume":1,"value":23650,"swingScore":76,"score":76,"swingZone":"B","swingStage":{"label":"高基期","ratio":"0.69","tone":"high","value":0.6883116883116877},"swingSignals":[{"id":"watch_trend","title":"","short":"B觀察","icon":"B","reason":"趨勢轉強但尚未觸發突破買點；趨勢分 6/8，量比 0.11，位階 高基期。"}]},{"code":"4106","name":"雃博","close":24,"percent":0,"tradeVolume":137,"value":3288000,"swingScore":76,"score":76,"swingZone":"B","swingStage":{"label":"高基期","ratio":"0.74","tone":"high","value":0.7407405314295644},"swingSignals":[{"id":"watch_trend","title":"","short":"B觀察","icon":"B","reason":"趨勢轉強但尚未觸發突破買點；趨勢分 5/8，量比 0.00，位階 高基期。"}]},{"code":"4974","name":"亞泰","close":77.2,"percent":-0.3870967741935447,"tradeVolume":363,"value":28023600,"swingScore":76,"score":76,"swingZone":"B","swingStage":{"label":"高基期","ratio":"0.73","tone":"high","value":0.7281554203498857},"swingSignals":[{"id":"watch_trend","title":"","short":"B觀察","icon":"B","reason":"趨勢轉強但尚未觸發突破買點；趨勢分 5/8，量比 0.00，位階 高基期。"}]},{"code":"6902","name":"GOGOLOOK","close":143,"percent":-0.6944444444444444,"tradeVolume":135,"value":19305000,"swingScore":76,"score":76,"swingZone":"B","swingStage":{"label":"高基期","ratio":"0.92","tone":"high","value":0.9178082191780822},"swingSignals":[{"id":"watch_trend","title":"","short":"B觀察","icon":"B","reason":"趨勢轉強但尚未觸發突破買點；趨勢分 5/8，量比 0.00，位階 高基期。"}]},{"code":"5215","name":"科嘉-KY","close":48.4,"percent":-0.717948717948721,"tradeVolume":256,"value":12390400,"swingScore":76,"score":76,"swingZone":"B","swingStage":{"label":"高基期","ratio":"0.81","tone":"high","value":0.8095238095238093},"swingSignals":[{"id":"watch_trend","title":"","short":"B觀察","icon":"B","reason":"趨勢轉強但尚未觸發突破買點；趨勢分 5/8，量比 0.00，位階 高基期。"}]},{"code":"6203","name":"海韻電","close":71.1,"percent":-1.2500000000000078,"tradeVolume":167,"value":11873700,"swingScore":76,"score":76,"swingZone":"B","swingStage":{"label":"中位階","ratio":"0.54","tone":"mid","value":0.5364238410596025},"swingSignals":[{"id":"watch_trend","title":"","short":"B觀察","icon":"B","reason":"趨勢轉強但尚未觸發突破買點；趨勢分 5/8，量比 0.40，位階 中位階。"}]},{"code":"4555","name":"氣立","close":52.8,"percent":-1.3084112149532763,"tradeVolume":581,"value":30676800,"swingScore":76,"score":76,"swingZone":"B","swingStage":{"label":"高基期","ratio":"0.66","tone":"high","value":0.662135922330097},"swingSignals":[{"id":"watch_trend","title":"","short":"B觀察","icon":"B","reason":"趨勢轉強但尚未觸發突破買點；趨勢分 5/8，量比 0.00，位階 高基期。"}]},{"code":"2332","name":"友訊","close":16.3,"percent":-1.5105694778566567,"tradeVolume":4113,"value":67041900,"swingScore":76,"score":76,"swingZone":"B","swingStage":{"label":"高基期","ratio":"0.69","tone":"high","value":0.6867469392229189},"swingSignals":[{"id":"watch_trend","title":"","short":"B觀察","icon":"B","reason":"趨勢轉強但尚未觸發突破買點；趨勢分 5/8，量比 0.00，位階 高基期。"}]},{"code":"8477","name":"創業家","close":19.4,"percent":-1.5228426395939123,"tradeVolume":78,"value":1513200,"swingScore":76,"score":76,"swingZone":"B","swingStage":{"label":"高基期","ratio":"0.66","tone":"high","value":0.6564102564102563},"swingSignals":[{"id":"watch_trend","title":"","short":"B觀察","icon":"B","reason":"趨勢轉強但尚未觸發突破買點；趨勢分 5/8，量比 0.00，位階 高基期。"}]},{"code":"3673","name":"TPK-KY","close":86,"percent":-1.8264823082089063,"tradeVolume":23131,"value":1989266000,"swingScore":76,"score":76,"swingZone":"B","swingStage":{"label":"高基期","ratio":"0.74","tone":"high","value":0.7399193360765826},"swingSignals":[{"id":"watch_trend","title":"","short":"B觀察","icon":"B","reason":"趨勢轉強但尚未觸發突破買點；趨勢分 5/8，量比 0.00，位階 高基期。"}]},{"code":"4906","name":"正文","close":47.95,"percent":-1.9427402862985599,"tradeVolume":18517,"value":887890150,"swingScore":76,"score":76,"swingZone":"B","swingStage":{"label":"高基期","ratio":"0.65","tone":"high","value":0.6511111111111114},"swingSignals":[{"id":"watch_trend","title":"","short":"B觀察","icon":"B","reason":"趨勢轉強但尚未觸發突破買點；趨勢分 5/8，量比 0.00，位階 高基期。"}]},{"code":"3305","name":"昇貿","close":156,"percent":-2.5,"tradeVolume":5843,"value":911508000,"swingScore":76,"score":76,"swingZone":"B","swingStage":{"label":"高基期","ratio":"0.80","tone":"high","value":0.8014705882352942},"swingSignals":[{"id":"watch_trend","title":"","short":"B觀察","icon":"B","reason":"趨勢轉強但尚未觸發突破買點；趨勢分 5/8，量比 0.00，位階 高基期。"}]},{"code":"2302","name":"麗正","close":33.8,"percent":-2.733812949640296,"tradeVolume":1567,"value":52964600,"swingScore":76,"score":76,"swingZone":"B","swingStage":{"label":"高基期","ratio":"0.71","tone":"high","value":0.7085105970252342},"swingSignals":[{"id":"watch_trend","title":"","short":"B觀察","icon":"B","reason":"趨勢轉強但尚未觸發突破買點；趨勢分 5/8，量比 0.00，位階 高基期。"}]},{"code":"6271","name":"同欣電","close":236.5,"percent":-2.8747433264887063,"tradeVolume":2033,"value":480804500,"swingScore":76,"score":76,"swingZone":"B","swingStage":{"label":"高基期","ratio":"0.68","tone":"high","value":0.6767676767676768},"swingSignals":[{"id":"watch_trend","title":"","short":"B觀察","icon":"B","reason":"趨勢轉強但尚未觸發突破買點；趨勢分 5/8，量比 0.00，位階 高基期。"}]},{"code":"2317","name":"鴻海","close":284.5,"percent":-2.901023890784983,"tradeVolume":89077,"value":25342406500,"swingScore":76,"score":76,"swingZone":"B","swingStage":{"label":"高基期","ratio":"0.71","tone":"high","value":0.714975845410628},"swingSignals":[{"id":"watch_trend","title":"","short":"B觀察","icon":"B","reason":"趨勢轉強但尚未觸發突破買點；趨勢分 5/8，量比 0.00，位階 高基期。"}]},{"code":"2495","name":"普安","close":49.5,"percent":-2.941176470588235,"tradeVolume":6494,"value":321453000,"swingScore":76,"score":76,"swingZone":"B","swingStage":{"label":"高基期","ratio":"0.78","tone":"high","value":0.7754569320627236},"swingSignals":[{"id":"watch_trend","title":"","short":"B觀察","icon":"B","reason":"趨勢轉強但尚未觸發突破買點；趨勢分 5/8，量比 0.00，位階 高基期。"}]},{"code":"6239","name":"力成","close":338,"percent":-4.519774011299435,"tradeVolume":16058,"value":5427604000,"swingScore":76,"score":76,"swingZone":"B","swingStage":{"label":"高基期","ratio":"0.74","tone":"high","value":0.7365591397849462},"swingSignals":[{"id":"watch_trend","title":"","short":"B觀察","icon":"B","reason":"趨勢轉強但尚未觸發突破買點；趨勢分 5/8，量比 0.00，位階 高基期。"}]},{"code":"3013","name":"晟銘電","close":122,"percent":-5.7915057915057915,"tradeVolume":6007,"value":732854000,"swingScore":76,"score":76,"swingZone":"B","swingStage":{"label":"高基期","ratio":"0.63","tone":"high","value":0.6296296595312323},"swingSignals":[{"id":"watch_trend","title":"","short":"B觀察","icon":"B","reason":"趨勢轉強但尚未觸發突破買點；趨勢分 5/8，量比 0.00，位階 高基期。"}]},{"code":"8162","name":"微矽電子-創","close":70.7,"percent":-6.728235945156126,"tradeVolume":839,"value":59317300,"swingScore":76,"score":76,"swingZone":"B","swingStage":{"label":"高基期","ratio":"0.65","tone":"high","value":0.6533333646334135},"swingSignals":[{"id":"watch_trend","title":"","short":"B觀察","icon":"B","reason":"趨勢轉強但尚未觸發突破買點；趨勢分 5/8，量比 0.00，位階 高基期。"}]},{"code":"2241","name":"艾姆勒","close":35.4,"percent":9.937885593914581,"tradeVolume":3711,"value":131369400,"swingScore":75,"score":75,"swingZone":"B","swingStage":{"label":"高基期","ratio":"0.65","tone":"high","value":0.6486486104340063},"swingSignals":[{"id":"watch_trend","title":"","short":"B觀察","icon":"B","reason":"趨勢轉強但尚未觸發突破買點；趨勢分 6/8，量比 0.00，位階 高基期。"}]},{"code":"5493","name":"三聯","close":93.1,"percent":4.372200880254248,"tradeVolume":565,"value":52601500,"swingScore":75,"score":75,"swingZone":"B","swingStage":{"label":"高基期","ratio":"0.75","tone":"high","value":0.752577260394754},"swingSignals":[{"id":"watch_trend","title":"","short":"B觀察","icon":"B","reason":"趨勢轉強但尚未觸發突破買點；趨勢分 6/8，量比 0.00，位階 高基期。"}]},{"code":"1515","name":"力山","close":26.3,"percent":3.9525691699604746,"tradeVolume":7923,"value":208374900,"swingScore":75,"score":75,"swingZone":"B","swingStage":{"label":"中位階","ratio":"0.57","tone":"mid","value":0.5714285714285716},"swingSignals":[{"id":"watch_trend","title":"","short":"B觀察","icon":"B","reason":"趨勢轉強但尚未觸發突破買點；趨勢分 5/8，量比 0.01，位階 中位階。"}]},{"code":"8021","name":"尖點","close":458,"percent":3.8548752834467117,"tradeVolume":898,"value":411284000,"swingScore":75,"score":75,"swingZone":"B","swingStage":{"label":"高基期","ratio":"0.79","tone":"high","value":0.7941952506596306},"swingSignals":[{"id":"watch_trend","title":"","short":"B觀察","icon":"B","reason":"趨勢轉強但尚未觸發突破買點；趨勢分 6/8，量比 0.00，位階 高基期。"}]},{"code":"3033","name":"威健","close":51.8,"percent":3.5999999999999943,"tradeVolume":31731,"value":1643665800,"swingScore":75,"score":75,"swingZone":"B","swingStage":{"label":"高基期","ratio":"0.84","tone":"high","value":0.8423423821271472},"swingSignals":[{"id":"watch_trend","title":"","short":"B觀察","icon":"B","reason":"趨勢轉強但尚未觸發突破買點；趨勢分 6/8，量比 0.00，位階 高基期。"}]},{"code":"7711","name":"永擎","close":393,"percent":3.421052631578948,"tradeVolume":1414,"value":555702000,"swingScore":75,"score":75,"swingZone":"B","swingStage":{"label":"中位階","ratio":"0.61","tone":"mid","value":0.6070528967254408},"swingSignals":[{"id":"watch_trend","title":"","short":"B觀察","icon":"B","reason":"趨勢轉強但尚未觸發突破買點；趨勢分 5/8，量比 0.00，位階 中位階。"}]},{"code":"2236","name":"百達-KY","close":140,"percent":2.941176470588235,"tradeVolume":295,"value":41300000,"swingScore":75,"score":75,"swingZone":"B","swingStage":{"label":"高基期","ratio":"0.72","tone":"high","value":0.7236842105263158},"swingSignals":[{"id":"watch_trend","title":"","short":"B觀察","icon":"B","reason":"趨勢轉強但尚未觸發突破買點；趨勢分 6/8，量比 0.00，位階 高基期。"}]},{"code":"1465","name":"偉全","close":12.45,"percent":2.892561983471072,"tradeVolume":213,"value":2651850,"swingScore":75,"score":75,"swingZone":"B","swingStage":{"label":"中位階","ratio":"0.46","tone":"mid","value":0.46428571428571375},"swingSignals":[{"id":"watch_trend","title":"","short":"B觀察","icon":"B","reason":"趨勢轉強但尚未觸發突破買點；趨勢分 5/8，量比 0.00，位階 中位階。"}]},{"code":"2542","name":"興富發","close":43,"percent":2.5029797377830683,"tradeVolume":21510,"value":924930000,"swingScore":75,"score":75,"swingZone":"B","swingStage":{"label":"高基期","ratio":"0.84","tone":"high","value":0.837837837837838},"swingSignals":[{"id":"watch_trend","title":"","short":"B觀察","icon":"B","reason":"趨勢轉強但尚未觸發突破買點；趨勢分 6/8，量比 0.00，位階 高基期。"}]},{"code":"3004","name":"豐達科","close":130,"percent":2.3622047244094486,"tradeVolume":958,"value":124540000,"swingScore":75,"score":75,"swingZone":"B","swingStage":{"label":"高基期","ratio":"0.62","tone":"high","value":0.6190476190476191},"swingSignals":[{"id":"watch_trend","title":"","short":"B觀察","icon":"B","reason":"趨勢轉強但尚未觸發突破買點；趨勢分 6/8，量比 0.00，位階 高基期。"}]},{"code":"2486","name":"一詮","close":279.5,"percent":1.8214936247723135,"tradeVolume":9448,"value":2640716000,"swingScore":75,"score":75,"swingZone":"B","swingStage":{"label":"高基期","ratio":"0.73","tone":"high","value":0.7317073170731707},"swingSignals":[{"id":"watch_trend","title":"","short":"B觀察","icon":"B","reason":"趨勢轉強但尚未觸發突破買點；趨勢分 6/8，量比 0.00，位階 高基期。"}]},{"code":"6669","name":"緯穎","close":5660,"percent":1.615798922800718,"tradeVolume":1831,"value":10363460000,"swingScore":75,"score":75,"swingZone":"B","swingStage":{"label":"高基期","ratio":"0.91","tone":"high","value":0.906183368869936},"swingSignals":[{"id":"watch_trend","title":"","short":"B觀察","icon":"B","reason":"趨勢轉強但尚未觸發突破買點；趨勢分 6/8，量比 0.00，位階 高基期。"}]},{"code":"2949","name":"欣新網","close":65,"percent":1.5625,"tradeVolume":10,"value":650000,"swingScore":75,"score":75,"swingZone":"B","swingStage":{"label":"過熱","ratio":"1.00+","tone":"hot","value":1},"swingSignals":[{"id":"watch_trend","title":"","short":"B觀察","icon":"B","reason":"趨勢轉強但尚未觸發突破買點；趨勢分 5/8，量比 0.62，位階 過熱。"}]},{"code":"6108","name":"競國","close":19.6,"percent":1.0309278350515612,"tradeVolume":1043,"value":20442800,"swingScore":75,"score":75,"swingZone":"B","swingStage":{"label":"中位階","ratio":"0.42","tone":"mid","value":0.41772151898734194},"swingSignals":[{"id":"watch_trend","title":"","short":"B觀察","icon":"B","reason":"趨勢轉強但尚未觸發突破買點；趨勢分 5/8，量比 0.00，位階 中位階。"}]},{"code":"1521","name":"大億","close":27.7,"percent":0.7272727272727246,"tradeVolume":105,"value":2908500,"swingScore":75,"score":75,"swingZone":"B","swingStage":{"label":"中位階","ratio":"0.56","tone":"mid","value":0.5605095541401274},"swingSignals":[{"id":"watch_trend","title":"","short":"B觀察","icon":"B","reason":"趨勢轉強但尚未觸發突破買點；趨勢分 5/8，量比 0.00，位階 中位階。"}]},{"code":"8121","name":"越峰","close":40.75,"percent":0.6172839506172839,"tradeVolume":1990,"value":81092500,"swingScore":75,"score":75,"swingZone":"B","swingStage":{"label":"高基期","ratio":"0.86","tone":"high","value":0.8621553884711779},"swingSignals":[{"id":"watch_trend","title":"","short":"B觀察","icon":"B","reason":"趨勢轉強但尚未觸發突破買點；趨勢分 5/8，量比 0.66，位階 高基期。"}]}]}
