{"ok":true,"source":"strategy4-preset","updatedAt":"2026-06-06T12:34:51.971Z","scanStamp":"20260606","total":1957,"complete":true,"zone":"B","page":35,"pageSize":25,"totalPages":41,"totalCount":1020,"count":25,"matches":[{"code":"2849","name":"安泰銀","close":14.2,"percent":0.0000013432032755821423,"tradeVolume":60,"value":852000,"swingScore":78,"score":78,"swingZone":"B","swingStage":{"label":"高基期","ratio":"0.89","tone":"high","value":0.8888886377154769},"swingSignals":[{"id":"watch_trend","title":"","short":"B觀察","icon":"B","reason":"趨勢轉強但尚未觸發突破買點；趨勢分 5/8，量比 0.00，位階 高基期。"}]},{"code":"1110","name":"東泥","close":16,"percent":0,"tradeVolume":620,"value":9920000,"swingScore":78,"score":78,"swingZone":"B","swingStage":{"label":"高基期","ratio":"0.63","tone":"high","value":0.626865671641791},"swingSignals":[{"id":"watch_trend","title":"","short":"B觀察","icon":"B","reason":"趨勢轉強但尚未觸發突破買點；趨勢分 5/8，量比 0.00，位階 高基期。"}]},{"code":"1268","name":"漢來美食","close":170.5,"percent":0,"tradeVolume":19,"value":3239500,"swingScore":78,"score":78,"swingZone":"B","swingStage":{"label":"高基期","ratio":"0.81","tone":"high","value":0.8095238095238095},"swingSignals":[{"id":"watch_trend","title":"","short":"B觀察","icon":"B","reason":"趨勢轉強但尚未觸發突破買點；趨勢分 5/8，量比 0.00，位階 高基期。"}]},{"code":"1423","name":"利華","close":43.75,"percent":0,"tradeVolume":58,"value":2537500,"swingScore":78,"score":78,"swingZone":"B","swingStage":{"label":"高基期","ratio":"0.85","tone":"high","value":0.85},"swingSignals":[{"id":"watch_trend","title":"","short":"B觀察","icon":"B","reason":"趨勢轉強但尚未觸發突破買點；趨勢分 5/8，量比 0.00，位階 高基期。"}]},{"code":"1617","name":"榮星","close":16.7,"percent":0,"tradeVolume":390,"value":6513000,"swingScore":78,"score":78,"swingZone":"B","swingStage":{"label":"高基期","ratio":"0.73","tone":"high","value":0.7297297297297297},"swingSignals":[{"id":"watch_trend","title":"","short":"B觀察","icon":"B","reason":"趨勢轉強但尚未觸發突破買點；趨勢分 5/8，量比 0.00，位階 高基期。"}]},{"code":"1733","name":"五鼎","close":30.8,"percent":0,"tradeVolume":354,"value":10903200,"swingScore":78,"score":78,"swingZone":"B","swingStage":{"label":"高基期","ratio":"0.84","tone":"high","value":0.8358208955223879},"swingSignals":[{"id":"watch_trend","title":"","short":"B觀察","icon":"B","reason":"趨勢轉強但尚未觸發突破買點；趨勢分 5/8，量比 0.00，位階 高基期。"}]},{"code":"2008","name":"高興昌","close":30,"percent":0,"tradeVolume":86,"value":2580000,"swingScore":78,"score":78,"swingZone":"B","swingStage":{"label":"高基期","ratio":"0.91","tone":"high","value":0.909090909090909},"swingSignals":[{"id":"watch_trend","title":"","short":"B觀察","icon":"B","reason":"趨勢轉強但尚未觸發突破買點；趨勢分 5/8，量比 0.00，位階 高基期。"}]},{"code":"2852","name":"第一保","close":27.85,"percent":0,"tradeVolume":541,"value":15066850,"swingScore":78,"score":78,"swingZone":"B","swingStage":{"label":"高基期","ratio":"0.89","tone":"high","value":0.891304347826087},"swingSignals":[{"id":"watch_trend","title":"","short":"B觀察","icon":"B","reason":"趨勢轉強但尚未觸發突破買點；趨勢分 5/8，量比 0.00，位階 高基期。"}]},{"code":"3704","name":"合勤控","close":47.7,"percent":0,"tradeVolume":6505,"value":310288500,"swingScore":78,"score":78,"swingZone":"B","swingStage":{"label":"高基期","ratio":"0.86","tone":"high","value":0.8635014836795254},"swingSignals":[{"id":"watch_trend","title":"","short":"B觀察","icon":"B","reason":"趨勢轉強但尚未觸發突破買點；趨勢分 5/8，量比 0.00，位階 高基期。"}]},{"code":"5288","name":"豐祥-KY","close":166.5,"percent":0,"tradeVolume":92,"value":15318000,"swingScore":78,"score":78,"swingZone":"B","swingStage":{"label":"高基期","ratio":"0.69","tone":"high","value":0.6883116883116883},"swingSignals":[{"id":"watch_trend","title":"","short":"B觀察","icon":"B","reason":"趨勢轉強但尚未觸發突破買點；趨勢分 5/8，量比 0.00，位階 高基期。"}]},{"code":"7732","name":"金興精密","close":36.25,"percent":0,"tradeVolume":32,"value":1160000,"swingScore":78,"score":78,"swingZone":"B","swingStage":{"label":"高基期","ratio":"0.85","tone":"high","value":0.8461538461538461},"swingSignals":[{"id":"watch_trend","title":"","short":"B觀察","icon":"B","reason":"趨勢轉強但尚未觸發突破買點；趨勢分 5/8，量比 0.00，位階 高基期。"}]},{"code":"9940","name":"信義","close":19.5,"percent":0,"tradeVolume":471,"value":9184500,"swingScore":78,"score":78,"swingZone":"B","swingStage":{"label":"高基期","ratio":"0.64","tone":"high","value":0.6428571428571431},"swingSignals":[{"id":"watch_trend","title":"","short":"B觀察","icon":"B","reason":"趨勢轉強但尚未觸發突破買點；趨勢分 5/8，量比 0.00，位階 高基期。"}]},{"code":"5356","name":"協益","close":27.35,"percent":-0.0000013947704563831352,"tradeVolume":115,"value":3145250,"swingScore":78,"score":78,"swingZone":"B","swingStage":{"label":"高基期","ratio":"0.84","tone":"high","value":0.8392859429729856},"swingSignals":[{"id":"watch_trend","title":"","short":"B觀察","icon":"B","reason":"趨勢轉強但尚未觸發突破買點；趨勢分 5/8，量比 0.00，位階 高基期。"}]},{"code":"4938","name":"和碩","close":96.9,"percent":-0.10309278350514879,"tradeVolume":37668,"value":3650029200,"swingScore":78,"score":78,"swingZone":"B","swingStage":{"label":"高基期","ratio":"0.79","tone":"high","value":0.7902621722846445},"swingSignals":[{"id":"watch_trend","title":"","short":"B觀察","icon":"B","reason":"趨勢轉強但尚未觸發突破買點；趨勢分 5/8，量比 0.00，位階 高基期。"}]},{"code":"9941","name":"裕融","close":81.9,"percent":-0.12195121951218818,"tradeVolume":8275,"value":677722500,"swingScore":78,"score":78,"swingZone":"B","swingStage":{"label":"高基期","ratio":"0.76","tone":"high","value":0.7615384615384619},"swingSignals":[{"id":"watch_trend","title":"","short":"B觀察","icon":"B","reason":"趨勢轉強但尚未觸發突破買點；趨勢分 5/8，量比 0.00，位階 高基期。"}]},{"code":"3494","name":"誠研","close":8.11,"percent":-0.12315130172436059,"tradeVolume":171,"value":1386810,"swingScore":78,"score":78,"swingZone":"B","swingStage":{"label":"高基期","ratio":"0.67","tone":"high","value":0.6714286998826976},"swingSignals":[{"id":"watch_trend","title":"","short":"B觀察","icon":"B","reason":"趨勢轉強但尚未觸發突破買點；趨勢分 5/8，量比 0.00，位階 高基期。"}]},{"code":"1726","name":"永記","close":79.1,"percent":-0.12625877789811277,"tradeVolume":70,"value":5537000,"swingScore":78,"score":78,"swingZone":"B","swingStage":{"label":"高基期","ratio":"0.83","tone":"high","value":0.829787075168941},"swingSignals":[{"id":"watch_trend","title":"","short":"B觀察","icon":"B","reason":"趨勢轉強但尚未觸發突破買點；趨勢分 5/8，量比 0.00，位階 高基期。"}]},{"code":"2816","name":"旺旺保","close":34.25,"percent":-0.14577259475217832,"tradeVolume":397,"value":13597250,"swingScore":78,"score":78,"swingZone":"B","swingStage":{"label":"高基期","ratio":"0.72","tone":"high","value":0.7166666666666663},"swingSignals":[{"id":"watch_trend","title":"","short":"B觀察","icon":"B","reason":"趨勢轉強但尚未觸發突破買點；趨勢分 5/8，量比 0.00，位階 高基期。"}]},{"code":"2107","name":"厚生","close":26,"percent":-0.19193565652552677,"tradeVolume":242,"value":6292000,"swingScore":78,"score":78,"swingZone":"B","swingStage":{"label":"高基期","ratio":"0.72","tone":"high","value":0.7179489436705822},"swingSignals":[{"id":"watch_trend","title":"","short":"B觀察","icon":"B","reason":"趨勢轉強但尚未觸發突破買點；趨勢分 5/8，量比 0.00，位階 高基期。"}]},{"code":"6768","name":"志強-KY","close":95.5,"percent":-0.20898641588297057,"tradeVolume":739,"value":70574500,"swingScore":78,"score":78,"swingZone":"B","swingStage":{"label":"高基期","ratio":"0.90","tone":"high","value":0.895397489539749},"swingSignals":[{"id":"watch_trend","title":"","short":"B觀察","icon":"B","reason":"趨勢轉強但尚未觸發突破買點；趨勢分 5/8，量比 0.00，位階 高基期。"}]},{"code":"3149","name":"正達","close":90.8,"percent":-0.2197802197802229,"tradeVolume":33875,"value":3075850000,"swingScore":78,"score":78,"swingZone":"B","swingStage":{"label":"高基期","ratio":"0.90","tone":"high","value":0.8996478859760108},"swingSignals":[{"id":"watch_trend","title":"","short":"B觀察","icon":"B","reason":"趨勢轉強但尚未觸發突破買點；趨勢分 5/8，量比 0.00，位階 高基期。"}]},{"code":"2908","name":"特力","close":21.6,"percent":-0.23094512430142147,"tradeVolume":247,"value":5335200,"swingScore":78,"score":78,"swingZone":"B","swingStage":{"label":"高基期","ratio":"0.87","tone":"high","value":0.8684208254404227},"swingSignals":[{"id":"watch_trend","title":"","short":"B觀察","icon":"B","reason":"趨勢轉強但尚未觸發突破買點；趨勢分 5/8，量比 0.00，位階 高基期。"}]},{"code":"5609","name":"中菲行","close":82.1,"percent":-0.2430133657351189,"tradeVolume":159,"value":13053900,"swingScore":78,"score":78,"swingZone":"B","swingStage":{"label":"高基期","ratio":"0.84","tone":"high","value":0.8363636363636353},"swingSignals":[{"id":"watch_trend","title":"","short":"B觀察","icon":"B","reason":"趨勢轉強但尚未觸發突破買點；趨勢分 5/8，量比 0.00，位階 高基期。"}]},{"code":"3002","name":"歐格","close":19.85,"percent":-0.2512543692901074,"tradeVolume":565,"value":11215250,"swingScore":78,"score":78,"swingZone":"B","swingStage":{"label":"高基期","ratio":"0.78","tone":"high","value":0.7755101182867191},"swingSignals":[{"id":"watch_trend","title":"","short":"B觀察","icon":"B","reason":"趨勢轉強但尚未觸發突破買點；趨勢分 5/8，量比 0.00，位階 高基期。"}]},{"code":"9110","name":"越南控-DR","close":3.95,"percent":-0.2525252525252471,"tradeVolume":334,"value":1319300,"swingScore":78,"score":78,"swingZone":"B","swingStage":{"label":"高基期","ratio":"0.99","tone":"high","value":0.9933333333333335},"swingSignals":[{"id":"watch_trend","title":"","short":"B觀察","icon":"B","reason":"趨勢轉強但尚未觸發突破買點；趨勢分 5/8，量比 0.00，位階 高基期。"}]}]}
