{"ok":true,"source":"strategy4-preset","updatedAt":"2026-06-06T12:34:51.971Z","scanStamp":"20260606","total":1957,"complete":true,"zone":"B","page":36,"pageSize":25,"totalPages":41,"totalCount":1020,"count":25,"matches":[{"code":"5203","name":"訊連","close":71.8,"percent":-0.27777777777778173,"tradeVolume":579,"value":41572200,"swingScore":78,"score":78,"swingZone":"B","swingStage":{"label":"高基期","ratio":"0.78","tone":"high","value":0.7794117647058822},"swingSignals":[{"id":"watch_trend","title":"","short":"B觀察","icon":"B","reason":"趨勢轉強但尚未觸發突破買點；趨勢分 5/8，量比 0.00，位階 高基期。"}]},{"code":"6582","name":"申豐","close":32.15,"percent":-0.3100775193798494,"tradeVolume":77,"value":2475550,"swingScore":78,"score":78,"swingZone":"B","swingStage":{"label":"高基期","ratio":"0.70","tone":"high","value":0.7014922857764266},"swingSignals":[{"id":"watch_trend","title":"","short":"B觀察","icon":"B","reason":"趨勢轉強但尚未觸發突破買點；趨勢分 5/8，量比 0.00，位階 高基期。"}]},{"code":"4523","name":"永彰","close":30.1,"percent":-0.33112582781456246,"tradeVolume":152,"value":4575200,"swingScore":78,"score":78,"swingZone":"B","swingStage":{"label":"高基期","ratio":"0.64","tone":"high","value":0.6375000000000002},"swingSignals":[{"id":"watch_trend","title":"","short":"B觀察","icon":"B","reason":"趨勢轉強但尚未觸發突破買點；趨勢分 5/8，量比 0.00，位階 高基期。"}]},{"code":"4306","name":"炎洲","close":14.95,"percent":-0.3333333333333381,"tradeVolume":2082,"value":31125900,"swingScore":78,"score":78,"swingZone":"B","swingStage":{"label":"高基期","ratio":"0.90","tone":"high","value":0.9047618961117964},"swingSignals":[{"id":"watch_trend","title":"","short":"B觀察","icon":"B","reason":"趨勢轉強但尚未觸發突破買點；趨勢分 5/8，量比 0.00，位階 高基期。"}]},{"code":"3532","name":"台勝科","close":290,"percent":-0.3436426116838488,"tradeVolume":637,"value":184730000,"swingScore":78,"score":78,"swingZone":"B","swingStage":{"label":"高基期","ratio":"0.70","tone":"high","value":0.6952141057934509},"swingSignals":[{"id":"watch_trend","title":"","short":"B觀察","icon":"B","reason":"趨勢轉強但尚未觸發突破買點；趨勢分 5/8，量比 0.00，位階 高基期。"}]},{"code":"2248","name":"華勝-KY","close":57.5,"percent":-0.3466204506065907,"tradeVolume":61,"value":3507500,"swingScore":78,"score":78,"swingZone":"B","swingStage":{"label":"高基期","ratio":"0.66","tone":"high","value":0.6642335766423357},"swingSignals":[{"id":"watch_trend","title":"","short":"B觀察","icon":"B","reason":"趨勢轉強但尚未觸發突破買點；趨勢分 5/8，量比 0.00，位階 高基期。"}]},{"code":"2886","name":"兆豐金","close":41.95,"percent":-0.3562945368170988,"tradeVolume":31534,"value":1322851300,"swingScore":78,"score":78,"swingZone":"B","swingStage":{"label":"高基期","ratio":"0.81","tone":"high","value":0.8125},"swingSignals":[{"id":"watch_trend","title":"","short":"B觀察","icon":"B","reason":"趨勢轉強但尚未觸發突破買點；趨勢分 5/8，量比 0.00，位階 高基期。"}]},{"code":"8473","name":"山林水","close":54.4,"percent":-0.3662975818870929,"tradeVolume":4269,"value":232233600,"swingScore":78,"score":78,"swingZone":"B","swingStage":{"label":"高基期","ratio":"0.88","tone":"high","value":0.8816067407067367},"swingSignals":[{"id":"watch_trend","title":"","short":"B觀察","icon":"B","reason":"趨勢轉強但尚未觸發突破買點；趨勢分 5/8，量比 0.00，位階 高基期。"}]},{"code":"1103","name":"嘉泥","close":13.6,"percent":-0.3663003663003715,"tradeVolume":414,"value":5630400,"swingScore":78,"score":78,"swingZone":"B","swingStage":{"label":"高基期","ratio":"0.62","tone":"high","value":0.6249999999999994},"swingSignals":[{"id":"watch_trend","title":"","short":"B觀察","icon":"B","reason":"趨勢轉強但尚未觸發突破買點；趨勢分 5/8，量比 0.00，位階 高基期。"}]},{"code":"8163","name":"達方","close":40.35,"percent":-0.37037037037036685,"tradeVolume":3464,"value":139772400,"swingScore":78,"score":78,"swingZone":"B","swingStage":{"label":"高基期","ratio":"0.81","tone":"high","value":0.8136094632483819},"swingSignals":[{"id":"watch_trend","title":"","short":"B觀察","icon":"B","reason":"趨勢轉強但尚未觸發突破買點；趨勢分 5/8，量比 0.00，位階 高基期。"}]},{"code":"3679","name":"新至陞","close":125,"percent":-0.398406374501992,"tradeVolume":76,"value":9500000,"swingScore":78,"score":78,"swingZone":"B","swingStage":{"label":"高基期","ratio":"0.82","tone":"high","value":0.8181818181818182},"swingSignals":[{"id":"watch_trend","title":"","short":"B觀察","icon":"B","reason":"趨勢轉強但尚未觸發突破買點；趨勢分 5/8，量比 0.00，位階 高基期。"}]},{"code":"1781","name":"合世","close":11.95,"percent":-0.41666666666667257,"tradeVolume":55,"value":657250,"swingScore":78,"score":78,"swingZone":"B","swingStage":{"label":"高基期","ratio":"0.73","tone":"high","value":0.7346938775510202},"swingSignals":[{"id":"watch_trend","title":"","short":"B觀察","icon":"B","reason":"趨勢轉強但尚未觸發突破買點；趨勢分 5/8，量比 0.00，位階 高基期。"}]},{"code":"4739","name":"康普","close":118,"percent":-0.42194092827004215,"tradeVolume":5920,"value":698560000,"swingScore":78,"score":78,"swingZone":"B","swingStage":{"label":"高基期","ratio":"0.94","tone":"high","value":0.9355670103092784},"swingSignals":[{"id":"watch_trend","title":"","short":"B觀察","icon":"B","reason":"趨勢轉強但尚未觸發突破買點；趨勢分 5/8，量比 0.00，位階 高基期。"}]},{"code":"9917","name":"中保科","close":116.5,"percent":-0.4273504273504274,"tradeVolume":695,"value":80967500,"swingScore":78,"score":78,"swingZone":"B","swingStage":{"label":"高基期","ratio":"0.79","tone":"high","value":0.7857142857142857},"swingSignals":[{"id":"watch_trend","title":"","short":"B觀察","icon":"B","reason":"趨勢轉強但尚未觸發突破買點；趨勢分 5/8，量比 0.00，位階 高基期。"}]},{"code":"5547","name":"久舜","close":22.1,"percent":-0.4504504504504409,"tradeVolume":33,"value":729300,"swingScore":78,"score":78,"swingZone":"B","swingStage":{"label":"高基期","ratio":"0.76","tone":"high","value":0.7575757575757582},"swingSignals":[{"id":"watch_trend","title":"","short":"B觀察","icon":"B","reason":"趨勢轉強但尚未觸發突破買點；趨勢分 5/8，量比 0.00，位階 高基期。"}]},{"code":"2618","name":"長榮航","close":37.7,"percent":-0.5277044854881154,"tradeVolume":39287,"value":1481119900,"swingScore":78,"score":78,"swingZone":"B","swingStage":{"label":"高基期","ratio":"0.86","tone":"high","value":0.8571428571428571},"swingSignals":[{"id":"watch_trend","title":"","short":"B觀察","icon":"B","reason":"趨勢轉強但尚未觸發突破買點；趨勢分 5/8，量比 0.00，位階 高基期。"}]},{"code":"6606","name":"建德工業","close":26.45,"percent":-0.5639112004457772,"tradeVolume":264,"value":6982800,"swingScore":78,"score":78,"swingZone":"B","swingStage":{"label":"高基期","ratio":"0.78","tone":"high","value":0.7763159453373848},"swingSignals":[{"id":"watch_trend","title":"","short":"B觀察","icon":"B","reason":"趨勢轉強但尚未觸發突破買點；趨勢分 5/8，量比 0.00，位階 高基期。"}]},{"code":"6020","name":"大展證","close":25.1,"percent":-0.5940594059405885,"tradeVolume":468,"value":11746800,"swingScore":78,"score":78,"swingZone":"B","swingStage":{"label":"高基期","ratio":"0.86","tone":"high","value":0.8571428571428575},"swingSignals":[{"id":"watch_trend","title":"","short":"B觀察","icon":"B","reason":"趨勢轉強但尚未觸發突破買點；趨勢分 5/8，量比 0.00，位階 高基期。"}]},{"code":"9927","name":"泰銘","close":69.7,"percent":-0.7122507122507122,"tradeVolume":86,"value":5994200,"swingScore":78,"score":78,"swingZone":"B","swingStage":{"label":"高基期","ratio":"0.72","tone":"high","value":0.7234042553191498},"swingSignals":[{"id":"watch_trend","title":"","short":"B觀察","icon":"B","reason":"趨勢轉強但尚未觸發突破買點；趨勢分 5/8，量比 0.00，位階 高基期。"}]},{"code":"2439","name":"美律","close":91.9,"percent":-0.7559378894770895,"tradeVolume":2130,"value":195747000,"swingScore":78,"score":78,"swingZone":"B","swingStage":{"label":"高基期","ratio":"0.72","tone":"high","value":0.7244094280058757},"swingSignals":[{"id":"watch_trend","title":"","short":"B觀察","icon":"B","reason":"趨勢轉強但尚未觸發突破買點；趨勢分 5/8，量比 0.00，位階 高基期。"}]},{"code":"1218","name":"泰山","close":19.35,"percent":-0.769230769230762,"tradeVolume":1616,"value":31269600,"swingScore":78,"score":78,"swingZone":"B","swingStage":{"label":"高基期","ratio":"0.77","tone":"high","value":0.7692307692307709},"swingSignals":[{"id":"watch_trend","title":"","short":"B觀察","icon":"B","reason":"趨勢轉強但尚未觸發突破買點；趨勢分 5/8，量比 0.00，位階 高基期。"}]},{"code":"9935","name":"慶豐富","close":19.3,"percent":-0.7712082262210724,"tradeVolume":292,"value":5635600,"swingScore":78,"score":78,"swingZone":"B","swingStage":{"label":"高基期","ratio":"0.77","tone":"high","value":0.7714285714285722},"swingSignals":[{"id":"watch_trend","title":"","short":"B觀察","icon":"B","reason":"趨勢轉強但尚未觸發突破買點；趨勢分 5/8，量比 0.00，位階 高基期。"}]},{"code":"6470","name":"宇智","close":50.4,"percent":-0.7874015748031469,"tradeVolume":68,"value":3427200,"swingScore":78,"score":78,"swingZone":"B","swingStage":{"label":"高基期","ratio":"0.92","tone":"high","value":0.9206349206349206},"swingSignals":[{"id":"watch_trend","title":"","short":"B觀察","icon":"B","reason":"趨勢轉強但尚未觸發突破買點；趨勢分 5/8，量比 0.00，位階 高基期。"}]},{"code":"1416","name":"廣豐","close":11.7,"percent":-0.847457627118656,"tradeVolume":411,"value":4808700,"swingScore":78,"score":78,"swingZone":"B","swingStage":{"label":"高基期","ratio":"0.79","tone":"high","value":0.7894736842105254},"swingSignals":[{"id":"watch_trend","title":"","short":"B觀察","icon":"B","reason":"趨勢轉強但尚未觸發突破買點；趨勢分 5/8，量比 0.00，位階 高基期。"}]},{"code":"2373","name":"震旦行","close":58.3,"percent":-0.8503401360544218,"tradeVolume":24,"value":1399200,"swingScore":78,"score":78,"swingZone":"B","swingStage":{"label":"高基期","ratio":"0.79","tone":"high","value":0.7941176470588226},"swingSignals":[{"id":"watch_trend","title":"","short":"B觀察","icon":"B","reason":"趨勢轉強但尚未觸發突破買點；趨勢分 5/8，量比 0.00，位階 高基期。"}]}]}
