{"ok":true,"source":"strategy4-preset","updatedAt":"2026-06-09T06:53:44.896Z","scanStamp":"20260609","total":1953,"complete":true,"zone":"C","page":21,"pageSize":25,"totalPages":23,"totalCount":554,"count":25,"matches":[{"code":"6609","name":"瀧澤科","close":44.3,"percent":0.45351473922901525,"tradeVolume":567,"value":25118100,"swingScore":61,"score":61,"swingZone":"C","swingStage":{"label":"高基期","ratio":"0.62","tone":"high","value":0.6199999999999998},"swingSignals":[{"id":"base_setup","title":"","short":"C準備","icon":"C","reason":"低/中位階整理接近發動；準備分 5/7，RSI 57.5，量比 0.48。"}]},{"code":"5243","name":"乙盛-KY","close":115.5,"percent":7.441860465116279,"tradeVolume":3826,"value":441903000,"swingScore":60,"score":60,"swingZone":"C","swingStage":{"label":"中位階","ratio":"0.40","tone":"mid","value":0.4004282655246253},"swingSignals":[{"id":"base_setup","title":"","short":"C準備","icon":"C","reason":"低/中位階整理接近發動；準備分 5/7，RSI 56.3，量比 0.00。"}]},{"code":"4912","name":"聯德控股-KY","close":95.7,"percent":6.9273743016759814,"tradeVolume":835,"value":79909500,"swingScore":60,"score":60,"swingZone":"C","swingStage":{"label":"中位階","ratio":"0.44","tone":"mid","value":0.4394736842105264},"swingSignals":[{"id":"base_setup","title":"","short":"C準備","icon":"C","reason":"低/中位階整理接近發動；準備分 5/7，RSI 44.5，量比 0.00。"}]},{"code":"6695","name":"芯鼎","close":52.1,"percent":5.252525252525255,"tradeVolume":599,"value":31207900,"swingScore":60,"score":60,"swingZone":"C","swingStage":{"label":"中位階","ratio":"0.46","tone":"mid","value":0.4575707154742096},"swingSignals":[{"id":"base_setup","title":"","short":"C準備","icon":"C","reason":"低/中位階整理接近發動；準備分 5/7，RSI 52.1，量比 0.00。"}]},{"code":"3169","name":"亞信","close":110,"percent":3.7735849056603774,"tradeVolume":361,"value":39710000,"swingScore":60,"score":60,"swingZone":"C","swingStage":{"label":"中位階","ratio":"0.53","tone":"mid","value":0.527027027027027},"swingSignals":[{"id":"base_setup","title":"","short":"C準備","icon":"C","reason":"低/中位階整理接近發動；準備分 5/7，RSI 45.8，量比 0.00。"}]},{"code":"8215","name":"明基材","close":28.8,"percent":3.411131059245958,"tradeVolume":2417,"value":69609600,"swingScore":60,"score":60,"swingZone":"C","swingStage":{"label":"中位階","ratio":"0.51","tone":"mid","value":0.5106382978723406},"swingSignals":[{"id":"base_setup","title":"","short":"C準備","icon":"C","reason":"低/中位階整理接近發動；準備分 5/7，RSI 56.9，量比 0.00。"}]},{"code":"6138","name":"茂達","close":311,"percent":3.322259136212625,"tradeVolume":566,"value":176026000,"swingScore":60,"score":60,"swingZone":"C","swingStage":{"label":"中位階","ratio":"0.55","tone":"mid","value":0.5510835913312694},"swingSignals":[{"id":"base_setup","title":"","short":"C準備","icon":"C","reason":"低/中位階整理接近發動；準備分 5/7，RSI 50.7，量比 0.00。"}]},{"code":"6477","name":"安集","close":32.75,"percent":3.3123028391167217,"tradeVolume":1009,"value":33044750,"swingScore":60,"score":60,"swingZone":"C","swingStage":{"label":"低基期","ratio":"0.30","tone":"low","value":0.3000000000000002},"swingSignals":[{"id":"base_setup","title":"","short":"C準備","icon":"C","reason":"低/中位階整理接近發動；準備分 5/7，RSI 44.3，量比 0.00。"}]},{"code":"5009","name":"榮剛","close":35.7,"percent":3.179190751445091,"tradeVolume":3030,"value":108171000,"swingScore":60,"score":60,"swingZone":"C","swingStage":{"label":"中位階","ratio":"0.50","tone":"mid","value":0.5023696682464457},"swingSignals":[{"id":"base_setup","title":"","short":"C準備","icon":"C","reason":"低/中位階整理接近發動；準備分 5/7，RSI 51.4，量比 0.00。"}]},{"code":"6861","name":"睿生光電","close":352,"percent":3.074670571010249,"tradeVolume":755,"value":265760000,"swingScore":60,"score":60,"swingZone":"C","swingStage":{"label":"中位階","ratio":"0.62","tone":"mid","value":0.6155988857938719},"swingSignals":[{"id":"base_setup","title":"","short":"C準備","icon":"C","reason":"低/中位階整理接近發動；準備分 5/7，RSI 40.6，量比 0.00。"}]},{"code":"2365","name":"昆盈","close":35.55,"percent":2.8943560057887123,"tradeVolume":3336,"value":118594800,"swingScore":60,"score":60,"swingZone":"C","swingStage":{"label":"中位階","ratio":"0.39","tone":"mid","value":0.38650306748466245},"swingSignals":[{"id":"base_setup","title":"","short":"C準備","icon":"C","reason":"低/中位階整理接近發動；準備分 5/7，RSI 51.3，量比 0.00。"}]},{"code":"4949","name":"有成精密","close":94.4,"percent":2.832244008714606,"tradeVolume":1143,"value":107899200,"swingScore":60,"score":60,"swingZone":"C","swingStage":{"label":"中位階","ratio":"0.39","tone":"mid","value":0.39057239057239085},"swingSignals":[{"id":"base_setup","title":"","short":"C準備","icon":"C","reason":"低/中位階整理接近發動；準備分 5/7，RSI 56.0，量比 0.00。"}]},{"code":"3206","name":"志豐","close":38,"percent":2.7027027027027026,"tradeVolume":113,"value":4294000,"swingScore":60,"score":60,"swingZone":"C","swingStage":{"label":"中位階","ratio":"0.49","tone":"mid","value":0.4946808510638297},"swingSignals":[{"id":"base_setup","title":"","short":"C準備","icon":"C","reason":"低/中位階整理接近發動；準備分 5/7，RSI 50.8，量比 0.00。"}]},{"code":"5452","name":"佶優","close":33.35,"percent":2.3006134969325154,"tradeVolume":1992,"value":66433200,"swingScore":60,"score":60,"swingZone":"C","swingStage":{"label":"中位階","ratio":"0.43","tone":"mid","value":0.4275862068965519},"swingSignals":[{"id":"base_setup","title":"","short":"C準備","icon":"C","reason":"低/中位階整理接近發動；準備分 5/7，RSI 55.1，量比 0.00。"}]},{"code":"2612","name":"中航","close":56,"percent":2.1897810218978155,"tradeVolume":843,"value":47208000,"swingScore":60,"score":60,"swingZone":"C","swingStage":{"label":"中位階","ratio":"0.43","tone":"mid","value":0.43023255813953515},"swingSignals":[{"id":"base_setup","title":"","short":"C準備","icon":"C","reason":"低/中位階整理接近發動；準備分 5/7，RSI 55.7，量比 0.00。"}]},{"code":"1504","name":"東元","close":73.1,"percent":2.0949720670391065,"tradeVolume":21367,"value":1561927700,"swingScore":60,"score":60,"swingZone":"C","swingStage":{"label":"中位階","ratio":"0.44","tone":"mid","value":0.44444444444444436},"swingSignals":[{"id":"base_setup","title":"","short":"C準備","icon":"C","reason":"低/中位階整理接近發動；準備分 5/7，RSI 54.6，量比 0.00。"}]},{"code":"2417","name":"圓剛","close":47,"percent":2.0629750271444145,"tradeVolume":2773,"value":130331000,"swingScore":60,"score":60,"swingZone":"C","swingStage":{"label":"中位階","ratio":"0.44","tone":"mid","value":0.4394299287410927},"swingSignals":[{"id":"base_setup","title":"","short":"C準備","icon":"C","reason":"低/中位階整理接近發動；準備分 5/7，RSI 49.0，量比 0.00。"}]},{"code":"5425","name":"台半","close":92.7,"percent":1.980198019801977,"tradeVolume":27708,"value":2568531600,"swingScore":60,"score":60,"swingZone":"C","swingStage":{"label":"中位階","ratio":"0.53","tone":"mid","value":0.5260115606936416},"swingSignals":[{"id":"base_setup","title":"","short":"C準備","icon":"C","reason":"低/中位階整理接近發動；準備分 5/7，RSI 54.4，量比 0.00。"}]},{"code":"3661","name":"世芯-KY","close":4250,"percent":1.9184652278177456,"tradeVolume":1023,"value":4347750000,"swingScore":60,"score":60,"swingZone":"C","swingStage":{"label":"中位階","ratio":"0.44","tone":"mid","value":0.44176706827309237},"swingSignals":[{"id":"base_setup","title":"","short":"C準備","icon":"C","reason":"低/中位階整理接近發動；準備分 5/7，RSI 42.3，量比 0.00。"}]},{"code":"6719","name":"力智","close":223.5,"percent":1.8223234624145785,"tradeVolume":1033,"value":230875500,"swingScore":60,"score":60,"swingZone":"C","swingStage":{"label":"中位階","ratio":"0.51","tone":"mid","value":0.5078740157480315},"swingSignals":[{"id":"base_setup","title":"","short":"C準備","icon":"C","reason":"低/中位階整理接近發動；準備分 5/7，RSI 46.3，量比 0.00。"}]},{"code":"2397","name":"友通","close":61.7,"percent":1.8151815181518174,"tradeVolume":608,"value":37513600,"swingScore":60,"score":60,"swingZone":"C","swingStage":{"label":"中位階","ratio":"0.44","tone":"mid","value":0.4366197183098593},"swingSignals":[{"id":"base_setup","title":"","short":"C準備","icon":"C","reason":"低/中位階整理接近發動；準備分 5/7，RSI 53.7，量比 0.00。"}]},{"code":"2015","name":"豐興","close":61.9,"percent":1.6420361247947455,"tradeVolume":389,"value":24079100,"swingScore":60,"score":60,"swingZone":"C","swingStage":{"label":"中位階","ratio":"0.41","tone":"mid","value":0.41463414634146295},"swingSignals":[{"id":"base_setup","title":"","short":"C準備","icon":"C","reason":"低/中位階整理接近發動；準備分 5/7，RSI 50.4，量比 0.00。"}]},{"code":"4585","name":"達明","close":330.5,"percent":1.3803680981595092,"tradeVolume":248,"value":81964000,"swingScore":60,"score":60,"swingZone":"C","swingStage":{"label":"中位階","ratio":"0.42","tone":"mid","value":0.42073170731707316},"swingSignals":[{"id":"base_setup","title":"","short":"C準備","icon":"C","reason":"低/中位階整理接近發動；準備分 5/7，RSI 51.1，量比 0.00。"}]},{"code":"3443","name":"創意","close":4310,"percent":1.2925969447708578,"tradeVolume":1688,"value":7275280000,"swingScore":60,"score":60,"swingZone":"C","swingStage":{"label":"中位階","ratio":"0.47","tone":"mid","value":0.4718196457326892},"swingSignals":[{"id":"base_setup","title":"","short":"C準備","icon":"C","reason":"低/中位階整理接近發動；準備分 5/7，RSI 43.1，量比 0.00。"}]},{"code":"5276","name":"達輝-KY","close":18.5,"percent":1.092896174863384,"tradeVolume":29,"value":536500,"swingScore":60,"score":60,"swingZone":"C","swingStage":{"label":"中位階","ratio":"0.48","tone":"mid","value":0.4825174825174825},"swingSignals":[{"id":"base_setup","title":"","short":"C準備","icon":"C","reason":"低/中位階整理接近發動；準備分 5/7，RSI 49.0，量比 0.00。"}]}]}
