{"ok":true,"source":"strategy4-preset","updatedAt":"2026-06-11T12:31:33.792Z","scanStamp":"20260611","total":1958,"complete":true,"zone":"B","page":12,"pageSize":25,"totalPages":15,"totalCount":372,"count":25,"matches":[{"code":"5388","name":"中磊","close":86.0999984741211,"percent":2.499998183477493,"tradeVolume":4499.69,"avgVolume5":4138.34,"value":0,"swingScore":83,"score":83,"swingZone":"B","swingStage":{"label":"中位階","ratio":"0.54","tone":"mid","value":0.5409835997228404},"swingSignals":[{"id":"watch_trend","title":"","short":"B觀察","icon":"B","reason":"趨勢轉強但尚未觸發突破買點；趨勢分 5/8，量比 0.81，位階 中位階。"}]},{"code":"6195","name":"詩肯","close":27.5,"percent":1.8518518518518516,"tradeVolume":87.367,"avgVolume5":16070.28,"value":2386305,"swingScore":83,"score":83,"swingZone":"B","swingStage":{"label":"高基期","ratio":"0.82","tone":"high","value":0.8217822268317537},"swingSignals":[{"id":"watch_trend","title":"","short":"B觀察","icon":"B","reason":"趨勢轉強但尚未觸發突破買點；趨勢分 6/8，量比 0.00，位階 高基期。"}]},{"code":"4401","name":"東隆興","close":14,"percent":1.0830297068508516,"tradeVolume":101.231,"avgVolume5":16756.94,"value":1417746,"swingScore":83,"score":83,"swingZone":"B","swingStage":{"label":"中位階","ratio":"0.39","tone":"mid","value":0.3888887417169421},"swingSignals":[{"id":"watch_trend","title":"","short":"B觀察","icon":"B","reason":"趨勢轉強但尚未觸發突破買點；趨勢分 5/8，量比 0.00，位階 中位階。"}]},{"code":"1593","name":"祺驊","close":31.7,"percent":0.6349206349206327,"tradeVolume":16.1,"avgVolume5":17635.02,"value":507829,"swingScore":83,"score":83,"swingZone":"B","swingStage":{"label":"中位階","ratio":"0.48","tone":"mid","value":0.47999985758470765},"swingSignals":[{"id":"watch_trend","title":"","short":"B觀察","icon":"B","reason":"趨勢轉強但尚未觸發突破買點；趨勢分 5/8，量比 0.00，位階 中位階。"}]},{"code":"8435","name":"鉅邁","close":56.7,"percent":0.5319121737673066,"tradeVolume":29.429,"avgVolume5":44632.29,"value":1662125,"swingScore":83,"score":83,"swingZone":"B","swingStage":{"label":"高基期","ratio":"0.63","tone":"high","value":0.6279070881523473},"swingSignals":[{"id":"watch_trend","title":"","short":"B觀察","icon":"B","reason":"趨勢轉強但尚未觸發突破買點；趨勢分 6/8，量比 0.00，位階 高基期。"}]},{"code":"6803","name":"崑鼎","close":287.5,"percent":0.5244755244755245,"tradeVolume":68.094,"avgVolume5":43142.88,"value":19441099,"swingScore":83,"score":83,"swingZone":"B","swingStage":{"label":"中位階","ratio":"0.53","tone":"mid","value":0.5263157894736842},"swingSignals":[{"id":"watch_trend","title":"","short":"B觀察","icon":"B","reason":"趨勢轉強但尚未觸發突破買點；趨勢分 5/8，量比 0.00，位階 中位階。"}]},{"code":"9962","name":"有益","close":9.89,"percent":0.4060874820423675,"tradeVolume":61.381,"avgVolume5":18404.29,"value":592011,"swingScore":83,"score":83,"swingZone":"B","swingStage":{"label":"中位階","ratio":"0.60","tone":"mid","value":0.5980392090864558},"swingSignals":[{"id":"watch_trend","title":"","short":"B觀察","icon":"B","reason":"趨勢轉強但尚未觸發突破買點；趨勢分 5/8，量比 0.00，位階 中位階。"}]},{"code":"2704","name":"國賓","close":42.900001525878906,"percent":0.35088076228983917,"tradeVolume":154.185,"avgVolume5":19346.76,"value":0,"swingScore":83,"score":83,"swingZone":"B","swingStage":{"label":"中位階","ratio":"0.47","tone":"mid","value":0.46666717529296875},"swingSignals":[{"id":"watch_trend","title":"","short":"B觀察","icon":"B","reason":"趨勢轉強但尚未觸發突破買點；趨勢分 5/8，量比 0.01，位階 中位階。"}]},{"code":"4538","name":"大詠城","close":18.45,"percent":0.2717412092735668,"tradeVolume":108.577,"avgVolume5":43935.92,"value":1995457,"swingScore":83,"score":83,"swingZone":"B","swingStage":{"label":"高基期","ratio":"0.66","tone":"high","value":0.6585366443677366},"swingSignals":[{"id":"watch_trend","title":"","short":"B觀察","icon":"B","reason":"趨勢轉強但尚未觸發突破買點；趨勢分 6/8，量比 0.00，位階 高基期。"}]},{"code":"5903","name":"全家","close":189,"percent":0.2652519893899204,"tradeVolume":28.446,"avgVolume5":20796.09,"value":5364970,"swingScore":83,"score":83,"swingZone":"B","swingStage":{"label":"中位階","ratio":"0.58","tone":"mid","value":0.5833333333333334},"swingSignals":[{"id":"watch_trend","title":"","short":"B觀察","icon":"B","reason":"趨勢轉強但尚未觸發突破買點；趨勢分 5/8，量比 0.00，位階 中位階。"}]},{"code":"4754","name":"國碳科","close":38.85,"percent":0.000003927616390223309,"tradeVolume":29.001,"avgVolume5":29045.25,"value":1126641,"swingScore":83,"score":83,"swingZone":"B","swingStage":{"label":"高基期","ratio":"0.62","tone":"high","value":0.6229507253554866},"swingSignals":[{"id":"watch_trend","title":"","short":"B觀察","icon":"B","reason":"趨勢轉強但尚未觸發突破買點；趨勢分 6/8，量比 0.00，位階 高基期。"}]},{"code":"3232","name":"昱捷","close":23.5,"percent":0,"tradeVolume":108.417,"avgVolume5":40853.09,"value":2498574,"swingScore":83,"score":83,"swingZone":"B","swingStage":{"label":"高基期","ratio":"0.66","tone":"high","value":0.6632653577582969},"swingSignals":[{"id":"watch_trend","title":"","short":"B觀察","icon":"B","reason":"趨勢轉強但尚未觸發突破買點；趨勢分 6/8，量比 0.00，位階 高基期。"}]},{"code":"6527","name":"明達醫","close":71.5,"percent":0,"tradeVolume":17.021,"avgVolume5":31846.2,"value":1214173,"swingScore":83,"score":83,"swingZone":"B","swingStage":{"label":"高基期","ratio":"0.78","tone":"high","value":0.7761193010104966},"swingSignals":[{"id":"watch_trend","title":"","short":"B觀察","icon":"B","reason":"趨勢轉強但尚未觸發突破買點；趨勢分 6/8，量比 0.00，位階 高基期。"}]},{"code":"9927","name":"泰銘","close":68.9000015258789,"percent":0,"tradeVolume":115.801,"avgVolume5":40397.89,"value":0,"swingScore":83,"score":83,"swingZone":"B","swingStage":{"label":"中位階","ratio":"0.55","tone":"mid","value":0.5531915238994997},"swingSignals":[{"id":"watch_trend","title":"","short":"B觀察","icon":"B","reason":"趨勢轉強但尚未觸發突破買點；趨勢分 5/8，量比 0.01，位階 中位階。"}]},{"code":"2948","name":"寶陞","close":37.8,"percent":-0.13209637024234408,"tradeVolume":2.364,"avgVolume5":5027.59,"value":91377,"swingScore":83,"score":83,"swingZone":"B","swingStage":{"label":"中位階","ratio":"0.59","tone":"mid","value":0.5882354723128677},"swingSignals":[{"id":"watch_trend","title":"","short":"B觀察","icon":"B","reason":"趨勢轉強但尚未觸發突破買點；趨勢分 5/8，量比 0.00，位階 中位階。"}]},{"code":"1777","name":"生泰","close":72,"percent":-0.138694141799443,"tradeVolume":19.145,"avgVolume5":23823.83,"value":1377215,"swingScore":83,"score":83,"swingZone":"B","swingStage":{"label":"高基期","ratio":"0.77","tone":"high","value":0.7692312206744976},"swingSignals":[{"id":"watch_trend","title":"","short":"B觀察","icon":"B","reason":"趨勢轉強但尚未觸發突破買點；趨勢分 6/8，量比 0.00，位階 高基期。"}]},{"code":"4550","name":"長佳","close":25.25,"percent":-0.1976254488865984,"tradeVolume":44.114,"avgVolume5":42672.23,"value":1118414,"swingScore":83,"score":83,"swingZone":"B","swingStage":{"label":"高基期","ratio":"0.84","tone":"high","value":0.8437500372528941},"swingSignals":[{"id":"watch_trend","title":"","short":"B觀察","icon":"B","reason":"趨勢轉強但尚未觸發突破買點；趨勢分 6/8，量比 0.00，位階 高基期。"}]},{"code":"6996","name":"力領科技","close":199,"percent":-0.2506265664160401,"tradeVolume":219.775,"avgVolume5":15461.38,"value":43632473,"swingScore":83,"score":83,"swingZone":"B","swingStage":{"label":"高基期","ratio":"0.70","tone":"high","value":0.7023809523809523},"swingSignals":[{"id":"watch_trend","title":"","short":"B觀察","icon":"B","reason":"趨勢轉強但尚未觸發突破買點；趨勢分 6/8，量比 0.03，位階 高基期。"}]},{"code":"8411","name":"福貞-KY","close":12.199999809265137,"percent":-0.40816482232541457,"tradeVolume":289.186,"avgVolume5":4191.64,"value":0,"swingScore":83,"score":83,"swingZone":"B","swingStage":{"label":"高基期","ratio":"0.83","tone":"high","value":0.8333334657881205},"swingSignals":[{"id":"watch_trend","title":"","short":"B觀察","icon":"B","reason":"趨勢轉強但尚未觸發突破買點；趨勢分 6/8，量比 0.01，位階 高基期。"}]},{"code":"5516","name":"雙喜","close":10.95,"percent":-0.454545454545461,"tradeVolume":101.025,"avgVolume5":27723,"value":1084120,"swingScore":83,"score":83,"swingZone":"B","swingStage":{"label":"中位階","ratio":"0.38","tone":"mid","value":0.38297873549247924},"swingSignals":[{"id":"watch_trend","title":"","short":"B觀察","icon":"B","reason":"趨勢轉強但尚未觸發突破買點；趨勢分 5/8，量比 0.00，位階 中位階。"}]},{"code":"8931","name":"大汽電","close":42.7,"percent":-0.4662040064456755,"tradeVolume":113.472,"avgVolume5":15505.73,"value":4816323,"swingScore":83,"score":83,"swingZone":"B","swingStage":{"label":"中位階","ratio":"0.48","tone":"mid","value":0.475000190734864},"swingSignals":[{"id":"watch_trend","title":"","short":"B觀察","icon":"B","reason":"趨勢轉強但尚未觸發突破買點；趨勢分 5/8，量比 0.00，位階 中位階。"}]},{"code":"8416","name":"實威","close":181,"percent":-0.5494505494505495,"tradeVolume":10.384,"avgVolume5":10843.08,"value":1877288,"swingScore":83,"score":83,"swingZone":"B","swingStage":{"label":"中位階","ratio":"0.57","tone":"mid","value":0.5652173913043478},"swingSignals":[{"id":"watch_trend","title":"","short":"B觀察","icon":"B","reason":"趨勢轉強但尚未觸發突破買點；趨勢分 5/8，量比 0.00，位階 中位階。"}]},{"code":"3679","name":"新至陞","close":123.5,"percent":-0.8032128514056224,"tradeVolume":339.723,"avgVolume5":31593.65,"value":0,"swingScore":83,"score":83,"swingZone":"B","swingStage":{"label":"中位階","ratio":"0.54","tone":"mid","value":0.5357142857142857},"swingSignals":[{"id":"watch_trend","title":"","short":"B觀察","icon":"B","reason":"趨勢轉強但尚未觸發突破買點；趨勢分 5/8，量比 0.01，位階 中位階。"}]},{"code":"7713","name":"威力德生醫","close":70.4,"percent":-0.8450704225352033,"tradeVolume":7.038,"avgVolume5":14601.61,"value":496761,"swingScore":83,"score":83,"swingZone":"B","swingStage":{"label":"中位階","ratio":"0.55","tone":"mid","value":0.5454546175149003},"swingSignals":[{"id":"watch_trend","title":"","short":"B觀察","icon":"B","reason":"趨勢轉強但尚未觸發突破買點；趨勢分 5/8，量比 0.00，位階 中位階。"}]},{"code":"6982","name":"大井泵浦","close":57.4,"percent":-0.8635604709879457,"tradeVolume":50.331,"avgVolume5":14716.87,"value":2906006,"swingScore":83,"score":83,"swingZone":"B","swingStage":{"label":"中位階","ratio":"0.41","tone":"mid","value":0.4050632129015933},"swingSignals":[{"id":"watch_trend","title":"","short":"B觀察","icon":"B","reason":"趨勢轉強但尚未觸發突破買點；趨勢分 5/8，量比 0.00，位階 中位階。"}]}]}
