{"ok":true,"source":"strategy4-preset","updatedAt":"2026-06-08T06:42:51.239Z","scanStamp":"20260608","total":1957,"complete":true,"zone":"B","page":4,"pageSize":25,"totalPages":29,"totalCount":705,"count":25,"matches":[{"code":"5299","name":"杰力","close":100.5,"percent":-8.636363636363637,"tradeVolume":502,"value":50451000,"swingScore":99,"score":99,"swingZone":"B","swingStage":{"label":"高基期","ratio":"0.74","tone":"high","value":0.7374701670644391},"swingSignals":[{"id":"watch_trend","title":"","short":"B觀察","icon":"B","reason":"趨勢轉強但尚未觸發突破買點；趨勢分 6/8，量比 3.24，位階 高基期。"}]},{"code":"6180","name":"橘子","close":43.9,"percent":0.4576659038901504,"tradeVolume":955,"value":41924500,"swingScore":98,"score":98,"swingZone":"B","swingStage":{"label":"中位階","ratio":"0.39","tone":"mid","value":0.3860182370820669},"swingSignals":[{"id":"watch_trend","title":"","short":"B觀察","icon":"B","reason":"趨勢轉強但尚未觸發突破買點；趨勢分 6/8，量比 1.24，位階 中位階。"}]},{"code":"3152","name":"璟德","close":178,"percent":-0.5586592178770949,"tradeVolume":758,"value":134924000,"swingScore":98,"score":98,"swingZone":"B","swingStage":{"label":"高基期","ratio":"0.92","tone":"high","value":0.9223300970873787},"swingSignals":[{"id":"watch_trend","title":"","short":"B觀察","icon":"B","reason":"趨勢轉強但尚未觸發突破買點；趨勢分 6/8，量比 2.09，位階 高基期。"}]},{"code":"3285","name":"微端","close":31.1,"percent":-1.8927444794952615,"tradeVolume":52,"value":1617200,"swingScore":98,"score":98,"swingZone":"B","swingStage":{"label":"中位階","ratio":"0.61","tone":"mid","value":0.6133333333333335},"swingSignals":[{"id":"watch_trend","title":"","short":"B觀察","icon":"B","reason":"趨勢轉強但尚未觸發突破買點；趨勢分 7/8，量比 0.92，位階 中位階。"}]},{"code":"2734","name":"易飛網","close":15.2,"percent":-1.9354838709677464,"tradeVolume":104,"value":1580800,"swingScore":98,"score":98,"swingZone":"B","swingStage":{"label":"低基期","ratio":"0.09","tone":"low","value":0.08510638297872311},"swingSignals":[{"id":"watch_trend","title":"","short":"B觀察","icon":"B","reason":"趨勢轉強但尚未觸發突破買點；趨勢分 5/8，量比 1.00，位階 低基期。"}]},{"code":"5210","name":"寶碩","close":29.15,"percent":-2.508361204013378,"tradeVolume":435,"value":12680250,"swingScore":98,"score":98,"swingZone":"B","swingStage":{"label":"高基期","ratio":"0.80","tone":"high","value":0.7956521739130433},"swingSignals":[{"id":"watch_trend","title":"","short":"B觀察","icon":"B","reason":"趨勢轉強但尚未觸發突破買點；趨勢分 6/8，量比 2.09，位階 高基期。"}]},{"code":"5490","name":"同亨","close":28.25,"percent":-3.0874785591766676,"tradeVolume":617,"value":17430250,"swingScore":98,"score":98,"swingZone":"B","swingStage":{"label":"中位階","ratio":"0.44","tone":"mid","value":0.43750000000000006},"swingSignals":[{"id":"watch_trend","title":"","short":"B觀察","icon":"B","reason":"趨勢轉強但尚未觸發突破買點；趨勢分 6/8，量比 1.05，位階 中位階。"}]},{"code":"6690","name":"安碁資訊","close":174,"percent":-4.395604395604396,"tradeVolume":161,"value":28014000,"swingScore":98,"score":98,"swingZone":"B","swingStage":{"label":"低基期","ratio":"0.38","tone":"low","value":0.38095238095238093},"swingSignals":[{"id":"watch_trend","title":"","short":"B觀察","icon":"B","reason":"趨勢轉強但尚未觸發突破買點；趨勢分 5/8，量比 1.06，位階 低基期。"}]},{"code":"5392","name":"能率","close":42.6,"percent":-6.578947368421052,"tradeVolume":5327,"value":226930200,"swingScore":98,"score":98,"swingZone":"B","swingStage":{"label":"低基期","ratio":"0.21","tone":"low","value":0.20833333333333334},"swingSignals":[{"id":"watch_trend","title":"","short":"B觀察","icon":"B","reason":"趨勢轉強但尚未觸發突破買點；趨勢分 5/8，量比 1.03，位階 低基期。"}]},{"code":"6899","name":"創為精密","close":62.3,"percent":0.16077170418005515,"tradeVolume":138,"value":8597400,"swingScore":97,"score":97,"swingZone":"B","swingStage":{"label":"高基期","ratio":"0.63","tone":"high","value":0.6257668711656438},"swingSignals":[{"id":"watch_trend","title":"","short":"B觀察","icon":"B","reason":"趨勢轉強但尚未觸發突破買點；趨勢分 6/8，量比 2.05，位階 高基期。"}]},{"code":"1580","name":"新麥","close":126.5,"percent":-0.39370078740157477,"tradeVolume":168,"value":21252000,"swingScore":97,"score":97,"swingZone":"B","swingStage":{"label":"高基期","ratio":"0.80","tone":"high","value":0.8},"swingSignals":[{"id":"watch_trend","title":"","short":"B觀察","icon":"B","reason":"趨勢轉強但尚未觸發突破買點；趨勢分 6/8，量比 2.05，位階 高基期。"}]},{"code":"6461","name":"益得","close":15.8,"percent":-2.469135802469127,"tradeVolume":202,"value":3191600,"swingScore":97,"score":97,"swingZone":"B","swingStage":{"label":"低基期","ratio":"0.11","tone":"low","value":0.11111111111111133},"swingSignals":[{"id":"watch_trend","title":"","short":"B觀察","icon":"B","reason":"趨勢轉強但尚未觸發突破買點；趨勢分 5/8，量比 0.83，位階 低基期。"}]},{"code":"2596","name":"綠意","close":28.8,"percent":-2.702702702702705,"tradeVolume":80,"value":2304000,"swingScore":97,"score":97,"swingZone":"B","swingStage":{"label":"低基期","ratio":"0.38","tone":"low","value":0.3787878787878789},"swingSignals":[{"id":"watch_trend","title":"","short":"B觀察","icon":"B","reason":"趨勢轉強但尚未觸發突破買點；趨勢分 6/8，量比 0.50，位階 低基期。"}]},{"code":"6134","name":"萬旭","close":34.15,"percent":-3.394625176803402,"tradeVolume":1756,"value":59967400,"swingScore":97,"score":97,"swingZone":"B","swingStage":{"label":"中位階","ratio":"0.40","tone":"mid","value":0.40234375},"swingSignals":[{"id":"watch_trend","title":"","short":"B觀察","icon":"B","reason":"趨勢轉強但尚未觸發突破買點；趨勢分 6/8，量比 0.88，位階 中位階。"}]},{"code":"3537","name":"堡達","close":76.7,"percent":-8.253588516746401,"tradeVolume":9307,"value":713846900,"swingScore":97,"score":97,"swingZone":"B","swingStage":{"label":"高基期","ratio":"0.79","tone":"high","value":0.7889908256880733},"swingSignals":[{"id":"watch_trend","title":"","short":"B觀察","icon":"B","reason":"趨勢轉強但尚未觸發突破買點；趨勢分 6/8，量比 1.73，位階 高基期。"}]},{"code":"6667","name":"信紘科","close":271.5,"percent":1.1173184357541899,"tradeVolume":873,"value":237019500,"swingScore":96,"score":96,"swingZone":"B","swingStage":{"label":"中位階","ratio":"0.49","tone":"mid","value":0.48760330578512395},"swingSignals":[{"id":"watch_trend","title":"","short":"B觀察","icon":"B","reason":"趨勢轉強但尚未觸發突破買點；趨勢分 6/8，量比 1.02，位階 中位階。"}]},{"code":"8083","name":"瑞穎","close":171,"percent":-0.2915451895043732,"tradeVolume":119,"value":20349000,"swingScore":96,"score":96,"swingZone":"B","swingStage":{"label":"低基期","ratio":"0.34","tone":"low","value":0.34285714285714286},"swingSignals":[{"id":"watch_trend","title":"","short":"B觀察","icon":"B","reason":"趨勢轉強但尚未觸發突破買點；趨勢分 5/8，量比 1.70，位階 低基期。"}]},{"code":"6712","name":"長聖","close":139,"percent":-0.7142857142857143,"tradeVolume":388,"value":53932000,"swingScore":96,"score":96,"swingZone":"B","swingStage":{"label":"高基期","ratio":"0.69","tone":"high","value":0.6857142857142857},"swingSignals":[{"id":"watch_trend","title":"","short":"B觀察","icon":"B","reason":"趨勢轉強但尚未觸發突破買點；趨勢分 7/8，量比 1.23，位階 高基期。"}]},{"code":"3687","name":"歐買尬","close":75.9,"percent":-1.171874999999989,"tradeVolume":504,"value":38253600,"swingScore":96,"score":96,"swingZone":"B","swingStage":{"label":"高基期","ratio":"0.90","tone":"high","value":0.8994082840236692},"swingSignals":[{"id":"watch_trend","title":"","short":"B觀察","icon":"B","reason":"趨勢轉強但尚未觸發突破買點；趨勢分 6/8，量比 1.83，位階 高基期。"}]},{"code":"6122","name":"擎邦","close":47.7,"percent":-1.851851851851849,"tradeVolume":330,"value":15741000,"swingScore":96,"score":96,"swingZone":"B","swingStage":{"label":"中位階","ratio":"0.38","tone":"mid","value":0.38461538461538464},"swingSignals":[{"id":"watch_trend","title":"","short":"B觀察","icon":"B","reason":"趨勢轉強但尚未觸發突破買點；趨勢分 5/8，量比 1.08，位階 中位階。"}]},{"code":"1599","name":"宏佳騰","close":23.7,"percent":-1.863354037267078,"tradeVolume":48,"value":1137600,"swingScore":96,"score":96,"swingZone":"B","swingStage":{"label":"低基期","ratio":"0.16","tone":"low","value":0.164705882352941},"swingSignals":[{"id":"watch_trend","title":"","short":"B觀察","icon":"B","reason":"趨勢轉強但尚未觸發突破買點；趨勢分 5/8，量比 0.77，位階 低基期。"}]},{"code":"3073","name":"天方能源","close":21.6,"percent":-3.5714285714285587,"tradeVolume":161,"value":3477600,"swingScore":96,"score":96,"swingZone":"B","swingStage":{"label":"低基期","ratio":"0.20","tone":"low","value":0.19565217391304357},"swingSignals":[{"id":"watch_trend","title":"","short":"B觀察","icon":"B","reason":"趨勢轉強但尚未觸發突破買點；趨勢分 5/8，量比 0.76，位階 低基期。"}]},{"code":"8121","name":"越峰","close":38,"percent":-6.748466257668712,"tradeVolume":1980,"value":75240000,"swingScore":96,"score":96,"swingZone":"B","swingStage":{"label":"高基期","ratio":"0.80","tone":"high","value":0.8041237113402063},"swingSignals":[{"id":"watch_trend","title":"","short":"B觀察","icon":"B","reason":"趨勢轉強但尚未觸發突破買點；趨勢分 6/8，量比 1.61，位階 高基期。"}]},{"code":"5353","name":"台林","close":31.55,"percent":-7.3421439060205484,"tradeVolume":341,"value":10758550,"swingScore":96,"score":96,"swingZone":"B","swingStage":{"label":"高基期","ratio":"0.72","tone":"high","value":0.7156398104265406},"swingSignals":[{"id":"watch_trend","title":"","short":"B觀察","icon":"B","reason":"趨勢轉強但尚未觸發突破買點；趨勢分 6/8，量比 1.64，位階 高基期。"}]},{"code":"6127","name":"九豪","close":76.2,"percent":0.793650793650805,"tradeVolume":51991,"value":3961714200,"swingScore":95,"score":95,"swingZone":"B","swingStage":{"label":"高基期","ratio":"0.86","tone":"high","value":0.8571428571428571},"swingSignals":[{"id":"watch_trend","title":"","short":"B觀察","icon":"B","reason":"趨勢轉強但尚未觸發突破買點；趨勢分 6/8，量比 1.80，位階 高基期。"}]}]}
