{"ok":true,"source":"strategy4-preset","updatedAt":"2026-06-11T12:31:33.792Z","scanStamp":"20260611","total":1958,"complete":true,"zone":"B","page":5,"pageSize":25,"totalPages":15,"totalCount":372,"count":25,"matches":[{"code":"1102","name":"亞泥","close":34.5,"percent":0.29069322582984636,"tradeVolume":16386.016,"avgVolume5":15722.96,"value":0,"swingScore":95,"score":95,"swingZone":"B","swingStage":{"label":"中位階","ratio":"0.56","tone":"mid","value":0.5599995930989583},"swingSignals":[{"id":"watch_trend","title":"","short":"B觀察","icon":"B","reason":"趨勢轉強但尚未觸發突破買點；趨勢分 6/8，量比 0.66，位階 中位階。"}]},{"code":"1443","name":"立益物流","close":26.450000762939453,"percent":0.18939827701392717,"tradeVolume":27200,"avgVolume5":49468.8,"value":0,"swingScore":95,"score":95,"swingZone":"B","swingStage":{"label":"高基期","ratio":"0.82","tone":"high","value":0.8188406197720691},"swingSignals":[{"id":"watch_trend","title":"","short":"B觀察","icon":"B","reason":"趨勢轉強但尚未觸發突破買點；趨勢分 7/8，量比 0.87，位階 高基期。"}]},{"code":"2915","name":"潤泰全","close":49.150001525878906,"percent":0,"tradeVolume":5042.11,"avgVolume5":3372.38,"value":0,"swingScore":95,"score":95,"swingZone":"B","swingStage":{"label":"高基期","ratio":"0.91","tone":"high","value":0.9109592083404968},"swingSignals":[{"id":"watch_trend","title":"","short":"B觀察","icon":"B","reason":"趨勢轉強但尚未觸發突破買點；趨勢分 6/8，量比 1.45，位階 高基期。"}]},{"code":"9945","name":"潤泰新","close":26.049999237060547,"percent":-0.3824106421740245,"tradeVolume":15166.992,"avgVolume5":13229.73,"value":0,"swingScore":95,"score":95,"swingZone":"B","swingStage":{"label":"高基期","ratio":"0.86","tone":"high","value":0.8630136843133884},"swingSignals":[{"id":"watch_trend","title":"","short":"B觀察","icon":"B","reason":"趨勢轉強但尚未觸發突破買點；趨勢分 6/8，量比 1.45，位階 高基期。"}]},{"code":"6722","name":"輝創","close":38.599998474121094,"percent":-0.7712160411053717,"tradeVolume":52437,"avgVolume5":55596.01,"value":0,"swingScore":95,"score":95,"swingZone":"B","swingStage":{"label":"中位階","ratio":"0.46","tone":"mid","value":0.4634142710580541},"swingSignals":[{"id":"watch_trend","title":"","short":"B觀察","icon":"B","reason":"趨勢轉強但尚未觸發突破買點；趨勢分 5/8，量比 1.23，位階 中位階。"}]},{"code":"4739","name":"康普","close":123.5,"percent":-1.2,"tradeVolume":7894.631,"avgVolume5":11280.07,"value":0,"swingScore":95,"score":95,"swingZone":"B","swingStage":{"label":"高基期","ratio":"0.79","tone":"high","value":0.7892720183315945},"swingSignals":[{"id":"watch_trend","title":"","short":"B觀察","icon":"B","reason":"趨勢轉強但尚未觸發突破買點；趨勢分 7/8，量比 1.18，位階 高基期。"}]},{"code":"1810","name":"和成","close":20.700000762939453,"percent":-1.8957327549697958,"tradeVolume":3839.51,"avgVolume5":11590.87,"value":0,"swingScore":95,"score":95,"swingZone":"B","swingStage":{"label":"中位階","ratio":"0.61","tone":"mid","value":0.6068377628921272},"swingSignals":[{"id":"watch_trend","title":"","short":"B觀察","icon":"B","reason":"趨勢轉強但尚未觸發突破買點；趨勢分 6/8，量比 0.67，位階 中位階。"}]},{"code":"2543","name":"皇昌","close":46.79999923706055,"percent":-4.294483074212164,"tradeVolume":2771.557,"avgVolume5":4591.03,"value":0,"swingScore":95,"score":95,"swingZone":"B","swingStage":{"label":"中位階","ratio":"0.46","tone":"mid","value":0.4588235294117647},"swingSignals":[{"id":"watch_trend","title":"","short":"B觀察","icon":"B","reason":"趨勢轉強但尚未觸發突破買點；趨勢分 6/8，量比 0.66，位階 中位階。"}]},{"code":"8042","name":"金山電","close":155,"percent":9.929078014184398,"tradeVolume":18053.854,"avgVolume5":4684.88,"value":2516795472,"swingScore":94,"score":94,"swingZone":"B","swingStage":{"label":"高基期","ratio":"0.86","tone":"high","value":0.856661043687033},"swingSignals":[{"id":"watch_trend","title":"","short":"B觀察","icon":"B","reason":"趨勢轉強但尚未觸發突破買點；趨勢分 7/8，量比 8.27，位階 高基期。"}]},{"code":"3090","name":"日電貿","close":233,"percent":9.90566037735849,"tradeVolume":26404.21,"avgVolume5":10794.5,"value":0,"swingScore":94,"score":94,"swingZone":"B","swingStage":{"label":"高基期","ratio":"0.88","tone":"high","value":0.8751560525530993},"swingSignals":[{"id":"watch_trend","title":"","short":"B觀察","icon":"B","reason":"趨勢轉強但尚未觸發突破買點；趨勢分 7/8，量比 2.01，位階 高基期。"}]},{"code":"6173","name":"信昌電","close":251.5,"percent":9.82532751091703,"tradeVolume":38970.835,"avgVolume5":8967.55,"value":9312639726,"swingScore":94,"score":94,"swingZone":"B","swingStage":{"label":"高基期","ratio":"0.97","tone":"high","value":0.9726477028636356},"swingSignals":[{"id":"watch_trend","title":"","short":"B觀察","icon":"B","reason":"趨勢轉強但尚未觸發突破買點；趨勢分 7/8，量比 11.20，位階 高基期。"}]},{"code":"2103","name":"台橡","close":22.149999618530273,"percent":5.225655208258013,"tradeVolume":7483.833,"avgVolume5":5591.92,"value":0,"swingScore":94,"score":94,"swingZone":"B","swingStage":{"label":"高基期","ratio":"0.88","tone":"high","value":0.8764042584015478},"swingSignals":[{"id":"watch_trend","title":"","short":"B觀察","icon":"B","reason":"趨勢轉強但尚未觸發突破買點；趨勢分 6/8，量比 1.37，位階 高基期。"}]},{"code":"3213","name":"茂訊","close":134,"percent":3.875968992248062,"tradeVolume":1358.672,"avgVolume5":3277.88,"value":179313633,"swingScore":94,"score":94,"swingZone":"B","swingStage":{"label":"高基期","ratio":"0.83","tone":"high","value":0.8266666666666667},"swingSignals":[{"id":"watch_trend","title":"","short":"B觀察","icon":"B","reason":"趨勢轉強但尚未觸發突破買點；趨勢分 7/8，量比 1.01，位階 高基期。"}]},{"code":"9941","name":"裕融","close":87.69999694824219,"percent":1.5046243048663617,"tradeVolume":5829.184,"avgVolume5":7439.37,"value":0,"swingScore":94,"score":94,"swingZone":"B","swingStage":{"label":"高基期","ratio":"0.92","tone":"high","value":0.9235292322495404},"swingSignals":[{"id":"watch_trend","title":"","short":"B觀察","icon":"B","reason":"趨勢轉強但尚未觸發突破買點；趨勢分 6/8，量比 1.42，位階 高基期。"}]},{"code":"3022","name":"威強電","close":86.19999694824219,"percent":1.4117611155790442,"tradeVolume":2975.706,"avgVolume5":5303.01,"value":0,"swingScore":94,"score":94,"swingZone":"B","swingStage":{"label":"高基期","ratio":"0.89","tone":"high","value":0.8933332655164931},"swingSignals":[{"id":"watch_trend","title":"","short":"B觀察","icon":"B","reason":"趨勢轉強但尚未觸發突破買點；趨勢分 6/8，量比 1.43，位階 高基期。"}]},{"code":"6965","name":"中傑-KY","close":81.80000305175781,"percent":1.2376237156320813,"tradeVolume":46567,"avgVolume5":59975,"value":0,"swingScore":94,"score":94,"swingZone":"B","swingStage":{"label":"中位階","ratio":"0.46","tone":"mid","value":0.45569640423807956},"swingSignals":[{"id":"watch_trend","title":"","short":"B觀察","icon":"B","reason":"趨勢轉強但尚未觸發突破買點；趨勢分 5/8，量比 1.16，位階 中位階。"}]},{"code":"9926","name":"新海","close":49.45000076293945,"percent":1.2282544678813412,"tradeVolume":13302,"avgVolume5":32872.2,"value":0,"swingScore":94,"score":94,"swingZone":"B","swingStage":{"label":"低基期","ratio":"0.38","tone":"low","value":0.3783791028649431},"swingSignals":[{"id":"watch_trend","title":"","short":"B觀察","icon":"B","reason":"趨勢轉強但尚未觸發突破買點；趨勢分 6/8，量比 0.36，位階 低基期。"}]},{"code":"8076","name":"伍豐","close":26.9,"percent":1.1278180986014563,"tradeVolume":2740.832,"avgVolume5":3693.67,"value":74553082,"swingScore":94,"score":94,"swingZone":"B","swingStage":{"label":"中位階","ratio":"0.62","tone":"mid","value":0.6178344620706125},"swingSignals":[{"id":"watch_trend","title":"","short":"B觀察","icon":"B","reason":"趨勢轉強但尚未觸發突破買點；趨勢分 6/8，量比 0.96，位階 中位階。"}]},{"code":"2008","name":"高興昌","close":29.700000762939453,"percent":0.8488964126432406,"tradeVolume":62759,"avgVolume5":67783.8,"value":0,"swingScore":94,"score":94,"swingZone":"B","swingStage":{"label":"高基期","ratio":"0.82","tone":"high","value":0.8181822385342311},"swingSignals":[{"id":"watch_trend","title":"","short":"B觀察","icon":"B","reason":"趨勢轉強但尚未觸發突破買點；趨勢分 6/8，量比 1.68，位階 高基期。"}]},{"code":"9928","name":"中視","close":17.950000762939453,"percent":0.8427052376867247,"tradeVolume":72829,"avgVolume5":50582.8,"value":0,"swingScore":94,"score":94,"swingZone":"B","swingStage":{"label":"中位階","ratio":"0.53","tone":"mid","value":0.5263164234961542},"swingSignals":[{"id":"watch_trend","title":"","short":"B觀察","icon":"B","reason":"趨勢轉強但尚未觸發突破買點；趨勢分 6/8，量比 1.98，位階 中位階。"}]},{"code":"2890","name":"永豐金","close":33.25,"percent":0.7575757575757576,"tradeVolume":45429.845,"avgVolume5":53010.45,"value":0,"swingScore":94,"score":94,"swingZone":"B","swingStage":{"label":"高基期","ratio":"0.80","tone":"high","value":0.7999998009723825},"swingSignals":[{"id":"watch_trend","title":"","short":"B觀察","icon":"B","reason":"趨勢轉強但尚未觸發突破買點；趨勢分 7/8，量比 0.96，位階 高基期。"}]},{"code":"1210","name":"大成","close":55.70000076293945,"percent":0.5415148534254258,"tradeVolume":6959.72,"avgVolume5":9182.54,"value":0,"swingScore":94,"score":94,"swingZone":"B","swingStage":{"label":"高基期","ratio":"0.93","tone":"high","value":0.9318183788582615},"swingSignals":[{"id":"watch_trend","title":"","short":"B觀察","icon":"B","reason":"趨勢轉強但尚未觸發突破買點；趨勢分 6/8，量比 1.34，位階 高基期。"}]},{"code":"5876","name":"上海商銀","close":42,"percent":-0.11890425200407687,"tradeVolume":13637.655,"avgVolume5":15537.39,"value":0,"swingScore":94,"score":94,"swingZone":"B","swingStage":{"label":"高基期","ratio":"0.83","tone":"high","value":0.8260870646889943},"swingSignals":[{"id":"watch_trend","title":"","short":"B觀察","icon":"B","reason":"趨勢轉強但尚未觸發突破買點；趨勢分 7/8，量比 0.96，位階 高基期。"}]},{"code":"6901","name":"鑽石投資","close":16.049999237060547,"percent":-0.3105661069842485,"tradeVolume":3032.343,"avgVolume5":6277.52,"value":0,"swingScore":94,"score":94,"swingZone":"B","swingStage":{"label":"高基期","ratio":"0.77","tone":"high","value":0.769230614047073},"swingSignals":[{"id":"watch_trend","title":"","short":"B觀察","icon":"B","reason":"趨勢轉強但尚未觸發突破買點；趨勢分 7/8，量比 1.00，位階 高基期。"}]},{"code":"8105","name":"凌巨","close":20.450000762939453,"percent":-1.2077294240857765,"tradeVolume":17379.142,"avgVolume5":24956.17,"value":0,"swingScore":94,"score":94,"swingZone":"B","swingStage":{"label":"高基期","ratio":"0.84","tone":"high","value":0.8369565352600318},"swingSignals":[{"id":"watch_trend","title":"","short":"B觀察","icon":"B","reason":"趨勢轉強但尚未觸發突破買點；趨勢分 7/8，量比 1.01，位階 高基期。"}]}]}
