{"ok":true,"source":"strategy4-preset","updatedAt":"2026-06-09T06:53:44.896Z","scanStamp":"20260609","total":1953,"complete":true,"zone":"B","page":19,"pageSize":25,"totalPages":26,"totalCount":630,"count":25,"matches":[{"code":"2538","name":"基泰","close":9.99,"percent":-0.09999999999999788,"tradeVolume":451,"value":4505490,"swingScore":81,"score":81,"swingZone":"B","swingStage":{"label":"高基期","ratio":"0.79","tone":"high","value":0.7857142857142864},"swingSignals":[{"id":"watch_trend","title":"","short":"B觀察","icon":"B","reason":"趨勢轉強但尚未觸發突破買點；趨勢分 6/8，量比 0.00，位階 高基期。"}]},{"code":"2601","name":"益航","close":5.88,"percent":-0.1697792869269913,"tradeVolume":2018,"value":11865840,"swingScore":81,"score":81,"swingZone":"B","swingStage":{"label":"中位階","ratio":"0.54","tone":"mid","value":0.5388127853881278},"swingSignals":[{"id":"watch_trend","title":"","short":"B觀察","icon":"B","reason":"趨勢轉強但尚未觸發突破買點；趨勢分 5/8，量比 0.00，位階 中位階。"}]},{"code":"2387","name":"精元","close":41.55,"percent":-0.24009603841536956,"tradeVolume":692,"value":28752600,"swingScore":81,"score":81,"swingZone":"B","swingStage":{"label":"中位階","ratio":"0.61","tone":"mid","value":0.6115702479338839},"swingSignals":[{"id":"watch_trend","title":"","short":"B觀察","icon":"B","reason":"趨勢轉強但尚未觸發突破買點；趨勢分 5/8，量比 0.00，位階 中位階。"}]},{"code":"2442","name":"新美齊","close":19.5,"percent":-0.25575447570332843,"tradeVolume":2216,"value":43212000,"swingScore":81,"score":81,"swingZone":"B","swingStage":{"label":"高基期","ratio":"0.65","tone":"high","value":0.6530612244897958},"swingSignals":[{"id":"watch_trend","title":"","short":"B觀察","icon":"B","reason":"趨勢轉強但尚未觸發突破買點；趨勢分 6/8，量比 0.00，位階 高基期。"}]},{"code":"2739","name":"寒舍","close":35.7,"percent":-0.27932960893853165,"tradeVolume":101,"value":3605700,"swingScore":81,"score":81,"swingZone":"B","swingStage":{"label":"高基期","ratio":"0.62","tone":"high","value":0.6212121212121217},"swingSignals":[{"id":"watch_trend","title":"","short":"B觀察","icon":"B","reason":"趨勢轉強但尚未觸發突破買點；趨勢分 6/8，量比 0.00，位階 高基期。"}]},{"code":"1710","name":"東聯","close":14.65,"percent":-0.3401360544217614,"tradeVolume":8906,"value":130472900,"swingScore":81,"score":81,"swingZone":"B","swingStage":{"label":"高基期","ratio":"0.62","tone":"high","value":0.6213592233009708},"swingSignals":[{"id":"watch_trend","title":"","short":"B觀察","icon":"B","reason":"趨勢轉強但尚未觸發突破買點；趨勢分 6/8，量比 0.00，位階 高基期。"}]},{"code":"1456","name":"怡華","close":14,"percent":-0.3558718861210015,"tradeVolume":70,"value":980000,"swingScore":81,"score":81,"swingZone":"B","swingStage":{"label":"高基期","ratio":"0.63","tone":"high","value":0.6333333333333334},"swingSignals":[{"id":"watch_trend","title":"","short":"B觀察","icon":"B","reason":"趨勢轉強但尚未觸發突破買點；趨勢分 6/8，量比 0.00，位階 高基期。"}]},{"code":"2324","name":"仁寶","close":38.45,"percent":-0.3886010362694264,"tradeVolume":161367,"value":6204561150,"swingScore":81,"score":81,"swingZone":"B","swingStage":{"label":"中位階","ratio":"0.56","tone":"mid","value":0.5550239234449762},"swingSignals":[{"id":"watch_trend","title":"","short":"B觀察","icon":"B","reason":"趨勢轉強但尚未觸發突破買點；趨勢分 5/8，量比 0.00，位階 中位階。"}]},{"code":"6763","name":"綠界科技*","close":48.8,"percent":-0.40816326530612823,"tradeVolume":2693,"value":131418400,"swingScore":81,"score":81,"swingZone":"B","swingStage":{"label":"高基期","ratio":"0.70","tone":"high","value":0.6966292134831457},"swingSignals":[{"id":"watch_trend","title":"","short":"B觀察","icon":"B","reason":"趨勢轉強但尚未觸發突破買點；趨勢分 6/8，量比 0.00，位階 高基期。"}]},{"code":"1723","name":"中碳","close":83.8,"percent":-0.5931198102016607,"tradeVolume":790,"value":66202000,"swingScore":81,"score":81,"swingZone":"B","swingStage":{"label":"高基期","ratio":"0.69","tone":"high","value":0.6862745098039214},"swingSignals":[{"id":"watch_trend","title":"","short":"B觀察","icon":"B","reason":"趨勢轉強但尚未觸發突破買點；趨勢分 6/8，量比 0.00，位階 高基期。"}]},{"code":"3376","name":"新日興","close":235,"percent":-0.6342494714587738,"tradeVolume":33803,"value":7943705000,"swingScore":81,"score":81,"swingZone":"B","swingStage":{"label":"高基期","ratio":"0.76","tone":"high","value":0.7622950819672131},"swingSignals":[{"id":"watch_trend","title":"","short":"B觀察","icon":"B","reason":"趨勢轉強但尚未觸發突破買點；趨勢分 6/8，量比 0.00，位階 高基期。"}]},{"code":"3015","name":"全漢","close":61.7,"percent":-0.6441223832528157,"tradeVolume":4783,"value":295111100,"swingScore":81,"score":81,"swingZone":"B","swingStage":{"label":"高基期","ratio":"0.64","tone":"high","value":0.6435643564356435},"swingSignals":[{"id":"watch_trend","title":"","short":"B觀察","icon":"B","reason":"趨勢轉強但尚未觸發突破買點；趨勢分 6/8，量比 0.00，位階 高基期。"}]},{"code":"2247","name":"汎德永業","close":226.5,"percent":-0.6578947368421052,"tradeVolume":103,"value":23329500,"swingScore":81,"score":81,"swingZone":"B","swingStage":{"label":"高基期","ratio":"0.63","tone":"high","value":0.6282051282051282},"swingSignals":[{"id":"watch_trend","title":"","short":"B觀察","icon":"B","reason":"趨勢轉強但尚未觸發突破買點；趨勢分 6/8，量比 0.00，位階 高基期。"}]},{"code":"7709","name":"榮田","close":116,"percent":-0.8547008547008548,"tradeVolume":247,"value":28652000,"swingScore":81,"score":81,"swingZone":"B","swingStage":{"label":"中位階","ratio":"0.61","tone":"mid","value":0.6089743589743589},"swingSignals":[{"id":"watch_trend","title":"","short":"B觀察","icon":"B","reason":"趨勢轉強但尚未觸發突破買點；趨勢分 5/8，量比 0.00，位階 中位階。"}]},{"code":"6689","name":"伊雲谷","close":70.5,"percent":-0.9831460674157343,"tradeVolume":223,"value":15721500,"swingScore":81,"score":81,"swingZone":"B","swingStage":{"label":"中位階","ratio":"0.50","tone":"mid","value":0.5000000000000002},"swingSignals":[{"id":"watch_trend","title":"","short":"B觀察","icon":"B","reason":"趨勢轉強但尚未觸發突破買點；趨勢分 5/8，量比 0.00，位階 中位階。"}]},{"code":"9103","name":"美德醫療-DR","close":6,"percent":-0.9900990099009837,"tradeVolume":5140,"value":30840000,"swingScore":81,"score":81,"swingZone":"B","swingStage":{"label":"高基期","ratio":"0.72","tone":"high","value":0.7164179104477612},"swingSignals":[{"id":"watch_trend","title":"","short":"B觀察","icon":"B","reason":"趨勢轉強但尚未觸發突破買點；趨勢分 6/8，量比 0.00，位階 高基期。"}]},{"code":"3232","name":"昱捷","close":23.5,"percent":-1.0526315789473684,"tradeVolume":52,"value":1222000,"swingScore":81,"score":81,"swingZone":"B","swingStage":{"label":"高基期","ratio":"0.66","tone":"high","value":0.6632653061224492},"swingSignals":[{"id":"watch_trend","title":"","short":"B觀察","icon":"B","reason":"趨勢轉強但尚未觸發突破買點；趨勢分 6/8，量比 0.00，位階 高基期。"}]},{"code":"1440","name":"南紡","close":13.25,"percent":-1.1194029850746294,"tradeVolume":4680,"value":62010000,"swingScore":81,"score":81,"swingZone":"B","swingStage":{"label":"中位階","ratio":"0.43","tone":"mid","value":0.4347826086956522},"swingSignals":[{"id":"watch_trend","title":"","short":"B觀察","icon":"B","reason":"趨勢轉強但尚未觸發突破買點；趨勢分 5/8，量比 0.00，位階 中位階。"}]},{"code":"3607","name":"谷崧","close":16.6,"percent":-1.1904761904761862,"tradeVolume":1004,"value":16666400,"swingScore":81,"score":81,"swingZone":"B","swingStage":{"label":"中位階","ratio":"0.48","tone":"mid","value":0.4824561403508774},"swingSignals":[{"id":"watch_trend","title":"","short":"B觀察","icon":"B","reason":"趨勢轉強但尚未觸發突破買點；趨勢分 5/8，量比 0.00，位階 中位階。"}]},{"code":"9934","name":"成霖","close":10.6,"percent":-1.3953488372093057,"tradeVolume":2430,"value":25758000,"swingScore":81,"score":81,"swingZone":"B","swingStage":{"label":"高基期","ratio":"0.70","tone":"high","value":0.7021276595744678},"swingSignals":[{"id":"watch_trend","title":"","short":"B觀察","icon":"B","reason":"趨勢轉強但尚未觸發突破買點；趨勢分 6/8，量比 0.00，位階 高基期。"}]},{"code":"3207","name":"耀勝","close":65.4,"percent":-1.8018018018017847,"tradeVolume":931,"value":60887400,"swingScore":81,"score":81,"swingZone":"B","swingStage":{"label":"中位階","ratio":"0.54","tone":"mid","value":0.5427135678391962},"swingSignals":[{"id":"watch_trend","title":"","short":"B觀察","icon":"B","reason":"趨勢轉強但尚未觸發突破買點；趨勢分 5/8，量比 0.00，位階 中位階。"}]},{"code":"1314","name":"中石化","close":7.78,"percent":-2.0151133501259464,"tradeVolume":37325,"value":290388500,"swingScore":81,"score":81,"swingZone":"B","swingStage":{"label":"高基期","ratio":"0.63","tone":"high","value":0.6264367816091956},"swingSignals":[{"id":"watch_trend","title":"","short":"B觀察","icon":"B","reason":"趨勢轉強但尚未觸發突破買點；趨勢分 6/8，量比 0.00，位階 高基期。"}]},{"code":"6698","name":"旭暉應材","close":40.3,"percent":-2.1844660194174894,"tradeVolume":1296,"value":52228800,"swingScore":81,"score":81,"swingZone":"B","swingStage":{"label":"中位階","ratio":"0.60","tone":"mid","value":0.5977653631284914},"swingSignals":[{"id":"watch_trend","title":"","short":"B觀察","icon":"B","reason":"趨勢轉強但尚未觸發突破買點；趨勢分 5/8，量比 0.00，位階 中位階。"}]},{"code":"1810","name":"和成","close":21.5,"percent":-2.272727272727273,"tradeVolume":8284,"value":178106000,"swingScore":81,"score":81,"swingZone":"B","swingStage":{"label":"高基期","ratio":"0.74","tone":"high","value":0.7435897435897436},"swingSignals":[{"id":"watch_trend","title":"","short":"B觀察","icon":"B","reason":"趨勢轉強但尚未觸發突破買點；趨勢分 6/8，量比 0.00，位階 高基期。"}]},{"code":"6140","name":"訊達","close":23.45,"percent":-2.2916666666666696,"tradeVolume":632,"value":14820400,"swingScore":81,"score":81,"swingZone":"B","swingStage":{"label":"高基期","ratio":"0.70","tone":"high","value":0.7034883720930232},"swingSignals":[{"id":"watch_trend","title":"","short":"B觀察","icon":"B","reason":"趨勢轉強但尚未觸發突破買點；趨勢分 6/8，量比 0.00，位階 高基期。"}]}]}
