{"ok":true,"source":"strategy4-preset","updatedAt":"2026-06-06T12:34:51.971Z","scanStamp":"20260606","total":1957,"complete":true,"zone":"B","page":9,"pageSize":25,"totalPages":41,"totalCount":1020,"count":25,"matches":[{"code":"1580","name":"新麥","close":127,"percent":-0.39215686274509803,"tradeVolume":66,"value":8382000,"swingScore":90,"score":90,"swingZone":"B","swingStage":{"label":"高基期","ratio":"0.81","tone":"high","value":0.8125},"swingSignals":[{"id":"watch_trend","title":"","short":"B觀察","icon":"B","reason":"趨勢轉強但尚未觸發突破買點；趨勢分 6/8，量比 0.85，位階 高基期。"}]},{"code":"6904","name":"伯鑫","close":117.5,"percent":-0.423728813559322,"tradeVolume":1,"value":117500,"swingScore":90,"score":90,"swingZone":"B","swingStage":{"label":"中位階","ratio":"0.39","tone":"mid","value":0.39285714285714285},"swingSignals":[{"id":"watch_trend","title":"","short":"B觀察","icon":"B","reason":"趨勢轉強但尚未觸發突破買點；趨勢分 6/8，量比 0.21，位階 中位階。"}]},{"code":"4120","name":"友華","close":45.7,"percent":-0.652173913043472,"tradeVolume":15,"value":685500,"swingScore":90,"score":90,"swingZone":"B","swingStage":{"label":"中位階","ratio":"0.43","tone":"mid","value":0.43298969072164967},"swingSignals":[{"id":"watch_trend","title":"","short":"B觀察","icon":"B","reason":"趨勢轉強但尚未觸發突破買點；趨勢分 6/8，量比 0.31，位階 中位階。"}]},{"code":"6506","name":"雙邦","close":20.3,"percent":-1.4563106796116538,"tradeVolume":259,"value":5257700,"swingScore":90,"score":90,"swingZone":"B","swingStage":{"label":"高基期","ratio":"0.78","tone":"high","value":0.7849462365591399},"swingSignals":[{"id":"watch_trend","title":"","short":"B觀察","icon":"B","reason":"趨勢轉強但尚未觸發突破買點；趨勢分 6/8，量比 0.63，位階 高基期。"}]},{"code":"3691","name":"碩禾","close":160,"percent":-2.735562310030395,"tradeVolume":3490,"value":558400000,"swingScore":90,"score":90,"swingZone":"B","swingStage":{"label":"高基期","ratio":"0.79","tone":"high","value":0.7891156462585034},"swingSignals":[{"id":"watch_trend","title":"","short":"B觀察","icon":"B","reason":"趨勢轉強但尚未觸發突破買點；趨勢分 6/8，量比 0.84，位階 高基期。"}]},{"code":"8096","name":"擎亞","close":128.5,"percent":-5.514705882352941,"tradeVolume":15722,"value":2020277000,"swingScore":90,"score":90,"swingZone":"B","swingStage":{"label":"高基期","ratio":"0.72","tone":"high","value":0.7231543624161073},"swingSignals":[{"id":"watch_trend","title":"","short":"B觀察","icon":"B","reason":"趨勢轉強但尚未觸發突破買點；趨勢分 6/8，量比 0.87，位階 高基期。"}]},{"code":"1477","name":"聚陽","close":228,"percent":7.801418439716312,"tradeVolume":2389,"value":544692000,"swingScore":89,"score":89,"swingZone":"B","swingStage":{"label":"低基期","ratio":"0.18","tone":"low","value":0.17647058823529413},"swingSignals":[{"id":"watch_trend","title":"","short":"B觀察","icon":"B","reason":"趨勢轉強但尚未觸發突破買點；趨勢分 6/8，量比 0.00，位階 低基期。"}]},{"code":"3232","name":"昱捷","close":23.6,"percent":2.6086956521739193,"tradeVolume":154,"value":3634400,"swingScore":89,"score":89,"swingZone":"B","swingStage":{"label":"高基期","ratio":"0.68","tone":"high","value":0.6836734693877556},"swingSignals":[{"id":"watch_trend","title":"","short":"B觀察","icon":"B","reason":"趨勢轉強但尚未觸發突破買點；趨勢分 6/8，量比 0.81，位階 高基期。"}]},{"code":"8478","name":"東哥遊艇","close":162.5,"percent":2.20125786163522,"tradeVolume":610,"value":99125000,"swingScore":89,"score":89,"swingZone":"B","swingStage":{"label":"低基期","ratio":"0.38","tone":"low","value":0.375},"swingSignals":[{"id":"watch_trend","title":"","short":"B觀察","icon":"B","reason":"趨勢轉強但尚未觸發突破買點；趨勢分 6/8，量比 0.00，位階 低基期。"}]},{"code":"2722","name":"夏都","close":23.35,"percent":0.8639308855291701,"tradeVolume":122,"value":2848700,"swingScore":89,"score":89,"swingZone":"B","swingStage":{"label":"低基期","ratio":"0.28","tone":"low","value":0.2758620689655178},"swingSignals":[{"id":"watch_trend","title":"","short":"B觀察","icon":"B","reason":"趨勢轉強但尚未觸發突破買點；趨勢分 6/8，量比 0.00，位階 低基期。"}]},{"code":"5608","name":"四維航","close":15.05,"percent":0.6688963210702437,"tradeVolume":2718,"value":40905900,"swingScore":89,"score":89,"swingZone":"B","swingStage":{"label":"低基期","ratio":"0.36","tone":"low","value":0.3620689655172418},"swingSignals":[{"id":"watch_trend","title":"","short":"B觀察","icon":"B","reason":"趨勢轉強但尚未觸發突破買點；趨勢分 6/8，量比 0.00，位階 低基期。"}]},{"code":"2736","name":"富野","close":12.35,"percent":0.4065040650406417,"tradeVolume":63,"value":778050,"swingScore":89,"score":89,"swingZone":"B","swingStage":{"label":"低基期","ratio":"0.20","tone":"low","value":0.19718309859154914},"swingSignals":[{"id":"watch_trend","title":"","short":"B觀察","icon":"B","reason":"趨勢轉強但尚未觸發突破買點；趨勢分 6/8，量比 0.00，位階 低基期。"}]},{"code":"6154","name":"順發","close":13.9,"percent":0.3610108303249149,"tradeVolume":58,"value":806200,"swingScore":89,"score":89,"swingZone":"B","swingStage":{"label":"高基期","ratio":"0.96","tone":"high","value":0.9583333333333341},"swingSignals":[{"id":"watch_trend","title":"","short":"B觀察","icon":"B","reason":"趨勢轉強但尚未觸發突破買點；趨勢分 6/8，量比 0.71，位階 高基期。"}]},{"code":"2066","name":"世德","close":59,"percent":0.3401360544217735,"tradeVolume":105,"value":6195000,"swingScore":89,"score":89,"swingZone":"B","swingStage":{"label":"高基期","ratio":"0.88","tone":"high","value":0.8839779005524862},"swingSignals":[{"id":"watch_trend","title":"","short":"B觀察","icon":"B","reason":"趨勢轉強但尚未觸發突破買點；趨勢分 6/8，量比 0.48，位階 高基期。"}]},{"code":"6782","name":"視陽","close":200.5,"percent":0.25,"tradeVolume":277,"value":55538500,"swingScore":89,"score":89,"swingZone":"B","swingStage":{"label":"低基期","ratio":"0.25","tone":"low","value":0.25},"swingSignals":[{"id":"watch_trend","title":"","short":"B觀察","icon":"B","reason":"趨勢轉強但尚未觸發突破買點；趨勢分 6/8，量比 0.00，位階 低基期。"}]},{"code":"6625","name":"必應","close":74.7,"percent":0.000004085351994668299,"tradeVolume":135,"value":10084500,"swingScore":89,"score":89,"swingZone":"B","swingStage":{"label":"低基期","ratio":"0.27","tone":"low","value":0.26724154600492644},"swingSignals":[{"id":"watch_trend","title":"","short":"B觀察","icon":"B","reason":"趨勢轉強但尚未觸發突破買點；趨勢分 6/8，量比 0.00，位階 低基期。"}]},{"code":"1219","name":"福壽","close":13,"percent":0,"tradeVolume":1015,"value":13195000,"swingScore":89,"score":89,"swingZone":"B","swingStage":{"label":"低基期","ratio":"0.27","tone":"low","value":0.2745098039215685},"swingSignals":[{"id":"watch_trend","title":"","short":"B觀察","icon":"B","reason":"趨勢轉強但尚未觸發突破買點；趨勢分 6/8，量比 0.00，位階 低基期。"}]},{"code":"6486","name":"互動","close":83.2,"percent":0,"tradeVolume":153,"value":12729600,"swingScore":89,"score":89,"swingZone":"B","swingStage":{"label":"低基期","ratio":"0.29","tone":"low","value":0.289719626168225},"swingSignals":[{"id":"watch_trend","title":"","short":"B觀察","icon":"B","reason":"趨勢轉強但尚未觸發突破買點；趨勢分 6/8，量比 0.00，位階 低基期。"}]},{"code":"1294","name":"漢田生技","close":78.6,"percent":-0.1270648030495661,"tradeVolume":51,"value":4008600,"swingScore":89,"score":89,"swingZone":"B","swingStage":{"label":"低基期","ratio":"0.35","tone":"low","value":0.3513513513513503},"swingSignals":[{"id":"watch_trend","title":"","short":"B觀察","icon":"B","reason":"趨勢轉強但尚未觸發突破買點；趨勢分 6/8，量比 0.00，位階 低基期。"}]},{"code":"9924","name":"福興","close":43.2,"percent":-0.23094688221707696,"tradeVolume":181,"value":7819200,"swingScore":89,"score":89,"swingZone":"B","swingStage":{"label":"低基期","ratio":"0.37","tone":"low","value":0.3720930232558145},"swingSignals":[{"id":"watch_trend","title":"","short":"B觀察","icon":"B","reason":"趨勢轉強但尚未觸發突破買點；趨勢分 6/8，量比 0.00，位階 低基期。"}]},{"code":"5009","name":"榮剛","close":37.25,"percent":-0.2677376171352113,"tradeVolume":3090,"value":115102500,"swingScore":89,"score":89,"swingZone":"B","swingStage":{"label":"高基期","ratio":"0.65","tone":"high","value":0.6492890995260662},"swingSignals":[{"id":"watch_trend","title":"","short":"B觀察","icon":"B","reason":"趨勢轉強但尚未觸發突破買點；趨勢分 6/8，量比 0.55，位階 高基期。"}]},{"code":"2705","name":"六福","close":15.7,"percent":-0.317460317460322,"tradeVolume":251,"value":3940700,"swingScore":89,"score":89,"swingZone":"B","swingStage":{"label":"低基期","ratio":"0.24","tone":"low","value":0.24242424242424218},"swingSignals":[{"id":"watch_trend","title":"","short":"B觀察","icon":"B","reason":"趨勢轉強但尚未觸發突破買點；趨勢分 6/8，量比 0.00，位階 低基期。"}]},{"code":"3085","name":"新零售","close":12.8,"percent":-0.3891050583657505,"tradeVolume":4,"value":51200,"swingScore":89,"score":89,"swingZone":"B","swingStage":{"label":"中位階","ratio":"0.55","tone":"mid","value":0.548387096774194},"swingSignals":[{"id":"watch_trend","title":"","short":"B觀察","icon":"B","reason":"趨勢轉強但尚未觸發突破買點；趨勢分 6/8，量比 0.11，位階 中位階。"}]},{"code":"4164","name":"承業醫","close":30.05,"percent":-0.4966912554635724,"tradeVolume":878,"value":26383900,"swingScore":89,"score":89,"swingZone":"B","swingStage":{"label":"低基期","ratio":"0.33","tone":"low","value":0.33333325626874666},"swingSignals":[{"id":"watch_trend","title":"","short":"B觀察","icon":"B","reason":"趨勢轉強但尚未觸發突破買點；趨勢分 6/8，量比 0.00，位階 低基期。"}]},{"code":"1201","name":"味全","close":12.45,"percent":-0.7968127490039953,"tradeVolume":408,"value":5079600,"swingScore":89,"score":89,"swingZone":"B","swingStage":{"label":"低基期","ratio":"0.35","tone":"low","value":0.35483870967741893},"swingSignals":[{"id":"watch_trend","title":"","short":"B觀察","icon":"B","reason":"趨勢轉強但尚未觸發突破買點；趨勢分 6/8，量比 0.00，位階 低基期。"}]}]}
