{"ok":true,"updatedAt":"2026-06-18T10:18:43.130Z","scanStamp":"20260618","source":"strategy4-score-page","page":1,"pageSize":25,"totalPages":5,"totalCount":120,"count":25,"rows":[{"code":"8088","name":"品安","close":69.2,"percent":20.347826086956527,"tradeVolume":18164.915,"avgVolume5":6197.78,"value":1236964772,"swingScore":100,"score":100,"swingZone":"A","swingStage":{"label":"高基期","ratio":"0.96","tone":"high","value":0.9648241206030149},"swingSignals":[{"id":"bull_attack","title":"","short":"攻擊","icon":"🔥","reason":"站上MA20/EMA21，MACD多頭，量比 2.41，日K多頭攻擊。"},{"id":"saucer","title":"","short":"圓弧","icon":"◜","reason":"突破40日整理頸線，量能放大，偏圓弧底突破。"},{"id":"breakaway_gap","title":"","short":"突破缺口","icon":"◆","reason":"跳空突破近20日整理高點，偏突破缺口。"}]},{"code":"3090","name":"日電貿","close":332,"percent":17.939609236234457,"tradeVolume":23253,"avgVolume5":17442.1,"value":7719996000,"swingScore":100,"score":100,"swingZone":"A","swingStage":{"label":"高基期","ratio":"1.00","tone":"high","value":0.9979140592407175},"swingSignals":[{"id":"saucer","title":"","short":"圓弧","icon":"◜","reason":"突破40日整理頸線，量能放大，偏圓弧底突破。"},{"id":"breakaway_gap","title":"","short":"突破缺口","icon":"◆","reason":"跳空突破近20日整理高點，偏突破缺口。"},{"id":"wallet_volume_cross","title":"紅色三角形","short":"量叉","icon":"🔺","reason":"主力爸爸錢包量能紅K交叉（2026-06-11）：5日資金量均線 14,171 上穿 60日 5,487。"}]},{"code":"3317","name":"尼克森","close":88.3,"percent":17.420212765957437,"tradeVolume":11502.048,"avgVolume5":5270.34,"value":1011567426,"swingScore":100,"score":100,"swingZone":"A","swingStage":{"label":"過熱","ratio":"1.00+","tone":"hot","value":1},"swingSignals":[{"id":"saucer","title":"","short":"圓弧","icon":"◜","reason":"突破40日整理頸線，量能放大，偏圓弧底突破。"},{"id":"breakaway_gap","title":"","short":"突破缺口","icon":"◆","reason":"跳空突破近20日整理高點，偏突破缺口。"},{"id":"wallet_volume_cross","title":"紅色三角形","short":"量叉","icon":"🔺","reason":"主力爸爸錢包量能紅K交叉（2026-06-18）：5日資金量均線 3,779 上穿 60日 2,402。"}]},{"code":"3441","name":"聯一光","close":92.3,"percent":15.519399249061314,"tradeVolume":14141.506,"avgVolume5":14651.1,"value":1296888342,"swingScore":100,"score":100,"swingZone":"A","swingStage":{"label":"高基期","ratio":"0.97","tone":"high","value":0.9722448979591837},"swingSignals":[{"id":"bull_attack","title":"","short":"攻擊","icon":"🔥","reason":"站上MA20/EMA21，MACD多頭，量比 2.07，日K多頭攻擊。"},{"id":"saucer","title":"","short":"圓弧","icon":"◜","reason":"突破40日整理頸線，量能放大，偏圓弧底突破。"},{"id":"breakaway_gap","title":"","short":"突破缺口","icon":"◆","reason":"跳空突破近20日整理高點，偏突破缺口。"}]},{"code":"2342","name":"茂矽","close":55.2,"percent":14.880332986472435,"tradeVolume":29088,"avgVolume5":13432.71,"value":1605657600,"swingScore":100,"score":100,"swingZone":"A","swingStage":{"label":"過熱","ratio":"1.00+","tone":"hot","value":1},"swingSignals":[{"id":"wallet_strong_buy","title":"多方寶石","short":"主力多","icon":"◆","reason":"主力爸爸錢包多方寶石（2026-06-09）：控盤線由負翻正且日K收紅。"}]},{"code":"6919","name":"康霈*","close":109,"percent":13.660062565172048,"tradeVolume":53011,"avgVolume5":12655.59,"value":5778199000,"swingScore":100,"score":100,"swingZone":"A","swingStage":{"label":"高基期","ratio":"0.69","tone":"high","value":0.6875},"swingSignals":[{"id":"runaway_gap","title":"","short":"逃逸缺口","icon":"🚀","reason":"跳空且站上MA20，多頭段延續，偏逃逸缺口。"}]},{"code":"3537","name":"堡達","close":89.6,"percent":13.561470215462595,"tradeVolume":12342.744,"avgVolume5":6398.15,"value":1072902335,"swingScore":100,"score":100,"swingZone":"A","swingStage":{"label":"過熱","ratio":"1.00+","tone":"hot","value":1},"swingSignals":[{"id":"saucer","title":"","short":"圓弧","icon":"◜","reason":"突破40日整理頸線，量能放大，偏圓弧底突破。"},{"id":"breakaway_gap","title":"","short":"突破缺口","icon":"◆","reason":"跳空突破近20日整理高點，偏突破缺口。"},{"id":"golden_cross","title":"","short":"金釵","icon":"✦","reason":"MA5 > MA10 > MA20 且收紅，多金釵候選。"}]},{"code":"8121","name":"越峰","close":53.4,"percent":10.78838174273858,"tradeVolume":5986.997,"avgVolume5":5535.23,"value":313489692,"swingScore":100,"score":100,"swingZone":"A","swingStage":{"label":"高基期","ratio":"0.96","tone":"high","value":0.958477508650519},"swingSignals":[{"id":"breakaway_gap","title":"","short":"突破缺口","icon":"◆","reason":"跳空突破近20日整理高點，偏突破缺口。"},{"id":"wallet_volume_cross","title":"紅色三角形","short":"量叉","icon":"🔺","reason":"主力爸爸錢包量能紅K交叉（2026-06-08）：5日資金量均線 1,813 上穿 60日 927。"}]},{"code":"2332","name":"友訊","close":18.25,"percent":10.606060606060606,"tradeVolume":34963,"avgVolume5":10692.54,"value":638074750,"swingScore":100,"score":100,"swingZone":"A","swingStage":{"label":"過熱","ratio":"1.00+","tone":"hot","value":1},"swingSignals":[{"id":"saucer","title":"","short":"圓弧","icon":"◜","reason":"突破40日整理頸線，量能放大，偏圓弧底突破。"},{"id":"breakaway_gap","title":"","short":"突破缺口","icon":"◆","reason":"跳空突破近20日整理高點，偏突破缺口。"},{"id":"golden_cross","title":"","short":"金釵","icon":"✦","reason":"MA5 > MA10 > MA20 且收紅，多金釵候選。"},{"id":"wallet_strong_buy","title":"多方寶石","short":"主力多","icon":"◆","reason":"主力爸爸錢包多方寶石（2026-06-16）：控盤線由負翻正且日K收紅。"}]},{"code":"5328","name":"華容","close":56.5,"percent":10.351562499999995,"tradeVolume":43105.068,"avgVolume5":35913.97,"value":2372006907,"swingScore":100,"score":100,"swingZone":"A","swingStage":{"label":"過熱","ratio":"1.00+","tone":"hot","value":1},"swingSignals":[{"id":"bull_attack","title":"","short":"攻擊","icon":"🔥","reason":"站上MA20/EMA21，MACD多頭，量比 1.46，日K多頭攻擊。"},{"id":"saucer","title":"","short":"圓弧","icon":"◜","reason":"突破40日整理頸線，量能放大，偏圓弧底突破。"},{"id":"breakaway_gap","title":"","short":"突破缺口","icon":"◆","reason":"跳空突破近20日整理高點，偏突破缺口。"}]},{"code":"1714","name":"和桐","close":20.5,"percent":10.215053763440851,"tradeVolume":23897,"avgVolume5":24919.61,"value":489888500,"swingScore":100,"score":100,"swingZone":"A","swingStage":{"label":"高基期","ratio":"0.98","tone":"high","value":0.9828767123287672},"swingSignals":[{"id":"bull_attack","title":"","short":"攻擊","icon":"🔥","reason":"站上MA20/EMA21，MACD多頭，量比 1.41，日K多頭攻擊。"},{"id":"n_base","title":"","short":"N字","icon":"","reason":"爆量突破後回檔不破半分位，再突破前高 19.25，N字共振。"},{"id":"saucer","title":"","short":"圓弧","icon":"◜","reason":"突破40日整理頸線，量能放大，偏圓弧底突破。"},{"id":"breakaway_gap","title":"","short":"突破缺口","icon":"◆","reason":"跳空突破近20日整理高點，偏突破缺口。"}]},{"code":"3047","name":"訊舟","close":16.9,"percent":10.097719869706834,"tradeVolume":5758,"avgVolume5":3898.59,"value":97310200,"swingScore":100,"score":100,"swingZone":"A","swingStage":{"label":"高基期","ratio":"0.81","tone":"high","value":0.8108108108108101},"swingSignals":[{"id":"bull_attack","title":"","short":"攻擊","icon":"🔥","reason":"站上MA20/EMA21，MACD多頭，量比 2.42，日K多頭攻擊。"},{"id":"saucer","title":"","short":"圓弧","icon":"◜","reason":"突破40日整理頸線，量能放大，偏圓弧底突破。"}]},{"code":"3189","name":"景碩","close":706,"percent":9.968847352024921,"tradeVolume":28765,"avgVolume5":20232.33,"value":20308090000,"swingScore":100,"score":100,"swingZone":"A","swingStage":{"label":"高基期","ratio":"0.78","tone":"high","value":0.7834586466165413},"swingSignals":[{"id":"wallet_volume_cross","title":"紅色三角形","short":"量叉","icon":"🔺","reason":"主力爸爸錢包量能紅K交叉（2026-06-17）：5日資金量均線 11,666 上穿 60日 11,212。"}]},{"code":"1905","name":"華紙","close":17.1,"percent":9.967845659163991,"tradeVolume":44051,"avgVolume5":20849.94,"value":753272100,"swingScore":100,"score":100,"swingZone":"A","swingStage":{"label":"高基期","ratio":"0.79","tone":"high","value":0.786764705882353},"swingSignals":[{"id":"breakaway_gap","title":"","short":"突破缺口","icon":"◆","reason":"跳空突破近20日整理高點，偏突破缺口。"}]},{"code":"2426","name":"鼎元","close":81.8,"percent":9.946236559139773,"tradeVolume":38733,"avgVolume5":18637.88,"value":3168359400,"swingScore":100,"score":100,"swingZone":"A","swingStage":{"label":"高基期","ratio":"0.84","tone":"high","value":0.8360655737704917},"swingSignals":[{"id":"saucer","title":"","short":"圓弧","icon":"◜","reason":"突破40日整理頸線，量能放大，偏圓弧底突破。"},{"id":"runaway_gap","title":"","short":"逃逸缺口","icon":"🚀","reason":"跳空且站上MA20，多頭段延續，偏逃逸缺口。"},{"id":"wallet_strong_buy","title":"多方寶石","short":"主力多","icon":"◆","reason":"主力爸爸錢包多方寶石（2026-06-17）：控盤線由負翻正且日K收紅。"},{"id":"wallet_volume_cross","title":"紅色三角形","short":"量叉","icon":"🔺","reason":"主力爸爸錢包量能紅K交叉（2026-06-17）：5日資金量均線 19,926 上穿 60日 8,718。"}]},{"code":"2061","name":"風青","close":52.8,"percent":9.88553590010406,"tradeVolume":6613.185,"avgVolume5":3491.24,"value":343088091,"swingScore":100,"score":100,"swingZone":"A","swingStage":{"label":"過熱","ratio":"1.00+","tone":"hot","value":1},"swingSignals":[{"id":"saucer","title":"","short":"圓弧","icon":"◜","reason":"突破40日整理頸線，量能放大，偏圓弧底突破。"},{"id":"breakaway_gap","title":"","short":"突破缺口","icon":"◆","reason":"跳空突破近20日整理高點，偏突破缺口。"},{"id":"golden_cross","title":"","short":"金釵","icon":"✦","reason":"MA5 > MA10 > MA20 且收紅，多金釵候選。"}]},{"code":"3234","name":"光環","close":145,"percent":9.848484848484848,"tradeVolume":8650.179,"avgVolume5":4195.82,"value":1211149057,"swingScore":100,"score":100,"swingZone":"A","swingStage":{"label":"過熱","ratio":"1.00+","tone":"hot","value":1},"swingSignals":[{"id":"bull_attack","title":"","short":"攻擊","icon":"🔥","reason":"站上MA20/EMA21，MACD多頭，量比 2.19，日K多頭攻擊。"},{"id":"saucer","title":"","short":"圓弧","icon":"◜","reason":"突破40日整理頸線，量能放大，偏圓弧底突破。"},{"id":"wallet_volume_cross","title":"紅色三角形","short":"量叉","icon":"🔺","reason":"主力爸爸錢包量能紅K交叉（2026-06-18）：5日資金量均線 2,548 上穿 60日 1,938。"}]},{"code":"8996","name":"高力","close":1515,"percent":9.782608695652174,"tradeVolume":4284,"avgVolume5":4007.76,"value":6490260000,"swingScore":100,"score":100,"swingZone":"A","swingStage":{"label":"過熱","ratio":"1.00+","tone":"hot","value":1},"swingSignals":[{"id":"wallet_strong_buy","title":"多方寶石","short":"主力多","icon":"◆","reason":"主力爸爸錢包多方寶石（2026-06-08）：控盤線由負翻正且日K收紅。"},{"id":"wallet_volume_cross","title":"紅色三角形","short":"量叉","icon":"🔺","reason":"主力爸爸錢包量能紅K交叉（2026-06-16）：5日資金量均線 2,502 上穿 60日 1,919。"}]},{"code":"6269","name":"台郡","close":79.2,"percent":9.543568464730297,"tradeVolume":20917,"avgVolume5":12480.5,"value":1656626400,"swingScore":100,"score":100,"swingZone":"A","swingStage":{"label":"高基期","ratio":"0.95","tone":"high","value":0.9457364341085275},"swingSignals":[{"id":"bull_attack","title":"","short":"攻擊","icon":"🔥","reason":"站上MA20/EMA21，MACD多頭，量比 2.39，日K多頭攻擊。"},{"id":"saucer","title":"","short":"圓弧","icon":"◜","reason":"突破40日整理頸線，量能放大，偏圓弧底突破。"},{"id":"wallet_strong_buy","title":"多方寶石","short":"主力多","icon":"◆","reason":"主力爸爸錢包多方寶石（2026-06-17）：控盤線由負翻正且日K收紅。"}]},{"code":"3362","name":"先進光","close":211,"percent":8.762886597938143,"tradeVolume":14274.377,"avgVolume5":12232.36,"value":2983397768,"swingScore":100,"score":100,"swingZone":"A","swingStage":{"label":"高基期","ratio":"0.94","tone":"high","value":0.940677966101695},"swingSignals":[{"id":"bull_attack","title":"","short":"攻擊","icon":"🔥","reason":"站上MA20/EMA21，MACD多頭，量比 2.58，日K多頭攻擊。"},{"id":"saucer","title":"","short":"圓弧","icon":"◜","reason":"突破40日整理頸線，量能放大，偏圓弧底突破。"},{"id":"breakaway_gap","title":"","short":"突破缺口","icon":"◆","reason":"跳空突破近20日整理高點，偏突破缺口。"}]},{"code":"2483","name":"百容","close":39.65,"percent":8.333333333333325,"tradeVolume":8923,"avgVolume5":4453.73,"value":353796950,"swingScore":100,"score":100,"swingZone":"A","swingStage":{"label":"過熱","ratio":"1.00+","tone":"hot","value":1},"swingSignals":[{"id":"bull_attack","title":"","short":"攻擊","icon":"🔥","reason":"站上MA20/EMA21，MACD多頭，量比 2.17，日K多頭攻擊。"},{"id":"saucer","title":"","short":"圓弧","icon":"◜","reason":"突破40日整理頸線，量能放大，偏圓弧底突破。"},{"id":"wallet_volume_cross","title":"紅色三角形","short":"量叉","icon":"🔺","reason":"主力爸爸錢包量能紅K交叉（2026-06-11）：5日資金量均線 2,958 上穿 60日 7,734。"}]},{"code":"3060","name":"銘異","close":37.25,"percent":8.284883720930237,"tradeVolume":12358,"avgVolume5":7249.72,"value":460335500,"swingScore":100,"score":100,"swingZone":"A","swingStage":{"label":"過熱","ratio":"1.00+","tone":"hot","value":1},"swingSignals":[{"id":"bull_attack","title":"","short":"攻擊","icon":"🔥","reason":"站上MA20/EMA21，MACD多頭，量比 2.23，日K多頭攻擊。"},{"id":"saucer","title":"","short":"圓弧","icon":"◜","reason":"突破40日整理頸線，量能放大，偏圓弧底突破。"},{"id":"breakaway_gap","title":"","short":"突破缺口","icon":"◆","reason":"跳空突破近20日整理高點，偏突破缺口。"},{"id":"wallet_volume_cross","title":"紅色三角形","short":"量叉","icon":"🔺","reason":"主力爸爸錢包量能紅K交叉（2026-06-17）：5日資金量均線 2,743 上穿 60日 2,404。"}]},{"code":"3450","name":"聯鈞","close":565,"percent":8.030592734225621,"tradeVolume":14487,"avgVolume5":12041.51,"value":8185155000,"swingScore":100,"score":100,"swingZone":"A","swingStage":{"label":"高基期","ratio":"0.88","tone":"high","value":0.8802588996763754},"swingSignals":[{"id":"runaway_gap","title":"","short":"逃逸缺口","icon":"🚀","reason":"跳空且站上MA20，多頭段延續，偏逃逸缺口。"}]},{"code":"1310","name":"台苯","close":9.2,"percent":7.476635514018677,"tradeVolume":10554,"avgVolume5":4187.65,"value":97096800,"swingScore":100,"score":100,"swingZone":"A","swingStage":{"label":"中位階","ratio":"0.61","tone":"mid","value":0.6122448979591832},"swingSignals":[{"id":"bull_attack","title":"","short":"攻擊","icon":"🔥","reason":"站上MA20/EMA21，MACD多頭，量比 2.12，日K多頭攻擊。"},{"id":"runaway_gap","title":"","short":"逃逸缺口","icon":"🚀","reason":"跳空且站上MA20，多頭段延續，偏逃逸缺口。"},{"id":"three_inside","title":"","short":"翻紅","icon":"↻","reason":"三內翻紅結構成立，站上MA20且趨勢確認。"},{"id":"wallet_strong_buy","title":"多方寶石","short":"主力多","icon":"◆","reason":"主力爸爸錢包多方寶石（2026-06-18）：控盤線由負翻正且日K收紅。"}]},{"code":"7788","name":"松川精密","close":275,"percent":7.421875,"tradeVolume":3160,"avgVolume5":4096.34,"value":869000000,"swingScore":100,"score":100,"swingZone":"A","swingStage":{"label":"高基期","ratio":"0.92","tone":"high","value":0.9197080291970803},"swingSignals":[{"id":"wallet_strong_buy","title":"多方寶石","short":"主力多","icon":"◆","reason":"主力爸爸錢包多方寶石（2026-06-05）：控盤線由負翻正且日K收紅。"}]}],"matches":[{"code":"8088","name":"品安","close":69.2,"percent":20.347826086956527,"tradeVolume":18164.915,"avgVolume5":6197.78,"value":1236964772,"swingScore":100,"score":100,"swingZone":"A","swingStage":{"label":"高基期","ratio":"0.96","tone":"high","value":0.9648241206030149},"swingSignals":[{"id":"bull_attack","title":"","short":"攻擊","icon":"🔥","reason":"站上MA20/EMA21，MACD多頭，量比 2.41，日K多頭攻擊。"},{"id":"saucer","title":"","short":"圓弧","icon":"◜","reason":"突破40日整理頸線，量能放大，偏圓弧底突破。"},{"id":"breakaway_gap","title":"","short":"突破缺口","icon":"◆","reason":"跳空突破近20日整理高點，偏突破缺口。"}]},{"code":"3090","name":"日電貿","close":332,"percent":17.939609236234457,"tradeVolume":23253,"avgVolume5":17442.1,"value":7719996000,"swingScore":100,"score":100,"swingZone":"A","swingStage":{"label":"高基期","ratio":"1.00","tone":"high","value":0.9979140592407175},"swingSignals":[{"id":"saucer","title":"","short":"圓弧","icon":"◜","reason":"突破40日整理頸線，量能放大，偏圓弧底突破。"},{"id":"breakaway_gap","title":"","short":"突破缺口","icon":"◆","reason":"跳空突破近20日整理高點，偏突破缺口。"},{"id":"wallet_volume_cross","title":"紅色三角形","short":"量叉","icon":"🔺","reason":"主力爸爸錢包量能紅K交叉（2026-06-11）：5日資金量均線 14,171 上穿 60日 5,487。"}]},{"code":"3317","name":"尼克森","close":88.3,"percent":17.420212765957437,"tradeVolume":11502.048,"avgVolume5":5270.34,"value":1011567426,"swingScore":100,"score":100,"swingZone":"A","swingStage":{"label":"過熱","ratio":"1.00+","tone":"hot","value":1},"swingSignals":[{"id":"saucer","title":"","short":"圓弧","icon":"◜","reason":"突破40日整理頸線，量能放大，偏圓弧底突破。"},{"id":"breakaway_gap","title":"","short":"突破缺口","icon":"◆","reason":"跳空突破近20日整理高點，偏突破缺口。"},{"id":"wallet_volume_cross","title":"紅色三角形","short":"量叉","icon":"🔺","reason":"主力爸爸錢包量能紅K交叉（2026-06-18）：5日資金量均線 3,779 上穿 60日 2,402。"}]},{"code":"3441","name":"聯一光","close":92.3,"percent":15.519399249061314,"tradeVolume":14141.506,"avgVolume5":14651.1,"value":1296888342,"swingScore":100,"score":100,"swingZone":"A","swingStage":{"label":"高基期","ratio":"0.97","tone":"high","value":0.9722448979591837},"swingSignals":[{"id":"bull_attack","title":"","short":"攻擊","icon":"🔥","reason":"站上MA20/EMA21，MACD多頭，量比 2.07，日K多頭攻擊。"},{"id":"saucer","title":"","short":"圓弧","icon":"◜","reason":"突破40日整理頸線，量能放大，偏圓弧底突破。"},{"id":"breakaway_gap","title":"","short":"突破缺口","icon":"◆","reason":"跳空突破近20日整理高點，偏突破缺口。"}]},{"code":"2342","name":"茂矽","close":55.2,"percent":14.880332986472435,"tradeVolume":29088,"avgVolume5":13432.71,"value":1605657600,"swingScore":100,"score":100,"swingZone":"A","swingStage":{"label":"過熱","ratio":"1.00+","tone":"hot","value":1},"swingSignals":[{"id":"wallet_strong_buy","title":"多方寶石","short":"主力多","icon":"◆","reason":"主力爸爸錢包多方寶石（2026-06-09）：控盤線由負翻正且日K收紅。"}]},{"code":"6919","name":"康霈*","close":109,"percent":13.660062565172048,"tradeVolume":53011,"avgVolume5":12655.59,"value":5778199000,"swingScore":100,"score":100,"swingZone":"A","swingStage":{"label":"高基期","ratio":"0.69","tone":"high","value":0.6875},"swingSignals":[{"id":"runaway_gap","title":"","short":"逃逸缺口","icon":"🚀","reason":"跳空且站上MA20，多頭段延續，偏逃逸缺口。"}]},{"code":"3537","name":"堡達","close":89.6,"percent":13.561470215462595,"tradeVolume":12342.744,"avgVolume5":6398.15,"value":1072902335,"swingScore":100,"score":100,"swingZone":"A","swingStage":{"label":"過熱","ratio":"1.00+","tone":"hot","value":1},"swingSignals":[{"id":"saucer","title":"","short":"圓弧","icon":"◜","reason":"突破40日整理頸線，量能放大，偏圓弧底突破。"},{"id":"breakaway_gap","title":"","short":"突破缺口","icon":"◆","reason":"跳空突破近20日整理高點，偏突破缺口。"},{"id":"golden_cross","title":"","short":"金釵","icon":"✦","reason":"MA5 > MA10 > MA20 且收紅，多金釵候選。"}]},{"code":"8121","name":"越峰","close":53.4,"percent":10.78838174273858,"tradeVolume":5986.997,"avgVolume5":5535.23,"value":313489692,"swingScore":100,"score":100,"swingZone":"A","swingStage":{"label":"高基期","ratio":"0.96","tone":"high","value":0.958477508650519},"swingSignals":[{"id":"breakaway_gap","title":"","short":"突破缺口","icon":"◆","reason":"跳空突破近20日整理高點，偏突破缺口。"},{"id":"wallet_volume_cross","title":"紅色三角形","short":"量叉","icon":"🔺","reason":"主力爸爸錢包量能紅K交叉（2026-06-08）：5日資金量均線 1,813 上穿 60日 927。"}]},{"code":"2332","name":"友訊","close":18.25,"percent":10.606060606060606,"tradeVolume":34963,"avgVolume5":10692.54,"value":638074750,"swingScore":100,"score":100,"swingZone":"A","swingStage":{"label":"過熱","ratio":"1.00+","tone":"hot","value":1},"swingSignals":[{"id":"saucer","title":"","short":"圓弧","icon":"◜","reason":"突破40日整理頸線，量能放大，偏圓弧底突破。"},{"id":"breakaway_gap","title":"","short":"突破缺口","icon":"◆","reason":"跳空突破近20日整理高點，偏突破缺口。"},{"id":"golden_cross","title":"","short":"金釵","icon":"✦","reason":"MA5 > MA10 > MA20 且收紅，多金釵候選。"},{"id":"wallet_strong_buy","title":"多方寶石","short":"主力多","icon":"◆","reason":"主力爸爸錢包多方寶石（2026-06-16）：控盤線由負翻正且日K收紅。"}]},{"code":"5328","name":"華容","close":56.5,"percent":10.351562499999995,"tradeVolume":43105.068,"avgVolume5":35913.97,"value":2372006907,"swingScore":100,"score":100,"swingZone":"A","swingStage":{"label":"過熱","ratio":"1.00+","tone":"hot","value":1},"swingSignals":[{"id":"bull_attack","title":"","short":"攻擊","icon":"🔥","reason":"站上MA20/EMA21，MACD多頭，量比 1.46，日K多頭攻擊。"},{"id":"saucer","title":"","short":"圓弧","icon":"◜","reason":"突破40日整理頸線，量能放大，偏圓弧底突破。"},{"id":"breakaway_gap","title":"","short":"突破缺口","icon":"◆","reason":"跳空突破近20日整理高點，偏突破缺口。"}]},{"code":"1714","name":"和桐","close":20.5,"percent":10.215053763440851,"tradeVolume":23897,"avgVolume5":24919.61,"value":489888500,"swingScore":100,"score":100,"swingZone":"A","swingStage":{"label":"高基期","ratio":"0.98","tone":"high","value":0.9828767123287672},"swingSignals":[{"id":"bull_attack","title":"","short":"攻擊","icon":"🔥","reason":"站上MA20/EMA21，MACD多頭，量比 1.41，日K多頭攻擊。"},{"id":"n_base","title":"","short":"N字","icon":"","reason":"爆量突破後回檔不破半分位，再突破前高 19.25，N字共振。"},{"id":"saucer","title":"","short":"圓弧","icon":"◜","reason":"突破40日整理頸線，量能放大，偏圓弧底突破。"},{"id":"breakaway_gap","title":"","short":"突破缺口","icon":"◆","reason":"跳空突破近20日整理高點，偏突破缺口。"}]},{"code":"3047","name":"訊舟","close":16.9,"percent":10.097719869706834,"tradeVolume":5758,"avgVolume5":3898.59,"value":97310200,"swingScore":100,"score":100,"swingZone":"A","swingStage":{"label":"高基期","ratio":"0.81","tone":"high","value":0.8108108108108101},"swingSignals":[{"id":"bull_attack","title":"","short":"攻擊","icon":"🔥","reason":"站上MA20/EMA21，MACD多頭，量比 2.42，日K多頭攻擊。"},{"id":"saucer","title":"","short":"圓弧","icon":"◜","reason":"突破40日整理頸線，量能放大，偏圓弧底突破。"}]},{"code":"3189","name":"景碩","close":706,"percent":9.968847352024921,"tradeVolume":28765,"avgVolume5":20232.33,"value":20308090000,"swingScore":100,"score":100,"swingZone":"A","swingStage":{"label":"高基期","ratio":"0.78","tone":"high","value":0.7834586466165413},"swingSignals":[{"id":"wallet_volume_cross","title":"紅色三角形","short":"量叉","icon":"🔺","reason":"主力爸爸錢包量能紅K交叉（2026-06-17）：5日資金量均線 11,666 上穿 60日 11,212。"}]},{"code":"1905","name":"華紙","close":17.1,"percent":9.967845659163991,"tradeVolume":44051,"avgVolume5":20849.94,"value":753272100,"swingScore":100,"score":100,"swingZone":"A","swingStage":{"label":"高基期","ratio":"0.79","tone":"high","value":0.786764705882353},"swingSignals":[{"id":"breakaway_gap","title":"","short":"突破缺口","icon":"◆","reason":"跳空突破近20日整理高點，偏突破缺口。"}]},{"code":"2426","name":"鼎元","close":81.8,"percent":9.946236559139773,"tradeVolume":38733,"avgVolume5":18637.88,"value":3168359400,"swingScore":100,"score":100,"swingZone":"A","swingStage":{"label":"高基期","ratio":"0.84","tone":"high","value":0.8360655737704917},"swingSignals":[{"id":"saucer","title":"","short":"圓弧","icon":"◜","reason":"突破40日整理頸線，量能放大，偏圓弧底突破。"},{"id":"runaway_gap","title":"","short":"逃逸缺口","icon":"🚀","reason":"跳空且站上MA20，多頭段延續，偏逃逸缺口。"},{"id":"wallet_strong_buy","title":"多方寶石","short":"主力多","icon":"◆","reason":"主力爸爸錢包多方寶石（2026-06-17）：控盤線由負翻正且日K收紅。"},{"id":"wallet_volume_cross","title":"紅色三角形","short":"量叉","icon":"🔺","reason":"主力爸爸錢包量能紅K交叉（2026-06-17）：5日資金量均線 19,926 上穿 60日 8,718。"}]},{"code":"2061","name":"風青","close":52.8,"percent":9.88553590010406,"tradeVolume":6613.185,"avgVolume5":3491.24,"value":343088091,"swingScore":100,"score":100,"swingZone":"A","swingStage":{"label":"過熱","ratio":"1.00+","tone":"hot","value":1},"swingSignals":[{"id":"saucer","title":"","short":"圓弧","icon":"◜","reason":"突破40日整理頸線，量能放大，偏圓弧底突破。"},{"id":"breakaway_gap","title":"","short":"突破缺口","icon":"◆","reason":"跳空突破近20日整理高點，偏突破缺口。"},{"id":"golden_cross","title":"","short":"金釵","icon":"✦","reason":"MA5 > MA10 > MA20 且收紅，多金釵候選。"}]},{"code":"3234","name":"光環","close":145,"percent":9.848484848484848,"tradeVolume":8650.179,"avgVolume5":4195.82,"value":1211149057,"swingScore":100,"score":100,"swingZone":"A","swingStage":{"label":"過熱","ratio":"1.00+","tone":"hot","value":1},"swingSignals":[{"id":"bull_attack","title":"","short":"攻擊","icon":"🔥","reason":"站上MA20/EMA21，MACD多頭，量比 2.19，日K多頭攻擊。"},{"id":"saucer","title":"","short":"圓弧","icon":"◜","reason":"突破40日整理頸線，量能放大，偏圓弧底突破。"},{"id":"wallet_volume_cross","title":"紅色三角形","short":"量叉","icon":"🔺","reason":"主力爸爸錢包量能紅K交叉（2026-06-18）：5日資金量均線 2,548 上穿 60日 1,938。"}]},{"code":"8996","name":"高力","close":1515,"percent":9.782608695652174,"tradeVolume":4284,"avgVolume5":4007.76,"value":6490260000,"swingScore":100,"score":100,"swingZone":"A","swingStage":{"label":"過熱","ratio":"1.00+","tone":"hot","value":1},"swingSignals":[{"id":"wallet_strong_buy","title":"多方寶石","short":"主力多","icon":"◆","reason":"主力爸爸錢包多方寶石（2026-06-08）：控盤線由負翻正且日K收紅。"},{"id":"wallet_volume_cross","title":"紅色三角形","short":"量叉","icon":"🔺","reason":"主力爸爸錢包量能紅K交叉（2026-06-16）：5日資金量均線 2,502 上穿 60日 1,919。"}]},{"code":"6269","name":"台郡","close":79.2,"percent":9.543568464730297,"tradeVolume":20917,"avgVolume5":12480.5,"value":1656626400,"swingScore":100,"score":100,"swingZone":"A","swingStage":{"label":"高基期","ratio":"0.95","tone":"high","value":0.9457364341085275},"swingSignals":[{"id":"bull_attack","title":"","short":"攻擊","icon":"🔥","reason":"站上MA20/EMA21，MACD多頭，量比 2.39，日K多頭攻擊。"},{"id":"saucer","title":"","short":"圓弧","icon":"◜","reason":"突破40日整理頸線，量能放大，偏圓弧底突破。"},{"id":"wallet_strong_buy","title":"多方寶石","short":"主力多","icon":"◆","reason":"主力爸爸錢包多方寶石（2026-06-17）：控盤線由負翻正且日K收紅。"}]},{"code":"3362","name":"先進光","close":211,"percent":8.762886597938143,"tradeVolume":14274.377,"avgVolume5":12232.36,"value":2983397768,"swingScore":100,"score":100,"swingZone":"A","swingStage":{"label":"高基期","ratio":"0.94","tone":"high","value":0.940677966101695},"swingSignals":[{"id":"bull_attack","title":"","short":"攻擊","icon":"🔥","reason":"站上MA20/EMA21，MACD多頭，量比 2.58，日K多頭攻擊。"},{"id":"saucer","title":"","short":"圓弧","icon":"◜","reason":"突破40日整理頸線，量能放大，偏圓弧底突破。"},{"id":"breakaway_gap","title":"","short":"突破缺口","icon":"◆","reason":"跳空突破近20日整理高點，偏突破缺口。"}]},{"code":"2483","name":"百容","close":39.65,"percent":8.333333333333325,"tradeVolume":8923,"avgVolume5":4453.73,"value":353796950,"swingScore":100,"score":100,"swingZone":"A","swingStage":{"label":"過熱","ratio":"1.00+","tone":"hot","value":1},"swingSignals":[{"id":"bull_attack","title":"","short":"攻擊","icon":"🔥","reason":"站上MA20/EMA21，MACD多頭，量比 2.17，日K多頭攻擊。"},{"id":"saucer","title":"","short":"圓弧","icon":"◜","reason":"突破40日整理頸線，量能放大，偏圓弧底突破。"},{"id":"wallet_volume_cross","title":"紅色三角形","short":"量叉","icon":"🔺","reason":"主力爸爸錢包量能紅K交叉（2026-06-11）：5日資金量均線 2,958 上穿 60日 7,734。"}]},{"code":"3060","name":"銘異","close":37.25,"percent":8.284883720930237,"tradeVolume":12358,"avgVolume5":7249.72,"value":460335500,"swingScore":100,"score":100,"swingZone":"A","swingStage":{"label":"過熱","ratio":"1.00+","tone":"hot","value":1},"swingSignals":[{"id":"bull_attack","title":"","short":"攻擊","icon":"🔥","reason":"站上MA20/EMA21，MACD多頭，量比 2.23，日K多頭攻擊。"},{"id":"saucer","title":"","short":"圓弧","icon":"◜","reason":"突破40日整理頸線，量能放大，偏圓弧底突破。"},{"id":"breakaway_gap","title":"","short":"突破缺口","icon":"◆","reason":"跳空突破近20日整理高點，偏突破缺口。"},{"id":"wallet_volume_cross","title":"紅色三角形","short":"量叉","icon":"🔺","reason":"主力爸爸錢包量能紅K交叉（2026-06-17）：5日資金量均線 2,743 上穿 60日 2,404。"}]},{"code":"3450","name":"聯鈞","close":565,"percent":8.030592734225621,"tradeVolume":14487,"avgVolume5":12041.51,"value":8185155000,"swingScore":100,"score":100,"swingZone":"A","swingStage":{"label":"高基期","ratio":"0.88","tone":"high","value":0.8802588996763754},"swingSignals":[{"id":"runaway_gap","title":"","short":"逃逸缺口","icon":"🚀","reason":"跳空且站上MA20，多頭段延續，偏逃逸缺口。"}]},{"code":"1310","name":"台苯","close":9.2,"percent":7.476635514018677,"tradeVolume":10554,"avgVolume5":4187.65,"value":97096800,"swingScore":100,"score":100,"swingZone":"A","swingStage":{"label":"中位階","ratio":"0.61","tone":"mid","value":0.6122448979591832},"swingSignals":[{"id":"bull_attack","title":"","short":"攻擊","icon":"🔥","reason":"站上MA20/EMA21，MACD多頭，量比 2.12，日K多頭攻擊。"},{"id":"runaway_gap","title":"","short":"逃逸缺口","icon":"🚀","reason":"跳空且站上MA20，多頭段延續，偏逃逸缺口。"},{"id":"three_inside","title":"","short":"翻紅","icon":"↻","reason":"三內翻紅結構成立，站上MA20且趨勢確認。"},{"id":"wallet_strong_buy","title":"多方寶石","short":"主力多","icon":"◆","reason":"主力爸爸錢包多方寶石（2026-06-18）：控盤線由負翻正且日K收紅。"}]},{"code":"7788","name":"松川精密","close":275,"percent":7.421875,"tradeVolume":3160,"avgVolume5":4096.34,"value":869000000,"swingScore":100,"score":100,"swingZone":"A","swingStage":{"label":"高基期","ratio":"0.92","tone":"high","value":0.9197080291970803},"swingSignals":[{"id":"wallet_strong_buy","title":"多方寶石","short":"主力多","icon":"◆","reason":"主力爸爸錢包多方寶石（2026-06-05）：控盤線由負翻正且日K收紅。"}]}]}
