{"ok":true,"source":"strategy4-preset","updatedAt":"2026-06-06T12:34:51.971Z","scanStamp":"20260606","total":1957,"complete":true,"zone":"B","page":39,"pageSize":25,"totalPages":41,"totalCount":1020,"count":25,"matches":[{"code":"8070","name":"長華*","close":62.7,"percent":-3.9816277645454417,"tradeVolume":24352,"value":1526870400,"swingScore":78,"score":78,"swingZone":"B","swingStage":{"label":"高基期","ratio":"0.86","tone":"high","value":0.8601694824845578},"swingSignals":[{"id":"watch_trend","title":"","short":"B觀察","icon":"B","reason":"趨勢轉強但尚未觸發突破買點；趨勢分 5/8，量比 0.00，位階 高基期。"}]},{"code":"1409","name":"新纖","close":26.15,"percent":-4.212454212454221,"tradeVolume":44601,"value":1166316150,"swingScore":78,"score":78,"swingZone":"B","swingStage":{"label":"高基期","ratio":"0.71","tone":"high","value":0.7077464788732393},"swingSignals":[{"id":"watch_trend","title":"","short":"B觀察","icon":"B","reason":"趨勢轉強但尚未觸發突破買點；趨勢分 5/8，量比 0.00，位階 高基期。"}]},{"code":"4707","name":"磐亞","close":20,"percent":-5.213270142180101,"tradeVolume":2944,"value":58880000,"swingScore":78,"score":78,"swingZone":"B","swingStage":{"label":"高基期","ratio":"0.82","tone":"high","value":0.8223350253807107},"swingSignals":[{"id":"watch_trend","title":"","short":"B觀察","icon":"B","reason":"趨勢轉強但尚未觸發突破買點；趨勢分 5/8，量比 0.00，位階 高基期。"}]},{"code":"3058","name":"立德","close":9.91,"percent":-5.619047619047618,"tradeVolume":2898,"value":28719180,"swingScore":78,"score":78,"swingZone":"B","swingStage":{"label":"高基期","ratio":"0.64","tone":"high","value":0.6366666666666667},"swingSignals":[{"id":"watch_trend","title":"","short":"B觀察","icon":"B","reason":"趨勢轉強但尚未觸發突破買點；趨勢分 5/8，量比 0.00，位階 高基期。"}]},{"code":"2314","name":"台揚","close":15.8,"percent":-5.671641791044771,"tradeVolume":327,"value":5166600,"swingScore":78,"score":78,"swingZone":"B","swingStage":{"label":"高基期","ratio":"0.68","tone":"high","value":0.6818182120310072},"swingSignals":[{"id":"watch_trend","title":"","short":"B觀察","icon":"B","reason":"趨勢轉強但尚未觸發突破買點；趨勢分 5/8，量比 0.00，位階 高基期。"}]},{"code":"1611","name":"中電","close":14.1,"percent":-6.000000000000003,"tradeVolume":10883,"value":153450300,"swingScore":78,"score":78,"swingZone":"B","swingStage":{"label":"高基期","ratio":"0.77","tone":"high","value":0.7749999999999999},"swingSignals":[{"id":"watch_trend","title":"","short":"B觀察","icon":"B","reason":"趨勢轉強但尚未觸發突破買點；趨勢分 5/8，量比 0.01，位階 高基期。"}]},{"code":"3027","name":"盛達","close":22.7,"percent":-6.39175257731959,"tradeVolume":7066,"value":160398200,"swingScore":78,"score":78,"swingZone":"B","swingStage":{"label":"高基期","ratio":"0.78","tone":"high","value":0.7832167716508756},"swingSignals":[{"id":"watch_trend","title":"","short":"B觀察","icon":"B","reason":"趨勢轉強但尚未觸發突破買點；趨勢分 5/8，量比 0.01，位階 高基期。"}]},{"code":"3312","name":"弘憶股","close":67.5,"percent":-7.786885245901642,"tradeVolume":23398,"value":1579365000,"swingScore":78,"score":78,"swingZone":"B","swingStage":{"label":"高基期","ratio":"0.85","tone":"high","value":0.8465679676985195},"swingSignals":[{"id":"watch_trend","title":"","short":"B觀察","icon":"B","reason":"趨勢轉強但尚未觸發突破買點；趨勢分 5/8，量比 0.00，位階 高基期。"}]},{"code":"3049","name":"精金","close":15.9,"percent":-8.09248149596116,"tradeVolume":41432,"value":658768800,"swingScore":78,"score":78,"swingZone":"B","swingStage":{"label":"高基期","ratio":"0.74","tone":"high","value":0.7413792933351778},"swingSignals":[{"id":"watch_trend","title":"","short":"B觀察","icon":"B","reason":"趨勢轉強但尚未觸發突破買點；趨勢分 5/8，量比 0.00，位階 高基期。"}]},{"code":"6116","name":"彩晶","close":18.45,"percent":-9.7799511002445,"tradeVolume":18217,"value":336103650,"swingScore":78,"score":78,"swingZone":"B","swingStage":{"label":"高基期","ratio":"0.71","tone":"high","value":0.7085048010973937},"swingSignals":[{"id":"watch_trend","title":"","short":"B觀察","icon":"B","reason":"趨勢轉強但尚未觸發突破買點；趨勢分 5/8，量比 0.00，位階 高基期。"}]},{"code":"9105","name":"泰金寶-DR","close":11.45,"percent":-9.84251968503937,"tradeVolume":148295,"value":1697977750,"swingScore":78,"score":78,"swingZone":"B","swingStage":{"label":"高基期","ratio":"0.71","tone":"high","value":0.7147846332945285},"swingSignals":[{"id":"watch_trend","title":"","short":"B觀察","icon":"B","reason":"趨勢轉強但尚未觸發突破買點；趨勢分 5/8，量比 0.00，位階 高基期。"}]},{"code":"3021","name":"鴻名","close":32.4,"percent":-10.000000000000004,"tradeVolume":394,"value":12765600,"swingScore":78,"score":78,"swingZone":"B","swingStage":{"label":"高基期","ratio":"0.68","tone":"high","value":0.6839916864978711},"swingSignals":[{"id":"watch_trend","title":"","short":"B觀察","icon":"B","reason":"趨勢轉強但尚未觸發突破買點；趨勢分 5/8，量比 0.00，位階 高基期。"}]},{"code":"6835","name":"圓裕","close":38.55,"percent":2.7999999999999923,"tradeVolume":607,"value":23399850,"swingScore":77,"score":77,"swingZone":"B","swingStage":{"label":"中位階","ratio":"0.43","tone":"mid","value":0.4264708456282459},"swingSignals":[{"id":"watch_trend","title":"","short":"B觀察","icon":"B","reason":"趨勢轉強但尚未觸發突破買點；趨勢分 5/8，量比 0.00，位階 中位階。"}]},{"code":"6195","name":"詩肯","close":26.6,"percent":0.18832391713747915,"tradeVolume":20,"value":532000,"swingScore":77,"score":77,"swingZone":"B","swingStage":{"label":"高基期","ratio":"0.64","tone":"high","value":0.6435643564356439},"swingSignals":[{"id":"watch_trend","title":"","short":"B觀察","icon":"B","reason":"趨勢轉強但尚未觸發突破買點；趨勢分 6/8，量比 0.23，位階 高基期。"}]},{"code":"8415","name":"大國鋼","close":35.15,"percent":-0.7062146892655368,"tradeVolume":450,"value":15817500,"swingScore":77,"score":77,"swingZone":"B","swingStage":{"label":"中位階","ratio":"0.58","tone":"mid","value":0.5757575757575758},"swingSignals":[{"id":"watch_trend","title":"","short":"B觀察","icon":"B","reason":"趨勢轉強但尚未觸發突破買點；趨勢分 5/8，量比 0.00，位階 中位階。"}]},{"code":"3531","name":"先益","close":23.65,"percent":0.21186440677964896,"tradeVolume":1,"value":23650,"swingScore":76,"score":76,"swingZone":"B","swingStage":{"label":"高基期","ratio":"0.69","tone":"high","value":0.6883116883116877},"swingSignals":[{"id":"watch_trend","title":"","short":"B觀察","icon":"B","reason":"趨勢轉強但尚未觸發突破買點；趨勢分 6/8，量比 0.11，位階 高基期。"}]},{"code":"4106","name":"雃博","close":24,"percent":0,"tradeVolume":137,"value":3288000,"swingScore":76,"score":76,"swingZone":"B","swingStage":{"label":"高基期","ratio":"0.74","tone":"high","value":0.7407405314295644},"swingSignals":[{"id":"watch_trend","title":"","short":"B觀察","icon":"B","reason":"趨勢轉強但尚未觸發突破買點；趨勢分 5/8，量比 0.00，位階 高基期。"}]},{"code":"4974","name":"亞泰","close":77.2,"percent":-0.3870967741935447,"tradeVolume":363,"value":28023600,"swingScore":76,"score":76,"swingZone":"B","swingStage":{"label":"高基期","ratio":"0.73","tone":"high","value":0.7281554203498857},"swingSignals":[{"id":"watch_trend","title":"","short":"B觀察","icon":"B","reason":"趨勢轉強但尚未觸發突破買點；趨勢分 5/8，量比 0.00，位階 高基期。"}]},{"code":"6902","name":"GOGOLOOK","close":143,"percent":-0.6944444444444444,"tradeVolume":135,"value":19305000,"swingScore":76,"score":76,"swingZone":"B","swingStage":{"label":"高基期","ratio":"0.92","tone":"high","value":0.9178082191780822},"swingSignals":[{"id":"watch_trend","title":"","short":"B觀察","icon":"B","reason":"趨勢轉強但尚未觸發突破買點；趨勢分 5/8，量比 0.00，位階 高基期。"}]},{"code":"5215","name":"科嘉-KY","close":48.4,"percent":-0.717948717948721,"tradeVolume":256,"value":12390400,"swingScore":76,"score":76,"swingZone":"B","swingStage":{"label":"高基期","ratio":"0.81","tone":"high","value":0.8095238095238093},"swingSignals":[{"id":"watch_trend","title":"","short":"B觀察","icon":"B","reason":"趨勢轉強但尚未觸發突破買點；趨勢分 5/8，量比 0.00，位階 高基期。"}]},{"code":"6203","name":"海韻電","close":71.1,"percent":-1.2500000000000078,"tradeVolume":167,"value":11873700,"swingScore":76,"score":76,"swingZone":"B","swingStage":{"label":"中位階","ratio":"0.54","tone":"mid","value":0.5364238410596025},"swingSignals":[{"id":"watch_trend","title":"","short":"B觀察","icon":"B","reason":"趨勢轉強但尚未觸發突破買點；趨勢分 5/8，量比 0.40，位階 中位階。"}]},{"code":"4555","name":"氣立","close":52.8,"percent":-1.3084112149532763,"tradeVolume":581,"value":30676800,"swingScore":76,"score":76,"swingZone":"B","swingStage":{"label":"高基期","ratio":"0.66","tone":"high","value":0.662135922330097},"swingSignals":[{"id":"watch_trend","title":"","short":"B觀察","icon":"B","reason":"趨勢轉強但尚未觸發突破買點；趨勢分 5/8，量比 0.00，位階 高基期。"}]},{"code":"2332","name":"友訊","close":16.3,"percent":-1.5105694778566567,"tradeVolume":4113,"value":67041900,"swingScore":76,"score":76,"swingZone":"B","swingStage":{"label":"高基期","ratio":"0.69","tone":"high","value":0.6867469392229189},"swingSignals":[{"id":"watch_trend","title":"","short":"B觀察","icon":"B","reason":"趨勢轉強但尚未觸發突破買點；趨勢分 5/8，量比 0.00，位階 高基期。"}]},{"code":"8477","name":"創業家","close":19.4,"percent":-1.5228426395939123,"tradeVolume":78,"value":1513200,"swingScore":76,"score":76,"swingZone":"B","swingStage":{"label":"高基期","ratio":"0.66","tone":"high","value":0.6564102564102563},"swingSignals":[{"id":"watch_trend","title":"","short":"B觀察","icon":"B","reason":"趨勢轉強但尚未觸發突破買點；趨勢分 5/8，量比 0.00，位階 高基期。"}]},{"code":"3673","name":"TPK-KY","close":86,"percent":-1.8264823082089063,"tradeVolume":23131,"value":1989266000,"swingScore":76,"score":76,"swingZone":"B","swingStage":{"label":"高基期","ratio":"0.74","tone":"high","value":0.7399193360765826},"swingSignals":[{"id":"watch_trend","title":"","short":"B觀察","icon":"B","reason":"趨勢轉強但尚未觸發突破買點；趨勢分 5/8，量比 0.00，位階 高基期。"}]}]}
