{"ok":true,"source":"strategy4-preset","updatedAt":"2026-06-06T12:34:51.971Z","scanStamp":"20260606","total":1957,"complete":true,"zone":"B","page":32,"pageSize":25,"totalPages":41,"totalCount":1020,"count":25,"matches":[{"code":"3607","name":"谷崧","close":17.55,"percent":3.2352941176470633,"tradeVolume":2549,"value":44734950,"swingScore":78,"score":78,"swingZone":"B","swingStage":{"label":"高基期","ratio":"0.65","tone":"high","value":0.6491228070175439},"swingSignals":[{"id":"watch_trend","title":"","short":"B觀察","icon":"B","reason":"趨勢轉強但尚未觸發突破買點；趨勢分 5/8，量比 0.00，位階 高基期。"}]},{"code":"1528","name":"恩德","close":27.8,"percent":3.1539888682745874,"tradeVolume":8062,"value":224123600,"swingScore":78,"score":78,"swingZone":"B","swingStage":{"label":"高基期","ratio":"0.74","tone":"high","value":0.7414634146341464},"swingSignals":[{"id":"watch_trend","title":"","short":"B觀察","icon":"B","reason":"趨勢轉強但尚未觸發突破買點；趨勢分 5/8，量比 0.00，位階 高基期。"}]},{"code":"8935","name":"邦泰","close":23.75,"percent":3.03687635574837,"tradeVolume":3102,"value":73672500,"swingScore":78,"score":78,"swingZone":"B","swingStage":{"label":"高基期","ratio":"0.84","tone":"high","value":0.8439716312056735},"swingSignals":[{"id":"watch_trend","title":"","short":"B觀察","icon":"B","reason":"趨勢轉強但尚未觸發突破買點；趨勢分 5/8，量比 0.00，位階 高基期。"}]},{"code":"3556","name":"禾瑞亞","close":75,"percent":3.0219780219780263,"tradeVolume":1108,"value":83100000,"swingScore":78,"score":78,"swingZone":"B","swingStage":{"label":"高基期","ratio":"0.84","tone":"high","value":0.8373983739837398},"swingSignals":[{"id":"watch_trend","title":"","short":"B觀察","icon":"B","reason":"趨勢轉強但尚未觸發突破買點；趨勢分 5/8，量比 0.00，位階 高基期。"}]},{"code":"9906","name":"欣巴巴","close":42.6,"percent":2.8985469321081614,"tradeVolume":514,"value":21896400,"swingScore":78,"score":78,"swingZone":"B","swingStage":{"label":"高基期","ratio":"0.91","tone":"high","value":0.9076923131096293},"swingSignals":[{"id":"watch_trend","title":"","short":"B觀察","icon":"B","reason":"趨勢轉強但尚未觸發突破買點；趨勢分 5/8，量比 0.00，位階 高基期。"}]},{"code":"6291","name":"沛亨","close":606,"percent":2.711864406779661,"tradeVolume":303,"value":183618000,"swingScore":78,"score":78,"swingZone":"B","swingStage":{"label":"高基期","ratio":"0.68","tone":"high","value":0.6813655761024182},"swingSignals":[{"id":"watch_trend","title":"","short":"B觀察","icon":"B","reason":"趨勢轉強但尚未觸發突破買點；趨勢分 5/8，量比 0.00，位階 高基期。"}]},{"code":"6197","name":"佳必琪","close":325,"percent":2.6856240126382307,"tradeVolume":7085,"value":2302625000,"swingScore":78,"score":78,"swingZone":"B","swingStage":{"label":"高基期","ratio":"0.92","tone":"high","value":0.9246376811594202},"swingSignals":[{"id":"watch_trend","title":"","short":"B觀察","icon":"B","reason":"趨勢轉強但尚未觸發突破買點；趨勢分 5/8，量比 0.00，位階 高基期。"}]},{"code":"3284","name":"太普高","close":19.55,"percent":2.356020942408373,"tradeVolume":4198,"value":82070900,"swingScore":78,"score":78,"swingZone":"B","swingStage":{"label":"高基期","ratio":"0.75","tone":"high","value":0.7456140350877194},"swingSignals":[{"id":"watch_trend","title":"","short":"B觀察","icon":"B","reason":"趨勢轉強但尚未觸發突破買點；趨勢分 5/8，量比 0.01，位階 高基期。"}]},{"code":"2114","name":"鑫永銓","close":93.5,"percent":2.2975912900028805,"tradeVolume":267,"value":24964500,"swingScore":78,"score":78,"swingZone":"B","swingStage":{"label":"高基期","ratio":"0.78","tone":"high","value":0.7831322421771159},"swingSignals":[{"id":"watch_trend","title":"","short":"B觀察","icon":"B","reason":"趨勢轉強但尚未觸發突破買點；趨勢分 5/8，量比 0.00，位階 高基期。"}]},{"code":"6698","name":"旭暉應材","close":45.75,"percent":2.2346368715083798,"tradeVolume":5037,"value":230442750,"swingScore":78,"score":78,"swingZone":"B","swingStage":{"label":"高基期","ratio":"0.90","tone":"high","value":0.9022346368715084},"swingSignals":[{"id":"watch_trend","title":"","short":"B觀察","icon":"B","reason":"趨勢轉強但尚未觸發突破買點；趨勢分 5/8，量比 0.00，位階 高基期。"}]},{"code":"2885","name":"元大金","close":65.3,"percent":2.1909208774495954,"tradeVolume":39918,"value":2606645400,"swingScore":78,"score":78,"swingZone":"B","swingStage":{"label":"高基期","ratio":"0.93","tone":"high","value":0.9283887412138049},"swingSignals":[{"id":"watch_trend","title":"","short":"B觀察","icon":"B","reason":"趨勢轉強但尚未觸發突破買點；趨勢分 5/8，量比 0.00，位階 高基期。"}]},{"code":"2491","name":"吉祥全","close":34.7,"percent":2.058823529411773,"tradeVolume":9133,"value":316915100,"swingScore":78,"score":78,"swingZone":"B","swingStage":{"label":"高基期","ratio":"0.88","tone":"high","value":0.8807946426496264},"swingSignals":[{"id":"watch_trend","title":"","short":"B觀察","icon":"B","reason":"趨勢轉強但尚未觸發突破買點；趨勢分 5/8，量比 0.01，位階 高基期。"}]},{"code":"1338","name":"廣華-KY","close":17.45,"percent":2.0467836257309817,"tradeVolume":296,"value":5165200,"swingScore":78,"score":78,"swingZone":"B","swingStage":{"label":"高基期","ratio":"0.81","tone":"high","value":0.813559322033898},"swingSignals":[{"id":"watch_trend","title":"","short":"B觀察","icon":"B","reason":"趨勢轉強但尚未觸發突破買點；趨勢分 5/8，量比 0.00，位階 高基期。"}]},{"code":"1710","name":"東聯","close":15.7,"percent":1.9480519480519412,"tradeVolume":18078,"value":283824600,"swingScore":78,"score":78,"swingZone":"B","swingStage":{"label":"高基期","ratio":"0.83","tone":"high","value":0.8252427184466016},"swingSignals":[{"id":"watch_trend","title":"","short":"B觀察","icon":"B","reason":"趨勢轉強但尚未觸發突破買點；趨勢分 5/8，量比 0.00，位階 高基期。"}]},{"code":"1809","name":"中釉","close":59.6,"percent":1.8803418803418828,"tradeVolume":25499,"value":1519740400,"swingScore":78,"score":78,"swingZone":"B","swingStage":{"label":"高基期","ratio":"0.94","tone":"high","value":0.9410187667560322},"swingSignals":[{"id":"watch_trend","title":"","short":"B觀察","icon":"B","reason":"趨勢轉強但尚未觸發突破買點；趨勢分 5/8，量比 0.00，位階 高基期。"}]},{"code":"3022","name":"威強電","close":77.4,"percent":1.8421052631579022,"tradeVolume":1426,"value":110372400,"swingScore":78,"score":78,"swingZone":"B","swingStage":{"label":"高基期","ratio":"0.91","tone":"high","value":0.9069768734744914},"swingSignals":[{"id":"watch_trend","title":"","short":"B觀察","icon":"B","reason":"趨勢轉強但尚未觸發突破買點；趨勢分 5/8，量比 0.00，位階 高基期。"}]},{"code":"2432","name":"倚天酷碁-創","close":28.5,"percent":1.7857142857142856,"tradeVolume":188,"value":5358000,"swingScore":78,"score":78,"swingZone":"B","swingStage":{"label":"高基期","ratio":"0.67","tone":"high","value":0.6734693877551019},"swingSignals":[{"id":"watch_trend","title":"","short":"B觀察","icon":"B","reason":"趨勢轉強但尚未觸發突破買點；趨勢分 5/8，量比 0.00，位階 高基期。"}]},{"code":"1718","name":"中纖","close":9.85,"percent":1.7561983471074374,"tradeVolume":204533,"value":2014650050,"swingScore":78,"score":78,"swingZone":"B","swingStage":{"label":"高基期","ratio":"0.91","tone":"high","value":0.9113924050632912},"swingSignals":[{"id":"watch_trend","title":"","short":"B觀察","icon":"B","reason":"趨勢轉強但尚未觸發突破買點；趨勢分 5/8，量比 0.02，位階 高基期。"}]},{"code":"8105","name":"凌巨","close":20.4,"percent":1.7456397818335478,"tradeVolume":20987,"value":428134800,"swingScore":78,"score":78,"swingZone":"B","swingStage":{"label":"高基期","ratio":"0.84","tone":"high","value":0.8406593054191125},"swingSignals":[{"id":"watch_trend","title":"","short":"B觀察","icon":"B","reason":"趨勢轉強但尚未觸發突破買點；趨勢分 5/8，量比 0.00，位階 高基期。"}]},{"code":"3630","name":"新鉅科","close":29.6,"percent":1.543739279588346,"tradeVolume":10239,"value":303074400,"swingScore":78,"score":78,"swingZone":"B","swingStage":{"label":"高基期","ratio":"0.65","tone":"high","value":0.6486486486486486},"swingSignals":[{"id":"watch_trend","title":"","short":"B觀察","icon":"B","reason":"趨勢轉強但尚未觸發突破買點；趨勢分 5/8，量比 0.01，位階 高基期。"}]},{"code":"3516","name":"亞帝歐","close":23.55,"percent":1.5086206896551786,"tradeVolume":125,"value":2943750,"swingScore":78,"score":78,"swingZone":"B","swingStage":{"label":"高基期","ratio":"0.69","tone":"high","value":0.6865671641791048},"swingSignals":[{"id":"watch_trend","title":"","short":"B觀察","icon":"B","reason":"趨勢轉強但尚未觸發突破買點；趨勢分 6/8，量比 0.40，位階 高基期。"}]},{"code":"4760","name":"勤凱","close":411,"percent":1.4814814814814816,"tradeVolume":2133,"value":876663000,"swingScore":78,"score":78,"swingZone":"B","swingStage":{"label":"高基期","ratio":"0.66","tone":"high","value":0.6626916524701874},"swingSignals":[{"id":"watch_trend","title":"","short":"B觀察","icon":"B","reason":"趨勢轉強但尚未觸發突破買點；趨勢分 5/8，量比 0.00，位階 高基期。"}]},{"code":"2601","name":"益航","close":6.17,"percent":1.4802644313042332,"tradeVolume":5393,"value":33274810,"swingScore":78,"score":78,"swingZone":"B","swingStage":{"label":"高基期","ratio":"0.67","tone":"high","value":0.6712329462678566},"swingSignals":[{"id":"watch_trend","title":"","short":"B觀察","icon":"B","reason":"趨勢轉強但尚未觸發突破買點；趨勢分 5/8，量比 0.00，位階 高基期。"}]},{"code":"1319","name":"東陽","close":97.9,"percent":1.4507772020725447,"tradeVolume":8881,"value":869449900,"swingScore":78,"score":78,"swingZone":"B","swingStage":{"label":"高基期","ratio":"1.00","tone":"high","value":0.9959514170040488},"swingSignals":[{"id":"watch_trend","title":"","short":"B觀察","icon":"B","reason":"趨勢轉強但尚未觸發突破買點；趨勢分 5/8，量比 0.00，位階 高基期。"}]},{"code":"2462","name":"良得電","close":24.95,"percent":1.4227626548896908,"tradeVolume":2610,"value":65119500,"swingScore":78,"score":78,"swingZone":"B","swingStage":{"label":"高基期","ratio":"0.83","tone":"high","value":0.8333333131497473},"swingSignals":[{"id":"watch_trend","title":"","short":"B觀察","icon":"B","reason":"趨勢轉強但尚未觸發突破買點；趨勢分 5/8，量比 0.00，位階 高基期。"}]}]}
