{"ok":true,"source":"strategy4-preset","updatedAt":"2026-06-14T14:46:13.443Z","scanStamp":"20260614","total":1608,"complete":false,"zone":"C","page":2,"pageSize":25,"totalPages":4,"totalCount":93,"count":25,"matches":[{"code":"6412","name":"群電","close":94,"percent":-3.9836567926455624,"tradeVolume":5414.59,"avgVolume5":5768.1,"value":0,"swingScore":75,"score":75,"swingZone":"C","swingStage":{"label":"中位階","ratio":"0.50","tone":"mid","value":0.49860724233983295},"swingSignals":[{"id":"base_setup","title":"","short":"C準備","icon":"C","reason":"低/中位階整理接近發動；準備分 6/7，RSI 52.4，量比 1.23。"}]},{"code":"6026","name":"福邦證","close":17.25,"percent":3.293413173652699,"tradeVolume":4383.696,"avgVolume5":6434.14,"value":75802088,"swingScore":74,"score":74,"swingZone":"C","swingStage":{"label":"中位階","ratio":"0.54","tone":"mid","value":0.5445544554455445},"swingSignals":[{"id":"base_setup","title":"","short":"C準備","icon":"C","reason":"低/中位階整理接近發動；準備分 6/7，RSI 61.8，量比 0.74。"}]},{"code":"1541","name":"錩泰","close":20.8,"percent":1.21654501216545,"tradeVolume":19,"avgVolume5":43386.8,"value":0,"swingScore":74,"score":74,"swingZone":"C","swingStage":{"label":"低基期","ratio":"0.22","tone":"low","value":0.22480620155038752},"swingSignals":[{"id":"base_setup","title":"","short":"C準備","icon":"C","reason":"低/中位階整理接近發動；準備分 5/7，RSI 56.3，量比 0.00。"}]},{"code":"1599","name":"宏佳騰","close":23.45,"percent":1.0775862068965518,"tradeVolume":19.199,"avgVolume5":36469.64,"value":449618,"swingScore":74,"score":74,"swingZone":"C","swingStage":{"label":"低基期","ratio":"0.11","tone":"low","value":0.1058823529411763},"swingSignals":[{"id":"base_setup","title":"","short":"C準備","icon":"C","reason":"低/中位階整理接近發動；準備分 5/7，RSI 51.2，量比 0.00。"}]},{"code":"8367","name":"建新國際","close":40.45,"percent":0.6218905472636815,"tradeVolume":12,"avgVolume5":30256.45,"value":0,"swingScore":74,"score":74,"swingZone":"C","swingStage":{"label":"低基期","ratio":"0.20","tone":"low","value":0.20430107526881788},"swingSignals":[{"id":"base_setup","title":"","short":"C準備","icon":"C","reason":"低/中位階整理接近發動；準備分 5/7，RSI 47.1，量比 0.00。"}]},{"code":"6952","name":"大武山","close":36.15,"percent":0.41666666666666274,"tradeVolume":2,"avgVolume5":22744.4,"value":0,"swingScore":74,"score":74,"swingZone":"C","swingStage":{"label":"低基期","ratio":"0.09","tone":"low","value":0.0890410958904108},"swingSignals":[{"id":"base_setup","title":"","short":"C準備","icon":"C","reason":"低/中位階整理接近發動；準備分 5/7，RSI 45.3，量比 0.00。"}]},{"code":"2434","name":"統懋","close":32.45,"percent":0,"tradeVolume":31966,"avgVolume5":62692.6,"value":0,"swingScore":74,"score":74,"swingZone":"C","swingStage":{"label":"低基期","ratio":"0.33","tone":"low","value":0.3303964757709255},"swingSignals":[{"id":"base_setup","title":"","short":"C準備","icon":"C","reason":"低/中位階整理接近發動；準備分 5/7，RSI 55.4，量比 0.96。"}]},{"code":"2063","name":"世鎧","close":25,"percent":-0.19960079840319644,"tradeVolume":35.994,"avgVolume5":17471.6,"value":897445,"swingScore":74,"score":74,"swingZone":"C","swingStage":{"label":"低基期","ratio":"0.12","tone":"low","value":0.1206896551724142},"swingSignals":[{"id":"base_setup","title":"","short":"C準備","icon":"C","reason":"低/中位階整理接近發動；準備分 5/7，RSI 47.6，量比 0.00。"}]},{"code":"9930","name":"中聯資源","close":68.9,"percent":-0.5772005772005648,"tradeVolume":151.081,"avgVolume5":34599.99,"value":0,"swingScore":74,"score":74,"swingZone":"C","swingStage":{"label":"中位階","ratio":"0.43","tone":"mid","value":0.4250000000000007},"swingSignals":[{"id":"base_setup","title":"","short":"C準備","icon":"C","reason":"低/中位階整理接近發動；準備分 5/7，RSI 60.7，量比 0.00。"}]},{"code":"1213","name":"大飲","close":8.32,"percent":-0.9523809523809532,"tradeVolume":7001,"avgVolume5":10448.4,"value":0,"swingScore":74,"score":74,"swingZone":"C","swingStage":{"label":"低基期","ratio":"0.22","tone":"low","value":0.2191780821917809},"swingSignals":[{"id":"base_setup","title":"","short":"C準備","icon":"C","reason":"低/中位階整理接近發動；準備分 5/7，RSI 43.7，量比 0.41。"}]},{"code":"5487","name":"通泰","close":27.3,"percent":-2.846975088967974,"tradeVolume":254.48,"avgVolume5":19744.99,"value":7136970,"swingScore":74,"score":74,"swingZone":"C","swingStage":{"label":"低基期","ratio":"0.34","tone":"low","value":0.33644859813084116},"swingSignals":[{"id":"base_setup","title":"","short":"C準備","icon":"C","reason":"低/中位階整理接近發動；準備分 5/7，RSI 48.3，量比 0.01。"}]},{"code":"2359","name":"所羅門","close":135.5,"percent":-6.228373702422145,"tradeVolume":10883.784,"avgVolume5":7471.84,"value":0,"swingScore":74,"score":74,"swingZone":"C","swingStage":{"label":"中位階","ratio":"0.62","tone":"mid","value":0.6161616161616161},"swingSignals":[{"id":"base_setup","title":"","short":"C準備","icon":"C","reason":"低/中位階整理接近發動；準備分 5/7，RSI 51.0，量比 1.33。"}]},{"code":"3715","name":"定穎投控","close":162.5,"percent":-6.876790830945559,"tradeVolume":11657.423,"avgVolume5":10129.41,"value":0,"swingScore":74,"score":74,"swingZone":"C","swingStage":{"label":"低基期","ratio":"0.20","tone":"low","value":0.19791666666666666},"swingSignals":[{"id":"base_setup","title":"","short":"C準備","icon":"C","reason":"低/中位階整理接近發動；準備分 5/7，RSI 49.1，量比 0.98。"}]},{"code":"2067","name":"嘉鋼","close":6.47,"percent":5.032467532467526,"tradeVolume":35.003,"avgVolume5":20538.4,"value":225638,"swingScore":73,"score":73,"swingZone":"C","swingStage":{"label":"低基期","ratio":"0.17","tone":"low","value":0.17021276595744658},"swingSignals":[{"id":"base_setup","title":"","short":"C準備","icon":"C","reason":"低/中位階整理接近發動；準備分 6/7，RSI 39.7，量比 0.00。"}]},{"code":"6505","name":"台塑化","close":51.4,"percent":0.7843137254901933,"tradeVolume":7607.052,"avgVolume5":9195.94,"value":0,"swingScore":73,"score":73,"swingZone":"C","swingStage":{"label":"低基期","ratio":"0.26","tone":"low","value":0.25555555555555526},"swingSignals":[{"id":"base_setup","title":"","short":"C準備","icon":"C","reason":"低/中位階整理接近發動；準備分 5/7，RSI 51.2，量比 0.81。"}]},{"code":"1538","name":"正峰","close":11.7,"percent":-0.847457627118656,"tradeVolume":4,"avgVolume5":5319.4,"value":0,"swingScore":73,"score":73,"swingZone":"C","swingStage":{"label":"低基期","ratio":"0.21","tone":"low","value":0.20833333333333326},"swingSignals":[{"id":"base_setup","title":"","short":"C準備","icon":"C","reason":"低/中位階整理接近發動；準備分 6/7，RSI 44.0，量比 0.00。"}]},{"code":"3376","name":"新日興","close":203.5,"percent":-3.7825059101654848,"tradeVolume":9135.874,"avgVolume5":22637.51,"value":0,"swingScore":73,"score":73,"swingZone":"C","swingStage":{"label":"低基期","ratio":"0.25","tone":"low","value":0.2459016393442623},"swingSignals":[{"id":"base_setup","title":"","short":"C準備","icon":"C","reason":"低/中位階整理接近發動；準備分 5/7，RSI 47.4，量比 0.85。"}]},{"code":"3706","name":"神達","close":86.1,"percent":-6.209150326797389,"tradeVolume":29555.463,"avgVolume5":35923.46,"value":0,"swingScore":73,"score":73,"swingZone":"C","swingStage":{"label":"低基期","ratio":"0.32","tone":"low","value":0.3229571984435796},"swingSignals":[{"id":"base_setup","title":"","short":"C準備","icon":"C","reason":"低/中位階整理接近發動；準備分 5/7，RSI 52.6，量比 0.89。"}]},{"code":"6016","name":"康和證","close":28.45,"percent":4.021937842778786,"tradeVolume":14166.82,"avgVolume5":22445.64,"value":405265086,"swingScore":72,"score":72,"swingZone":"C","swingStage":{"label":"中位階","ratio":"0.59","tone":"mid","value":0.5892857142857143},"swingSignals":[{"id":"base_setup","title":"","short":"C準備","icon":"C","reason":"低/中位階整理接近發動；準備分 5/7，RSI 61.7，量比 0.77。"}]},{"code":"3450","name":"聯鈞","close":452.5,"percent":-4.13135593220339,"tradeVolume":11540.058,"avgVolume5":12677.4,"value":0,"swingScore":72,"score":72,"swingZone":"C","swingStage":{"label":"中位階","ratio":"0.52","tone":"mid","value":0.5161812297734628},"swingSignals":[{"id":"base_setup","title":"","short":"C準備","icon":"C","reason":"低/中位階整理接近發動；準備分 5/7，RSI 49.1，量比 1.13。"}]},{"code":"2337","name":"旺宏","close":140,"percent":3.7037037037037033,"tradeVolume":21930.55,"avgVolume5":31776.59,"value":0,"swingScore":71,"score":71,"swingZone":"C","swingStage":{"label":"低基期","ratio":"0.35","tone":"low","value":0.3548387096774194},"swingSignals":[{"id":"base_setup","title":"","short":"C準備","icon":"C","reason":"低/中位階整理接近發動；準備分 5/7，RSI 44.4，量比 1.04。"}]},{"code":"6015","name":"宏遠證","close":18.5,"percent":2.7777777777777777,"tradeVolume":5454.946,"avgVolume5":9546.46,"value":102054782,"swingScore":71,"score":71,"swingZone":"C","swingStage":{"label":"中位階","ratio":"0.50","tone":"mid","value":0.502262443438914},"swingSignals":[{"id":"base_setup","title":"","short":"C準備","icon":"C","reason":"低/中位階整理接近發動；準備分 5/7，RSI 61.1，量比 0.66。"}]},{"code":"6838","name":"台新藥","close":25.05,"percent":1.0080645161290323,"tradeVolume":5,"avgVolume5":18881.43,"value":0,"swingScore":71,"score":71,"swingZone":"C","swingStage":{"label":"低基期","ratio":"0.13","tone":"low","value":0.13071895424836605},"swingSignals":[{"id":"base_setup","title":"","short":"C準備","icon":"C","reason":"低/中位階整理接近發動；準備分 5/7，RSI 40.9，量比 0.00。"}]},{"code":"1264","name":"德麥","close":270,"percent":-0.36900369003690037,"tradeVolume":12.176,"avgVolume5":27806.24,"value":3300069,"swingScore":71,"score":71,"swingZone":"C","swingStage":{"label":"中位階","ratio":"0.49","tone":"mid","value":0.4878048780487805},"swingSignals":[{"id":"base_setup","title":"","short":"C準備","icon":"C","reason":"低/中位階整理接近發動；準備分 5/7，RSI 46.0，量比 0.00。"}]},{"code":"6284","name":"佳邦","close":98.6,"percent":-1.3013013013013126,"tradeVolume":6232.675,"avgVolume5":5564.82,"value":625767019,"swingScore":71,"score":71,"swingZone":"C","swingStage":{"label":"中位階","ratio":"0.42","tone":"mid","value":0.42451154529307267},"swingSignals":[{"id":"base_setup","title":"","short":"C準備","icon":"C","reason":"低/中位階整理接近發動；準備分 5/7，RSI 55.9，量比 0.94。"}]}]}
