{"ok":true,"source":"strategy4-preset","updatedAt":"2026-06-09T06:53:44.896Z","scanStamp":"20260609","total":1953,"complete":true,"zone":"B","page":3,"pageSize":25,"totalPages":26,"totalCount":630,"count":25,"matches":[{"code":"5489","name":"彩富","close":39.5,"percent":0.8939974457215872,"tradeVolume":73,"value":2883500,"swingScore":97,"score":97,"swingZone":"B","swingStage":{"label":"低基期","ratio":"0.30","tone":"low","value":0.3012048192771085},"swingSignals":[{"id":"watch_trend","title":"","short":"B觀察","icon":"B","reason":"趨勢轉強但尚未觸發突破買點；趨勢分 5/8，量比 0.85，位階 低基期。"}]},{"code":"6523","name":"達爾膚","close":98.5,"percent":0.5102040816326531,"tradeVolume":27,"value":2659500,"swingScore":97,"score":97,"swingZone":"B","swingStage":{"label":"低基期","ratio":"0.09","tone":"low","value":0.08823529411764706},"swingSignals":[{"id":"watch_trend","title":"","short":"B觀察","icon":"B","reason":"趨勢轉強但尚未觸發突破買點；趨勢分 5/8，量比 0.81，位階 低基期。"}]},{"code":"8433","name":"弘帆","close":52,"percent":-0.19193857965451327,"tradeVolume":28,"value":1456000,"swingScore":97,"score":97,"swingZone":"B","swingStage":{"label":"低基期","ratio":"0.11","tone":"low","value":0.1111111111111111},"swingSignals":[{"id":"watch_trend","title":"","short":"B觀察","icon":"B","reason":"趨勢轉強但尚未觸發突破買點；趨勢分 5/8，量比 0.84，位階 低基期。"}]},{"code":"3523","name":"迎輝","close":17.8,"percent":-5.82010582010581,"tradeVolume":46,"value":818800,"swingScore":97,"score":97,"swingZone":"B","swingStage":{"label":"高基期","ratio":"0.84","tone":"high","value":0.8428571428571431},"swingSignals":[{"id":"watch_trend","title":"","short":"B觀察","icon":"B","reason":"趨勢轉強但尚未觸發突破買點；趨勢分 6/8，量比 2.03，位階 高基期。"}]},{"code":"6016","name":"康和證","close":29.3,"percent":-9.567901234567895,"tradeVolume":46194,"value":1353484200,"swingScore":97,"score":97,"swingZone":"B","swingStage":{"label":"高基期","ratio":"0.63","tone":"high","value":0.633587786259542},"swingSignals":[{"id":"watch_trend","title":"","short":"B觀察","icon":"B","reason":"趨勢轉強但尚未觸發突破買點；趨勢分 6/8，量比 2.58，位階 高基期。"}]},{"code":"6175","name":"立敦","close":104,"percent":3.482587064676617,"tradeVolume":24002,"value":2496208000,"swingScore":96,"score":96,"swingZone":"B","swingStage":{"label":"高基期","ratio":"0.84","tone":"high","value":0.8350071736011477},"swingSignals":[{"id":"watch_trend","title":"","short":"B觀察","icon":"B","reason":"趨勢轉強但尚未觸發突破買點；趨勢分 6/8，量比 1.81，位階 高基期。"}]},{"code":"3512","name":"皇龍","close":20.65,"percent":0.9779951100244464,"tradeVolume":49,"value":1011850,"swingScore":96,"score":96,"swingZone":"B","swingStage":{"label":"低基期","ratio":"0.36","tone":"low","value":0.35714285714285693},"swingSignals":[{"id":"watch_trend","title":"","short":"B觀察","icon":"B","reason":"趨勢轉強但尚未觸發突破買點；趨勢分 6/8，量比 0.62，位階 低基期。"}]},{"code":"6577","name":"勁豐","close":80.6,"percent":0.49875311720697185,"tradeVolume":48,"value":3868800,"swingScore":96,"score":96,"swingZone":"B","swingStage":{"label":"高基期","ratio":"0.63","tone":"high","value":0.625},"swingSignals":[{"id":"watch_trend","title":"","short":"B觀察","icon":"B","reason":"趨勢轉強但尚未觸發突破買點；趨勢分 7/8，量比 0.97，位階 高基期。"}]},{"code":"4702","name":"中美實","close":10.15,"percent":0,"tradeVolume":138,"value":1400700,"swingScore":96,"score":96,"swingZone":"B","swingStage":{"label":"中位階","ratio":"0.57","tone":"mid","value":0.5652173913043474},"swingSignals":[{"id":"watch_trend","title":"","short":"B觀察","icon":"B","reason":"趨勢轉強但尚未觸發突破買點；趨勢分 6/8，量比 0.76，位階 中位階。"}]},{"code":"1593","name":"祺驊","close":31.6,"percent":-0.3154574132492046,"tradeVolume":21,"value":663600,"swingScore":96,"score":96,"swingZone":"B","swingStage":{"label":"中位階","ratio":"0.45","tone":"mid","value":0.4533333333333341},"swingSignals":[{"id":"watch_trend","title":"","short":"B觀察","icon":"B","reason":"趨勢轉強但尚未觸發突破買點；趨勢分 6/8，量比 0.70，位階 中位階。"}]},{"code":"5508","name":"永信建","close":52.3,"percent":-1.3207547169811376,"tradeVolume":642,"value":33576600,"swingScore":96,"score":96,"swingZone":"B","swingStage":{"label":"中位階","ratio":"0.60","tone":"mid","value":0.6017699115044247},"swingSignals":[{"id":"watch_trend","title":"","short":"B觀察","icon":"B","reason":"趨勢轉強但尚未觸發突破買點；趨勢分 6/8，量比 0.78，位階 中位階。"}]},{"code":"6840","name":"東研信超","close":67.4,"percent":2.4316109422492533,"tradeVolume":140,"value":9436000,"swingScore":95,"score":95,"swingZone":"B","swingStage":{"label":"中位階","ratio":"0.41","tone":"mid","value":0.41340782122905045},"swingSignals":[{"id":"watch_trend","title":"","short":"B觀察","icon":"B","reason":"趨勢轉強但尚未觸發突破買點；趨勢分 6/8，量比 0.82，位階 中位階。"}]},{"code":"6199","name":"天品","close":96.2,"percent":2.3404255319148968,"tradeVolume":429,"value":41269800,"swingScore":95,"score":95,"swingZone":"B","swingStage":{"label":"低基期","ratio":"0.33","tone":"low","value":0.33333333333333354},"swingSignals":[{"id":"watch_trend","title":"","short":"B觀察","icon":"B","reason":"趨勢轉強但尚未觸發突破買點；趨勢分 5/8，量比 0.68，位階 低基期。"}]},{"code":"5251","name":"天鉞電","close":31.25,"percent":1.957585644371946,"tradeVolume":600,"value":18750000,"swingScore":95,"score":95,"swingZone":"B","swingStage":{"label":"中位階","ratio":"0.51","tone":"mid","value":0.5051020408163264},"swingSignals":[{"id":"watch_trend","title":"","short":"B觀察","icon":"B","reason":"趨勢轉強但尚未觸發突破買點；趨勢分 6/8，量比 1.13，位階 中位階。"}]},{"code":"6160","name":"欣技","close":17.1,"percent":1.1834319526627388,"tradeVolume":180,"value":3078000,"swingScore":95,"score":95,"swingZone":"B","swingStage":{"label":"高基期","ratio":"0.75","tone":"high","value":0.745098039215687},"swingSignals":[{"id":"watch_trend","title":"","short":"B觀察","icon":"B","reason":"趨勢轉強但尚未觸發突破買點；趨勢分 7/8，量比 0.89，位階 高基期。"}]},{"code":"3570","name":"大塚","close":188,"percent":1.0752688172043012,"tradeVolume":125,"value":23500000,"swingScore":95,"score":95,"swingZone":"B","swingStage":{"label":"高基期","ratio":"0.84","tone":"high","value":0.84375},"swingSignals":[{"id":"watch_trend","title":"","short":"B觀察","icon":"B","reason":"趨勢轉強但尚未觸發突破買點；趨勢分 6/8，量比 1.50，位階 高基期。"}]},{"code":"4528","name":"江興鍛","close":15.85,"percent":0.6349206349206327,"tradeVolume":29,"value":459650,"swingScore":95,"score":95,"swingZone":"B","swingStage":{"label":"低基期","ratio":"0.31","tone":"low","value":0.31249999999999994},"swingSignals":[{"id":"watch_trend","title":"","short":"B觀察","icon":"B","reason":"趨勢轉強但尚未觸發突破買點；趨勢分 6/8，量比 0.55，位階 低基期。"}]},{"code":"6803","name":"崑鼎","close":288,"percent":0.5235602094240838,"tradeVolume":56,"value":16128000,"swingScore":95,"score":95,"swingZone":"B","swingStage":{"label":"中位階","ratio":"0.58","tone":"mid","value":0.5789473684210527},"swingSignals":[{"id":"watch_trend","title":"","short":"B觀察","icon":"B","reason":"趨勢轉強但尚未觸發突破買點；趨勢分 6/8，量比 0.58，位階 中位階。"}]},{"code":"6231","name":"系微","close":296,"percent":0.1692047377326565,"tradeVolume":748,"value":221408000,"swingScore":95,"score":95,"swingZone":"B","swingStage":{"label":"高基期","ratio":"0.88","tone":"high","value":0.8825910931174089},"swingSignals":[{"id":"watch_trend","title":"","short":"B觀察","icon":"B","reason":"趨勢轉強但尚未觸發突破買點；趨勢分 6/8，量比 1.51，位階 高基期。"}]},{"code":"6578","name":"達邦蛋白","close":17.2,"percent":0,"tradeVolume":105,"value":1806000,"swingScore":95,"score":95,"swingZone":"B","swingStage":{"label":"高基期","ratio":"0.74","tone":"high","value":0.7402597402597403},"swingSignals":[{"id":"watch_trend","title":"","short":"B觀察","icon":"B","reason":"趨勢轉強但尚未觸發突破買點；趨勢分 7/8，量比 0.83，位階 高基期。"}]},{"code":"6021","name":"美好證","close":39.2,"percent":-1.8773466833541925,"tradeVolume":1096,"value":42963200,"swingScore":95,"score":95,"swingZone":"B","swingStage":{"label":"高基期","ratio":"0.68","tone":"high","value":0.6819571865443427},"swingSignals":[{"id":"watch_trend","title":"","short":"B觀察","icon":"B","reason":"趨勢轉強但尚未觸發突破買點；趨勢分 6/8，量比 1.74，位階 高基期。"}]},{"code":"6223","name":"旺矽","close":5885,"percent":6.708975521305531,"tradeVolume":1344,"value":7909440000,"swingScore":94,"score":94,"swingZone":"B","swingStage":{"label":"高基期","ratio":"0.93","tone":"high","value":0.9292543021032504},"swingSignals":[{"id":"watch_trend","title":"","short":"B觀察","icon":"B","reason":"趨勢轉強但尚未觸發突破買點；趨勢分 7/8，量比 1.02，位階 高基期。"}]},{"code":"5223","name":"安力-KY","close":26,"percent":2.161100196463657,"tradeVolume":49,"value":1274000,"swingScore":94,"score":94,"swingZone":"B","swingStage":{"label":"高基期","ratio":"0.65","tone":"high","value":0.6493506493506491},"swingSignals":[{"id":"watch_trend","title":"","short":"B觀察","icon":"B","reason":"趨勢轉強但尚未觸發突破買點；趨勢分 7/8，量比 0.94，位階 高基期。"}]},{"code":"6874","name":"倍力","close":83.1,"percent":1.713586291309659,"tradeVolume":42,"value":3490200,"swingScore":94,"score":94,"swingZone":"B","swingStage":{"label":"低基期","ratio":"0.30","tone":"low","value":0.3025641025641021},"swingSignals":[{"id":"watch_trend","title":"","short":"B觀察","icon":"B","reason":"趨勢轉強但尚未觸發突破買點；趨勢分 5/8，量比 0.76，位階 低基期。"}]},{"code":"8415","name":"大國鋼","close":35.15,"percent":1.589595375722535,"tradeVolume":525,"value":18453750,"swingScore":94,"score":94,"swingZone":"B","swingStage":{"label":"高基期","ratio":"0.78","tone":"high","value":0.7755102040816312},"swingSignals":[{"id":"watch_trend","title":"","short":"B觀察","icon":"B","reason":"趨勢轉強但尚未觸發突破買點；趨勢分 7/8，量比 0.97，位階 高基期。"}]}]}
