{"ok":true,"updatedAt":"2026-06-18T10:18:43.130Z","scanStamp":"20260618","source":"strategy4-score-page","page":3,"pageSize":25,"totalPages":5,"totalCount":120,"count":25,"rows":[{"code":"5483","name":"中美晶","close":181,"percent":2.2598870056497176,"tradeVolume":22479.931,"avgVolume5":22327.59,"value":4085782885,"swingScore":100,"score":100,"swingZone":"A","swingStage":{"label":"高基期","ratio":"0.89","tone":"high","value":0.8923076923076924},"swingSignals":[{"id":"wallet_strong_buy","title":"多方寶石","short":"主力多","icon":"◆","reason":"主力爸爸錢包多方寶石（2026-06-12）：控盤線由負翻正且日K收紅。"}]},{"code":"2537","name":"聯上發","close":12,"percent":2.127659574468085,"tradeVolume":6116,"avgVolume5":6077.88,"value":73392000,"swingScore":100,"score":100,"swingZone":"A","swingStage":{"label":"高基期","ratio":"0.87","tone":"high","value":0.8675496688741721},"swingSignals":[{"id":"runaway_gap","title":"","short":"逃逸缺口","icon":"🚀","reason":"跳空且站上MA20，多頭段延續，偏逃逸缺口。"},{"id":"wallet_strong_buy","title":"多方寶石","short":"主力多","icon":"◆","reason":"主力爸爸錢包多方寶石（2026-06-10）：控盤線由負翻正且日K收紅。"},{"id":"wallet_volume_cross","title":"紅色三角形","short":"量叉","icon":"🔺","reason":"主力爸爸錢包量能紅K交叉（2026-06-10）：5日資金量均線 3,235 上穿 60日 762。"}]},{"code":"6517","name":"保勝光學","close":78.1,"percent":1.95822454308094,"tradeVolume":3447.922,"avgVolume5":3530.98,"value":271017948,"swingScore":100,"score":100,"swingZone":"B","swingStage":{"label":"高基期","ratio":"0.90","tone":"high","value":0.8980392156862742},"swingSignals":[{"id":"watch_trend","title":"","short":"B觀察","icon":"B","reason":"趨勢轉強但尚未觸發突破買點；趨勢分 7/8，量比 2.18，位階 高基期。"}]},{"code":"8043","name":"蜜望實","close":226.5,"percent":1.7977528089887642,"tradeVolume":34613.099,"avgVolume5":31027.82,"value":7924267752,"swingScore":100,"score":100,"swingZone":"A","swingStage":{"label":"高基期","ratio":"0.92","tone":"high","value":0.9188007495315428},"swingSignals":[{"id":"bull_attack","title":"","short":"攻擊","icon":"🔥","reason":"站上MA20/EMA21，MACD多頭，量比 1.41，日K多頭攻擊。"},{"id":"saucer","title":"","short":"圓弧","icon":"◜","reason":"突破40日整理頸線，量能放大，偏圓弧底突破。"}]},{"code":"2455","name":"全新","close":424.5,"percent":1.4336917562724014,"tradeVolume":22597,"avgVolume5":14776.6,"value":9592426500,"swingScore":100,"score":100,"swingZone":"A","swingStage":{"label":"高基期","ratio":"0.78","tone":"high","value":0.7753164556962026},"swingSignals":[{"id":"wallet_volume_cross","title":"紅色三角形","short":"量叉","icon":"🔺","reason":"主力爸爸錢包量能紅K交叉（2026-06-16）：5日資金量均線 7,697 上穿 60日 6,709。"}]},{"code":"6207","name":"雷科","close":165.5,"percent":0.9146341463414633,"tradeVolume":29868.369,"avgVolume5":20189.27,"value":4910772524,"swingScore":100,"score":100,"swingZone":"A","swingStage":{"label":"高基期","ratio":"0.95","tone":"high","value":0.9531116794543905},"swingSignals":[{"id":"breakaway_gap","title":"","short":"突破缺口","icon":"◆","reason":"跳空突破近20日整理高點，偏突破缺口。"}]},{"code":"5498","name":"凱崴","close":67.1,"percent":0.9022556390977358,"tradeVolume":4402.038,"avgVolume5":10112.38,"value":295511548,"swingScore":100,"score":100,"swingZone":"A","swingStage":{"label":"低基期","ratio":"0.38","tone":"low","value":0.376237623762376},"swingSignals":[{"id":"wallet_strong_buy","title":"多方寶石","short":"主力多","icon":"◆","reason":"主力爸爸錢包多方寶石（2026-06-12）：控盤線由負翻正且日K收紅。"}]},{"code":"3019","name":"亞光","close":159,"percent":0.6329113924050633,"tradeVolume":18848,"avgVolume5":15142.85,"value":2996832000,"swingScore":100,"score":100,"swingZone":"A","swingStage":{"label":"高基期","ratio":"0.80","tone":"high","value":0.7956989247311828},"swingSignals":[{"id":"wallet_strong_buy","title":"多方寶石","short":"主力多","icon":"◆","reason":"主力爸爸錢包多方寶石（2026-06-15）：控盤線由負翻正且日K收紅。"},{"id":"wallet_volume_cross","title":"紅色三角形","short":"量叉","icon":"🔺","reason":"主力爸爸錢包量能紅K交叉（2026-06-08）：5日資金量均線 5,179 上穿 60日 3,286。"}]},{"code":"3665","name":"貿聯-KY","close":2160,"percent":0.23201856148491878,"tradeVolume":5944.676,"avgVolume5":3597.12,"value":12840500160,"swingScore":100,"score":100,"swingZone":"A","swingStage":{"label":"低基期","ratio":"0.26","tone":"low","value":0.2608695652173913},"swingSignals":[{"id":"wallet_volume_cross","title":"紅色三角形","short":"量叉","icon":"🔺","reason":"主力爸爸錢包量能紅K交叉（2026-06-08）：5日資金量均線 1,883 上穿 60日 1,723。"}]},{"code":"2393","name":"億光","close":71.6,"percent":0.1398601398601319,"tradeVolume":2390,"avgVolume5":3847.53,"value":171124000,"swingScore":100,"score":100,"swingZone":"A","swingStage":{"label":"高基期","ratio":"0.78","tone":"high","value":0.7847222222222218},"swingSignals":[{"id":"wallet_volume_cross","title":"紅色三角形","short":"量叉","icon":"🔺","reason":"主力爸爸錢包量能紅K交叉（2026-06-16）：5日資金量均線 902 上穿 60日 1,628。"}]},{"code":"1722","name":"台肥","close":48.95,"percent":0.10224948875256497,"tradeVolume":1157,"avgVolume5":3331.95,"value":56635150,"swingScore":100,"score":100,"swingZone":"A","swingStage":{"label":"中位階","ratio":"0.62","tone":"mid","value":0.6163522012578622},"swingSignals":[{"id":"wallet_strong_buy","title":"多方寶石","short":"主力多","icon":"◆","reason":"主力爸爸錢包多方寶石（2026-06-08）：控盤線由負翻正且日K收紅。"}]},{"code":"9907","name":"統一實","close":16.8,"percent":0,"tradeVolume":4344,"avgVolume5":3877.03,"value":72979200,"swingScore":100,"score":100,"swingZone":"A","swingStage":{"label":"中位階","ratio":"0.43","tone":"mid","value":0.43478260869565205},"swingSignals":[{"id":"wallet_strong_buy","title":"多方寶石","short":"主力多","icon":"◆","reason":"主力爸爸錢包多方寶石（2026-06-11）：控盤線由負翻正且日K收紅。"}]},{"code":"2489","name":"瑞軒","close":48.45,"percent":-0.30864197530863907,"tradeVolume":22582,"avgVolume5":34867.96,"value":1094097900,"swingScore":100,"score":100,"swingZone":"A","swingStage":{"label":"中位階","ratio":"0.60","tone":"mid","value":0.5986984815618221},"swingSignals":[{"id":"wallet_strong_buy","title":"多方寶石","short":"主力多","icon":"◆","reason":"主力爸爸錢包多方寶石（2026-06-17）：控盤線由負翻正且日K收紅。"}]},{"code":"9904","name":"寶成","close":26.65,"percent":-0.3738317757009399,"tradeVolume":16567,"avgVolume5":19675.43,"value":441510550,"swingScore":100,"score":100,"swingZone":"A","swingStage":{"label":"中位階","ratio":"0.55","tone":"mid","value":0.5535714285714282},"swingSignals":[{"id":"wallet_strong_buy","title":"多方寶石","short":"主力多","icon":"◆","reason":"主力爸爸錢包多方寶石（2026-06-09）：控盤線由負翻正且日K收紅。"}]},{"code":"6153","name":"嘉聯益","close":24.25,"percent":-0.817995910020447,"tradeVolume":21390,"avgVolume5":29937.42,"value":518707500,"swingScore":100,"score":100,"swingZone":"A","swingStage":{"label":"高基期","ratio":"0.91","tone":"high","value":0.9137931034482758},"swingSignals":[{"id":"bull_attack","title":"","short":"攻擊","icon":"🔥","reason":"站上MA20/EMA21，MACD多頭，量比 1.84，日K多頭攻擊。"},{"id":"wallet_strong_buy","title":"多方寶石","short":"主力多","icon":"◆","reason":"主力爸爸錢包多方寶石（2026-06-08）：控盤線由負翻正且日K收紅。"}]},{"code":"6284","name":"佳邦","close":106,"percent":-1.3953488372093024,"tradeVolume":9461.521,"avgVolume5":8139.74,"value":1022593736,"swingScore":100,"score":100,"swingZone":"A","swingStage":{"label":"中位階","ratio":"0.56","tone":"mid","value":0.5559502664298401},"swingSignals":[{"id":"wallet_strong_buy","title":"多方寶石","short":"主力多","icon":"◆","reason":"主力爸爸錢包多方寶石（2026-06-17）：控盤線由負翻正且日K收紅。"}]},{"code":"3339","name":"泰谷","close":49.7,"percent":-1.5841584158415787,"tradeVolume":4104.455,"avgVolume5":4218.49,"value":203579487,"swingScore":100,"score":100,"swingZone":"A","swingStage":{"label":"低基期","ratio":"0.28","tone":"low","value":0.28125},"swingSignals":[{"id":"wallet_strong_buy","title":"多方寶石","short":"主力多","icon":"◆","reason":"主力爸爸錢包多方寶石（2026-06-17）：控盤線由負翻正且日K收紅。"}]},{"code":"8422","name":"可寧衛*","close":28.9,"percent":-1.8675721561969463,"tradeVolume":12404,"avgVolume5":33812.78,"value":358475600,"swingScore":100,"score":100,"swingZone":"A","swingStage":{"label":"中位階","ratio":"0.56","tone":"mid","value":0.56},"swingSignals":[{"id":"wallet_strong_buy","title":"多方寶石","short":"主力多","icon":"◆","reason":"主力爸爸錢包多方寶石（2026-06-09）：控盤線由負翻正且日K收紅。"}]},{"code":"7777","name":"能率亞洲","close":42.2,"percent":-2.427745664739878,"tradeVolume":6102.204,"avgVolume5":5725.1,"value":260079917,"swingScore":100,"score":100,"swingZone":"A","swingStage":{"label":"高基期","ratio":"0.82","tone":"high","value":0.8226600985221677},"swingSignals":[{"id":"wallet_strong_buy","title":"多方寶石","short":"主力多","icon":"◆","reason":"主力爸爸錢包多方寶石（2026-06-16）：控盤線由負翻正且日K收紅。"},{"id":"wallet_volume_cross","title":"紅色三角形","short":"量叉","icon":"🔺","reason":"主力爸爸錢包量能紅K交叉（2026-06-16）：5日資金量均線 4,288 上穿 60日 1,656。"}]},{"code":"3576","name":"聯合再生","close":18.55,"percent":-3.1331592689294934,"tradeVolume":18931,"avgVolume5":45038.19,"value":351170050,"swingScore":100,"score":100,"swingZone":"A","swingStage":{"label":"中位階","ratio":"0.56","tone":"mid","value":0.5646258503401361},"swingSignals":[{"id":"wallet_strong_buy","title":"多方寶石","short":"主力多","icon":"◆","reason":"主力爸爸錢包多方寶石（2026-06-10）：控盤線由負翻正且日K收紅。"},{"id":"wallet_volume_cross","title":"紅色三角形","short":"量叉","icon":"🔺","reason":"主力爸爸錢包量能紅K交叉（2026-06-15）：5日資金量均線 18,976 上穿 60日 17,358。"}]},{"code":"5289","name":"宜鼎","close":1930,"percent":-3.258145363408521,"tradeVolume":3588.915,"avgVolume5":3691.4,"value":6839876660,"swingScore":100,"score":100,"swingZone":"A","swingStage":{"label":"高基期","ratio":"0.91","tone":"high","value":0.9090909090909091},"swingSignals":[{"id":"wallet_strong_buy","title":"多方寶石","short":"主力多","icon":"◆","reason":"主力爸爸錢包多方寶石（2026-06-18）：控盤線由負翻正且日K收紅。"}]},{"code":"2340","name":"台亞","close":38.6,"percent":-3.3792240300375505,"tradeVolume":12570,"avgVolume5":10967.58,"value":485202000,"swingScore":100,"score":100,"swingZone":"B","swingStage":{"label":"中位階","ratio":"0.48","tone":"mid","value":0.47857142857142876},"swingSignals":[{"id":"watch_trend","title":"","short":"B觀察","icon":"B","reason":"趨勢轉強但尚未觸發突破買點；趨勢分 7/8，量比 1.41，位階 中位階。"}]},{"code":"2495","name":"普安","close":51.8,"percent":-3.717472118959108,"tradeVolume":10088,"avgVolume5":13056.15,"value":522558400,"swingScore":100,"score":100,"swingZone":"A","swingStage":{"label":"高基期","ratio":"0.87","tone":"high","value":0.8727735368956743},"swingSignals":[{"id":"wallet_volume_cross","title":"紅色三角形","short":"量叉","icon":"🔺","reason":"主力爸爸錢包量能紅K交叉（2026-06-17）：5日資金量均線 6,792 上穿 60日 5,810。"}]},{"code":"6202","name":"盛群","close":61.8,"percent":-4.334365325077395,"tradeVolume":9849,"avgVolume5":7488.16,"value":608668200,"swingScore":100,"score":100,"swingZone":"B","swingStage":{"label":"高基期","ratio":"0.76","tone":"high","value":0.759259259259259},"swingSignals":[{"id":"watch_trend","title":"","short":"B觀察","icon":"B","reason":"趨勢轉強但尚未觸發突破買點；趨勢分 7/8，量比 1.96，位階 高基期。"}]},{"code":"2605","name":"新興","close":31.05,"percent":-4.461538461538459,"tradeVolume":10566,"avgVolume5":6382.5,"value":328074300,"swingScore":100,"score":100,"swingZone":"B","swingStage":{"label":"低基期","ratio":"0.25","tone":"low","value":0.253623188405797},"swingSignals":[{"id":"watch_trend","title":"","short":"B觀察","icon":"B","reason":"趨勢轉強但尚未觸發突破買點；趨勢分 5/8，量比 1.60，位階 低基期。"}]}],"matches":[{"code":"5483","name":"中美晶","close":181,"percent":2.2598870056497176,"tradeVolume":22479.931,"avgVolume5":22327.59,"value":4085782885,"swingScore":100,"score":100,"swingZone":"A","swingStage":{"label":"高基期","ratio":"0.89","tone":"high","value":0.8923076923076924},"swingSignals":[{"id":"wallet_strong_buy","title":"多方寶石","short":"主力多","icon":"◆","reason":"主力爸爸錢包多方寶石（2026-06-12）：控盤線由負翻正且日K收紅。"}]},{"code":"2537","name":"聯上發","close":12,"percent":2.127659574468085,"tradeVolume":6116,"avgVolume5":6077.88,"value":73392000,"swingScore":100,"score":100,"swingZone":"A","swingStage":{"label":"高基期","ratio":"0.87","tone":"high","value":0.8675496688741721},"swingSignals":[{"id":"runaway_gap","title":"","short":"逃逸缺口","icon":"🚀","reason":"跳空且站上MA20，多頭段延續，偏逃逸缺口。"},{"id":"wallet_strong_buy","title":"多方寶石","short":"主力多","icon":"◆","reason":"主力爸爸錢包多方寶石（2026-06-10）：控盤線由負翻正且日K收紅。"},{"id":"wallet_volume_cross","title":"紅色三角形","short":"量叉","icon":"🔺","reason":"主力爸爸錢包量能紅K交叉（2026-06-10）：5日資金量均線 3,235 上穿 60日 762。"}]},{"code":"6517","name":"保勝光學","close":78.1,"percent":1.95822454308094,"tradeVolume":3447.922,"avgVolume5":3530.98,"value":271017948,"swingScore":100,"score":100,"swingZone":"B","swingStage":{"label":"高基期","ratio":"0.90","tone":"high","value":0.8980392156862742},"swingSignals":[{"id":"watch_trend","title":"","short":"B觀察","icon":"B","reason":"趨勢轉強但尚未觸發突破買點；趨勢分 7/8，量比 2.18，位階 高基期。"}]},{"code":"8043","name":"蜜望實","close":226.5,"percent":1.7977528089887642,"tradeVolume":34613.099,"avgVolume5":31027.82,"value":7924267752,"swingScore":100,"score":100,"swingZone":"A","swingStage":{"label":"高基期","ratio":"0.92","tone":"high","value":0.9188007495315428},"swingSignals":[{"id":"bull_attack","title":"","short":"攻擊","icon":"🔥","reason":"站上MA20/EMA21，MACD多頭，量比 1.41，日K多頭攻擊。"},{"id":"saucer","title":"","short":"圓弧","icon":"◜","reason":"突破40日整理頸線，量能放大，偏圓弧底突破。"}]},{"code":"2455","name":"全新","close":424.5,"percent":1.4336917562724014,"tradeVolume":22597,"avgVolume5":14776.6,"value":9592426500,"swingScore":100,"score":100,"swingZone":"A","swingStage":{"label":"高基期","ratio":"0.78","tone":"high","value":0.7753164556962026},"swingSignals":[{"id":"wallet_volume_cross","title":"紅色三角形","short":"量叉","icon":"🔺","reason":"主力爸爸錢包量能紅K交叉（2026-06-16）：5日資金量均線 7,697 上穿 60日 6,709。"}]},{"code":"6207","name":"雷科","close":165.5,"percent":0.9146341463414633,"tradeVolume":29868.369,"avgVolume5":20189.27,"value":4910772524,"swingScore":100,"score":100,"swingZone":"A","swingStage":{"label":"高基期","ratio":"0.95","tone":"high","value":0.9531116794543905},"swingSignals":[{"id":"breakaway_gap","title":"","short":"突破缺口","icon":"◆","reason":"跳空突破近20日整理高點，偏突破缺口。"}]},{"code":"5498","name":"凱崴","close":67.1,"percent":0.9022556390977358,"tradeVolume":4402.038,"avgVolume5":10112.38,"value":295511548,"swingScore":100,"score":100,"swingZone":"A","swingStage":{"label":"低基期","ratio":"0.38","tone":"low","value":0.376237623762376},"swingSignals":[{"id":"wallet_strong_buy","title":"多方寶石","short":"主力多","icon":"◆","reason":"主力爸爸錢包多方寶石（2026-06-12）：控盤線由負翻正且日K收紅。"}]},{"code":"3019","name":"亞光","close":159,"percent":0.6329113924050633,"tradeVolume":18848,"avgVolume5":15142.85,"value":2996832000,"swingScore":100,"score":100,"swingZone":"A","swingStage":{"label":"高基期","ratio":"0.80","tone":"high","value":0.7956989247311828},"swingSignals":[{"id":"wallet_strong_buy","title":"多方寶石","short":"主力多","icon":"◆","reason":"主力爸爸錢包多方寶石（2026-06-15）：控盤線由負翻正且日K收紅。"},{"id":"wallet_volume_cross","title":"紅色三角形","short":"量叉","icon":"🔺","reason":"主力爸爸錢包量能紅K交叉（2026-06-08）：5日資金量均線 5,179 上穿 60日 3,286。"}]},{"code":"3665","name":"貿聯-KY","close":2160,"percent":0.23201856148491878,"tradeVolume":5944.676,"avgVolume5":3597.12,"value":12840500160,"swingScore":100,"score":100,"swingZone":"A","swingStage":{"label":"低基期","ratio":"0.26","tone":"low","value":0.2608695652173913},"swingSignals":[{"id":"wallet_volume_cross","title":"紅色三角形","short":"量叉","icon":"🔺","reason":"主力爸爸錢包量能紅K交叉（2026-06-08）：5日資金量均線 1,883 上穿 60日 1,723。"}]},{"code":"2393","name":"億光","close":71.6,"percent":0.1398601398601319,"tradeVolume":2390,"avgVolume5":3847.53,"value":171124000,"swingScore":100,"score":100,"swingZone":"A","swingStage":{"label":"高基期","ratio":"0.78","tone":"high","value":0.7847222222222218},"swingSignals":[{"id":"wallet_volume_cross","title":"紅色三角形","short":"量叉","icon":"🔺","reason":"主力爸爸錢包量能紅K交叉（2026-06-16）：5日資金量均線 902 上穿 60日 1,628。"}]},{"code":"1722","name":"台肥","close":48.95,"percent":0.10224948875256497,"tradeVolume":1157,"avgVolume5":3331.95,"value":56635150,"swingScore":100,"score":100,"swingZone":"A","swingStage":{"label":"中位階","ratio":"0.62","tone":"mid","value":0.6163522012578622},"swingSignals":[{"id":"wallet_strong_buy","title":"多方寶石","short":"主力多","icon":"◆","reason":"主力爸爸錢包多方寶石（2026-06-08）：控盤線由負翻正且日K收紅。"}]},{"code":"9907","name":"統一實","close":16.8,"percent":0,"tradeVolume":4344,"avgVolume5":3877.03,"value":72979200,"swingScore":100,"score":100,"swingZone":"A","swingStage":{"label":"中位階","ratio":"0.43","tone":"mid","value":0.43478260869565205},"swingSignals":[{"id":"wallet_strong_buy","title":"多方寶石","short":"主力多","icon":"◆","reason":"主力爸爸錢包多方寶石（2026-06-11）：控盤線由負翻正且日K收紅。"}]},{"code":"2489","name":"瑞軒","close":48.45,"percent":-0.30864197530863907,"tradeVolume":22582,"avgVolume5":34867.96,"value":1094097900,"swingScore":100,"score":100,"swingZone":"A","swingStage":{"label":"中位階","ratio":"0.60","tone":"mid","value":0.5986984815618221},"swingSignals":[{"id":"wallet_strong_buy","title":"多方寶石","short":"主力多","icon":"◆","reason":"主力爸爸錢包多方寶石（2026-06-17）：控盤線由負翻正且日K收紅。"}]},{"code":"9904","name":"寶成","close":26.65,"percent":-0.3738317757009399,"tradeVolume":16567,"avgVolume5":19675.43,"value":441510550,"swingScore":100,"score":100,"swingZone":"A","swingStage":{"label":"中位階","ratio":"0.55","tone":"mid","value":0.5535714285714282},"swingSignals":[{"id":"wallet_strong_buy","title":"多方寶石","short":"主力多","icon":"◆","reason":"主力爸爸錢包多方寶石（2026-06-09）：控盤線由負翻正且日K收紅。"}]},{"code":"6153","name":"嘉聯益","close":24.25,"percent":-0.817995910020447,"tradeVolume":21390,"avgVolume5":29937.42,"value":518707500,"swingScore":100,"score":100,"swingZone":"A","swingStage":{"label":"高基期","ratio":"0.91","tone":"high","value":0.9137931034482758},"swingSignals":[{"id":"bull_attack","title":"","short":"攻擊","icon":"🔥","reason":"站上MA20/EMA21，MACD多頭，量比 1.84，日K多頭攻擊。"},{"id":"wallet_strong_buy","title":"多方寶石","short":"主力多","icon":"◆","reason":"主力爸爸錢包多方寶石（2026-06-08）：控盤線由負翻正且日K收紅。"}]},{"code":"6284","name":"佳邦","close":106,"percent":-1.3953488372093024,"tradeVolume":9461.521,"avgVolume5":8139.74,"value":1022593736,"swingScore":100,"score":100,"swingZone":"A","swingStage":{"label":"中位階","ratio":"0.56","tone":"mid","value":0.5559502664298401},"swingSignals":[{"id":"wallet_strong_buy","title":"多方寶石","short":"主力多","icon":"◆","reason":"主力爸爸錢包多方寶石（2026-06-17）：控盤線由負翻正且日K收紅。"}]},{"code":"3339","name":"泰谷","close":49.7,"percent":-1.5841584158415787,"tradeVolume":4104.455,"avgVolume5":4218.49,"value":203579487,"swingScore":100,"score":100,"swingZone":"A","swingStage":{"label":"低基期","ratio":"0.28","tone":"low","value":0.28125},"swingSignals":[{"id":"wallet_strong_buy","title":"多方寶石","short":"主力多","icon":"◆","reason":"主力爸爸錢包多方寶石（2026-06-17）：控盤線由負翻正且日K收紅。"}]},{"code":"8422","name":"可寧衛*","close":28.9,"percent":-1.8675721561969463,"tradeVolume":12404,"avgVolume5":33812.78,"value":358475600,"swingScore":100,"score":100,"swingZone":"A","swingStage":{"label":"中位階","ratio":"0.56","tone":"mid","value":0.56},"swingSignals":[{"id":"wallet_strong_buy","title":"多方寶石","short":"主力多","icon":"◆","reason":"主力爸爸錢包多方寶石（2026-06-09）：控盤線由負翻正且日K收紅。"}]},{"code":"7777","name":"能率亞洲","close":42.2,"percent":-2.427745664739878,"tradeVolume":6102.204,"avgVolume5":5725.1,"value":260079917,"swingScore":100,"score":100,"swingZone":"A","swingStage":{"label":"高基期","ratio":"0.82","tone":"high","value":0.8226600985221677},"swingSignals":[{"id":"wallet_strong_buy","title":"多方寶石","short":"主力多","icon":"◆","reason":"主力爸爸錢包多方寶石（2026-06-16）：控盤線由負翻正且日K收紅。"},{"id":"wallet_volume_cross","title":"紅色三角形","short":"量叉","icon":"🔺","reason":"主力爸爸錢包量能紅K交叉（2026-06-16）：5日資金量均線 4,288 上穿 60日 1,656。"}]},{"code":"3576","name":"聯合再生","close":18.55,"percent":-3.1331592689294934,"tradeVolume":18931,"avgVolume5":45038.19,"value":351170050,"swingScore":100,"score":100,"swingZone":"A","swingStage":{"label":"中位階","ratio":"0.56","tone":"mid","value":0.5646258503401361},"swingSignals":[{"id":"wallet_strong_buy","title":"多方寶石","short":"主力多","icon":"◆","reason":"主力爸爸錢包多方寶石（2026-06-10）：控盤線由負翻正且日K收紅。"},{"id":"wallet_volume_cross","title":"紅色三角形","short":"量叉","icon":"🔺","reason":"主力爸爸錢包量能紅K交叉（2026-06-15）：5日資金量均線 18,976 上穿 60日 17,358。"}]},{"code":"5289","name":"宜鼎","close":1930,"percent":-3.258145363408521,"tradeVolume":3588.915,"avgVolume5":3691.4,"value":6839876660,"swingScore":100,"score":100,"swingZone":"A","swingStage":{"label":"高基期","ratio":"0.91","tone":"high","value":0.9090909090909091},"swingSignals":[{"id":"wallet_strong_buy","title":"多方寶石","short":"主力多","icon":"◆","reason":"主力爸爸錢包多方寶石（2026-06-18）：控盤線由負翻正且日K收紅。"}]},{"code":"2340","name":"台亞","close":38.6,"percent":-3.3792240300375505,"tradeVolume":12570,"avgVolume5":10967.58,"value":485202000,"swingScore":100,"score":100,"swingZone":"B","swingStage":{"label":"中位階","ratio":"0.48","tone":"mid","value":0.47857142857142876},"swingSignals":[{"id":"watch_trend","title":"","short":"B觀察","icon":"B","reason":"趨勢轉強但尚未觸發突破買點；趨勢分 7/8，量比 1.41，位階 中位階。"}]},{"code":"2495","name":"普安","close":51.8,"percent":-3.717472118959108,"tradeVolume":10088,"avgVolume5":13056.15,"value":522558400,"swingScore":100,"score":100,"swingZone":"A","swingStage":{"label":"高基期","ratio":"0.87","tone":"high","value":0.8727735368956743},"swingSignals":[{"id":"wallet_volume_cross","title":"紅色三角形","short":"量叉","icon":"🔺","reason":"主力爸爸錢包量能紅K交叉（2026-06-17）：5日資金量均線 6,792 上穿 60日 5,810。"}]},{"code":"6202","name":"盛群","close":61.8,"percent":-4.334365325077395,"tradeVolume":9849,"avgVolume5":7488.16,"value":608668200,"swingScore":100,"score":100,"swingZone":"B","swingStage":{"label":"高基期","ratio":"0.76","tone":"high","value":0.759259259259259},"swingSignals":[{"id":"watch_trend","title":"","short":"B觀察","icon":"B","reason":"趨勢轉強但尚未觸發突破買點；趨勢分 7/8，量比 1.96，位階 高基期。"}]},{"code":"2605","name":"新興","close":31.05,"percent":-4.461538461538459,"tradeVolume":10566,"avgVolume5":6382.5,"value":328074300,"swingScore":100,"score":100,"swingZone":"B","swingStage":{"label":"低基期","ratio":"0.25","tone":"low","value":0.253623188405797},"swingSignals":[{"id":"watch_trend","title":"","short":"B觀察","icon":"B","reason":"趨勢轉強但尚未觸發突破買點；趨勢分 5/8，量比 1.60，位階 低基期。"}]}]}
