{"ok":true,"source":"strategy4-preset","updatedAt":"2026-06-11T12:31:33.792Z","scanStamp":"20260611","total":1958,"complete":true,"zone":"C","page":12,"pageSize":25,"totalPages":13,"totalCount":319,"count":25,"matches":[{"code":"6767","name":"台微醫","close":25.4,"percent":0.19723715099752268,"tradeVolume":83,"avgVolume5":7016.6,"value":2102750,"swingScore":65,"score":65,"swingZone":"C","swingStage":{"label":"低基期","ratio":"0.29","tone":"low","value":0.2911391842730199},"swingSignals":[{"id":"base_setup","title":"","short":"C準備","icon":"C","reason":"低/中位階整理接近發動；準備分 6/7，RSI 41.0，量比 0.01。"}]},{"code":"5371","name":"中光電","close":67.7,"percent":-0.4411764705882311,"tradeVolume":3049.715,"avgVolume5":3570.19,"value":205538618,"swingScore":65,"score":65,"swingZone":"C","swingStage":{"label":"低基期","ratio":"0.11","tone":"low","value":0.10897436963344197},"swingSignals":[{"id":"base_setup","title":"","short":"C準備","icon":"C","reason":"低/中位階整理接近發動；準備分 5/7，RSI 36.7，量比 0.67。"}]},{"code":"6120","name":"達運","close":13.350000381469727,"percent":-1.111108285409433,"tradeVolume":4176.943,"avgVolume5":4804.01,"value":0,"swingScore":65,"score":65,"swingZone":"C","swingStage":{"label":"低基期","ratio":"0.26","tone":"low","value":0.25882361916934743},"swingSignals":[{"id":"base_setup","title":"","short":"C準備","icon":"C","reason":"低/中位階整理接近發動；準備分 5/7，RSI 40.3，量比 0.68。"}]},{"code":"2376","name":"技嘉","close":340,"percent":-1.3062409288824384,"tradeVolume":12532.869,"avgVolume5":14386.88,"value":0,"swingScore":65,"score":65,"swingZone":"C","swingStage":{"label":"中位階","ratio":"0.53","tone":"mid","value":0.5285171102661597},"swingSignals":[{"id":"base_setup","title":"","short":"C準備","icon":"C","reason":"低/中位階整理接近發動；準備分 5/7，RSI 55.1，量比 0.63。"}]},{"code":"4526","name":"東台","close":39.25,"percent":3.289473684210526,"tradeVolume":5747.02,"avgVolume5":6743.84,"value":0,"swingScore":64,"score":64,"swingZone":"C","swingStage":{"label":"中位階","ratio":"0.52","tone":"mid","value":0.5220339500297935},"swingSignals":[{"id":"base_setup","title":"","short":"C準備","icon":"C","reason":"低/中位階整理接近發動；準備分 5/7，RSI 49.6，量比 0.45。"}]},{"code":"3305","name":"昇貿","close":140,"percent":2.564102564102564,"tradeVolume":6540.821,"avgVolume5":7364.98,"value":0,"swingScore":64,"score":64,"swingZone":"C","swingStage":{"label":"中位階","ratio":"0.57","tone":"mid","value":0.5661764705882353},"swingSignals":[{"id":"base_setup","title":"","short":"C準備","icon":"C","reason":"低/中位階整理接近發動；準備分 5/7，RSI 46.2，量比 0.52。"}]},{"code":"2449","name":"京元電子","close":272,"percent":0,"tradeVolume":20265.474,"avgVolume5":27035.81,"value":0,"swingScore":64,"score":64,"swingZone":"C","swingStage":{"label":"低基期","ratio":"0.08","tone":"low","value":0.08415841584158416},"swingSignals":[{"id":"base_setup","title":"","short":"C準備","icon":"C","reason":"低/中位階整理接近發動；準備分 5/7，RSI 43.0，量比 0.47。"}]},{"code":"8215","name":"明基材","close":28.549999237060547,"percent":-1.0398653048263722,"tradeVolume":2370.279,"avgVolume5":3398.26,"value":0,"swingScore":64,"score":64,"swingZone":"C","swingStage":{"label":"中位階","ratio":"0.48","tone":"mid","value":0.4840423934543052},"swingSignals":[{"id":"base_setup","title":"","short":"C準備","icon":"C","reason":"低/中位階整理接近發動；準備分 5/7，RSI 47.0，量比 0.49。"}]},{"code":"6190","name":"萬泰科","close":79,"percent":-1.25,"tradeVolume":4594.861,"avgVolume5":4509.99,"value":367189128,"swingScore":64,"score":64,"swingZone":"C","swingStage":{"label":"中位階","ratio":"0.46","tone":"mid","value":0.4578947769968133},"swingSignals":[{"id":"base_setup","title":"","short":"C準備","icon":"C","reason":"低/中位階整理接近發動；準備分 5/7，RSI 48.7，量比 0.55。"}]},{"code":"3673","name":"TPK-KY","close":78.69999694824219,"percent":-2.599017356683057,"tradeVolume":16822.203,"avgVolume5":21693.44,"value":0,"swingScore":64,"score":64,"swingZone":"C","swingStage":{"label":"中位階","ratio":"0.52","tone":"mid","value":0.5224585550757475},"swingSignals":[{"id":"base_setup","title":"","short":"C準備","icon":"C","reason":"低/中位階整理接近發動；準備分 5/7，RSI 51.6，量比 0.46。"}]},{"code":"6431","name":"光麗-KY","close":18.649999618530273,"percent":7.183908203473764,"tradeVolume":278.003,"avgVolume5":14162.6,"value":0,"swingScore":63,"score":63,"swingZone":"C","swingStage":{"label":"中位階","ratio":"0.39","tone":"mid","value":0.38983040436763466},"swingSignals":[{"id":"base_setup","title":"","short":"C準備","icon":"C","reason":"低/中位階整理接近發動；準備分 5/7，RSI 30.3，量比 0.01。"}]},{"code":"3707","name":"漢磊","close":74,"percent":2.920721042495727,"tradeVolume":9273.939,"avgVolume5":9005.98,"value":665305303,"swingScore":63,"score":63,"swingZone":"C","swingStage":{"label":"中位階","ratio":"0.46","tone":"mid","value":0.46244130761726054},"swingSignals":[{"id":"base_setup","title":"","short":"C準備","icon":"C","reason":"低/中位階整理接近發動；準備分 5/7，RSI 40.4，量比 0.43。"}]},{"code":"2065","name":"世豐","close":34.6,"percent":2.0648921611013016,"tradeVolume":123.668,"avgVolume5":47661.73,"value":4230941,"swingScore":63,"score":63,"swingZone":"C","swingStage":{"label":"高基期","ratio":"0.78","tone":"high","value":0.7764705882352942},"swingSignals":[{"id":"base_setup","title":"","short":"C準備","icon":"C","reason":"低/中位階整理接近發動；準備分 5/7，RSI 44.0，量比 0.00。"}]},{"code":"7704","name":"明遠精密","close":61.1,"percent":1.8333333333333357,"tradeVolume":98.644,"avgVolume5":8497.33,"value":5855797,"swingScore":63,"score":63,"swingZone":"C","swingStage":{"label":"低基期","ratio":"0.28","tone":"low","value":0.2786069863244042},"swingSignals":[{"id":"base_setup","title":"","short":"C準備","icon":"C","reason":"低/中位階整理接近發動；準備分 5/7，RSI 37.7，量比 0.01。"}]},{"code":"6752","name":"叡揚","close":100,"percent":1.6260146842582102,"tradeVolume":42.66,"avgVolume5":44041.13,"value":4216779,"swingScore":63,"score":63,"swingZone":"C","swingStage":{"label":"低基期","ratio":"0.26","tone":"low","value":0.25824163386445664},"swingSignals":[{"id":"base_setup","title":"","short":"C準備","icon":"C","reason":"低/中位階整理接近發動；準備分 5/7，RSI 49.0，量比 0.00。"}]},{"code":"2481","name":"強茂","close":137,"percent":1.107011070110701,"tradeVolume":20325.997,"avgVolume5":37693.2,"value":0,"swingScore":63,"score":63,"swingZone":"C","swingStage":{"label":"中位階","ratio":"0.54","tone":"mid","value":0.5394736842105263},"swingSignals":[{"id":"base_setup","title":"","short":"C準備","icon":"C","reason":"低/中位階整理接近發動；準備分 5/7，RSI 51.8，量比 0.39。"}]},{"code":"5483","name":"中美晶","close":145,"percent":1.0452961672473868,"tradeVolume":6946.101,"avgVolume5":11658.48,"value":1002898881,"swingScore":63,"score":63,"swingZone":"C","swingStage":{"label":"中位階","ratio":"0.41","tone":"mid","value":0.4051724137931034},"swingSignals":[{"id":"base_setup","title":"","short":"C準備","icon":"C","reason":"低/中位階整理接近發動；準備分 5/7，RSI 48.6，量比 0.41。"}]},{"code":"8917","name":"欣泰","close":52,"percent":0.9708737864077669,"tradeVolume":74.128,"avgVolume5":13222.23,"value":3881993,"swingScore":63,"score":63,"swingZone":"C","swingStage":{"label":"低基期","ratio":"0.17","tone":"low","value":0.16666631345380717},"swingSignals":[{"id":"base_setup","title":"","short":"C準備","icon":"C","reason":"低/中位階整理接近發動；準備分 5/7，RSI 40.7，量比 0.00。"}]},{"code":"2726","name":"雅茗-KY","close":9.79,"percent":0.9278370361295992,"tradeVolume":23.75,"avgVolume5":24814.75,"value":231494,"swingScore":63,"score":63,"swingZone":"C","swingStage":{"label":"低基期","ratio":"0.22","tone":"low","value":0.223577325346763},"swingSignals":[{"id":"base_setup","title":"","short":"C準備","icon":"C","reason":"低/中位階整理接近發動；準備分 5/7，RSI 46.9，量比 0.00。"}]},{"code":"6285","name":"啟碁","close":272.5,"percent":0.9259259259259258,"tradeVolume":17615.27,"avgVolume5":14177.59,"value":0,"swingScore":63,"score":63,"swingZone":"C","swingStage":{"label":"中位階","ratio":"0.53","tone":"mid","value":0.5311355311355311},"swingSignals":[{"id":"base_setup","title":"","short":"C準備","icon":"C","reason":"低/中位階整理接近發動；準備分 5/7，RSI 39.8，量比 0.74。"}]},{"code":"2441","name":"超豐","close":121.5,"percent":0.8298755186721992,"tradeVolume":5267.513,"avgVolume5":7540.83,"value":0,"swingScore":63,"score":63,"swingZone":"C","swingStage":{"label":"中位階","ratio":"0.59","tone":"mid","value":0.5878693819241498},"swingSignals":[{"id":"base_setup","title":"","short":"C準備","icon":"C","reason":"低/中位階整理接近發動；準備分 5/7，RSI 54.1，量比 0.35。"}]},{"code":"4175","name":"杏一","close":52.9,"percent":0.5703451227788607,"tradeVolume":15.612,"avgVolume5":25870.52,"value":823111,"swingScore":63,"score":63,"swingZone":"C","swingStage":{"label":"低基期","ratio":"0.11","tone":"low","value":0.11111115820615865},"swingSignals":[{"id":"base_setup","title":"","short":"C準備","icon":"C","reason":"低/中位階整理接近發動；準備分 5/7，RSI 49.0，量比 0.00。"}]},{"code":"2312","name":"金寶","close":34.900001525878906,"percent":0.1434807860750518,"tradeVolume":38319.099,"avgVolume5":58137.44,"value":0,"swingScore":63,"score":63,"swingZone":"C","swingStage":{"label":"中位階","ratio":"0.53","tone":"mid","value":0.5308642417187875},"swingSignals":[{"id":"base_setup","title":"","short":"C準備","icon":"C","reason":"低/中位階整理接近發動；準備分 5/7，RSI 53.2，量比 0.42。"}]},{"code":"2328","name":"廣宇","close":51.29999923706055,"percent":0,"tradeVolume":5530.362,"avgVolume5":8395.48,"value":0,"swingScore":63,"score":63,"swingZone":"C","swingStage":{"label":"低基期","ratio":"0.38","tone":"low","value":0.3758865337769324},"swingSignals":[{"id":"base_setup","title":"","short":"C準備","icon":"C","reason":"低/中位階整理接近發動；準備分 5/7，RSI 43.8，量比 0.36。"}]},{"code":"6983","name":"華洋精機","close":349.5,"percent":-0.14285714285714285,"tradeVolume":64.489,"avgVolume5":39776.3,"value":22072673,"swingScore":63,"score":63,"swingZone":"C","swingStage":{"label":"低基期","ratio":"0.11","tone":"low","value":0.10981308411214953},"swingSignals":[{"id":"base_setup","title":"","short":"C準備","icon":"C","reason":"低/中位階整理接近發動；準備分 5/7，RSI 41.5，量比 0.00。"}]}]}
