{"ok":true,"source":"strategy4-preset","updatedAt":"2026-06-09T06:53:44.896Z","scanStamp":"20260609","total":1953,"complete":true,"zone":"C","page":19,"pageSize":25,"totalPages":23,"totalCount":554,"count":25,"matches":[{"code":"3227","name":"原相","close":219.5,"percent":4.028436018957346,"tradeVolume":1085,"value":238157500,"swingScore":64,"score":64,"swingZone":"C","swingStage":{"label":"中位階","ratio":"0.59","tone":"mid","value":0.5922330097087378},"swingSignals":[{"id":"base_setup","title":"","short":"C準備","icon":"C","reason":"低/中位階整理接近發動；準備分 5/7，RSI 47.0，量比 0.44。"}]},{"code":"6229","name":"研通","close":26.2,"percent":3.3530571992110367,"tradeVolume":172,"value":4506400,"swingScore":64,"score":64,"swingZone":"C","swingStage":{"label":"中位階","ratio":"0.53","tone":"mid","value":0.5302325581395348},"swingSignals":[{"id":"base_setup","title":"","short":"C準備","icon":"C","reason":"低/中位階整理接近發動；準備分 5/7，RSI 48.9，量比 0.44。"}]},{"code":"4417","name":"金洲","close":46.1,"percent":1.0964912280701753,"tradeVolume":82,"value":3780200,"swingScore":64,"score":64,"swingZone":"C","swingStage":{"label":"低基期","ratio":"0.11","tone":"low","value":0.10967741935483889},"swingSignals":[{"id":"base_setup","title":"","short":"C準備","icon":"C","reason":"低/中位階整理接近發動；準備分 5/7，RSI 34.0，量比 0.47。"}]},{"code":"6894","name":"衛司特","close":357.5,"percent":-0.4178272980501393,"tradeVolume":95,"value":33962500,"swingScore":64,"score":64,"swingZone":"C","swingStage":{"label":"中位階","ratio":"0.39","tone":"mid","value":0.39195979899497485},"swingSignals":[{"id":"base_setup","title":"","short":"C準備","icon":"C","reason":"低/中位階整理接近發動；準備分 5/7，RSI 55.7，量比 0.52。"}]},{"code":"2035","name":"唐榮","close":27.65,"percent":-2.296819787985873,"tradeVolume":7,"value":193550,"swingScore":64,"score":64,"swingZone":"C","swingStage":{"label":"中位階","ratio":"0.61","tone":"mid","value":0.6078431372549016},"swingSignals":[{"id":"base_setup","title":"","short":"C準備","icon":"C","reason":"低/中位階整理接近發動；準備分 6/7，RSI 42.9，量比 0.66。"}]},{"code":"6151","name":"晉倫","close":41.6,"percent":-2.8037383177569994,"tradeVolume":780,"value":32448000,"swingScore":64,"score":64,"swingZone":"C","swingStage":{"label":"中位階","ratio":"0.46","tone":"mid","value":0.455072463768116},"swingSignals":[{"id":"base_setup","title":"","short":"C準備","icon":"C","reason":"低/中位階整理接近發動；準備分 5/7，RSI 48.4，量比 0.54。"}]},{"code":"2455","name":"全新","close":395,"percent":9.874826147426981,"tradeVolume":1903,"value":751685000,"swingScore":63,"score":63,"swingZone":"C","swingStage":{"label":"高基期","ratio":"0.65","tone":"high","value":0.6486486486486487},"swingSignals":[{"id":"base_setup","title":"","short":"C準備","icon":"C","reason":"低/中位階整理接近發動；準備分 5/7，RSI 49.0，量比 0.00。"}]},{"code":"7717","name":"萊德光電-KY","close":595,"percent":6.25,"tradeVolume":408,"value":242760000,"swingScore":63,"score":63,"swingZone":"C","swingStage":{"label":"低基期","ratio":"0.13","tone":"low","value":0.1275},"swingSignals":[{"id":"base_setup","title":"","short":"C準備","icon":"C","reason":"低/中位階整理接近發動；準備分 5/7，RSI 39.6，量比 0.00。"}]},{"code":"3294","name":"英濟","close":38.75,"percent":5.442176870748299,"tradeVolume":1462,"value":56652500,"swingScore":63,"score":63,"swingZone":"C","swingStage":{"label":"中位階","ratio":"0.60","tone":"mid","value":0.5960912052117262},"swingSignals":[{"id":"base_setup","title":"","short":"C準備","icon":"C","reason":"低/中位階整理接近發動；準備分 5/7，RSI 43.2，量比 0.33。"}]},{"code":"2049","name":"上銀","close":345,"percent":4.704097116843703,"tradeVolume":3919,"value":1352055000,"swingScore":63,"score":63,"swingZone":"C","swingStage":{"label":"中位階","ratio":"0.53","tone":"mid","value":0.5290697674418605},"swingSignals":[{"id":"base_setup","title":"","short":"C準備","icon":"C","reason":"低/中位階整理接近發動；準備分 5/7，RSI 45.4，量比 0.00。"}]},{"code":"8213","name":"志超","close":36.05,"percent":3.7410071942445966,"tradeVolume":994,"value":35833700,"swingScore":63,"score":63,"swingZone":"C","swingStage":{"label":"低基期","ratio":"0.24","tone":"low","value":0.23645320197044326},"swingSignals":[{"id":"base_setup","title":"","short":"C準備","icon":"C","reason":"低/中位階整理接近發動；準備分 5/7，RSI 47.5，量比 0.00。"}]},{"code":"3686","name":"達能","close":16.95,"percent":3.0395136778115504,"tradeVolume":222,"value":3762900,"swingScore":63,"score":63,"swingZone":"C","swingStage":{"label":"低基期","ratio":"0.37","tone":"low","value":0.3650793650793648},"swingSignals":[{"id":"base_setup","title":"","short":"C準備","icon":"C","reason":"低/中位階整理接近發動；準備分 5/7，RSI 52.3，量比 0.00。"}]},{"code":"3163","name":"波若威","close":982,"percent":2.8272251308900525,"tradeVolume":2855,"value":2803610000,"swingScore":63,"score":63,"swingZone":"C","swingStage":{"label":"低基期","ratio":"0.26","tone":"low","value":0.26},"swingSignals":[{"id":"base_setup","title":"","short":"C準備","icon":"C","reason":"低/中位階整理接近發動；準備分 5/7，RSI 51.7，量比 0.00。"}]},{"code":"7715","name":"裕山","close":27.5,"percent":2.4208566108007394,"tradeVolume":20,"value":550000,"swingScore":63,"score":63,"swingZone":"C","swingStage":{"label":"低基期","ratio":"0.22","tone":"low","value":0.22000000000000028},"swingSignals":[{"id":"base_setup","title":"","short":"C準備","icon":"C","reason":"低/中位階整理接近發動；準備分 5/7，RSI 38.2，量比 0.00。"}]},{"code":"7760","name":"享溫馨","close":31.8,"percent":2.250802604322005,"tradeVolume":37,"value":1176600,"swingScore":63,"score":63,"swingZone":"C","swingStage":{"label":"低基期","ratio":"0.17","tone":"low","value":0.16949156779706687},"swingSignals":[{"id":"base_setup","title":"","short":"C準備","icon":"C","reason":"低/中位階整理接近發動；準備分 5/7，RSI 29.7，量比 0.00。"}]},{"code":"6613","name":"朋億*","close":255,"percent":2.2044088176352705,"tradeVolume":137,"value":34935000,"swingScore":63,"score":63,"swingZone":"C","swingStage":{"label":"中位階","ratio":"0.50","tone":"mid","value":0.5},"swingSignals":[{"id":"base_setup","title":"","short":"C準備","icon":"C","reason":"低/中位階整理接近發動；準備分 5/7，RSI 54.3，量比 0.35。"}]},{"code":"3593","name":"力銘","close":16.45,"percent":2.1739130434782474,"tradeVolume":46,"value":756700,"swingScore":63,"score":63,"swingZone":"C","swingStage":{"label":"低基期","ratio":"0.19","tone":"low","value":0.18556701030927814},"swingSignals":[{"id":"base_setup","title":"","short":"C準備","icon":"C","reason":"低/中位階整理接近發動；準備分 5/7，RSI 24.1，量比 0.00。"}]},{"code":"1590","name":"亞德客-KY","close":1305,"percent":1.953125,"tradeVolume":455,"value":593775000,"swingScore":63,"score":63,"swingZone":"C","swingStage":{"label":"中位階","ratio":"0.42","tone":"mid","value":0.4158415841584158},"swingSignals":[{"id":"base_setup","title":"","short":"C準備","icon":"C","reason":"低/中位階整理接近發動；準備分 5/7，RSI 40.2，量比 0.00。"}]},{"code":"6854","name":"錼創科技-KY創","close":136.5,"percent":1.8656716417910446,"tradeVolume":365,"value":49822500,"swingScore":63,"score":63,"swingZone":"C","swingStage":{"label":"低基期","ratio":"0.13","tone":"low","value":0.1347517730496454},"swingSignals":[{"id":"base_setup","title":"","short":"C準備","icon":"C","reason":"低/中位階整理接近發動；準備分 5/7，RSI 43.8，量比 0.00。"}]},{"code":"6909","name":"創控","close":46.85,"percent":1.847826086956525,"tradeVolume":344,"value":16116400,"swingScore":63,"score":63,"swingZone":"C","swingStage":{"label":"低基期","ratio":"0.13","tone":"low","value":0.12743362831858412},"swingSignals":[{"id":"base_setup","title":"","short":"C準備","icon":"C","reason":"低/中位階整理接近發動；準備分 5/7，RSI 39.8，量比 0.00。"}]},{"code":"5490","name":"同亨","close":28.75,"percent":1.7699115044247788,"tradeVolume":290,"value":8337500,"swingScore":63,"score":63,"swingZone":"C","swingStage":{"label":"中位階","ratio":"0.53","tone":"mid","value":0.5267857142857144},"swingSignals":[{"id":"base_setup","title":"","short":"C準備","icon":"C","reason":"低/中位階整理接近發動；準備分 5/7，RSI 52.5，量比 0.44。"}]},{"code":"1536","name":"和大","close":49.5,"percent":1.7471736896197358,"tradeVolume":1357,"value":67171500,"swingScore":63,"score":63,"swingZone":"C","swingStage":{"label":"低基期","ratio":"0.27","tone":"low","value":0.2744186046511631},"swingSignals":[{"id":"base_setup","title":"","short":"C準備","icon":"C","reason":"低/中位階整理接近發動；準備分 5/7，RSI 51.2，量比 0.00。"}]},{"code":"3666","name":"光耀","close":25.95,"percent":1.3671874999999916,"tradeVolume":62,"value":1608900,"swingScore":63,"score":63,"swingZone":"C","swingStage":{"label":"中位階","ratio":"0.40","tone":"mid","value":0.396946564885496},"swingSignals":[{"id":"base_setup","title":"","short":"C準備","icon":"C","reason":"低/中位階整理接近發動；準備分 6/7，RSI 43.8，量比 0.45。"}]},{"code":"6552","name":"易華電","close":30.05,"percent":1.349072512647562,"tradeVolume":385,"value":11569250,"swingScore":63,"score":63,"swingZone":"C","swingStage":{"label":"低基期","ratio":"0.33","tone":"low","value":0.32627118644067804},"swingSignals":[{"id":"base_setup","title":"","short":"C準備","icon":"C","reason":"低/中位階整理接近發動；準備分 5/7，RSI 54.4，量比 0.00。"}]},{"code":"4995","name":"晶達","close":45.6,"percent":1.3333333333333366,"tradeVolume":29,"value":1322400,"swingScore":63,"score":63,"swingZone":"C","swingStage":{"label":"中位階","ratio":"0.44","tone":"mid","value":0.4375000000000002},"swingSignals":[{"id":"base_setup","title":"","short":"C準備","icon":"C","reason":"低/中位階整理接近發動；準備分 5/7，RSI 51.2，量比 0.00。"}]}]}
