{"ok":true,"source":"strategy4-preset","updatedAt":"2026-06-11T12:31:33.792Z","scanStamp":"20260611","total":1958,"complete":true,"zone":"C","page":10,"pageSize":25,"totalPages":13,"totalCount":319,"count":25,"matches":[{"code":"6464","name":"台數科","close":78,"percent":0,"tradeVolume":18110,"avgVolume5":36308.4,"value":0,"swingScore":68,"score":68,"swingZone":"C","swingStage":{"label":"高基期","ratio":"0.71","tone":"high","value":0.7142857142857143},"swingSignals":[{"id":"base_setup","title":"","short":"C準備","icon":"C","reason":"低/中位階整理接近發動；準備分 5/7，RSI 46.2，量比 0.62。"}]},{"code":"2014","name":"中鴻","close":17.450000762939453,"percent":-0.28570992606026785,"tradeVolume":5877.037,"avgVolume5":6801.84,"value":0,"swingScore":68,"score":68,"swingZone":"C","swingStage":{"label":"低基期","ratio":"0.22","tone":"low","value":0.2181819568980824},"swingSignals":[{"id":"base_setup","title":"","short":"C準備","icon":"C","reason":"低/中位階整理接近發動；準備分 5/7，RSI 52.6，量比 0.63。"}]},{"code":"2002","name":"中鋼","close":18.549999237060547,"percent":-0.8021471644866794,"tradeVolume":53612.859,"avgVolume5":63653.13,"value":0,"swingScore":68,"score":68,"swingZone":"C","swingStage":{"label":"低基期","ratio":"0.17","tone":"low","value":0.16949148158924127},"swingSignals":[{"id":"base_setup","title":"","short":"C準備","icon":"C","reason":"低/中位階整理接近發動；準備分 5/7，RSI 54.1，量比 0.68。"}]},{"code":"6026","name":"福邦證","close":16.55,"percent":-0.8982081202794509,"tradeVolume":4582.081,"avgVolume5":6455.92,"value":75453720,"swingScore":68,"score":68,"swingZone":"C","swingStage":{"label":"中位階","ratio":"0.41","tone":"mid","value":0.405940655387751},"swingSignals":[{"id":"base_setup","title":"","short":"C準備","icon":"C","reason":"低/中位階整理接近發動；準備分 6/7，RSI 58.0，量比 0.78。"}]},{"code":"6016","name":"康和證","close":27.1,"percent":-0.9140781644709093,"tradeVolume":12999.816,"avgVolume5":21919.54,"value":350369025,"swingScore":68,"score":68,"swingZone":"C","swingStage":{"label":"中位階","ratio":"0.52","tone":"mid","value":0.5204081725994778},"swingSignals":[{"id":"base_setup","title":"","short":"C準備","icon":"C","reason":"低/中位階整理接近發動；準備分 6/7，RSI 59.2，量比 0.72。"}]},{"code":"6415","name":"矽力*-KY","close":481,"percent":-2.33502538071066,"tradeVolume":7917.989,"avgVolume5":5611.93,"value":0,"swingScore":68,"score":68,"swingZone":"C","swingStage":{"label":"中位階","ratio":"0.49","tone":"mid","value":0.48854041013269},"swingSignals":[{"id":"base_setup","title":"","short":"C準備","icon":"C","reason":"低/中位階整理接近發動；準備分 5/7，RSI 39.1，量比 1.02。"}]},{"code":"3234","name":"光環","close":109,"percent":-3.5398230088495577,"tradeVolume":1998.827,"avgVolume5":3417.84,"value":217674643,"swingScore":68,"score":68,"swingZone":"C","swingStage":{"label":"低基期","ratio":"0.35","tone":"low","value":0.34615384615384615},"swingSignals":[{"id":"base_setup","title":"","short":"C準備","icon":"C","reason":"低/中位階整理接近發動；準備分 5/7，RSI 52.6，量比 0.60。"}]},{"code":"2399","name":"映泰","close":46.150001525878906,"percent":4.530011168465493,"tradeVolume":6176.376,"avgVolume5":6586.23,"value":0,"swingScore":67,"score":67,"swingZone":"C","swingStage":{"label":"中位階","ratio":"0.57","tone":"mid","value":0.5732324609171727},"swingSignals":[{"id":"base_setup","title":"","short":"C準備","icon":"C","reason":"低/中位階整理接近發動；準備分 6/7，RSI 49.2，量比 0.57。"}]},{"code":"6182","name":"合晶","close":80.9,"percent":3.0573248407643385,"tradeVolume":11062.852,"avgVolume5":10735.58,"value":847228631,"swingScore":67,"score":67,"swingZone":"C","swingStage":{"label":"高基期","ratio":"0.69","tone":"high","value":0.686453580505585},"swingSignals":[{"id":"base_setup","title":"","short":"C準備","icon":"C","reason":"低/中位階整理接近發動；準備分 5/7，RSI 56.8，量比 0.47。"}]},{"code":"2369","name":"菱生","close":31.899999618530273,"percent":2.5723447821473644,"tradeVolume":12052.436,"avgVolume5":11279.48,"value":0,"swingScore":67,"score":67,"swingZone":"C","swingStage":{"label":"低基期","ratio":"0.29","tone":"low","value":0.28873240571721004},"swingSignals":[{"id":"base_setup","title":"","short":"C準備","icon":"C","reason":"低/中位階整理接近發動；準備分 5/7，RSI 49.6，量比 0.50。"}]},{"code":"2342","name":"茂矽","close":39.70000076293945,"percent":2.1879081652591728,"tradeVolume":5390.69,"avgVolume5":5985.48,"value":0,"swingScore":67,"score":67,"swingZone":"C","swingStage":{"label":"中位階","ratio":"0.56","tone":"mid","value":0.5621469115285535},"swingSignals":[{"id":"base_setup","title":"","short":"C準備","icon":"C","reason":"低/中位階整理接近發動；準備分 6/7，RSI 46.2，量比 0.66。"}]},{"code":"8299","name":"群聯","close":2200,"percent":2.088167053364269,"tradeVolume":6753.337,"avgVolume5":7205.06,"value":14646645715,"swingScore":67,"score":67,"swingZone":"C","swingStage":{"label":"中位階","ratio":"0.49","tone":"mid","value":0.4867924528301887},"swingSignals":[{"id":"base_setup","title":"","short":"C準備","icon":"C","reason":"低/中位階整理接近發動；準備分 5/7，RSI 42.0，量比 0.85。"}]},{"code":"3714","name":"富采","close":63.5,"percent":1.2759158330559515,"tradeVolume":15779.386,"avgVolume5":17320.35,"value":0,"swingScore":67,"score":67,"swingZone":"C","swingStage":{"label":"低基期","ratio":"0.14","tone":"low","value":0.13868611512729465},"swingSignals":[{"id":"base_setup","title":"","short":"C準備","icon":"C","reason":"低/中位階整理接近發動；準備分 5/7，RSI 17.0，量比 0.54。"}]},{"code":"3016","name":"嘉晶","close":104,"percent":0.9708737864077669,"tradeVolume":5032.853,"avgVolume5":5087.9,"value":0,"swingScore":67,"score":67,"swingZone":"C","swingStage":{"label":"中位階","ratio":"0.50","tone":"mid","value":0.49710982658959535},"swingSignals":[{"id":"base_setup","title":"","short":"C準備","icon":"C","reason":"低/中位階整理接近發動；準備分 6/7，RSI 39.8，量比 0.68。"}]},{"code":"3023","name":"信邦","close":308,"percent":0.48939641109298526,"tradeVolume":1478.091,"avgVolume5":3283.65,"value":0,"swingScore":67,"score":67,"swingZone":"C","swingStage":{"label":"中位階","ratio":"0.57","tone":"mid","value":0.5704697986577181},"swingSignals":[{"id":"base_setup","title":"","short":"C準備","icon":"C","reason":"低/中位階整理接近發動；準備分 6/7，RSI 46.8，量比 0.63。"}]},{"code":"1326","name":"台化","close":46.25,"percent":0.10822345505382563,"tradeVolume":16318.686,"avgVolume5":25450.36,"value":0,"swingScore":67,"score":67,"swingZone":"C","swingStage":{"label":"低基期","ratio":"0.17","tone":"low","value":0.16938102492351967},"swingSignals":[{"id":"base_setup","title":"","short":"C準備","icon":"C","reason":"低/中位階整理接近發動；準備分 5/7，RSI 51.5，量比 0.50。"}]},{"code":"2354","name":"鴻準","close":56.20000076293945,"percent":-0.17761718557052458,"tradeVolume":8435.923,"avgVolume5":10386.01,"value":0,"swingScore":67,"score":67,"swingZone":"C","swingStage":{"label":"低基期","ratio":"0.36","tone":"low","value":0.3624999523162842},"swingSignals":[{"id":"base_setup","title":"","short":"C準備","icon":"C","reason":"低/中位階整理接近發動；準備分 6/7，RSI 41.7，量比 0.57。"}]},{"code":"1528","name":"恩德","close":25.200000762939453,"percent":-0.3952508977731968,"tradeVolume":3766.125,"avgVolume5":5271.27,"value":0,"swingScore":67,"score":67,"swingZone":"C","swingStage":{"label":"低基期","ratio":"0.14","tone":"low","value":0.13793111008119166},"swingSignals":[{"id":"base_setup","title":"","short":"C準備","icon":"C","reason":"低/中位階整理接近發動；準備分 5/7，RSI 46.5，量比 0.45。"}]},{"code":"6191","name":"精成科","close":92,"percent":-0.4329020771356545,"tradeVolume":4555.636,"avgVolume5":6572.82,"value":0,"swingScore":67,"score":67,"swingZone":"C","swingStage":{"label":"低基期","ratio":"0.10","tone":"low","value":0.10112349276579014},"swingSignals":[{"id":"base_setup","title":"","short":"C準備","icon":"C","reason":"低/中位階整理接近發動；準備分 6/7，RSI 42.2，量比 0.61。"}]},{"code":"6015","name":"宏遠證","close":17.85,"percent":-0.8333333333333255,"tradeVolume":5262.481,"avgVolume5":9451.71,"value":93122095,"swingScore":67,"score":67,"swingZone":"C","swingStage":{"label":"中位階","ratio":"0.44","tone":"mid","value":0.4434389236339912},"swingSignals":[{"id":"base_setup","title":"","short":"C準備","icon":"C","reason":"低/中位階整理接近發動；準備分 6/7，RSI 58.8，量比 0.64。"}]},{"code":"1514","name":"亞力","close":118,"percent":-0.8403361344537815,"tradeVolume":4222.498,"avgVolume5":8072.31,"value":0,"swingScore":67,"score":67,"swingZone":"C","swingStage":{"label":"低基期","ratio":"0.23","tone":"low","value":0.23170731707317074},"swingSignals":[{"id":"base_setup","title":"","short":"C準備","icon":"C","reason":"低/中位階整理接近發動；準備分 5/7，RSI 46.5，量比 0.50。"}]},{"code":"1503","name":"士電","close":215,"percent":-0.9216589861751152,"tradeVolume":4039.395,"avgVolume5":10712.3,"value":0,"swingScore":67,"score":67,"swingZone":"C","swingStage":{"label":"中位階","ratio":"0.38","tone":"mid","value":0.384180790960452},"swingSignals":[{"id":"base_setup","title":"","short":"C準備","icon":"C","reason":"低/中位階整理接近發動；準備分 5/7，RSI 56.7，量比 0.51。"}]},{"code":"5309","name":"系統電","close":66.6,"percent":-1.4792877170018324,"tradeVolume":7020.276,"avgVolume5":13419.8,"value":465707698,"swingScore":67,"score":67,"swingZone":"C","swingStage":{"label":"低基期","ratio":"0.32","tone":"low","value":0.32319393686575204},"swingSignals":[{"id":"base_setup","title":"","short":"C準備","icon":"C","reason":"低/中位階整理接近發動；準備分 5/7，RSI 46.1，量比 0.47。"}]},{"code":"2331","name":"精英","close":20.649999618530273,"percent":-2.3640662364926572,"tradeVolume":3771.235,"avgVolume5":4768.84,"value":0,"swingScore":67,"score":67,"swingZone":"C","swingStage":{"label":"低基期","ratio":"0.26","tone":"low","value":0.25949358684170815},"swingSignals":[{"id":"base_setup","title":"","short":"C準備","icon":"C","reason":"低/中位階整理接近發動；準備分 5/7，RSI 49.3，量比 0.53。"}]},{"code":"2324","name":"仁寶","close":36.150001525878906,"percent":-2.5606387798232735,"tradeVolume":88515.548,"avgVolume5":144962.96,"value":0,"swingScore":67,"score":67,"swingZone":"C","swingStage":{"label":"中位階","ratio":"0.43","tone":"mid","value":0.42716056917920525},"swingSignals":[{"id":"base_setup","title":"","short":"C準備","icon":"C","reason":"低/中位階整理接近發動；準備分 5/7，RSI 58.0，量比 0.47。"}]}]}
