{"ok":true,"source":"strategy4-preset","updatedAt":"2026-06-09T06:53:44.896Z","scanStamp":"20260609","total":1953,"complete":true,"zone":"C","page":15,"pageSize":25,"totalPages":23,"totalCount":554,"count":25,"matches":[{"code":"6222","name":"立軒","close":20.4,"percent":-0.4878048780487874,"tradeVolume":19,"value":387600,"swingScore":70,"score":70,"swingZone":"C","swingStage":{"label":"低基期","ratio":"0.33","tone":"low","value":0.3263157894736836},"swingSignals":[{"id":"base_setup","title":"","short":"C準備","icon":"C","reason":"低/中位階整理接近發動；準備分 5/7，RSI 30.5，量比 0.90。"}]},{"code":"6020","name":"大展證","close":22.5,"percent":-1.3157894736842135,"tradeVolume":208,"value":4680000,"swingScore":70,"score":70,"swingZone":"C","swingStage":{"label":"中位階","ratio":"0.50","tone":"mid","value":0.5034013605442177},"swingSignals":[{"id":"base_setup","title":"","short":"C準備","icon":"C","reason":"低/中位階整理接近發動；準備分 5/7，RSI 57.6，量比 0.84。"}]},{"code":"4533","name":"協易機","close":31.05,"percent":6.518010291595205,"tradeVolume":1598,"value":49617900,"swingScore":69,"score":69,"swingZone":"C","swingStage":{"label":"中位階","ratio":"0.42","tone":"mid","value":0.4178082191780825},"swingSignals":[{"id":"base_setup","title":"","short":"C準備","icon":"C","reason":"低/中位階整理接近發動；準備分 6/7，RSI 47.3，量比 0.44。"}]},{"code":"3587","name":"閎康","close":303,"percent":5.944055944055944,"tradeVolume":1089,"value":329967000,"swingScore":69,"score":69,"swingZone":"C","swingStage":{"label":"低基期","ratio":"0.24","tone":"low","value":0.2350597609561753},"swingSignals":[{"id":"base_setup","title":"","short":"C準備","icon":"C","reason":"低/中位階整理接近發動；準備分 6/7，RSI 41.2，量比 0.47。"}]},{"code":"8234","name":"新漢","close":66.6,"percent":3.9001560062402496,"tradeVolume":767,"value":51082200,"swingScore":69,"score":69,"swingZone":"C","swingStage":{"label":"低基期","ratio":"0.37","tone":"low","value":0.36559139784946204},"swingSignals":[{"id":"base_setup","title":"","short":"C準備","icon":"C","reason":"低/中位階整理接近發動；準備分 6/7，RSI 51.5，量比 0.52。"}]},{"code":"4549","name":"桓達","close":111.5,"percent":2.7649769585253456,"tradeVolume":340,"value":37910000,"swingScore":69,"score":69,"swingZone":"C","swingStage":{"label":"中位階","ratio":"0.41","tone":"mid","value":0.40501043841336126},"swingSignals":[{"id":"base_setup","title":"","short":"C準備","icon":"C","reason":"低/中位階整理接近發動；準備分 6/7，RSI 57.3，量比 0.46。"}]},{"code":"6953","name":"家碩","close":232.5,"percent":2.197802197802198,"tradeVolume":71,"value":16507500,"swingScore":69,"score":69,"swingZone":"C","swingStage":{"label":"低基期","ratio":"0.33","tone":"low","value":0.3316582914572864},"swingSignals":[{"id":"base_setup","title":"","short":"C準備","icon":"C","reason":"低/中位階整理接近發動；準備分 6/7，RSI 40.7，量比 0.52。"}]},{"code":"3276","name":"宇環","close":14.3,"percent":1.779359430604982,"tradeVolume":150,"value":2145000,"swingScore":69,"score":69,"swingZone":"C","swingStage":{"label":"低基期","ratio":"0.20","tone":"low","value":0.20000000000000018},"swingSignals":[{"id":"base_setup","title":"","short":"C準備","icon":"C","reason":"低/中位階整理接近發動；準備分 6/7，RSI 55.2，量比 0.53。"}]},{"code":"4541","name":"晟田","close":47,"percent":1.0752688172043012,"tradeVolume":663,"value":31161000,"swingScore":69,"score":69,"swingZone":"C","swingStage":{"label":"高基期","ratio":"0.68","tone":"high","value":0.6777251184834123},"swingSignals":[{"id":"base_setup","title":"","short":"C準備","icon":"C","reason":"低/中位階整理接近發動；準備分 6/7，RSI 41.4，量比 0.46。"}]},{"code":"4743","name":"合一","close":49.8,"percent":0.3021148036253748,"tradeVolume":2140,"value":106572000,"swingScore":69,"score":69,"swingZone":"C","swingStage":{"label":"低基期","ratio":"0.21","tone":"low","value":0.21030042918454903},"swingSignals":[{"id":"base_setup","title":"","short":"C準備","icon":"C","reason":"低/中位階整理接近發動；準備分 5/7，RSI 47.0，量比 0.76。"}]},{"code":"6620","name":"漢達","close":70.6,"percent":0.2840909090908929,"tradeVolume":304,"value":21462400,"swingScore":69,"score":69,"swingZone":"C","swingStage":{"label":"低基期","ratio":"0.38","tone":"low","value":0.3757225433526009},"swingSignals":[{"id":"base_setup","title":"","short":"C準備","icon":"C","reason":"低/中位階整理接近發動；準備分 5/7，RSI 17.9，量比 0.71。"}]},{"code":"6506","name":"雙邦","close":19.35,"percent":0.259067357512957,"tradeVolume":206,"value":3986100,"swingScore":69,"score":69,"swingZone":"C","swingStage":{"label":"中位階","ratio":"0.58","tone":"mid","value":0.580645161290323},"swingSignals":[{"id":"base_setup","title":"","short":"C準備","icon":"C","reason":"低/中位階整理接近發動；準備分 6/7，RSI 54.1，量比 0.50。"}]},{"code":"8059","name":"凱碩","close":18.9,"percent":-1.0471204188481824,"tradeVolume":391,"value":7389900,"swingScore":69,"score":69,"swingZone":"C","swingStage":{"label":"低基期","ratio":"0.14","tone":"low","value":0.13636363636363613},"swingSignals":[{"id":"base_setup","title":"","short":"C準備","icon":"C","reason":"低/中位階整理接近發動；準備分 5/7，RSI 53.7，量比 0.69。"}]},{"code":"6441","name":"廣錠","close":24.2,"percent":9.999999999999996,"tradeVolume":170,"value":4114000,"swingScore":68,"score":68,"swingZone":"C","swingStage":{"label":"中位階","ratio":"0.44","tone":"mid","value":0.4351851851851852},"swingSignals":[{"id":"base_setup","title":"","short":"C準備","icon":"C","reason":"低/中位階整理接近發動；準備分 6/7，RSI 50.8，量比 0.00。"}]},{"code":"7749","name":"意騰-KY","close":487.5,"percent":9.92108229988726,"tradeVolume":437,"value":213037500,"swingScore":68,"score":68,"swingZone":"C","swingStage":{"label":"中位階","ratio":"0.59","tone":"mid","value":0.5949720670391061},"swingSignals":[{"id":"base_setup","title":"","short":"C準備","icon":"C","reason":"低/中位階整理接近發動；準備分 6/7，RSI 52.5，量比 0.00。"}]},{"code":"6781","name":"AES-KY","close":1145,"percent":8.018867924528301,"tradeVolume":1323,"value":1514835000,"swingScore":68,"score":68,"swingZone":"C","swingStage":{"label":"中位階","ratio":"0.43","tone":"mid","value":0.4318181818181818},"swingSignals":[{"id":"base_setup","title":"","short":"C準備","icon":"C","reason":"低/中位階整理接近發動；準備分 6/7，RSI 54.0，量比 0.00。"}]},{"code":"2485","name":"兆赫","close":68,"percent":7.594936708860754,"tradeVolume":14061,"value":956148000,"swingScore":68,"score":68,"swingZone":"C","swingStage":{"label":"低基期","ratio":"0.34","tone":"low","value":0.3437499999999999},"swingSignals":[{"id":"base_setup","title":"","short":"C準備","icon":"C","reason":"低/中位階整理接近發動；準備分 6/7，RSI 46.2，量比 0.00。"}]},{"code":"4961","name":"天鈺","close":169.5,"percent":7.2784810126582276,"tradeVolume":1129,"value":191365500,"swingScore":68,"score":68,"swingZone":"C","swingStage":{"label":"中位階","ratio":"0.59","tone":"mid","value":0.59375},"swingSignals":[{"id":"base_setup","title":"","short":"C準備","icon":"C","reason":"低/中位階整理接近發動；準備分 6/7，RSI 48.5，量比 0.00。"}]},{"code":"6739","name":"竹陞科技","close":1235,"percent":6.4655172413793105,"tradeVolume":218,"value":269230000,"swingScore":68,"score":68,"swingZone":"C","swingStage":{"label":"低基期","ratio":"0.20","tone":"low","value":0.1984732824427481},"swingSignals":[{"id":"base_setup","title":"","short":"C準備","icon":"C","reason":"低/中位階整理接近發動；準備分 6/7，RSI 49.5，量比 0.00。"}]},{"code":"6937","name":"天虹","close":284,"percent":5.970149253731343,"tradeVolume":928,"value":263552000,"swingScore":68,"score":68,"swingZone":"C","swingStage":{"label":"低基期","ratio":"0.29","tone":"low","value":0.2904761904761905},"swingSignals":[{"id":"base_setup","title":"","short":"C準備","icon":"C","reason":"低/中位階整理接近發動；準備分 6/7，RSI 51.2，量比 0.00。"}]},{"code":"3413","name":"京鼎","close":312.5,"percent":5.042016806722689,"tradeVolume":1363,"value":425937500,"swingScore":68,"score":68,"swingZone":"C","swingStage":{"label":"低基期","ratio":"0.35","tone":"low","value":0.3541666666666667},"swingSignals":[{"id":"base_setup","title":"","short":"C準備","icon":"C","reason":"低/中位階整理接近發動；準備分 6/7，RSI 49.4，量比 0.00。"}]},{"code":"5439","name":"高技","close":363.5,"percent":2.974504249291785,"tradeVolume":1294,"value":470369000,"swingScore":68,"score":68,"swingZone":"C","swingStage":{"label":"低基期","ratio":"0.26","tone":"low","value":0.25925925925925924},"swingSignals":[{"id":"base_setup","title":"","short":"C準備","icon":"C","reason":"低/中位階整理接近發動；準備分 6/7，RSI 49.5，量比 0.00。"}]},{"code":"3665","name":"貿聯-KY","close":2155,"percent":2.863961813842482,"tradeVolume":2418,"value":5210790000,"swingScore":68,"score":68,"swingZone":"C","swingStage":{"label":"低基期","ratio":"0.26","tone":"low","value":0.2565217391304348},"swingSignals":[{"id":"base_setup","title":"","short":"C準備","icon":"C","reason":"低/中位階整理接近發動；準備分 6/7，RSI 57.3，量比 0.00。"}]},{"code":"6730","name":"常廣","close":35.95,"percent":2.7142857142857224,"tradeVolume":22,"value":790900,"swingScore":68,"score":68,"swingZone":"C","swingStage":{"label":"低基期","ratio":"0.38","tone":"low","value":0.37500000000000033},"swingSignals":[{"id":"base_setup","title":"","short":"C準備","icon":"C","reason":"低/中位階整理接近發動；準備分 6/7，RSI 44.4，量比 0.00。"}]},{"code":"8033","name":"雷虎","close":132.5,"percent":2.7131782945736433,"tradeVolume":2832,"value":375240000,"swingScore":68,"score":68,"swingZone":"C","swingStage":{"label":"低基期","ratio":"0.23","tone":"low","value":0.23170731707317074},"swingSignals":[{"id":"base_setup","title":"","short":"C準備","icon":"C","reason":"低/中位階整理接近發動；準備分 6/7，RSI 49.3，量比 0.00。"}]}]}
