{"ok":true,"source":"strategy4-preset","updatedAt":"2026-06-12T08:03:21.079Z","scanStamp":"20260612","total":1607,"complete":true,"zone":"C","page":1,"pageSize":25,"totalPages":6,"totalCount":135,"count":25,"matches":[{"code":"1304","name":"台聚","close":12.7,"percent":1.5999999999999945,"tradeVolume":3602,"avgVolume5":4043.54,"value":45745400,"swingScore":85,"score":85,"swingZone":"C","swingStage":{"label":"低基期","ratio":"0.21","tone":"low","value":0.20987654320987642},"swingSignals":[{"id":"base_setup","title":"","short":"C準備","icon":"C","reason":"低/中位階整理接近發動；準備分 7/7，RSI 55.6，量比 0.53。"}]},{"code":"1785","name":"光洋科","close":141.5,"percent":-2.7491408934707904,"tradeVolume":38954,"avgVolume5":20877.94,"value":5511991000,"swingScore":85,"score":85,"swingZone":"C","swingStage":{"label":"低基期","ratio":"0.30","tone":"low","value":0.29838709677419356},"swingSignals":[{"id":"base_setup","title":"","short":"C準備","icon":"C","reason":"低/中位階整理接近發動；準備分 7/7，RSI 43.4，量比 1.53。"}]},{"code":"2633","name":"台灣高鐵","close":25.45,"percent":0.3944773175542322,"tradeVolume":4339,"avgVolume5":9154.13,"value":110427550,"swingScore":81,"score":81,"swingZone":"C","swingStage":{"label":"低基期","ratio":"0.30","tone":"low","value":0.2954545454545449},"swingSignals":[{"id":"base_setup","title":"","short":"C準備","icon":"C","reason":"低/中位階整理接近發動；準備分 6/7，RSI 52.0，量比 0.20。"}]},{"code":"2515","name":"中工","close":12.85,"percent":1.1811023622047274,"tradeVolume":8146,"avgVolume5":11454.11,"value":104676100,"swingScore":79,"score":79,"swingZone":"C","swingStage":{"label":"低基期","ratio":"0.32","tone":"low","value":0.31914893617021284},"swingSignals":[{"id":"base_setup","title":"","short":"C準備","icon":"C","reason":"低/中位階整理接近發動；準備分 6/7，RSI 44.4，量比 0.79。"}]},{"code":"7794","name":"宏碁智新","close":32,"percent":0.7874015748031495,"tradeVolume":38,"avgVolume5":12449.42,"value":1216000,"swingScore":79,"score":79,"swingZone":"C","swingStage":{"label":"低基期","ratio":"0.19","tone":"low","value":0.19211822660098518},"swingSignals":[{"id":"base_setup","title":"","short":"C準備","icon":"C","reason":"低/中位階整理接近發動；準備分 6/7，RSI 59.7，量比 0.00。"}]},{"code":"6523","name":"達爾膚","close":98.8,"percent":0.6109979633401164,"tradeVolume":23,"avgVolume5":34487,"value":2272400,"swingScore":79,"score":79,"swingZone":"C","swingStage":{"label":"低基期","ratio":"0.19","tone":"low","value":0.18947368421052602},"swingSignals":[{"id":"base_setup","title":"","short":"C準備","icon":"C","reason":"低/中位階整理接近發動；準備分 6/7，RSI 47.0，量比 0.00。"}]},{"code":"8349","name":"恒耀","close":42,"percent":0.11918951132299678,"tradeVolume":189,"avgVolume5":19565.74,"value":7938000,"swingScore":79,"score":79,"swingZone":"C","swingStage":{"label":"低基期","ratio":"0.32","tone":"low","value":0.31847133757961776},"swingSignals":[{"id":"base_setup","title":"","short":"C準備","icon":"C","reason":"低/中位階整理接近發動；準備分 6/7，RSI 60.8，量比 0.01。"}]},{"code":"2433","name":"互盛電","close":44.05,"percent":0.11363636363635717,"tradeVolume":35,"avgVolume5":41154.8,"value":1541750,"swingScore":79,"score":79,"swingZone":"C","swingStage":{"label":"低基期","ratio":"0.36","tone":"low","value":0.35714285714285715},"swingSignals":[{"id":"base_setup","title":"","short":"C準備","icon":"C","reason":"低/中位階整理接近發動；準備分 6/7，RSI 49.5，量比 0.00。"}]},{"code":"6228","name":"全譜","close":20.9,"percent":-3.240740740740754,"tradeVolume":1,"avgVolume5":15165.4,"value":20900,"swingScore":79,"score":79,"swingZone":"C","swingStage":{"label":"低基期","ratio":"0.27","tone":"low","value":0.2733812949640286},"swingSignals":[{"id":"base_setup","title":"","short":"C準備","icon":"C","reason":"低/中位階整理接近發動；準備分 6/7，RSI 48.8，量比 0.00。"}]},{"code":"9929","name":"秋雨","close":11.4,"percent":-4.201680672268907,"tradeVolume":40,"avgVolume5":27607.38,"value":456000,"swingScore":79,"score":79,"swingZone":"C","swingStage":{"label":"低基期","ratio":"0.21","tone":"low","value":0.21153846153846184},"swingSignals":[{"id":"base_setup","title":"","short":"C準備","icon":"C","reason":"低/中位階整理接近發動；準備分 6/7，RSI 47.7，量比 0.00。"}]},{"code":"2924","name":"宏太-KY","close":16.9,"percent":-4.51977401129944,"tradeVolume":2,"avgVolume5":8717,"value":33800,"swingScore":79,"score":79,"swingZone":"C","swingStage":{"label":"低基期","ratio":"0.28","tone":"low","value":0.27922077922077904},"swingSignals":[{"id":"base_setup","title":"","short":"C準備","icon":"C","reason":"低/中位階整理接近發動；準備分 6/7，RSI 58.3，量比 0.00。"}]},{"code":"1326","name":"台化","close":48.8,"percent":5.513513513513507,"tradeVolume":21602,"avgVolume5":23388.63,"value":1054177600,"swingScore":78,"score":78,"swingZone":"C","swingStage":{"label":"低基期","ratio":"0.34","tone":"low","value":0.3355048859934852},"swingSignals":[{"id":"base_setup","title":"","short":"C準備","icon":"C","reason":"低/中位階整理接近發動；準備分 7/7，RSI 57.6，量比 0.65。"}]},{"code":"2426","name":"鼎元","close":68,"percent":2.5641025641025683,"tradeVolume":22388,"avgVolume5":15575.41,"value":1522384000,"swingScore":78,"score":78,"swingZone":"C","swingStage":{"label":"中位階","ratio":"0.51","tone":"mid","value":0.5128805620608899},"swingSignals":[{"id":"base_setup","title":"","short":"C準備","icon":"C","reason":"低/中位階整理接近發動；準備分 7/7，RSI 39.5，量比 1.36。"}]},{"code":"2904","name":"匯僑","close":14.15,"percent":0.35460992907801925,"tradeVolume":38,"avgVolume5":23147.76,"value":537700,"swingScore":77,"score":77,"swingZone":"C","swingStage":{"label":"低基期","ratio":"0.14","tone":"low","value":0.13559322033898322},"swingSignals":[{"id":"base_setup","title":"","short":"C準備","icon":"C","reason":"低/中位階整理接近發動；準備分 5/7，RSI 53.6，量比 0.00。"}]},{"code":"6221","name":"晉泰","close":23.6,"percent":0,"tradeVolume":90,"avgVolume5":50942.02,"value":2124000,"swingScore":77,"score":77,"swingZone":"C","swingStage":{"label":"低基期","ratio":"0.24","tone":"low","value":0.23529411764705901},"swingSignals":[{"id":"base_setup","title":"","short":"C準備","icon":"C","reason":"低/中位階整理接近發動；準備分 5/7，RSI 56.6，量比 0.00。"}]},{"code":"1309","name":"台達化","close":15.05,"percent":-0.6600660066006577,"tradeVolume":2970,"avgVolume5":4002.11,"value":44698500,"swingScore":77,"score":77,"swingZone":"C","swingStage":{"label":"低基期","ratio":"0.07","tone":"low","value":0.07333333333333343},"swingSignals":[{"id":"base_setup","title":"","short":"C準備","icon":"C","reason":"低/中位階整理接近發動；準備分 5/7，RSI 46.2，量比 0.44。"}]},{"code":"3707","name":"漢磊","close":77.1,"percent":4.1891891891891815,"tradeVolume":14085,"avgVolume5":9663.89,"value":1085953500,"swingScore":76,"score":76,"swingZone":"C","swingStage":{"label":"中位階","ratio":"0.53","tone":"mid","value":0.5341176470588234},"swingSignals":[{"id":"base_setup","title":"","short":"C準備","icon":"C","reason":"低/中位階整理接近發動；準備分 7/7，RSI 41.5，量比 0.71。"}]},{"code":"1301","name":"台塑","close":45.25,"percent":3.3105022831050297,"tradeVolume":21388,"avgVolume5":28393.82,"value":967807000,"swingScore":76,"score":76,"swingZone":"C","swingStage":{"label":"低基期","ratio":"0.16","tone":"low","value":0.16287878787878782},"swingSignals":[{"id":"base_setup","title":"","short":"C準備","icon":"C","reason":"低/中位階整理接近發動；準備分 7/7，RSI 51.3，量比 0.73。"}]},{"code":"6952","name":"大武山","close":36.35,"percent":0.9722222222222262,"tradeVolume":14,"avgVolume5":22746.8,"value":508900,"swingScore":76,"score":76,"swingZone":"C","swingStage":{"label":"低基期","ratio":"0.12","tone":"low","value":0.1164383561643838},"swingSignals":[{"id":"base_setup","title":"","short":"C準備","icon":"C","reason":"低/中位階整理接近發動；準備分 6/7，RSI 48.1，量比 0.00。"}]},{"code":"8367","name":"建新國際","close":40.45,"percent":0.6218905472636815,"tradeVolume":16,"avgVolume5":30257.25,"value":647200,"swingScore":76,"score":76,"swingZone":"C","swingStage":{"label":"低基期","ratio":"0.20","tone":"low","value":0.20430107526881788},"swingSignals":[{"id":"base_setup","title":"","short":"C準備","icon":"C","reason":"低/中位階整理接近發動；準備分 6/7，RSI 47.1，量比 0.00。"}]},{"code":"8401","name":"白紗科","close":22.85,"percent":0.2192982456140382,"tradeVolume":49,"avgVolume5":46430.8,"value":1119650,"swingScore":76,"score":76,"swingZone":"C","swingStage":{"label":"低基期","ratio":"0.20","tone":"low","value":0.19642857142857162},"swingSignals":[{"id":"base_setup","title":"","short":"C準備","icon":"C","reason":"低/中位階整理接近發動；準備分 6/7，RSI 45.8，量比 0.00。"}]},{"code":"9937","name":"全國","close":55.6,"percent":0.18018018018018275,"tradeVolume":29,"avgVolume5":58973.6,"value":1612400,"swingScore":76,"score":76,"swingZone":"C","swingStage":{"label":"低基期","ratio":"0.32","tone":"low","value":0.32352941176470645},"swingSignals":[{"id":"base_setup","title":"","short":"C準備","icon":"C","reason":"低/中位階整理接近發動；準備分 6/7，RSI 51.3，量比 0.00。"}]},{"code":"2496","name":"卓越","close":64.6,"percent":-0.15455950540959587,"tradeVolume":8,"avgVolume5":14183.8,"value":516800,"swingScore":76,"score":76,"swingZone":"C","swingStage":{"label":"低基期","ratio":"0.29","tone":"low","value":0.2916666666666651},"swingSignals":[{"id":"base_setup","title":"","short":"C準備","icon":"C","reason":"低/中位階整理接近發動；準備分 6/7，RSI 51.1，量比 0.00。"}]},{"code":"3016","name":"嘉晶","close":114,"percent":9.615384615384617,"tradeVolume":4236,"avgVolume5":5080.07,"value":482904000,"swingScore":74,"score":74,"swingZone":"C","swingStage":{"label":"中位階","ratio":"0.61","tone":"mid","value":0.6054181389870436},"swingSignals":[{"id":"base_setup","title":"","short":"C準備","icon":"C","reason":"低/中位階整理接近發動；準備分 7/7，RSI 38.3，量比 0.55。"}]},{"code":"4906","name":"正文","close":44.2,"percent":5.238095238095245,"tradeVolume":12998,"avgVolume5":16195.13,"value":574511600,"swingScore":74,"score":74,"swingZone":"C","swingStage":{"label":"中位階","ratio":"0.48","tone":"mid","value":0.4844444444444447},"swingSignals":[{"id":"base_setup","title":"","short":"C準備","icon":"C","reason":"低/中位階整理接近發動；準備分 7/7，RSI 49.8，量比 0.45。"}]}]}
