{"ok":true,"source":"strategy4-preset","updatedAt":"2026-06-09T06:53:44.896Z","scanStamp":"20260609","total":1953,"complete":true,"zone":"B","page":2,"pageSize":25,"totalPages":26,"totalCount":630,"count":25,"matches":[{"code":"8089","name":"康全電訊","close":20.5,"percent":-2.147971360381858,"tradeVolume":611,"value":12525500,"swingScore":100,"score":100,"swingZone":"B","swingStage":{"label":"低基期","ratio":"0.24","tone":"low","value":0.24050632911392392},"swingSignals":[{"id":"watch_trend","title":"","short":"B觀察","icon":"B","reason":"趨勢轉強但尚未觸發突破買點；趨勢分 5/8，量比 1.66，位階 低基期。"}]},{"code":"6180","name":"橘子","close":42.8,"percent":-2.505694760820049,"tradeVolume":923,"value":39504400,"swingScore":100,"score":100,"swingZone":"B","swingStage":{"label":"低基期","ratio":"0.33","tone":"low","value":0.3251028806584359},"swingSignals":[{"id":"watch_trend","title":"","short":"B觀察","icon":"B","reason":"趨勢轉強但尚未觸發突破買點；趨勢分 7/8，量比 1.90，位階 低基期。"}]},{"code":"3093","name":"港建*","close":63.2,"percent":-4.242424242424238,"tradeVolume":9996,"value":631747200,"swingScore":100,"score":100,"swingZone":"B","swingStage":{"label":"中位階","ratio":"0.52","tone":"mid","value":0.5185185185185187},"swingSignals":[{"id":"watch_trend","title":"","short":"B觀察","icon":"B","reason":"趨勢轉強但尚未觸發突破買點；趨勢分 7/8，量比 3.23，位階 中位階。"}]},{"code":"6929","name":"佑全","close":23.3,"percent":-4.703476482617582,"tradeVolume":30,"value":699000,"swingScore":100,"score":100,"swingZone":"B","swingStage":{"label":"低基期","ratio":"0.23","tone":"low","value":0.2272727272727273},"swingSignals":[{"id":"watch_trend","title":"","short":"B觀察","icon":"B","reason":"趨勢轉強但尚未觸發突破買點；趨勢分 6/8，量比 1.58，位階 低基期。"}]},{"code":"6510","name":"精測","close":3390,"percent":-4.908835904628331,"tradeVolume":1068,"value":3620520000,"swingScore":100,"score":100,"swingZone":"B","swingStage":{"label":"低基期","ratio":"0.28","tone":"low","value":0.27666666666666667},"swingSignals":[{"id":"watch_trend","title":"","short":"B觀察","icon":"B","reason":"趨勢轉強但尚未觸發突破買點；趨勢分 5/8，量比 1.21，位階 低基期。"}]},{"code":"6925","name":"意藍","close":75.3,"percent":-5.283018867924532,"tradeVolume":840,"value":63252000,"swingScore":100,"score":100,"swingZone":"B","swingStage":{"label":"高基期","ratio":"0.70","tone":"high","value":0.6985294117647058},"swingSignals":[{"id":"watch_trend","title":"","short":"B觀察","icon":"B","reason":"趨勢轉強但尚未觸發突破買點；趨勢分 7/8，量比 2.44，位階 高基期。"}]},{"code":"8067","name":"志旭","close":13.65,"percent":-5.862068965517239,"tradeVolume":40,"value":546000,"swingScore":100,"score":100,"swingZone":"B","swingStage":{"label":"中位階","ratio":"0.52","tone":"mid","value":0.5178571428571431},"swingSignals":[{"id":"watch_trend","title":"","short":"B觀察","icon":"B","reason":"趨勢轉強但尚未觸發突破買點；趨勢分 7/8，量比 1.90，位階 中位階。"}]},{"code":"6907","name":"雅特力-KY","close":142.5,"percent":-6.557377049180328,"tradeVolume":4657,"value":663622500,"swingScore":100,"score":100,"swingZone":"B","swingStage":{"label":"中位階","ratio":"0.50","tone":"mid","value":0.5},"swingSignals":[{"id":"watch_trend","title":"","short":"B觀察","icon":"B","reason":"趨勢轉強但尚未觸發突破買點；趨勢分 7/8，量比 2.11，位階 中位階。"}]},{"code":"3520","name":"華盈","close":19.15,"percent":2.1333333333333258,"tradeVolume":7593,"value":145405950,"swingScore":99,"score":99,"swingZone":"B","swingStage":{"label":"高基期","ratio":"0.84","tone":"high","value":0.8396946564885495},"swingSignals":[{"id":"watch_trend","title":"","short":"B觀察","icon":"B","reason":"趨勢轉強但尚未觸發突破買點；趨勢分 6/8，量比 6.86，位階 高基期。"}]},{"code":"6961","name":"旅天下","close":61.9,"percent":0.6504065040650383,"tradeVolume":220,"value":13618000,"swingScore":99,"score":99,"swingZone":"B","swingStage":{"label":"高基期","ratio":"0.90","tone":"high","value":0.8999999999999998},"swingSignals":[{"id":"watch_trend","title":"","short":"B觀察","icon":"B","reason":"趨勢轉強但尚未觸發突破買點；趨勢分 6/8，量比 2.64，位階 高基期。"}]},{"code":"3646","name":"艾恩特","close":23.7,"percent":0,"tradeVolume":26,"value":616200,"swingScore":99,"score":99,"swingZone":"B","swingStage":{"label":"低基期","ratio":"0.29","tone":"low","value":0.28571428571428553},"swingSignals":[{"id":"watch_trend","title":"","short":"B觀察","icon":"B","reason":"趨勢轉強但尚未觸發突破買點；趨勢分 6/8，量比 0.69，位階 低基期。"}]},{"code":"5905","name":"南仁湖","close":8.02,"percent":-0.6195786864931935,"tradeVolume":868,"value":6961360,"swingScore":99,"score":99,"swingZone":"B","swingStage":{"label":"低基期","ratio":"0.24","tone":"low","value":0.24050632911392383},"swingSignals":[{"id":"watch_trend","title":"","short":"B觀察","icon":"B","reason":"趨勢轉強但尚未觸發突破買點；趨勢分 5/8，量比 1.13，位階 低基期。"}]},{"code":"8107","name":"大億金茂","close":12.2,"percent":-1.2145748987854281,"tradeVolume":165,"value":2013000,"swingScore":99,"score":99,"swingZone":"B","swingStage":{"label":"中位階","ratio":"0.42","tone":"mid","value":0.41666666666666663},"swingSignals":[{"id":"watch_trend","title":"","short":"B觀察","icon":"B","reason":"趨勢轉強但尚未觸發突破買點；趨勢分 7/8，量比 0.81，位階 中位階。"}]},{"code":"8085","name":"福華","close":13.6,"percent":-1.4492753623188481,"tradeVolume":832,"value":11315200,"swingScore":99,"score":99,"swingZone":"B","swingStage":{"label":"中位階","ratio":"0.41","tone":"mid","value":0.409090909090909},"swingSignals":[{"id":"watch_trend","title":"","short":"B觀察","icon":"B","reason":"趨勢轉強但尚未觸發突破買點；趨勢分 7/8，量比 1.05，位階 中位階。"}]},{"code":"6148","name":"驊宏資","close":36.75,"percent":-4.545454545454546,"tradeVolume":8435,"value":309986250,"swingScore":99,"score":99,"swingZone":"B","swingStage":{"label":"高基期","ratio":"0.65","tone":"high","value":0.647887323943662},"swingSignals":[{"id":"watch_trend","title":"","short":"B觀察","icon":"B","reason":"趨勢轉強但尚未觸發突破買點；趨勢分 6/8，量比 8.17，位階 高基期。"}]},{"code":"2063","name":"世鎧","close":25.3,"percent":1.2000000000000028,"tradeVolume":27,"value":683100,"swingScore":98,"score":98,"swingZone":"B","swingStage":{"label":"低基期","ratio":"0.22","tone":"low","value":0.22413793103448332},"swingSignals":[{"id":"watch_trend","title":"","short":"B觀察","icon":"B","reason":"趨勢轉強但尚未觸發突破買點；趨勢分 5/8，量比 0.98，位階 低基期。"}]},{"code":"4162","name":"智擎","close":57,"percent":0.8849557522123894,"tradeVolume":630,"value":35910000,"swingScore":98,"score":98,"swingZone":"B","swingStage":{"label":"高基期","ratio":"0.65","tone":"high","value":0.6451612903225803},"swingSignals":[{"id":"watch_trend","title":"","short":"B觀察","icon":"B","reason":"趨勢轉強但尚未觸發突破買點；趨勢分 7/8，量比 1.28，位階 高基期。"}]},{"code":"6170","name":"統振","close":52.3,"percent":-1.1342155009451822,"tradeVolume":592,"value":30961600,"swingScore":98,"score":98,"swingZone":"B","swingStage":{"label":"高基期","ratio":"0.80","tone":"high","value":0.8013245033112582},"swingSignals":[{"id":"watch_trend","title":"","short":"B觀察","icon":"B","reason":"趨勢轉強但尚未觸發突破買點；趨勢分 7/8，量比 1.24，位階 高基期。"}]},{"code":"3323","name":"加百裕","close":36.2,"percent":-2.818791946308717,"tradeVolume":2189,"value":79241800,"swingScore":98,"score":98,"swingZone":"B","swingStage":{"label":"高基期","ratio":"0.66","tone":"high","value":0.6617647058823534},"swingSignals":[{"id":"watch_trend","title":"","short":"B觀察","icon":"B","reason":"趨勢轉強但尚未觸發突破買點；趨勢分 7/8，量比 1.49，位階 高基期。"}]},{"code":"6015","name":"宏遠證","close":19.1,"percent":-6.142506142506142,"tradeVolume":11728,"value":224004800,"swingScore":98,"score":98,"swingZone":"B","swingStage":{"label":"中位階","ratio":"0.56","tone":"mid","value":0.5565610859728508},"swingSignals":[{"id":"watch_trend","title":"","short":"B觀察","icon":"B","reason":"趨勢轉強但尚未觸發突破買點；趨勢分 6/8，量比 1.45，位階 中位階。"}]},{"code":"3526","name":"凡甲","close":345,"percent":-6.25,"tradeVolume":1746,"value":602370000,"swingScore":98,"score":98,"swingZone":"B","swingStage":{"label":"高基期","ratio":"0.81","tone":"high","value":0.8114754098360656},"swingSignals":[{"id":"watch_trend","title":"","short":"B觀察","icon":"B","reason":"趨勢轉強但尚未觸發突破買點；趨勢分 7/8，量比 1.55，位階 高基期。"}]},{"code":"6241","name":"鑫永洋","close":10.95,"percent":9.939759036144562,"tradeVolume":256,"value":2803200,"swingScore":97,"score":97,"swingZone":"B","swingStage":{"label":"高基期","ratio":"0.83","tone":"high","value":0.8275862068965516},"swingSignals":[{"id":"watch_trend","title":"","short":"B觀察","icon":"B","reason":"趨勢轉強但尚未觸發突破買點；趨勢分 7/8，量比 1.09，位階 高基期。"}]},{"code":"3537","name":"堡達","close":81,"percent":5.606258148631026,"tradeVolume":8244,"value":667764000,"swingScore":97,"score":97,"swingZone":"B","swingStage":{"label":"高基期","ratio":"0.89","tone":"high","value":0.8876146788990824},"swingSignals":[{"id":"watch_trend","title":"","short":"B觀察","icon":"B","reason":"趨勢轉強但尚未觸發突破買點；趨勢分 7/8，量比 1.43，位階 高基期。"}]},{"code":"3357","name":"臺慶科","close":298,"percent":5.30035335689046,"tradeVolume":18538,"value":5524324000,"swingScore":97,"score":97,"swingZone":"B","swingStage":{"label":"高基期","ratio":"0.94","tone":"high","value":0.9395770392749244},"swingSignals":[{"id":"watch_trend","title":"","short":"B觀察","icon":"B","reason":"趨勢轉強但尚未觸發突破買點；趨勢分 6/8，量比 1.95，位階 高基期。"}]},{"code":"6104","name":"創惟","close":102.5,"percent":3.535353535353535,"tradeVolume":2371,"value":243027500,"swingScore":97,"score":97,"swingZone":"B","swingStage":{"label":"高基期","ratio":"0.69","tone":"high","value":0.6860986547085202},"swingSignals":[{"id":"watch_trend","title":"","short":"B觀察","icon":"B","reason":"趨勢轉強但尚未觸發突破買點；趨勢分 7/8，量比 1.11，位階 高基期。"}]}]}
