{"ok":true,"source":"strategy4-preset","updatedAt":"2026-06-06T12:34:51.971Z","scanStamp":"20260606","total":1957,"complete":true,"zone":"C","page":8,"pageSize":25,"totalPages":14,"totalCount":348,"count":25,"matches":[{"code":"6477","name":"安集","close":33.7,"percent":-1.8922852983988312,"tradeVolume":600,"value":20220000,"swingScore":74,"score":74,"swingZone":"C","swingStage":{"label":"低基期","ratio":"0.22","tone":"low","value":0.21782178217821824},"swingSignals":[{"id":"base_setup","title":"","short":"C準備","icon":"C","reason":"低/中位階整理接近發動；準備分 5/7，RSI 47.2，量比 0.00。"}]},{"code":"2756","name":"聯發國際","close":59,"percent":-1.9933554817275794,"tradeVolume":37,"value":2183000,"swingScore":74,"score":74,"swingZone":"C","swingStage":{"label":"低基期","ratio":"0.06","tone":"low","value":0.0634920634920633},"swingSignals":[{"id":"base_setup","title":"","short":"C準備","icon":"C","reason":"低/中位階整理接近發動；準備分 5/7，RSI 46.7，量比 0.00。"}]},{"code":"2719","name":"燦星旅","close":25.4,"percent":-2.307692307692313,"tradeVolume":22,"value":558800,"swingScore":74,"score":74,"swingZone":"C","swingStage":{"label":"低基期","ratio":"0.07","tone":"low","value":0.07432432432432395},"swingSignals":[{"id":"base_setup","title":"","short":"C準備","icon":"C","reason":"低/中位階整理接近發動；準備分 5/7，RSI 48.0，量比 0.00。"}]},{"code":"6934","name":"心誠鎂","close":71.6,"percent":-2.452318104168266,"tradeVolume":104,"value":7446400,"swingScore":74,"score":74,"swingZone":"C","swingStage":{"label":"低基期","ratio":"0.03","tone":"low","value":0.03401365557748915},"swingSignals":[{"id":"base_setup","title":"","short":"C準備","icon":"C","reason":"低/中位階整理接近發動；準備分 5/7，RSI 46.4，量比 0.00。"}]},{"code":"2419","name":"仲琦","close":30.45,"percent":-2.5600000000000023,"tradeVolume":1996,"value":60778200,"swingScore":74,"score":74,"swingZone":"C","swingStage":{"label":"低基期","ratio":"0.21","tone":"low","value":0.21078437275722925},"swingSignals":[{"id":"base_setup","title":"","short":"C準備","icon":"C","reason":"低/中位階整理接近發動；準備分 5/7，RSI 52.3，量比 0.00。"}]},{"code":"7842","name":"天能綠電","close":108.5,"percent":-3.125,"tradeVolume":61,"value":6618500,"swingScore":74,"score":74,"swingZone":"C","swingStage":{"label":"低基期","ratio":"0.13","tone":"low","value":0.12666666666666668},"swingSignals":[{"id":"base_setup","title":"","short":"C準備","icon":"C","reason":"低/中位階整理接近發動；準備分 5/7，RSI 57.1，量比 0.00。"}]},{"code":"4169","name":"泰宗","close":154,"percent":-3.1446540880503147,"tradeVolume":130,"value":20020000,"swingScore":74,"score":74,"swingZone":"C","swingStage":{"label":"低基期","ratio":"0.18","tone":"low","value":0.18181818181818182},"swingSignals":[{"id":"base_setup","title":"","short":"C準備","icon":"C","reason":"低/中位階整理接近發動；準備分 5/7，RSI 54.7，量比 0.00。"}]},{"code":"5521","name":"工信","close":10.15,"percent":-3.33333333333333,"tradeVolume":6728,"value":68289200,"swingScore":74,"score":74,"swingZone":"C","swingStage":{"label":"低基期","ratio":"0.02","tone":"low","value":0.019230769230769506},"swingSignals":[{"id":"base_setup","title":"","short":"C準備","icon":"C","reason":"低/中位階整理接近發動；準備分 5/7，RSI 48.2，量比 0.00。"}]},{"code":"1213","name":"大飲","close":8.34,"percent":-3.3603707995365104,"tradeVolume":25,"value":208500,"swingScore":74,"score":74,"swingZone":"C","swingStage":{"label":"低基期","ratio":"0.21","tone":"low","value":0.2138364779874213},"swingSignals":[{"id":"base_setup","title":"","short":"C準備","icon":"C","reason":"低/中位階整理接近發動；準備分 5/7，RSI 37.9，量比 0.00。"}]},{"code":"6933","name":"AMAX-KY","close":167.5,"percent":-3.7356321839080464,"tradeVolume":212,"value":35510000,"swingScore":74,"score":74,"swingZone":"C","swingStage":{"label":"低基期","ratio":"0.26","tone":"low","value":0.2616822429906542},"swingSignals":[{"id":"base_setup","title":"","short":"C準備","icon":"C","reason":"低/中位階整理接近發動；準備分 5/7，RSI 54.0，量比 0.00。"}]},{"code":"2449","name":"京元電子","close":309.5,"percent":-3.881987577639751,"tradeVolume":27688,"value":8569436000,"swingScore":74,"score":74,"swingZone":"C","swingStage":{"label":"中位階","ratio":"0.42","tone":"mid","value":0.42408376963350786},"swingSignals":[{"id":"base_setup","title":"","short":"C準備","icon":"C","reason":"低/中位階整理接近發動；準備分 5/7，RSI 54.4，量比 0.00。"}]},{"code":"7716","name":"昱臺國際","close":24.7,"percent":-3.8910505836575875,"tradeVolume":6,"value":148200,"swingScore":74,"score":74,"swingZone":"C","swingStage":{"label":"低基期","ratio":"0.20","tone":"low","value":0.19607843137254896},"swingSignals":[{"id":"base_setup","title":"","short":"C準備","icon":"C","reason":"低/中位階整理接近發動；準備分 5/7，RSI 45.1，量比 0.00。"}]},{"code":"2460","name":"建通","close":32.15,"percent":-4.029850746268661,"tradeVolume":844,"value":27134600,"swingScore":74,"score":74,"swingZone":"C","swingStage":{"label":"低基期","ratio":"0.25","tone":"low","value":0.24583326975504546},"swingSignals":[{"id":"base_setup","title":"","short":"C準備","icon":"C","reason":"低/中位階整理接近發動；準備分 5/7，RSI 49.8，量比 0.00。"}]},{"code":"6869","name":"雲豹能源","close":83.9,"percent":-4.875280155355924,"tradeVolume":967,"value":81131300,"swingScore":74,"score":74,"swingZone":"C","swingStage":{"label":"中位階","ratio":"0.48","tone":"mid","value":0.482517379543624},"swingSignals":[{"id":"base_setup","title":"","short":"C準備","icon":"C","reason":"低/中位階整理接近發動；準備分 5/7，RSI 60.9，量比 0.00。"}]},{"code":"5355","name":"佳總","close":6.51,"percent":-5.924856528520791,"tradeVolume":24,"value":156240,"swingScore":74,"score":74,"swingZone":"C","swingStage":{"label":"低基期","ratio":"0.35","tone":"low","value":0.3541666525933482},"swingSignals":[{"id":"base_setup","title":"","short":"C準備","icon":"C","reason":"低/中位階整理接近發動；準備分 5/7，RSI 54.3，量比 0.00。"}]},{"code":"1519","name":"華城","close":851,"percent":-6.4835164835164845,"tradeVolume":6944,"value":5909344000,"swingScore":74,"score":74,"swingZone":"C","swingStage":{"label":"低基期","ratio":"0.36","tone":"low","value":0.3568281938325991},"swingSignals":[{"id":"base_setup","title":"","short":"C準備","icon":"C","reason":"低/中位階整理接近發動；準備分 5/7，RSI 55.9，量比 0.00。"}]},{"code":"2438","name":"翔耀","close":24.15,"percent":-6.936418921074289,"tradeVolume":458,"value":11060700,"swingScore":74,"score":74,"swingZone":"C","swingStage":{"label":"中位階","ratio":"0.42","tone":"mid","value":0.41860472130865384},"swingSignals":[{"id":"base_setup","title":"","short":"C準備","icon":"C","reason":"低/中位階整理接近發動；準備分 5/7，RSI 58.2，量比 0.00。"}]},{"code":"6785","name":"昱展新藥","close":119.5,"percent":3.0172413793103448,"tradeVolume":74,"value":8843000,"swingScore":73,"score":73,"swingZone":"C","swingStage":{"label":"低基期","ratio":"0.06","tone":"low","value":0.064},"swingSignals":[{"id":"base_setup","title":"","short":"C準備","icon":"C","reason":"低/中位階整理接近發動；準備分 6/7，RSI 41.5，量比 0.00。"}]},{"code":"1295","name":"生合","close":50,"percent":1.6260162601625958,"tradeVolume":56,"value":2800000,"swingScore":73,"score":73,"swingZone":"C","swingStage":{"label":"低基期","ratio":"0.16","tone":"low","value":0.1645569620253165},"swingSignals":[{"id":"base_setup","title":"","short":"C準備","icon":"C","reason":"低/中位階整理接近發動；準備分 6/7，RSI 41.7，量比 0.00。"}]},{"code":"6952","name":"大武山","close":36.4,"percent":0.6915586820712152,"tradeVolume":13,"value":473200,"swingScore":73,"score":73,"swingZone":"C","swingStage":{"label":"低基期","ratio":"0.09","tone":"low","value":0.08571439470563595},"swingSignals":[{"id":"base_setup","title":"","short":"C準備","icon":"C","reason":"低/中位階整理接近發動；準備分 6/7，RSI 42.4，量比 0.00。"}]},{"code":"1445","name":"大宇","close":11.65,"percent":0.4310344827586268,"tradeVolume":56,"value":652400,"swingScore":73,"score":73,"swingZone":"C","swingStage":{"label":"低基期","ratio":"0.17","tone":"low","value":0.1730769230769234},"swingSignals":[{"id":"base_setup","title":"","short":"C準備","icon":"C","reason":"低/中位階整理接近發動；準備分 6/7，RSI 40.0，量比 0.00。"}]},{"code":"5520","name":"力泰","close":81.5,"percent":0.12285012285011586,"tradeVolume":5,"value":407500,"swingScore":73,"score":73,"swingZone":"C","swingStage":{"label":"中位階","ratio":"0.45","tone":"mid","value":0.4545454545454549},"swingSignals":[{"id":"base_setup","title":"","short":"C準備","icon":"C","reason":"低/中位階整理接近發動；準備分 6/7，RSI 53.6，量比 0.00。"}]},{"code":"5704","name":"老爺知","close":21.15,"percent":0,"tradeVolume":81,"value":1713150,"swingScore":73,"score":73,"swingZone":"C","swingStage":{"label":"低基期","ratio":"0.09","tone":"low","value":0.09090909090909091},"swingSignals":[{"id":"base_setup","title":"","short":"C準備","icon":"C","reason":"低/中位階整理接近發動；準備分 6/7，RSI 39.1，量比 0.00。"}]},{"code":"6210","name":"慶生","close":21.05,"percent":0,"tradeVolume":48,"value":1010400,"swingScore":73,"score":73,"swingZone":"C","swingStage":{"label":"中位階","ratio":"0.52","tone":"mid","value":0.5151515151515154},"swingSignals":[{"id":"base_setup","title":"","short":"C準備","icon":"C","reason":"低/中位階整理接近發動；準備分 6/7，RSI 47.2，量比 0.61。"}]},{"code":"2433","name":"互盛電","close":44.3,"percent":-0.5611672278338945,"tradeVolume":37,"value":1639100,"swingScore":73,"score":73,"swingZone":"C","swingStage":{"label":"中位階","ratio":"0.43","tone":"mid","value":0.42857142857142855},"swingSignals":[{"id":"base_setup","title":"","short":"C準備","icon":"C","reason":"低/中位階整理接近發動；準備分 6/7，RSI 41.6，量比 0.00。"}]}]}
