{"ok":true,"source":"strategy4-preset","updatedAt":"2026-06-06T12:34:51.971Z","scanStamp":"20260606","total":1957,"complete":true,"zone":"B","page":34,"pageSize":25,"totalPages":41,"totalCount":1020,"count":25,"matches":[{"code":"1104","name":"環泥","close":29.4,"percent":0.512820512820508,"tradeVolume":1273,"value":37426200,"swingScore":78,"score":78,"swingZone":"B","swingStage":{"label":"高基期","ratio":"0.87","tone":"high","value":0.8727272727272722},"swingSignals":[{"id":"watch_trend","title":"","short":"B觀察","icon":"B","reason":"趨勢轉強但尚未觸發突破買點；趨勢分 5/8，量比 0.00，位階 高基期。"}]},{"code":"6024","name":"群益期","close":60.4,"percent":0.49917060481804293,"tradeVolume":1051,"value":63480400,"swingScore":78,"score":78,"swingZone":"B","swingStage":{"label":"高基期","ratio":"0.82","tone":"high","value":0.8208954815982374},"swingSignals":[{"id":"watch_trend","title":"","short":"B觀察","icon":"B","reason":"趨勢轉強但尚未觸發突破買點；趨勢分 5/8，量比 0.00，位階 高基期。"}]},{"code":"8481","name":"政伸","close":41.35,"percent":0.4860267314702378,"tradeVolume":20,"value":827000,"swingScore":78,"score":78,"swingZone":"B","swingStage":{"label":"高基期","ratio":"0.68","tone":"high","value":0.6792452830188681},"swingSignals":[{"id":"watch_trend","title":"","short":"B觀察","icon":"B","reason":"趨勢轉強但尚未觸發突破買點；趨勢分 5/8，量比 0.00，位階 高基期。"}]},{"code":"2506","name":"太設","close":8.93,"percent":0.4499398777559036,"tradeVolume":124,"value":1107320,"swingScore":78,"score":78,"swingZone":"B","swingStage":{"label":"高基期","ratio":"0.83","tone":"high","value":0.8253969176646181},"swingSignals":[{"id":"watch_trend","title":"","short":"B觀察","icon":"B","reason":"趨勢轉強但尚未觸發突破買點；趨勢分 5/8，量比 0.00，位階 高基期。"}]},{"code":"6015","name":"宏遠證","close":22.6,"percent":0.44444444444445075,"tradeVolume":15266,"value":345011600,"swingScore":78,"score":78,"swingZone":"B","swingStage":{"label":"高基期","ratio":"0.87","tone":"high","value":0.8733031674208146},"swingSignals":[{"id":"watch_trend","title":"","short":"B觀察","icon":"B","reason":"趨勢轉強但尚未觸發突破買點；趨勢分 5/8，量比 0.00，位階 高基期。"}]},{"code":"2636","name":"台驊控股","close":70.7,"percent":0.42613636363635954,"tradeVolume":717,"value":50691900,"swingScore":78,"score":78,"swingZone":"B","swingStage":{"label":"高基期","ratio":"0.97","tone":"high","value":0.9701492537313429},"swingSignals":[{"id":"watch_trend","title":"","short":"B觀察","icon":"B","reason":"趨勢轉強但尚未觸發突破買點；趨勢分 5/8，量比 0.00，位階 高基期。"}]},{"code":"4915","name":"致伸","close":77.4,"percent":0.3891050583657735,"tradeVolume":4870,"value":376938000,"swingScore":78,"score":78,"swingZone":"B","swingStage":{"label":"高基期","ratio":"0.85","tone":"high","value":0.8452380952380957},"swingSignals":[{"id":"watch_trend","title":"","short":"B觀察","icon":"B","reason":"趨勢轉強但尚未觸發突破買點；趨勢分 5/8，量比 0.00，位階 高基期。"}]},{"code":"2387","name":"精元","close":42.45,"percent":0.3546117391133069,"tradeVolume":657,"value":27889650,"swingScore":78,"score":78,"swingZone":"B","swingStage":{"label":"高基期","ratio":"0.76","tone":"high","value":0.7603304471957896},"swingSignals":[{"id":"watch_trend","title":"","short":"B觀察","icon":"B","reason":"趨勢轉強但尚未觸發突破買點；趨勢分 5/8，量比 0.00，位階 高基期。"}]},{"code":"8908","name":"欣雄","close":42.45,"percent":0.3546099290780277,"tradeVolume":250,"value":10612500,"swingScore":78,"score":78,"swingZone":"B","swingStage":{"label":"高基期","ratio":"0.91","tone":"high","value":0.9080459770114946},"swingSignals":[{"id":"watch_trend","title":"","short":"B觀察","icon":"B","reason":"趨勢轉強但尚未觸發突破買點；趨勢分 5/8，量比 0.00，位階 高基期。"}]},{"code":"3689","name":"湧德","close":141.5,"percent":0.3546099290780142,"tradeVolume":4905,"value":694057500,"swingScore":78,"score":78,"swingZone":"B","swingStage":{"label":"高基期","ratio":"0.86","tone":"high","value":0.8571428571428571},"swingSignals":[{"id":"watch_trend","title":"","short":"B觀察","icon":"B","reason":"趨勢轉強但尚未觸發突破買點；趨勢分 5/8，量比 0.00，位階 高基期。"}]},{"code":"3046","name":"建碁","close":60.3,"percent":0.3327812495120504,"tradeVolume":925,"value":55777500,"swingScore":78,"score":78,"swingZone":"B","swingStage":{"label":"高基期","ratio":"0.79","tone":"high","value":0.7873563404866938},"swingSignals":[{"id":"watch_trend","title":"","short":"B觀察","icon":"B","reason":"趨勢轉強但尚未觸發突破買點；趨勢分 5/8，量比 0.00，位階 高基期。"}]},{"code":"2820","name":"華票","close":17.2,"percent":0.29154518950437736,"tradeVolume":2418,"value":41589600,"swingScore":78,"score":78,"swingZone":"B","swingStage":{"label":"高基期","ratio":"0.80","tone":"high","value":0.7999999999999972},"swingSignals":[{"id":"watch_trend","title":"","short":"B觀察","icon":"B","reason":"趨勢轉強但尚未觸發突破買點；趨勢分 5/8，量比 0.00，位階 高基期。"}]},{"code":"2493","name":"揚博","close":178,"percent":0.28169014084507044,"tradeVolume":18810,"value":3348180000,"swingScore":78,"score":78,"swingZone":"B","swingStage":{"label":"高基期","ratio":"0.84","tone":"high","value":0.8417721518987342},"swingSignals":[{"id":"watch_trend","title":"","short":"B觀察","icon":"B","reason":"趨勢轉強但尚未觸發突破買點；趨勢分 5/8，量比 0.00，位階 高基期。"}]},{"code":"2610","name":"華航","close":19.95,"percent":0.25125820315678304,"tradeVolume":49192,"value":981380400,"swingScore":78,"score":78,"swingZone":"B","swingStage":{"label":"高基期","ratio":"0.92","tone":"high","value":0.9183673215180447},"swingSignals":[{"id":"watch_trend","title":"","short":"B觀察","icon":"B","reason":"趨勢轉強但尚未觸發突破買點；趨勢分 5/8，量比 0.00，位階 高基期。"}]},{"code":"4935","name":"茂林-KY","close":41.1,"percent":0.2439024390243937,"tradeVolume":198,"value":8137800,"swingScore":78,"score":78,"swingZone":"B","swingStage":{"label":"高基期","ratio":"0.73","tone":"high","value":0.7278481012658229},"swingSignals":[{"id":"watch_trend","title":"","short":"B觀察","icon":"B","reason":"趨勢轉強但尚未觸發突破買點；趨勢分 5/8，量比 0.00，位階 高基期。"}]},{"code":"3054","name":"立萬利","close":83.8,"percent":0.2392362793413389,"tradeVolume":1602,"value":134247600,"swingScore":78,"score":78,"swingZone":"B","swingStage":{"label":"高基期","ratio":"0.99","tone":"high","value":0.9947089144018332},"swingSignals":[{"id":"watch_trend","title":"","short":"B觀察","icon":"B","reason":"趨勢轉強但尚未觸發突破買點；趨勢分 5/8，量比 0.01，位階 高基期。"}]},{"code":"2801","name":"彰銀","close":21.45,"percent":0.23364485981308744,"tradeVolume":33561,"value":719883450,"swingScore":78,"score":78,"swingZone":"B","swingStage":{"label":"高基期","ratio":"0.82","tone":"high","value":0.8235294117647054},"swingSignals":[{"id":"watch_trend","title":"","short":"B觀察","icon":"B","reason":"趨勢轉強但尚未觸發突破買點；趨勢分 5/8，量比 0.00，位階 高基期。"}]},{"code":"3703","name":"欣陸","close":21.55,"percent":0.23255813953488702,"tradeVolume":1336,"value":28790800,"swingScore":78,"score":78,"swingZone":"B","swingStage":{"label":"高基期","ratio":"0.66","tone":"high","value":0.6603772661447974},"swingSignals":[{"id":"watch_trend","title":"","short":"B觀察","icon":"B","reason":"趨勢轉強但尚未觸發突破買點；趨勢分 5/8，量比 0.00，位階 高基期。"}]},{"code":"2546","name":"根基","close":87.9,"percent":0.2280501710376315,"tradeVolume":100,"value":8790000,"swingScore":78,"score":78,"swingZone":"B","swingStage":{"label":"高基期","ratio":"0.94","tone":"high","value":0.9423076923076928},"swingSignals":[{"id":"watch_trend","title":"","short":"B觀察","icon":"B","reason":"趨勢轉強但尚未觸發突破買點；趨勢分 5/8，量比 0.00，位階 高基期。"}]},{"code":"2115","name":"六暉-KY","close":22,"percent":0.22779043280182557,"tradeVolume":87,"value":1914000,"swingScore":78,"score":78,"swingZone":"B","swingStage":{"label":"高基期","ratio":"0.72","tone":"high","value":0.7187500000000003},"swingSignals":[{"id":"watch_trend","title":"","short":"B觀察","icon":"B","reason":"趨勢轉強但尚未觸發突破買點；趨勢分 5/8，量比 0.00，位階 高基期。"}]},{"code":"3290","name":"東浦","close":50.2,"percent":0.19960079840319644,"tradeVolume":3031,"value":152156200,"swingScore":78,"score":78,"swingZone":"B","swingStage":{"label":"高基期","ratio":"0.69","tone":"high","value":0.6853932584269665},"swingSignals":[{"id":"watch_trend","title":"","short":"B觀察","icon":"B","reason":"趨勢轉強但尚未觸發突破買點；趨勢分 5/8，量比 0.00，位階 高基期。"}]},{"code":"2887","name":"台新新光金","close":28.6,"percent":0.17513402548378676,"tradeVolume":135727,"value":3881792200,"swingScore":78,"score":78,"swingZone":"B","swingStage":{"label":"高基期","ratio":"0.88","tone":"high","value":0.8778626394330254},"swingSignals":[{"id":"watch_trend","title":"","short":"B觀察","icon":"B","reason":"趨勢轉強但尚未觸發突破買點；趨勢分 5/8，量比 0.00，位階 高基期。"}]},{"code":"2851","name":"中再保","close":36.9,"percent":0.1356893567146814,"tradeVolume":1501,"value":55386900,"swingScore":78,"score":78,"swingZone":"B","swingStage":{"label":"高基期","ratio":"0.96","tone":"high","value":0.9631900973285888},"swingSignals":[{"id":"watch_trend","title":"","short":"B觀察","icon":"B","reason":"趨勢轉強但尚未觸發突破買點；趨勢分 5/8，量比 0.00，位階 高基期。"}]},{"code":"2511","name":"太子","close":8.03,"percent":0.12468256440867831,"tradeVolume":2093,"value":16806790,"swingScore":78,"score":78,"swingZone":"B","swingStage":{"label":"高基期","ratio":"0.66","tone":"high","value":0.6621624185188136},"swingSignals":[{"id":"watch_trend","title":"","short":"B觀察","icon":"B","reason":"趨勢轉強但尚未觸發突破買點；趨勢分 5/8，量比 0.00，位階 高基期。"}]},{"code":"2032","name":"新鋼","close":18.3,"percent":0.000004169068227557427,"tradeVolume":662,"value":12114600,"swingScore":78,"score":78,"swingZone":"B","swingStage":{"label":"高基期","ratio":"0.77","tone":"high","value":0.7738095135375213},"swingSignals":[{"id":"watch_trend","title":"","short":"B觀察","icon":"B","reason":"趨勢轉強但尚未觸發突破買點；趨勢分 5/8，量比 0.00，位階 高基期。"}]}]}
