{"ok":true,"source":"strategy4-preset","updatedAt":"2026-06-09T06:53:44.896Z","scanStamp":"20260609","total":1953,"complete":true,"zone":"C","page":16,"pageSize":25,"totalPages":23,"totalCount":554,"count":25,"matches":[{"code":"1233","name":"天仁","close":28,"percent":2.1897810218978155,"tradeVolume":48,"value":1344000,"swingScore":68,"score":68,"swingZone":"C","swingStage":{"label":"低基期","ratio":"0.33","tone":"low","value":0.3333333333333333},"swingSignals":[{"id":"base_setup","title":"","short":"C準備","icon":"C","reason":"低/中位階整理接近發動；準備分 6/7，RSI 40.7，量比 0.00。"}]},{"code":"2640","name":"大車隊","close":160,"percent":1.910828025477707,"tradeVolume":10,"value":1600000,"swingScore":68,"score":68,"swingZone":"C","swingStage":{"label":"低基期","ratio":"0.15","tone":"low","value":0.14864864864864866},"swingSignals":[{"id":"base_setup","title":"","short":"C準備","icon":"C","reason":"低/中位階整理接近發動；準備分 6/7，RSI 42.3，量比 0.00。"}]},{"code":"6753","name":"龍德造船","close":122,"percent":1.6666666666666667,"tradeVolume":840,"value":102480000,"swingScore":68,"score":68,"swingZone":"C","swingStage":{"label":"低基期","ratio":"0.24","tone":"low","value":0.23684210526315788},"swingSignals":[{"id":"base_setup","title":"","short":"C準備","icon":"C","reason":"低/中位階整理接近發動；準備分 6/7，RSI 45.8，量比 0.00。"}]},{"code":"1569","name":"濱川","close":50,"percent":1.1122345803842206,"tradeVolume":695,"value":34750000,"swingScore":68,"score":68,"swingZone":"C","swingStage":{"label":"低基期","ratio":"0.13","tone":"low","value":0.13131313131313135},"swingSignals":[{"id":"base_setup","title":"","short":"C準備","icon":"C","reason":"低/中位階整理接近發動；準備分 5/7，RSI 49.3，量比 0.65。"}]},{"code":"5234","name":"達興材料","close":391.5,"percent":0.6426735218508998,"tradeVolume":568,"value":222372000,"swingScore":68,"score":68,"swingZone":"C","swingStage":{"label":"低基期","ratio":"0.20","tone":"low","value":0.1970260223048327},"swingSignals":[{"id":"base_setup","title":"","short":"C準備","icon":"C","reason":"低/中位階整理接近發動；準備分 6/7，RSI 46.3，量比 0.00。"}]},{"code":"4432","name":"銘旺實","close":16.55,"percent":0.6079027355623187,"tradeVolume":21,"value":347550,"swingScore":68,"score":68,"swingZone":"C","swingStage":{"label":"中位階","ratio":"0.61","tone":"mid","value":0.6071428571428574},"swingSignals":[{"id":"base_setup","title":"","short":"C準備","icon":"C","reason":"低/中位階整理接近發動；準備分 5/7，RSI 61.1，量比 0.19。"}]},{"code":"4950","name":"金耘國際","close":16.05,"percent":0.31250000000000444,"tradeVolume":21,"value":337050,"swingScore":68,"score":68,"swingZone":"C","swingStage":{"label":"低基期","ratio":"0.11","tone":"low","value":0.10975609756097587},"swingSignals":[{"id":"base_setup","title":"","short":"C準備","icon":"C","reason":"低/中位階整理接近發動；準備分 6/7，RSI 44.1，量比 0.00。"}]},{"code":"6194","name":"育富","close":32.4,"percent":0,"tradeVolume":61,"value":1976400,"swingScore":68,"score":68,"swingZone":"C","swingStage":{"label":"低基期","ratio":"0.26","tone":"low","value":0.25925925925925875},"swingSignals":[{"id":"base_setup","title":"","short":"C準備","icon":"C","reason":"低/中位階整理接近發動；準備分 5/7，RSI 45.7，量比 0.68。"}]},{"code":"2221","name":"大甲","close":43.4,"percent":-0.8000000000000033,"tradeVolume":861,"value":37367400,"swingScore":68,"score":68,"swingZone":"C","swingStage":{"label":"高基期","ratio":"0.68","tone":"high","value":0.676300578034682},"swingSignals":[{"id":"base_setup","title":"","short":"C準備","icon":"C","reason":"低/中位階整理接近發動；準備分 5/7，RSI 51.2，量比 0.64。"}]},{"code":"5220","name":"萬達光電","close":21.7,"percent":-1.3636363636363669,"tradeVolume":76,"value":1649200,"swingScore":68,"score":68,"swingZone":"C","swingStage":{"label":"低基期","ratio":"0.32","tone":"low","value":0.32231404958677673},"swingSignals":[{"id":"base_setup","title":"","short":"C準備","icon":"C","reason":"低/中位階整理接近發動；準備分 5/7，RSI 48.9，量比 0.57。"}]},{"code":"8071","name":"能率網通","close":21.55,"percent":9.94897959183673,"tradeVolume":1363,"value":29372650,"swingScore":67,"score":67,"swingZone":"C","swingStage":{"label":"高基期","ratio":"0.68","tone":"high","value":0.6810810810810811},"swingSignals":[{"id":"base_setup","title":"","short":"C準備","icon":"C","reason":"低/中位階整理接近發動；準備分 5/7，RSI 57.1，量比 0.47。"}]},{"code":"6546","name":"正基","close":76.3,"percent":3.950953678474103,"tradeVolume":834,"value":63634200,"swingScore":67,"score":67,"swingZone":"C","swingStage":{"label":"中位階","ratio":"0.50","tone":"mid","value":0.5},"swingSignals":[{"id":"base_setup","title":"","short":"C準備","icon":"C","reason":"低/中位階整理接近發動；準備分 6/7，RSI 56.7，量比 0.63。"}]},{"code":"3466","name":"德晉","close":33.55,"percent":3.5493827160493785,"tradeVolume":435,"value":14594250,"swingScore":67,"score":67,"swingZone":"C","swingStage":{"label":"低基期","ratio":"0.15","tone":"low","value":0.1541353383458645},"swingSignals":[{"id":"base_setup","title":"","short":"C準備","icon":"C","reason":"低/中位階整理接近發動；準備分 5/7，RSI 33.7，量比 0.52。"}]},{"code":"3339","name":"泰谷","close":46.65,"percent":2.7533039647577096,"tradeVolume":1388,"value":64750200,"swingScore":67,"score":67,"swingZone":"C","swingStage":{"label":"低基期","ratio":"0.23","tone":"low","value":0.22700296735905037},"swingSignals":[{"id":"base_setup","title":"","short":"C準備","icon":"C","reason":"低/中位階整理接近發動；準備分 5/7，RSI 43.6，量比 0.44。"}]},{"code":"1815","name":"富喬","close":98.9,"percent":2.063983488132095,"tradeVolume":12207,"value":1207272300,"swingScore":67,"score":67,"swingZone":"C","swingStage":{"label":"低基期","ratio":"0.19","tone":"low","value":0.18832891246684372},"swingSignals":[{"id":"base_setup","title":"","short":"C準備","icon":"C","reason":"低/中位階整理接近發動；準備分 5/7，RSI 49.2，量比 0.45。"}]},{"code":"3265","name":"台星科","close":175.5,"percent":2.0348837209302326,"tradeVolume":1071,"value":187960500,"swingScore":67,"score":67,"swingZone":"C","swingStage":{"label":"低基期","ratio":"0.33","tone":"low","value":0.3333333333333333},"swingSignals":[{"id":"base_setup","title":"","short":"C準備","icon":"C","reason":"低/中位階整理接近發動；準備分 5/7，RSI 53.7，量比 0.47。"}]},{"code":"8038","name":"長園科","close":40.3,"percent":1.511335012594444,"tradeVolume":204,"value":8221200,"swingScore":67,"score":67,"swingZone":"C","swingStage":{"label":"低基期","ratio":"0.24","tone":"low","value":0.2392156862745096},"swingSignals":[{"id":"base_setup","title":"","short":"C準備","icon":"C","reason":"低/中位階整理接近發動；準備分 5/7，RSI 50.0，量比 0.49。"}]},{"code":"3224","name":"三顧","close":37.6,"percent":1.4844804318488645,"tradeVolume":75,"value":2820000,"swingScore":67,"score":67,"swingZone":"C","swingStage":{"label":"低基期","ratio":"0.12","tone":"low","value":0.12250712250712245},"swingSignals":[{"id":"base_setup","title":"","short":"C準備","icon":"C","reason":"低/中位階整理接近發動；準備分 5/7，RSI 21.0，量比 0.51。"}]},{"code":"8155","name":"博智","close":364,"percent":1.2517385257301807,"tradeVolume":780,"value":283920000,"swingScore":67,"score":67,"swingZone":"C","swingStage":{"label":"低基期","ratio":"0.32","tone":"low","value":0.3176470588235294},"swingSignals":[{"id":"base_setup","title":"","short":"C準備","icon":"C","reason":"低/中位階整理接近發動；準備分 5/7，RSI 37.3，量比 0.48。"}]},{"code":"4303","name":"信立","close":46.55,"percent":0.5399568034557236,"tradeVolume":380,"value":17689000,"swingScore":67,"score":67,"swingZone":"C","swingStage":{"label":"低基期","ratio":"0.23","tone":"low","value":0.22592592592592572},"swingSignals":[{"id":"base_setup","title":"","short":"C準備","icon":"C","reason":"低/中位階整理接近發動；準備分 5/7，RSI 35.1，量比 0.44。"}]},{"code":"4580","name":"捷流閥業","close":81.8,"percent":0.4914004914004809,"tradeVolume":31,"value":2535800,"swingScore":67,"score":67,"swingZone":"C","swingStage":{"label":"中位階","ratio":"0.59","tone":"mid","value":0.5918367346938769},"swingSignals":[{"id":"base_setup","title":"","short":"C準備","icon":"C","reason":"低/中位階整理接近發動；準備分 5/7，RSI 53.1，量比 0.45。"}]},{"code":"8049","name":"晶采","close":26.5,"percent":0.37878787878788417,"tradeVolume":234,"value":6201000,"swingScore":67,"score":67,"swingZone":"C","swingStage":{"label":"中位階","ratio":"0.55","tone":"mid","value":0.5454545454545454},"swingSignals":[{"id":"base_setup","title":"","short":"C準備","icon":"C","reason":"低/中位階整理接近發動；準備分 6/7，RSI 57.1，量比 0.62。"}]},{"code":"8032","name":"光菱","close":43.1,"percent":0.23255813953488702,"tradeVolume":268,"value":11550800,"swingScore":67,"score":67,"swingZone":"C","swingStage":{"label":"高基期","ratio":"0.62","tone":"high","value":0.6228070175438598},"swingSignals":[{"id":"base_setup","title":"","short":"C準備","icon":"C","reason":"低/中位階整理接近發動；準備分 5/7，RSI 55.9，量比 0.88。"}]},{"code":"1570","name":"力肯","close":43.9,"percent":0.22831050228310826,"tradeVolume":356,"value":15628400,"swingScore":67,"score":67,"swingZone":"C","swingStage":{"label":"中位階","ratio":"0.47","tone":"mid","value":0.46972860125260957},"swingSignals":[{"id":"base_setup","title":"","short":"C準備","icon":"C","reason":"低/中位階整理接近發動；準備分 6/7，RSI 60.5，量比 0.60。"}]},{"code":"8097","name":"常珵","close":57.7,"percent":-0.51724137931034,"tradeVolume":21,"value":1211700,"swingScore":67,"score":67,"swingZone":"C","swingStage":{"label":"中位階","ratio":"0.58","tone":"mid","value":0.5847457627118646},"swingSignals":[{"id":"base_setup","title":"","short":"C準備","icon":"C","reason":"低/中位階整理接近發動；準備分 5/7，RSI 51.9，量比 0.18。"}]}]}
