{"ok":true,"source":"strategy4-preset","updatedAt":"2026-06-06T12:34:51.971Z","scanStamp":"20260606","total":1957,"complete":true,"zone":"B","page":11,"pageSize":25,"totalPages":41,"totalCount":1020,"count":25,"matches":[{"code":"8467","name":"波力-KY","close":130.5,"percent":0.7722007722007722,"tradeVolume":3,"value":391500,"swingScore":88,"score":88,"swingZone":"B","swingStage":{"label":"低基期","ratio":"0.18","tone":"low","value":0.18055555555555555},"swingSignals":[{"id":"watch_trend","title":"","short":"B觀察","icon":"B","reason":"趨勢轉強但尚未觸發突破買點；趨勢分 5/8，量比 0.00，位階 低基期。"}]},{"code":"6581","name":"鋼聯","close":110,"percent":0.45662100456621,"tradeVolume":19,"value":2090000,"swingScore":88,"score":88,"swingZone":"B","swingStage":{"label":"中位階","ratio":"0.50","tone":"mid","value":0.5},"swingSignals":[{"id":"watch_trend","title":"","short":"B觀察","icon":"B","reason":"趨勢轉強但尚未觸發突破買點；趨勢分 6/8，量比 0.00，位階 中位階。"}]},{"code":"2613","name":"中櫃","close":22.4,"percent":0.4484339298687492,"tradeVolume":451,"value":10102400,"swingScore":88,"score":88,"swingZone":"B","swingStage":{"label":"中位階","ratio":"0.52","tone":"mid","value":0.5217389717894745},"swingSignals":[{"id":"watch_trend","title":"","short":"B觀察","icon":"B","reason":"趨勢轉強但尚未觸發突破買點；趨勢分 6/8，量比 0.00，位階 中位階。"}]},{"code":"8443","name":"阿瘦","close":11.4,"percent":0.4405286343612398,"tradeVolume":8,"value":91200,"swingScore":88,"score":88,"swingZone":"B","swingStage":{"label":"低基期","ratio":"0.35","tone":"low","value":0.34782608695652195},"swingSignals":[{"id":"watch_trend","title":"","short":"B觀察","icon":"B","reason":"趨勢轉強但尚未觸發突破買點；趨勢分 5/8，量比 0.00，位階 低基期。"}]},{"code":"2023","name":"燁輝","close":13.95,"percent":0.3597149844743138,"tradeVolume":1384,"value":19306800,"swingScore":88,"score":88,"swingZone":"B","swingStage":{"label":"中位階","ratio":"0.52","tone":"mid","value":0.5217389717894745},"swingSignals":[{"id":"watch_trend","title":"","short":"B觀察","icon":"B","reason":"趨勢轉強但尚未觸發突破買點；趨勢分 6/8，量比 0.00，位階 中位階。"}]},{"code":"1232","name":"大統益","close":149.5,"percent":0.33557046979865773,"tradeVolume":154,"value":23023000,"swingScore":88,"score":88,"swingZone":"B","swingStage":{"label":"中位階","ratio":"0.45","tone":"mid","value":0.45454545454545453},"swingSignals":[{"id":"watch_trend","title":"","short":"B觀察","icon":"B","reason":"趨勢轉強但尚未觸發突破買點；趨勢分 6/8，量比 0.00，位階 中位階。"}]},{"code":"4513","name":"福裕","close":15.25,"percent":0.3289473684210573,"tradeVolume":561,"value":8555250,"swingScore":88,"score":88,"swingZone":"B","swingStage":{"label":"中位階","ratio":"0.44","tone":"mid","value":0.4426229508196722},"swingSignals":[{"id":"watch_trend","title":"","short":"B觀察","icon":"B","reason":"趨勢轉強但尚未觸發突破買點；趨勢分 6/8，量比 0.00，位階 中位階。"}]},{"code":"4142","name":"國光生","close":17.85,"percent":0.2809031746212117,"tradeVolume":1147,"value":20473950,"swingScore":88,"score":88,"swingZone":"B","swingStage":{"label":"中位階","ratio":"0.44","tone":"mid","value":0.43750003973640517},"swingSignals":[{"id":"watch_trend","title":"","short":"B觀察","icon":"B","reason":"趨勢轉強但尚未觸發突破買點；趨勢分 6/8，量比 0.00，位階 中位階。"}]},{"code":"6153","name":"嘉聯益","close":18.5,"percent":0.2709985636476527,"tradeVolume":4557,"value":84304500,"swingScore":88,"score":88,"swingZone":"B","swingStage":{"label":"中位階","ratio":"0.40","tone":"mid","value":0.4000001387162642},"swingSignals":[{"id":"watch_trend","title":"","short":"B觀察","icon":"B","reason":"趨勢轉強但尚未觸發突破買點；趨勢分 6/8，量比 0.00，位階 中位階。"}]},{"code":"4746","name":"台耀","close":53.2,"percent":0.18832391713747915,"tradeVolume":500,"value":26600000,"swingScore":88,"score":88,"swingZone":"B","swingStage":{"label":"中位階","ratio":"0.45","tone":"mid","value":0.44927536231884085},"swingSignals":[{"id":"watch_trend","title":"","short":"B觀察","icon":"B","reason":"趨勢轉強但尚未觸發突破買點；趨勢分 6/8，量比 0.00，位階 中位階。"}]},{"code":"1760","name":"寶齡富錦","close":61.3,"percent":0.16339869281044822,"tradeVolume":260,"value":15938000,"swingScore":88,"score":88,"swingZone":"B","swingStage":{"label":"低基期","ratio":"0.12","tone":"low","value":0.11695906432748532},"swingSignals":[{"id":"watch_trend","title":"","short":"B觀察","icon":"B","reason":"趨勢轉強但尚未觸發突破買點；趨勢分 5/8，量比 0.00，位階 低基期。"}]},{"code":"1102","name":"亞泥","close":34.4,"percent":0.1455604075691329,"tradeVolume":14830,"value":510152000,"swingScore":88,"score":88,"swingZone":"B","swingStage":{"label":"中位階","ratio":"0.53","tone":"mid","value":0.5333333333333333},"swingSignals":[{"id":"watch_trend","title":"","short":"B觀察","icon":"B","reason":"趨勢轉強但尚未觸發突破買點；趨勢分 6/8，量比 0.00，位階 中位階。"}]},{"code":"5312","name":"寶島科","close":95.6,"percent":0.0000015961076620505527,"tradeVolume":71,"value":6787600,"swingScore":88,"score":88,"swingZone":"B","swingStage":{"label":"中位階","ratio":"0.41","tone":"mid","value":0.41095894133311517},"swingSignals":[{"id":"watch_trend","title":"","short":"B觀察","icon":"B","reason":"趨勢轉強但尚未觸發突破買點；趨勢分 6/8，量比 0.00，位階 中位階。"}]},{"code":"1220","name":"台榮","close":11.95,"percent":0,"tradeVolume":70,"value":836500,"swingScore":88,"score":88,"swingZone":"B","swingStage":{"label":"低基期","ratio":"0.28","tone":"low","value":0.2799999999999997},"swingSignals":[{"id":"watch_trend","title":"","short":"B觀察","icon":"B","reason":"趨勢轉強但尚未觸發突破買點；趨勢分 5/8，量比 0.00，位階 低基期。"}]},{"code":"2444","name":"兆勁","close":13.5,"percent":0,"tradeVolume":918,"value":12393000,"swingScore":88,"score":88,"swingZone":"B","swingStage":{"label":"中位階","ratio":"0.53","tone":"mid","value":0.5283018867924529},"swingSignals":[{"id":"watch_trend","title":"","short":"B觀察","icon":"B","reason":"趨勢轉強但尚未觸發突破買點；趨勢分 6/8，量比 0.00，位階 中位階。"}]},{"code":"2524","name":"京城","close":36.25,"percent":0,"tradeVolume":69,"value":2501250,"swingScore":88,"score":88,"swingZone":"B","swingStage":{"label":"中位階","ratio":"0.48","tone":"mid","value":0.48076927779459616},"swingSignals":[{"id":"watch_trend","title":"","short":"B觀察","icon":"B","reason":"趨勢轉強但尚未觸發突破買點；趨勢分 6/8，量比 0.00，位階 中位階。"}]},{"code":"3130","name":"一零四","close":222,"percent":0,"tradeVolume":32,"value":7104000,"swingScore":88,"score":88,"swingZone":"B","swingStage":{"label":"中位階","ratio":"0.38","tone":"mid","value":0.38461538461538464},"swingSignals":[{"id":"watch_trend","title":"","short":"B觀察","icon":"B","reason":"趨勢轉強但尚未觸發突破買點；趨勢分 6/8，量比 0.00，位階 中位階。"}]},{"code":"4153","name":"鈺緯","close":31.45,"percent":0,"tradeVolume":18,"value":566100,"swingScore":88,"score":88,"swingZone":"B","swingStage":{"label":"中位階","ratio":"0.56","tone":"mid","value":0.5571428571428569},"swingSignals":[{"id":"watch_trend","title":"","short":"B觀察","icon":"B","reason":"趨勢轉強但尚未觸發突破買點；趨勢分 5/8，量比 0.57，位階 中位階。"}]},{"code":"6246","name":"臺龍","close":16.1,"percent":0,"tradeVolume":96,"value":1545600,"swingScore":88,"score":88,"swingZone":"B","swingStage":{"label":"中位階","ratio":"0.40","tone":"mid","value":0.3978494623655918},"swingSignals":[{"id":"watch_trend","title":"","short":"B觀察","icon":"B","reason":"趨勢轉強但尚未觸發突破買點；趨勢分 6/8，量比 0.00，位階 中位階。"}]},{"code":"8097","name":"常珵","close":57.2,"percent":0,"tradeVolume":44,"value":2516800,"swingScore":88,"score":88,"swingZone":"B","swingStage":{"label":"中位階","ratio":"0.54","tone":"mid","value":0.5423728813559325},"swingSignals":[{"id":"watch_trend","title":"","short":"B觀察","icon":"B","reason":"趨勢轉強但尚未觸發突破買點；趨勢分 5/8，量比 0.40，位階 中位階。"}]},{"code":"9912","name":"偉聯","close":12.55,"percent":0,"tradeVolume":21,"value":263550,"swingScore":88,"score":88,"swingZone":"B","swingStage":{"label":"中位階","ratio":"0.61","tone":"mid","value":0.6086956521739137},"swingSignals":[{"id":"watch_trend","title":"","short":"B觀察","icon":"B","reason":"趨勢轉強但尚未觸發突破買點；趨勢分 6/8，量比 0.00，位階 中位階。"}]},{"code":"6807","name":"峰源-KY","close":33.8,"percent":-0.14771048744462115,"tradeVolume":22,"value":743600,"swingScore":88,"score":88,"swingZone":"B","swingStage":{"label":"低基期","ratio":"0.17","tone":"low","value":0.17171717171717132},"swingSignals":[{"id":"watch_trend","title":"","short":"B觀察","icon":"B","reason":"趨勢轉強但尚未觸發突破買點；趨勢分 5/8，量比 0.00，位階 低基期。"}]},{"code":"1101","name":"台泥","close":24.4,"percent":-0.2044989775051154,"tradeVolume":31180,"value":760792000,"swingScore":88,"score":88,"swingZone":"B","swingStage":{"label":"低基期","ratio":"0.27","tone":"low","value":0.2727272727272727},"swingSignals":[{"id":"watch_trend","title":"","short":"B觀察","icon":"B","reason":"趨勢轉強但尚未觸發突破買點；趨勢分 5/8，量比 0.00，位階 低基期。"}]},{"code":"1731","name":"美吾華","close":21.65,"percent":-0.2304147465437821,"tradeVolume":116,"value":2511400,"swingScore":88,"score":88,"swingZone":"B","swingStage":{"label":"中位階","ratio":"0.60","tone":"mid","value":0.5999999999999991},"swingSignals":[{"id":"watch_trend","title":"","short":"B觀察","icon":"B","reason":"趨勢轉強但尚未觸發突破買點；趨勢分 6/8，量比 0.00，位階 中位階。"}]},{"code":"8931","name":"大汽電","close":43.1,"percent":-0.23148148148148476,"tradeVolume":130,"value":5603000,"swingScore":88,"score":88,"swingZone":"B","swingStage":{"label":"中位階","ratio":"0.55","tone":"mid","value":0.5526315789473693},"swingSignals":[{"id":"watch_trend","title":"","short":"B觀察","icon":"B","reason":"趨勢轉強但尚未觸發突破買點；趨勢分 6/8，量比 0.00，位階 中位階。"}]}]}
