{"ok":true,"updatedAt":"2026-06-18T10:45:50.139Z","source":"warrant-volume-page","page":10,"pageSize":25,"totalPages":10,"totalCount":235,"count":10,"rows":[{"code":"3105","name":"穩懋","underlyingCode":"3105","underlyingName":"穩懋","underlyingClose":528,"underlyingPercent":1.7341040462427744,"callValue":9563890,"putValue":77170,"callVolume":2269000,"putVolume":329000,"callCount":44,"putCount":4,"callPutRatio":123.93,"thirtyMinuteVolume":2269,"floatingUnits":44,"volumeMultiple":10.31,"score":71,"finalScore":63,"warrantHeatScore":78,"stockSetupScore":76,"stockSetupLabel":"漲幅可控","branchPowerScore":0,"branchAvailable":false,"branchStatus":"待接分點","actionLabel":"候選觀察","signalGrade":"B","displayClose":528,"displayPercent":1.7341040462427744,"tradeDate":"1150617","quoteDate":"20260618","reason":"B：候選觀察。權證熱度 78、股票型態 76（漲幅可控）、分點 待接分點；認購 44 檔、價平/價內 8 檔、認購金額 0.10 億，認購/認售比 99+，最近到期 18 天。"},{"code":"3532","name":"台勝科","underlyingCode":"3532","underlyingName":"台勝科","underlyingClose":390,"underlyingPercent":-1.39,"callValue":4366270,"putValue":0,"callVolume":1183000,"putVolume":0,"callCount":27,"putCount":0,"callPutRatio":99,"thirtyMinuteVolume":1183,"floatingUnits":27,"volumeMultiple":8.76,"score":64,"finalScore":56,"warrantHeatScore":61,"stockSetupScore":88,"stockSetupLabel":"股票未噴，權證先熱","branchPowerScore":0,"branchAvailable":false,"branchStatus":"待接分點","actionLabel":"只列熱度，不追價","signalGrade":"C","displayClose":390,"displayPercent":-1.39,"tradeDate":"1150617","quoteDate":"20260618","reason":"C：只列熱度，不追價。權證熱度 61、股票型態 88（股票未噴，權證先熱）、分點 待接分點；認購 27 檔、價平/價內 0 檔、認購金額 0.04 億，認購/認售比 99+，最近到期 39 天。"},{"code":"2059","name":"川湖","underlyingCode":"2059","underlyingName":"川湖","underlyingClose":6865,"underlyingPercent":3.7009063444108756,"callValue":8389470,"putValue":80910,"callVolume":2436000,"putVolume":315000,"callCount":58,"putCount":3,"callPutRatio":103.69,"thirtyMinuteVolume":2436,"floatingUnits":58,"volumeMultiple":8.4,"score":63,"finalScore":59,"warrantHeatScore":78,"stockSetupScore":62,"stockSetupLabel":"回檔觀察","branchPowerScore":0,"branchAvailable":false,"branchStatus":"待接分點","actionLabel":"候選觀察","signalGrade":"B","displayClose":6865,"displayPercent":3.7009063444108756,"tradeDate":"1150617","quoteDate":"20260618","reason":"B：候選觀察。權證熱度 78、股票型態 62（回檔觀察）、分點 待接分點；認購 58 檔、價平/價內 13 檔、認購金額 0.08 億，認購/認售比 99+，最近到期 11 天。"},{"code":"3037","name":"欣興","underlyingCode":"3037","underlyingName":"欣興","underlyingClose":968,"underlyingPercent":-2.02,"callValue":5652390,"putValue":6160,"callVolume":1334000,"putVolume":67000,"callCount":32,"putCount":4,"callPutRatio":917.6,"thirtyMinuteVolume":1334,"floatingUnits":32,"volumeMultiple":8.34,"score":64,"finalScore":56,"warrantHeatScore":61,"stockSetupScore":88,"stockSetupLabel":"股票未噴，權證先熱","branchPowerScore":0,"branchAvailable":false,"branchStatus":"待接分點","actionLabel":"只列熱度，不追價","signalGrade":"C","displayClose":968,"displayPercent":-2.02,"tradeDate":"1150617","quoteDate":"20260618","reason":"C：只列熱度，不追價。權證熱度 61、股票型態 88（股票未噴，權證先熱）、分點 待接分點；認購 32 檔、價平/價內 0 檔、認購金額 0.06 億，認購/認售比 99+，最近到期 39 天。"},{"code":"3189","name":"景碩","underlyingCode":"3189","underlyingName":"景碩","underlyingClose":724,"underlyingPercent":2.55,"callValue":6263080,"putValue":85270,"callVolume":1732000,"putVolume":569000,"callCount":42,"putCount":4,"callPutRatio":73.45,"thirtyMinuteVolume":1732,"floatingUnits":42,"volumeMultiple":8.25,"score":29,"finalScore":36,"warrantHeatScore":61,"stockSetupScore":18,"stockSetupLabel":"已明顯過熱","branchPowerScore":0,"branchAvailable":false,"branchStatus":"待接分點","actionLabel":"只列熱度，不追價","signalGrade":"C","displayClose":724,"displayPercent":2.55,"tradeDate":"1150617","quoteDate":"20260618","reason":"C：只列熱度，不追價。權證熱度 61、股票型態 18（已明顯過熱）、分點 待接分點；認購 42 檔、價平/價內 0 檔、認購金額 0.06 億，認購/認售比 73.45，最近到期 18 天。"},{"code":"2492","name":"華新科","underlyingCode":"2492","underlyingName":"華新科","underlyingClose":561,"underlyingPercent":3.51,"callValue":16501190,"putValue":0,"callVolume":1671000,"putVolume":0,"callCount":45,"putCount":0,"callPutRatio":99,"thirtyMinuteVolume":1671,"floatingUnits":45,"volumeMultiple":7.43,"score":31,"finalScore":38,"warrantHeatScore":63,"stockSetupScore":18,"stockSetupLabel":"已明顯過熱","branchPowerScore":0,"branchAvailable":false,"branchStatus":"待接分點","actionLabel":"只列熱度，不追價","signalGrade":"C","displayClose":561,"displayPercent":3.51,"tradeDate":"1150617","quoteDate":"20260618","reason":"C：只列熱度，不追價。權證熱度 63、股票型態 18（已明顯過熱）、分點 待接分點；認購 45 檔、價平/價內 0 檔、認購金額 0.17 億，認購/認售比 99+，最近到期 11 天。"},{"code":"2478","name":"大毅","underlyingCode":"2478","underlyingName":"大毅","underlyingClose":234,"underlyingPercent":2.86,"callValue":3491570,"putValue":0,"callVolume":539000,"putVolume":0,"callCount":15,"putCount":0,"callPutRatio":99,"thirtyMinuteVolume":539,"floatingUnits":15,"volumeMultiple":7.19,"score":32,"finalScore":39,"warrantHeatScore":65,"stockSetupScore":18,"stockSetupLabel":"已明顯過熱","branchPowerScore":0,"branchAvailable":false,"branchStatus":"待接分點","actionLabel":"只列熱度，不追價","signalGrade":"C","displayClose":234,"displayPercent":2.86,"tradeDate":"1150617","quoteDate":"20260618","reason":"C：只列熱度，不追價。權證熱度 65、股票型態 18（已明顯過熱）、分點 待接分點；認購 15 檔、價平/價內 1 檔、認購金額 0.03 億，認購/認售比 99+，最近到期 40 天。"},{"code":"6274","name":"台燿","underlyingCode":"6274","underlyingName":"台燿","underlyingClose":1835,"underlyingPercent":9.88,"callValue":4474870,"putValue":1290,"callVolume":1179000,"putVolume":90000,"callCount":41,"putCount":2,"callPutRatio":3468.89,"thirtyMinuteVolume":1179,"floatingUnits":41,"volumeMultiple":5.75,"score":29,"finalScore":36,"warrantHeatScore":61,"stockSetupScore":18,"stockSetupLabel":"已明顯過熱","branchPowerScore":0,"branchAvailable":false,"branchStatus":"待接分點","actionLabel":"只列熱度，不追價","signalGrade":"C","displayClose":1835,"displayPercent":9.88,"tradeDate":"1150617","quoteDate":"20260618","reason":"C：只列熱度，不追價。權證熱度 61、股票型態 18（已明顯過熱）、分點 待接分點；認購 41 檔、價平/價內 0 檔、認購金額 0.04 億，認購/認售比 99+，最近到期 12 天。"},{"code":"2337","name":"旺宏","underlyingCode":"2337","underlyingName":"旺宏","underlyingClose":169,"underlyingPercent":4.64,"callValue":3890040,"putValue":6300,"callVolume":372000,"putVolume":54000,"callCount":14,"putCount":7,"callPutRatio":617.47,"thirtyMinuteVolume":372,"floatingUnits":14,"volumeMultiple":5.31,"score":34,"finalScore":39,"warrantHeatScore":61,"stockSetupScore":28,"stockSetupLabel":"股價偏弱","branchPowerScore":0,"branchAvailable":false,"branchStatus":"待接分點","actionLabel":"只列熱度，不追價","signalGrade":"C","displayClose":169,"displayPercent":4.64,"tradeDate":"1150617","quoteDate":"20260618","reason":"C：只列熱度，不追價。權證熱度 61、股票型態 28（股價偏弱）、分點 待接分點；認購 14 檔、價平/價內 0 檔、認購金額 0.04 億，認購/認售比 99+，最近到期 25 天。"},{"code":"3026","name":"禾伸堂","underlyingCode":"3026","underlyingName":"禾伸堂","underlyingClose":902,"underlyingPercent":0.67,"callValue":8565030,"putValue":0,"callVolume":583000,"putVolume":0,"callCount":27,"putCount":0,"callPutRatio":99,"thirtyMinuteVolume":583,"floatingUnits":27,"volumeMultiple":4.32,"score":30,"finalScore":37,"warrantHeatScore":62,"stockSetupScore":18,"stockSetupLabel":"已明顯過熱","branchPowerScore":0,"branchAvailable":false,"branchStatus":"待接分點","actionLabel":"只列熱度，不追價","signalGrade":"C","displayClose":902,"displayPercent":0.67,"tradeDate":"1150617","quoteDate":"20260618","reason":"C：只列熱度，不追價。權證熱度 62、股票型態 18（已明顯過熱）、分點 待接分點；認購 27 檔、價平/價內 0 檔、認購金額 0.09 億，認購/認售比 99+，最近到期 67 天。"}],"matches":[{"code":"3105","name":"穩懋","underlyingCode":"3105","underlyingName":"穩懋","underlyingClose":528,"underlyingPercent":1.7341040462427744,"callValue":9563890,"putValue":77170,"callVolume":2269000,"putVolume":329000,"callCount":44,"putCount":4,"callPutRatio":123.93,"thirtyMinuteVolume":2269,"floatingUnits":44,"volumeMultiple":10.31,"score":71,"finalScore":63,"warrantHeatScore":78,"stockSetupScore":76,"stockSetupLabel":"漲幅可控","branchPowerScore":0,"branchAvailable":false,"branchStatus":"待接分點","actionLabel":"候選觀察","signalGrade":"B","displayClose":528,"displayPercent":1.7341040462427744,"tradeDate":"1150617","quoteDate":"20260618","reason":"B：候選觀察。權證熱度 78、股票型態 76（漲幅可控）、分點 待接分點；認購 44 檔、價平/價內 8 檔、認購金額 0.10 億，認購/認售比 99+，最近到期 18 天。"},{"code":"3532","name":"台勝科","underlyingCode":"3532","underlyingName":"台勝科","underlyingClose":390,"underlyingPercent":-1.39,"callValue":4366270,"putValue":0,"callVolume":1183000,"putVolume":0,"callCount":27,"putCount":0,"callPutRatio":99,"thirtyMinuteVolume":1183,"floatingUnits":27,"volumeMultiple":8.76,"score":64,"finalScore":56,"warrantHeatScore":61,"stockSetupScore":88,"stockSetupLabel":"股票未噴，權證先熱","branchPowerScore":0,"branchAvailable":false,"branchStatus":"待接分點","actionLabel":"只列熱度，不追價","signalGrade":"C","displayClose":390,"displayPercent":-1.39,"tradeDate":"1150617","quoteDate":"20260618","reason":"C：只列熱度，不追價。權證熱度 61、股票型態 88（股票未噴，權證先熱）、分點 待接分點；認購 27 檔、價平/價內 0 檔、認購金額 0.04 億，認購/認售比 99+，最近到期 39 天。"},{"code":"2059","name":"川湖","underlyingCode":"2059","underlyingName":"川湖","underlyingClose":6865,"underlyingPercent":3.7009063444108756,"callValue":8389470,"putValue":80910,"callVolume":2436000,"putVolume":315000,"callCount":58,"putCount":3,"callPutRatio":103.69,"thirtyMinuteVolume":2436,"floatingUnits":58,"volumeMultiple":8.4,"score":63,"finalScore":59,"warrantHeatScore":78,"stockSetupScore":62,"stockSetupLabel":"回檔觀察","branchPowerScore":0,"branchAvailable":false,"branchStatus":"待接分點","actionLabel":"候選觀察","signalGrade":"B","displayClose":6865,"displayPercent":3.7009063444108756,"tradeDate":"1150617","quoteDate":"20260618","reason":"B：候選觀察。權證熱度 78、股票型態 62（回檔觀察）、分點 待接分點；認購 58 檔、價平/價內 13 檔、認購金額 0.08 億，認購/認售比 99+，最近到期 11 天。"},{"code":"3037","name":"欣興","underlyingCode":"3037","underlyingName":"欣興","underlyingClose":968,"underlyingPercent":-2.02,"callValue":5652390,"putValue":6160,"callVolume":1334000,"putVolume":67000,"callCount":32,"putCount":4,"callPutRatio":917.6,"thirtyMinuteVolume":1334,"floatingUnits":32,"volumeMultiple":8.34,"score":64,"finalScore":56,"warrantHeatScore":61,"stockSetupScore":88,"stockSetupLabel":"股票未噴，權證先熱","branchPowerScore":0,"branchAvailable":false,"branchStatus":"待接分點","actionLabel":"只列熱度，不追價","signalGrade":"C","displayClose":968,"displayPercent":-2.02,"tradeDate":"1150617","quoteDate":"20260618","reason":"C：只列熱度，不追價。權證熱度 61、股票型態 88（股票未噴，權證先熱）、分點 待接分點；認購 32 檔、價平/價內 0 檔、認購金額 0.06 億，認購/認售比 99+，最近到期 39 天。"},{"code":"3189","name":"景碩","underlyingCode":"3189","underlyingName":"景碩","underlyingClose":724,"underlyingPercent":2.55,"callValue":6263080,"putValue":85270,"callVolume":1732000,"putVolume":569000,"callCount":42,"putCount":4,"callPutRatio":73.45,"thirtyMinuteVolume":1732,"floatingUnits":42,"volumeMultiple":8.25,"score":29,"finalScore":36,"warrantHeatScore":61,"stockSetupScore":18,"stockSetupLabel":"已明顯過熱","branchPowerScore":0,"branchAvailable":false,"branchStatus":"待接分點","actionLabel":"只列熱度，不追價","signalGrade":"C","displayClose":724,"displayPercent":2.55,"tradeDate":"1150617","quoteDate":"20260618","reason":"C：只列熱度，不追價。權證熱度 61、股票型態 18（已明顯過熱）、分點 待接分點；認購 42 檔、價平/價內 0 檔、認購金額 0.06 億，認購/認售比 73.45，最近到期 18 天。"},{"code":"2492","name":"華新科","underlyingCode":"2492","underlyingName":"華新科","underlyingClose":561,"underlyingPercent":3.51,"callValue":16501190,"putValue":0,"callVolume":1671000,"putVolume":0,"callCount":45,"putCount":0,"callPutRatio":99,"thirtyMinuteVolume":1671,"floatingUnits":45,"volumeMultiple":7.43,"score":31,"finalScore":38,"warrantHeatScore":63,"stockSetupScore":18,"stockSetupLabel":"已明顯過熱","branchPowerScore":0,"branchAvailable":false,"branchStatus":"待接分點","actionLabel":"只列熱度，不追價","signalGrade":"C","displayClose":561,"displayPercent":3.51,"tradeDate":"1150617","quoteDate":"20260618","reason":"C：只列熱度，不追價。權證熱度 63、股票型態 18（已明顯過熱）、分點 待接分點；認購 45 檔、價平/價內 0 檔、認購金額 0.17 億，認購/認售比 99+，最近到期 11 天。"},{"code":"2478","name":"大毅","underlyingCode":"2478","underlyingName":"大毅","underlyingClose":234,"underlyingPercent":2.86,"callValue":3491570,"putValue":0,"callVolume":539000,"putVolume":0,"callCount":15,"putCount":0,"callPutRatio":99,"thirtyMinuteVolume":539,"floatingUnits":15,"volumeMultiple":7.19,"score":32,"finalScore":39,"warrantHeatScore":65,"stockSetupScore":18,"stockSetupLabel":"已明顯過熱","branchPowerScore":0,"branchAvailable":false,"branchStatus":"待接分點","actionLabel":"只列熱度，不追價","signalGrade":"C","displayClose":234,"displayPercent":2.86,"tradeDate":"1150617","quoteDate":"20260618","reason":"C：只列熱度，不追價。權證熱度 65、股票型態 18（已明顯過熱）、分點 待接分點；認購 15 檔、價平/價內 1 檔、認購金額 0.03 億，認購/認售比 99+，最近到期 40 天。"},{"code":"6274","name":"台燿","underlyingCode":"6274","underlyingName":"台燿","underlyingClose":1835,"underlyingPercent":9.88,"callValue":4474870,"putValue":1290,"callVolume":1179000,"putVolume":90000,"callCount":41,"putCount":2,"callPutRatio":3468.89,"thirtyMinuteVolume":1179,"floatingUnits":41,"volumeMultiple":5.75,"score":29,"finalScore":36,"warrantHeatScore":61,"stockSetupScore":18,"stockSetupLabel":"已明顯過熱","branchPowerScore":0,"branchAvailable":false,"branchStatus":"待接分點","actionLabel":"只列熱度，不追價","signalGrade":"C","displayClose":1835,"displayPercent":9.88,"tradeDate":"1150617","quoteDate":"20260618","reason":"C：只列熱度，不追價。權證熱度 61、股票型態 18（已明顯過熱）、分點 待接分點；認購 41 檔、價平/價內 0 檔、認購金額 0.04 億，認購/認售比 99+，最近到期 12 天。"},{"code":"2337","name":"旺宏","underlyingCode":"2337","underlyingName":"旺宏","underlyingClose":169,"underlyingPercent":4.64,"callValue":3890040,"putValue":6300,"callVolume":372000,"putVolume":54000,"callCount":14,"putCount":7,"callPutRatio":617.47,"thirtyMinuteVolume":372,"floatingUnits":14,"volumeMultiple":5.31,"score":34,"finalScore":39,"warrantHeatScore":61,"stockSetupScore":28,"stockSetupLabel":"股價偏弱","branchPowerScore":0,"branchAvailable":false,"branchStatus":"待接分點","actionLabel":"只列熱度，不追價","signalGrade":"C","displayClose":169,"displayPercent":4.64,"tradeDate":"1150617","quoteDate":"20260618","reason":"C：只列熱度，不追價。權證熱度 61、股票型態 28（股價偏弱）、分點 待接分點；認購 14 檔、價平/價內 0 檔、認購金額 0.04 億，認購/認售比 99+，最近到期 25 天。"},{"code":"3026","name":"禾伸堂","underlyingCode":"3026","underlyingName":"禾伸堂","underlyingClose":902,"underlyingPercent":0.67,"callValue":8565030,"putValue":0,"callVolume":583000,"putVolume":0,"callCount":27,"putCount":0,"callPutRatio":99,"thirtyMinuteVolume":583,"floatingUnits":27,"volumeMultiple":4.32,"score":30,"finalScore":37,"warrantHeatScore":62,"stockSetupScore":18,"stockSetupLabel":"已明顯過熱","branchPowerScore":0,"branchAvailable":false,"branchStatus":"待接分點","actionLabel":"只列熱度，不追價","signalGrade":"C","displayClose":902,"displayPercent":0.67,"tradeDate":"1150617","quoteDate":"20260618","reason":"C：只列熱度，不追價。權證熱度 62、股票型態 18（已明顯過熱）、分點 待接分點；認購 27 檔、價平/價內 0 檔、認購金額 0.09 億，認購/認售比 99+，最近到期 67 天。"}]}
