{"ok":true,"updatedAt":"2026-06-18T10:45:50.139Z","source":"warrant-flow-page","page":5,"pageSize":25,"totalPages":5,"totalCount":120,"count":20,"rows":[{"code":"2345","name":"智邦","underlyingCode":"2345","underlyingName":"智邦","underlyingClose":2435,"underlyingPercent":-2.404809619238477,"callValue":42583650,"putValue":516860,"callCount":124,"putCount":12,"callPutRatio":82.39,"score":67,"finalScore":63,"warrantHeatScore":85,"stockSetupScore":62,"stockSetupLabel":"回檔觀察","branchPowerScore":0,"branchAvailable":false,"branchStatus":"待接分點","actionLabel":"候選觀察","signalGrade":"B","displayClose":2435,"displayPercent":-2.404809619238477,"tradeDate":"1150617","quoteDate":"20260618","reason":"B：候選觀察。權證熱度 85、股票型態 62（回檔觀察）、分點 待接分點；認購 124 檔、價平/價內 42 檔、認購金額 0.43 億，認購/認售比 82.39，最近到期 27 天。"},{"code":"5483","name":"中美晶","underlyingCode":"5483","underlyingName":"中美晶","underlyingClose":181,"underlyingPercent":-0.821917808219178,"callValue":34560570,"putValue":7880,"callCount":92,"putCount":1,"callPutRatio":4385.86,"score":66,"finalScore":62,"warrantHeatScore":83,"stockSetupScore":62,"stockSetupLabel":"回檔觀察","branchPowerScore":0,"branchAvailable":false,"branchStatus":"待接分點","actionLabel":"候選觀察","signalGrade":"B","displayClose":181,"displayPercent":-0.821917808219178,"tradeDate":"1150617","quoteDate":"20260618","reason":"B：候選觀察。權證熱度 83、股票型態 62（回檔觀察）、分點 待接分點；認購 92 檔、價平/價內 38 檔、認購金額 0.35 億，認購/認售比 99+，最近到期 11 天。"},{"code":"5289","name":"宜鼎","underlyingCode":"5289","underlyingName":"宜鼎","underlyingClose":1930,"underlyingPercent":4.0431266846361185,"callValue":67747320,"putValue":186050,"callCount":78,"putCount":2,"callPutRatio":364.14,"score":65,"finalScore":62,"warrantHeatScore":86,"stockSetupScore":58,"stockSetupLabel":"短線偏熱","branchPowerScore":0,"branchAvailable":false,"branchStatus":"待接分點","actionLabel":"候選觀察","signalGrade":"B","displayClose":1930,"displayPercent":4.0431266846361185,"tradeDate":"1150617","quoteDate":"20260618","reason":"B：候選觀察。權證熱度 86、股票型態 58（短線偏熱）、分點 待接分點；認購 78 檔、價平/價內 3 檔、認購金額 0.68 億，認購/認售比 99+，最近到期 20 天。"},{"code":"5269","name":"祥碩","underlyingCode":"5269","underlyingName":"祥碩","underlyingClose":1455,"underlyingPercent":2.1052631578947367,"callValue":26329390,"putValue":0,"callCount":93,"putCount":0,"callPutRatio":99,"score":65,"finalScore":59,"warrantHeatScore":81,"stockSetupScore":58,"stockSetupLabel":"短線偏熱","branchPowerScore":0,"branchAvailable":false,"branchStatus":"待接分點","actionLabel":"候選觀察","signalGrade":"B","displayClose":1455,"displayPercent":2.1052631578947367,"tradeDate":"1150617","quoteDate":"20260618","reason":"B：候選觀察。權證熱度 81、股票型態 58（短線偏熱）、分點 待接分點；認購 93 檔、價平/價內 23 檔、認購金額 0.26 億，認購/認售比 99+，最近到期 13 天。"},{"code":"2882","name":"國泰金","underlyingCode":"2882","underlyingName":"國泰金","underlyingClose":115.5,"underlyingPercent":1.762114537444934,"callValue":21848950,"putValue":129830,"callCount":29,"putCount":2,"callPutRatio":168.29,"score":65,"finalScore":59,"warrantHeatScore":80,"stockSetupScore":58,"stockSetupLabel":"短線偏熱","branchPowerScore":0,"branchAvailable":false,"branchStatus":"待接分點","actionLabel":"候選觀察","signalGrade":"B","displayClose":115.5,"displayPercent":1.762114537444934,"tradeDate":"1150617","quoteDate":"20260618","reason":"B：候選觀察。權證熱度 80、股票型態 58（短線偏熱）、分點 待接分點；認購 29 檔、價平/價內 16 檔、認購金額 0.22 億，認購/認售比 99+，最近到期 11 天。"},{"code":"2481","name":"強茂","underlyingCode":"2481","underlyingName":"強茂","underlyingClose":160,"underlyingPercent":9.965635738831615,"callValue":18906940,"putValue":0,"callCount":68,"putCount":0,"callPutRatio":99,"score":65,"finalScore":59,"warrantHeatScore":80,"stockSetupScore":58,"stockSetupLabel":"短線偏熱","branchPowerScore":0,"branchAvailable":false,"branchStatus":"待接分點","actionLabel":"候選觀察","signalGrade":"B","displayClose":160,"displayPercent":9.965635738831615,"tradeDate":"1150617","quoteDate":"20260618","reason":"B：候選觀察。權證熱度 80、股票型態 58（短線偏熱）、分點 待接分點；認購 68 檔、價平/價內 20 檔、認購金額 0.19 億，認購/認售比 99+，最近到期 39 天。"},{"code":"6669","name":"緯穎","underlyingCode":"6669","underlyingName":"緯穎","underlyingClose":5130,"underlyingPercent":0.984251968503937,"callValue":40343520,"putValue":359250,"callCount":215,"putCount":10,"callPutRatio":112.3,"score":64,"finalScore":61,"warrantHeatScore":84,"stockSetupScore":58,"stockSetupLabel":"短線偏熱","branchPowerScore":0,"branchAvailable":false,"branchStatus":"待接分點","actionLabel":"候選觀察","signalGrade":"B","displayClose":5130,"displayPercent":0.984251968503937,"tradeDate":"1150617","quoteDate":"20260618","reason":"B：候選觀察。權證熱度 84、股票型態 58（短線偏熱）、分點 待接分點；認購 215 檔、價平/價內 59 檔、認購金額 0.40 億，認購/認售比 99+，最近到期 14 天。"},{"code":"6770","name":"力積電","underlyingCode":"6770","underlyingName":"力積電","underlyingClose":74.2,"underlyingPercent":5.698005698005698,"callValue":25397390,"putValue":486800,"callCount":84,"putCount":8,"callPutRatio":52.17,"score":64,"finalScore":60,"warrantHeatScore":81,"stockSetupScore":62,"stockSetupLabel":"回檔觀察","branchPowerScore":0,"branchAvailable":false,"branchStatus":"待接分點","actionLabel":"候選觀察","signalGrade":"B","displayClose":74.2,"displayPercent":5.698005698005698,"tradeDate":"1150617","quoteDate":"20260618","reason":"B：候選觀察。權證熱度 81、股票型態 62（回檔觀察）、分點 待接分點；認購 84 檔、價平/價內 17 檔、認購金額 0.25 億，認購/認售比 52.17，最近到期 12 天。"},{"code":"3017","name":"奇鋐","underlyingCode":"3017","underlyingName":"奇鋐","underlyingClose":2400,"underlyingPercent":1.4799154334038054,"callValue":23159590,"putValue":802770,"callCount":173,"putCount":6,"callPutRatio":28.85,"score":64,"finalScore":60,"warrantHeatScore":81,"stockSetupScore":62,"stockSetupLabel":"回檔觀察","branchPowerScore":0,"branchAvailable":false,"branchStatus":"待接分點","actionLabel":"候選觀察","signalGrade":"B","displayClose":2400,"displayPercent":1.4799154334038054,"tradeDate":"1150617","quoteDate":"20260618","reason":"B：候選觀察。權證熱度 81、股票型態 62（回檔觀察）、分點 待接分點；認購 173 檔、價平/價內 35 檔、認購金額 0.23 億，認購/認售比 28.85，最近到期 22 天。"},{"code":"2493","name":"揚博","underlyingCode":"2493","underlyingName":"揚博","underlyingClose":273.5,"underlyingPercent":9.839357429718875,"callValue":21821980,"putValue":0,"callCount":47,"putCount":0,"callPutRatio":99,"score":64,"finalScore":60,"warrantHeatScore":80,"stockSetupScore":62,"stockSetupLabel":"回檔觀察","branchPowerScore":0,"branchAvailable":false,"branchStatus":"待接分點","actionLabel":"候選觀察","signalGrade":"B","displayClose":273.5,"displayPercent":9.839357429718875,"tradeDate":"1150617","quoteDate":"20260618","reason":"B：候選觀察。權證熱度 80、股票型態 62（回檔觀察）、分點 待接分點；認購 47 檔、價平/價內 7 檔、認購金額 0.22 億，認購/認售比 99+，最近到期 11 天。"},{"code":"3665","name":"貿聯-KY","underlyingCode":"3665","underlyingName":"貿聯-KY","underlyingClose":2100,"underlyingPercent":0.4784688995215311,"callValue":19728370,"putValue":216830,"callCount":120,"putCount":5,"callPutRatio":90.99,"score":64,"finalScore":60,"warrantHeatScore":80,"stockSetupScore":62,"stockSetupLabel":"回檔觀察","branchPowerScore":0,"branchAvailable":false,"branchStatus":"待接分點","actionLabel":"候選觀察","signalGrade":"B","displayClose":2100,"displayPercent":0.4784688995215311,"tradeDate":"1150617","quoteDate":"20260618","reason":"B：候選觀察。權證熱度 80、股票型態 62（回檔觀察）、分點 待接分點；認購 120 檔、價平/價內 29 檔、認購金額 0.20 億，認購/認售比 90.99，最近到期 39 天。"},{"code":"6223","name":"旺矽","underlyingCode":"6223","underlyingName":"旺矽","underlyingClose":6415,"underlyingPercent":-0.0778816199376947,"callValue":17680220,"putValue":363900,"callCount":39,"putCount":3,"callPutRatio":48.59,"score":64,"finalScore":60,"warrantHeatScore":80,"stockSetupScore":62,"stockSetupLabel":"回檔觀察","branchPowerScore":0,"branchAvailable":false,"branchStatus":"待接分點","actionLabel":"候選觀察","signalGrade":"B","displayClose":6415,"displayPercent":-0.0778816199376947,"tradeDate":"1150617","quoteDate":"20260618","reason":"B：候選觀察。權證熱度 80、股票型態 62（回檔觀察）、分點 待接分點；認購 39 檔、價平/價內 16 檔、認購金額 0.18 億，認購/認售比 48.59，最近到期 34 天。"},{"code":"8028","name":"昇陽半導體","underlyingCode":"8028","underlyingName":"昇陽半導體","underlyingClose":311.5,"underlyingPercent":0,"callValue":16545380,"putValue":900,"callCount":54,"putCount":1,"callPutRatio":18383.76,"score":63,"finalScore":59,"warrantHeatScore":79,"stockSetupScore":62,"stockSetupLabel":"回檔觀察","branchPowerScore":0,"branchAvailable":false,"branchStatus":"待接分點","actionLabel":"候選觀察","signalGrade":"B","displayClose":311.5,"displayPercent":0,"tradeDate":"1150617","quoteDate":"20260618","reason":"B：候選觀察。權證熱度 79、股票型態 62（回檔觀察）、分點 待接分點；認購 54 檔、價平/價內 20 檔、認購金額 0.17 億，認購/認售比 99+，最近到期 19 天。"},{"code":"6805","name":"富世達","underlyingCode":"6805","underlyingName":"富世達","underlyingClose":1755,"underlyingPercent":2.3323615160349855,"callValue":11695180,"putValue":0,"callCount":51,"putCount":0,"callPutRatio":99,"score":63,"finalScore":59,"warrantHeatScore":78,"stockSetupScore":62,"stockSetupLabel":"回檔觀察","branchPowerScore":0,"branchAvailable":false,"branchStatus":"待接分點","actionLabel":"候選觀察","signalGrade":"B","displayClose":1755,"displayPercent":2.3323615160349855,"tradeDate":"1150617","quoteDate":"20260618","reason":"B：候選觀察。權證熱度 78、股票型態 62（回檔觀察）、分點 待接分點；認購 51 檔、價平/價內 5 檔、認購金額 0.12 億，認購/認售比 99+，最近到期 27 天。"},{"code":"6139","name":"亞翔","underlyingCode":"6139","underlyingName":"亞翔","underlyingClose":823,"underlyingPercent":2.109181141439206,"callValue":11189820,"putValue":0,"callCount":66,"putCount":0,"callPutRatio":99,"score":63,"finalScore":59,"warrantHeatScore":78,"stockSetupScore":62,"stockSetupLabel":"回檔觀察","branchPowerScore":0,"branchAvailable":false,"branchStatus":"待接分點","actionLabel":"候選觀察","signalGrade":"B","displayClose":823,"displayPercent":2.109181141439206,"tradeDate":"1150617","quoteDate":"20260618","reason":"B：候選觀察。權證熱度 78、股票型態 62（回檔觀察）、分點 待接分點；認購 66 檔、價平/價內 23 檔、認購金額 0.11 億，認購/認售比 99+，最近到期 26 天。"},{"code":"6282","name":"康舒","underlyingCode":"6282","underlyingName":"康舒","underlyingClose":58.1,"underlyingPercent":1.219512195121956,"callValue":10967950,"putValue":9300,"callCount":68,"putCount":1,"callPutRatio":1179.35,"score":63,"finalScore":59,"warrantHeatScore":78,"stockSetupScore":62,"stockSetupLabel":"回檔觀察","branchPowerScore":0,"branchAvailable":false,"branchStatus":"待接分點","actionLabel":"候選觀察","signalGrade":"B","displayClose":58.1,"displayPercent":1.219512195121956,"tradeDate":"1150617","quoteDate":"20260618","reason":"B：候選觀察。權證熱度 78、股票型態 62（回檔觀察）、分點 待接分點；認購 68 檔、價平/價內 12 檔、認購金額 0.11 億，認購/認售比 99+，最近到期 11 天。"},{"code":"8210","name":"勤誠","underlyingCode":"8210","underlyingName":"勤誠","underlyingClose":1365,"underlyingPercent":1.486988847583643,"callValue":10303910,"putValue":94900,"callCount":81,"putCount":1,"callPutRatio":108.58,"score":63,"finalScore":59,"warrantHeatScore":78,"stockSetupScore":62,"stockSetupLabel":"回檔觀察","branchPowerScore":0,"branchAvailable":false,"branchStatus":"待接分點","actionLabel":"候選觀察","signalGrade":"B","displayClose":1365,"displayPercent":1.486988847583643,"tradeDate":"1150617","quoteDate":"20260618","reason":"B：候選觀察。權證熱度 78、股票型態 62（回檔觀察）、分點 待接分點；認購 81 檔、價平/價內 31 檔、認購金額 0.10 億，認購/認售比 99+，最近到期 11 天。"},{"code":"2376","name":"技嘉","underlyingCode":"2376","underlyingName":"技嘉","underlyingClose":344,"underlyingPercent":-1.0071942446043165,"callValue":9718030,"putValue":0,"callCount":69,"putCount":0,"callPutRatio":99,"score":63,"finalScore":59,"warrantHeatScore":78,"stockSetupScore":62,"stockSetupLabel":"回檔觀察","branchPowerScore":0,"branchAvailable":false,"branchStatus":"待接分點","actionLabel":"候選觀察","signalGrade":"B","displayClose":344,"displayPercent":-1.0071942446043165,"tradeDate":"1150617","quoteDate":"20260618","reason":"B：候選觀察。權證熱度 78、股票型態 62（回檔觀察）、分點 待接分點；認購 69 檔、價平/價內 18 檔、認購金額 0.10 億，認購/認售比 99+，最近到期 11 天。"},{"code":"2324","name":"仁寶","underlyingCode":"2324","underlyingName":"仁寶","underlyingClose":37.75,"underlyingPercent":1.206434316353895,"callValue":9450090,"putValue":23170,"callCount":46,"putCount":1,"callPutRatio":407.86,"score":63,"finalScore":59,"warrantHeatScore":78,"stockSetupScore":62,"stockSetupLabel":"回檔觀察","branchPowerScore":0,"branchAvailable":false,"branchStatus":"待接分點","actionLabel":"候選觀察","signalGrade":"B","displayClose":37.75,"displayPercent":1.206434316353895,"tradeDate":"1150617","quoteDate":"20260618","reason":"B：候選觀察。權證熱度 78、股票型態 62（回檔觀察）、分點 待接分點；認購 46 檔、價平/價內 5 檔、認購金額 0.09 億，認購/認售比 99+，最近到期 11 天。"},{"code":"2059","name":"川湖","underlyingCode":"2059","underlyingName":"川湖","underlyingClose":6865,"underlyingPercent":3.7009063444108756,"callValue":8389470,"putValue":80910,"callCount":58,"putCount":3,"callPutRatio":103.69,"score":63,"finalScore":59,"warrantHeatScore":78,"stockSetupScore":62,"stockSetupLabel":"回檔觀察","branchPowerScore":0,"branchAvailable":false,"branchStatus":"待接分點","actionLabel":"候選觀察","signalGrade":"B","displayClose":6865,"displayPercent":3.7009063444108756,"tradeDate":"1150617","quoteDate":"20260618","reason":"B：候選觀察。權證熱度 78、股票型態 62（回檔觀察）、分點 待接分點；認購 58 檔、價平/價內 13 檔、認購金額 0.08 億，認購/認售比 99+，最近到期 11 天。"}],"matches":[{"code":"2345","name":"智邦","underlyingCode":"2345","underlyingName":"智邦","underlyingClose":2435,"underlyingPercent":-2.404809619238477,"callValue":42583650,"putValue":516860,"callCount":124,"putCount":12,"callPutRatio":82.39,"score":67,"finalScore":63,"warrantHeatScore":85,"stockSetupScore":62,"stockSetupLabel":"回檔觀察","branchPowerScore":0,"branchAvailable":false,"branchStatus":"待接分點","actionLabel":"候選觀察","signalGrade":"B","displayClose":2435,"displayPercent":-2.404809619238477,"tradeDate":"1150617","quoteDate":"20260618","reason":"B：候選觀察。權證熱度 85、股票型態 62（回檔觀察）、分點 待接分點；認購 124 檔、價平/價內 42 檔、認購金額 0.43 億，認購/認售比 82.39，最近到期 27 天。"},{"code":"5483","name":"中美晶","underlyingCode":"5483","underlyingName":"中美晶","underlyingClose":181,"underlyingPercent":-0.821917808219178,"callValue":34560570,"putValue":7880,"callCount":92,"putCount":1,"callPutRatio":4385.86,"score":66,"finalScore":62,"warrantHeatScore":83,"stockSetupScore":62,"stockSetupLabel":"回檔觀察","branchPowerScore":0,"branchAvailable":false,"branchStatus":"待接分點","actionLabel":"候選觀察","signalGrade":"B","displayClose":181,"displayPercent":-0.821917808219178,"tradeDate":"1150617","quoteDate":"20260618","reason":"B：候選觀察。權證熱度 83、股票型態 62（回檔觀察）、分點 待接分點；認購 92 檔、價平/價內 38 檔、認購金額 0.35 億，認購/認售比 99+，最近到期 11 天。"},{"code":"5289","name":"宜鼎","underlyingCode":"5289","underlyingName":"宜鼎","underlyingClose":1930,"underlyingPercent":4.0431266846361185,"callValue":67747320,"putValue":186050,"callCount":78,"putCount":2,"callPutRatio":364.14,"score":65,"finalScore":62,"warrantHeatScore":86,"stockSetupScore":58,"stockSetupLabel":"短線偏熱","branchPowerScore":0,"branchAvailable":false,"branchStatus":"待接分點","actionLabel":"候選觀察","signalGrade":"B","displayClose":1930,"displayPercent":4.0431266846361185,"tradeDate":"1150617","quoteDate":"20260618","reason":"B：候選觀察。權證熱度 86、股票型態 58（短線偏熱）、分點 待接分點；認購 78 檔、價平/價內 3 檔、認購金額 0.68 億，認購/認售比 99+，最近到期 20 天。"},{"code":"5269","name":"祥碩","underlyingCode":"5269","underlyingName":"祥碩","underlyingClose":1455,"underlyingPercent":2.1052631578947367,"callValue":26329390,"putValue":0,"callCount":93,"putCount":0,"callPutRatio":99,"score":65,"finalScore":59,"warrantHeatScore":81,"stockSetupScore":58,"stockSetupLabel":"短線偏熱","branchPowerScore":0,"branchAvailable":false,"branchStatus":"待接分點","actionLabel":"候選觀察","signalGrade":"B","displayClose":1455,"displayPercent":2.1052631578947367,"tradeDate":"1150617","quoteDate":"20260618","reason":"B：候選觀察。權證熱度 81、股票型態 58（短線偏熱）、分點 待接分點；認購 93 檔、價平/價內 23 檔、認購金額 0.26 億，認購/認售比 99+，最近到期 13 天。"},{"code":"2882","name":"國泰金","underlyingCode":"2882","underlyingName":"國泰金","underlyingClose":115.5,"underlyingPercent":1.762114537444934,"callValue":21848950,"putValue":129830,"callCount":29,"putCount":2,"callPutRatio":168.29,"score":65,"finalScore":59,"warrantHeatScore":80,"stockSetupScore":58,"stockSetupLabel":"短線偏熱","branchPowerScore":0,"branchAvailable":false,"branchStatus":"待接分點","actionLabel":"候選觀察","signalGrade":"B","displayClose":115.5,"displayPercent":1.762114537444934,"tradeDate":"1150617","quoteDate":"20260618","reason":"B：候選觀察。權證熱度 80、股票型態 58（短線偏熱）、分點 待接分點；認購 29 檔、價平/價內 16 檔、認購金額 0.22 億，認購/認售比 99+，最近到期 11 天。"},{"code":"2481","name":"強茂","underlyingCode":"2481","underlyingName":"強茂","underlyingClose":160,"underlyingPercent":9.965635738831615,"callValue":18906940,"putValue":0,"callCount":68,"putCount":0,"callPutRatio":99,"score":65,"finalScore":59,"warrantHeatScore":80,"stockSetupScore":58,"stockSetupLabel":"短線偏熱","branchPowerScore":0,"branchAvailable":false,"branchStatus":"待接分點","actionLabel":"候選觀察","signalGrade":"B","displayClose":160,"displayPercent":9.965635738831615,"tradeDate":"1150617","quoteDate":"20260618","reason":"B：候選觀察。權證熱度 80、股票型態 58（短線偏熱）、分點 待接分點；認購 68 檔、價平/價內 20 檔、認購金額 0.19 億，認購/認售比 99+，最近到期 39 天。"},{"code":"6669","name":"緯穎","underlyingCode":"6669","underlyingName":"緯穎","underlyingClose":5130,"underlyingPercent":0.984251968503937,"callValue":40343520,"putValue":359250,"callCount":215,"putCount":10,"callPutRatio":112.3,"score":64,"finalScore":61,"warrantHeatScore":84,"stockSetupScore":58,"stockSetupLabel":"短線偏熱","branchPowerScore":0,"branchAvailable":false,"branchStatus":"待接分點","actionLabel":"候選觀察","signalGrade":"B","displayClose":5130,"displayPercent":0.984251968503937,"tradeDate":"1150617","quoteDate":"20260618","reason":"B：候選觀察。權證熱度 84、股票型態 58（短線偏熱）、分點 待接分點；認購 215 檔、價平/價內 59 檔、認購金額 0.40 億，認購/認售比 99+，最近到期 14 天。"},{"code":"6770","name":"力積電","underlyingCode":"6770","underlyingName":"力積電","underlyingClose":74.2,"underlyingPercent":5.698005698005698,"callValue":25397390,"putValue":486800,"callCount":84,"putCount":8,"callPutRatio":52.17,"score":64,"finalScore":60,"warrantHeatScore":81,"stockSetupScore":62,"stockSetupLabel":"回檔觀察","branchPowerScore":0,"branchAvailable":false,"branchStatus":"待接分點","actionLabel":"候選觀察","signalGrade":"B","displayClose":74.2,"displayPercent":5.698005698005698,"tradeDate":"1150617","quoteDate":"20260618","reason":"B：候選觀察。權證熱度 81、股票型態 62（回檔觀察）、分點 待接分點；認購 84 檔、價平/價內 17 檔、認購金額 0.25 億，認購/認售比 52.17，最近到期 12 天。"},{"code":"3017","name":"奇鋐","underlyingCode":"3017","underlyingName":"奇鋐","underlyingClose":2400,"underlyingPercent":1.4799154334038054,"callValue":23159590,"putValue":802770,"callCount":173,"putCount":6,"callPutRatio":28.85,"score":64,"finalScore":60,"warrantHeatScore":81,"stockSetupScore":62,"stockSetupLabel":"回檔觀察","branchPowerScore":0,"branchAvailable":false,"branchStatus":"待接分點","actionLabel":"候選觀察","signalGrade":"B","displayClose":2400,"displayPercent":1.4799154334038054,"tradeDate":"1150617","quoteDate":"20260618","reason":"B：候選觀察。權證熱度 81、股票型態 62（回檔觀察）、分點 待接分點；認購 173 檔、價平/價內 35 檔、認購金額 0.23 億，認購/認售比 28.85，最近到期 22 天。"},{"code":"2493","name":"揚博","underlyingCode":"2493","underlyingName":"揚博","underlyingClose":273.5,"underlyingPercent":9.839357429718875,"callValue":21821980,"putValue":0,"callCount":47,"putCount":0,"callPutRatio":99,"score":64,"finalScore":60,"warrantHeatScore":80,"stockSetupScore":62,"stockSetupLabel":"回檔觀察","branchPowerScore":0,"branchAvailable":false,"branchStatus":"待接分點","actionLabel":"候選觀察","signalGrade":"B","displayClose":273.5,"displayPercent":9.839357429718875,"tradeDate":"1150617","quoteDate":"20260618","reason":"B：候選觀察。權證熱度 80、股票型態 62（回檔觀察）、分點 待接分點；認購 47 檔、價平/價內 7 檔、認購金額 0.22 億，認購/認售比 99+，最近到期 11 天。"},{"code":"3665","name":"貿聯-KY","underlyingCode":"3665","underlyingName":"貿聯-KY","underlyingClose":2100,"underlyingPercent":0.4784688995215311,"callValue":19728370,"putValue":216830,"callCount":120,"putCount":5,"callPutRatio":90.99,"score":64,"finalScore":60,"warrantHeatScore":80,"stockSetupScore":62,"stockSetupLabel":"回檔觀察","branchPowerScore":0,"branchAvailable":false,"branchStatus":"待接分點","actionLabel":"候選觀察","signalGrade":"B","displayClose":2100,"displayPercent":0.4784688995215311,"tradeDate":"1150617","quoteDate":"20260618","reason":"B：候選觀察。權證熱度 80、股票型態 62（回檔觀察）、分點 待接分點；認購 120 檔、價平/價內 29 檔、認購金額 0.20 億，認購/認售比 90.99，最近到期 39 天。"},{"code":"6223","name":"旺矽","underlyingCode":"6223","underlyingName":"旺矽","underlyingClose":6415,"underlyingPercent":-0.0778816199376947,"callValue":17680220,"putValue":363900,"callCount":39,"putCount":3,"callPutRatio":48.59,"score":64,"finalScore":60,"warrantHeatScore":80,"stockSetupScore":62,"stockSetupLabel":"回檔觀察","branchPowerScore":0,"branchAvailable":false,"branchStatus":"待接分點","actionLabel":"候選觀察","signalGrade":"B","displayClose":6415,"displayPercent":-0.0778816199376947,"tradeDate":"1150617","quoteDate":"20260618","reason":"B：候選觀察。權證熱度 80、股票型態 62（回檔觀察）、分點 待接分點；認購 39 檔、價平/價內 16 檔、認購金額 0.18 億，認購/認售比 48.59，最近到期 34 天。"},{"code":"8028","name":"昇陽半導體","underlyingCode":"8028","underlyingName":"昇陽半導體","underlyingClose":311.5,"underlyingPercent":0,"callValue":16545380,"putValue":900,"callCount":54,"putCount":1,"callPutRatio":18383.76,"score":63,"finalScore":59,"warrantHeatScore":79,"stockSetupScore":62,"stockSetupLabel":"回檔觀察","branchPowerScore":0,"branchAvailable":false,"branchStatus":"待接分點","actionLabel":"候選觀察","signalGrade":"B","displayClose":311.5,"displayPercent":0,"tradeDate":"1150617","quoteDate":"20260618","reason":"B：候選觀察。權證熱度 79、股票型態 62（回檔觀察）、分點 待接分點；認購 54 檔、價平/價內 20 檔、認購金額 0.17 億，認購/認售比 99+，最近到期 19 天。"},{"code":"6805","name":"富世達","underlyingCode":"6805","underlyingName":"富世達","underlyingClose":1755,"underlyingPercent":2.3323615160349855,"callValue":11695180,"putValue":0,"callCount":51,"putCount":0,"callPutRatio":99,"score":63,"finalScore":59,"warrantHeatScore":78,"stockSetupScore":62,"stockSetupLabel":"回檔觀察","branchPowerScore":0,"branchAvailable":false,"branchStatus":"待接分點","actionLabel":"候選觀察","signalGrade":"B","displayClose":1755,"displayPercent":2.3323615160349855,"tradeDate":"1150617","quoteDate":"20260618","reason":"B：候選觀察。權證熱度 78、股票型態 62（回檔觀察）、分點 待接分點；認購 51 檔、價平/價內 5 檔、認購金額 0.12 億，認購/認售比 99+，最近到期 27 天。"},{"code":"6139","name":"亞翔","underlyingCode":"6139","underlyingName":"亞翔","underlyingClose":823,"underlyingPercent":2.109181141439206,"callValue":11189820,"putValue":0,"callCount":66,"putCount":0,"callPutRatio":99,"score":63,"finalScore":59,"warrantHeatScore":78,"stockSetupScore":62,"stockSetupLabel":"回檔觀察","branchPowerScore":0,"branchAvailable":false,"branchStatus":"待接分點","actionLabel":"候選觀察","signalGrade":"B","displayClose":823,"displayPercent":2.109181141439206,"tradeDate":"1150617","quoteDate":"20260618","reason":"B：候選觀察。權證熱度 78、股票型態 62（回檔觀察）、分點 待接分點；認購 66 檔、價平/價內 23 檔、認購金額 0.11 億，認購/認售比 99+，最近到期 26 天。"},{"code":"6282","name":"康舒","underlyingCode":"6282","underlyingName":"康舒","underlyingClose":58.1,"underlyingPercent":1.219512195121956,"callValue":10967950,"putValue":9300,"callCount":68,"putCount":1,"callPutRatio":1179.35,"score":63,"finalScore":59,"warrantHeatScore":78,"stockSetupScore":62,"stockSetupLabel":"回檔觀察","branchPowerScore":0,"branchAvailable":false,"branchStatus":"待接分點","actionLabel":"候選觀察","signalGrade":"B","displayClose":58.1,"displayPercent":1.219512195121956,"tradeDate":"1150617","quoteDate":"20260618","reason":"B：候選觀察。權證熱度 78、股票型態 62（回檔觀察）、分點 待接分點；認購 68 檔、價平/價內 12 檔、認購金額 0.11 億，認購/認售比 99+，最近到期 11 天。"},{"code":"8210","name":"勤誠","underlyingCode":"8210","underlyingName":"勤誠","underlyingClose":1365,"underlyingPercent":1.486988847583643,"callValue":10303910,"putValue":94900,"callCount":81,"putCount":1,"callPutRatio":108.58,"score":63,"finalScore":59,"warrantHeatScore":78,"stockSetupScore":62,"stockSetupLabel":"回檔觀察","branchPowerScore":0,"branchAvailable":false,"branchStatus":"待接分點","actionLabel":"候選觀察","signalGrade":"B","displayClose":1365,"displayPercent":1.486988847583643,"tradeDate":"1150617","quoteDate":"20260618","reason":"B：候選觀察。權證熱度 78、股票型態 62（回檔觀察）、分點 待接分點；認購 81 檔、價平/價內 31 檔、認購金額 0.10 億，認購/認售比 99+，最近到期 11 天。"},{"code":"2376","name":"技嘉","underlyingCode":"2376","underlyingName":"技嘉","underlyingClose":344,"underlyingPercent":-1.0071942446043165,"callValue":9718030,"putValue":0,"callCount":69,"putCount":0,"callPutRatio":99,"score":63,"finalScore":59,"warrantHeatScore":78,"stockSetupScore":62,"stockSetupLabel":"回檔觀察","branchPowerScore":0,"branchAvailable":false,"branchStatus":"待接分點","actionLabel":"候選觀察","signalGrade":"B","displayClose":344,"displayPercent":-1.0071942446043165,"tradeDate":"1150617","quoteDate":"20260618","reason":"B：候選觀察。權證熱度 78、股票型態 62（回檔觀察）、分點 待接分點；認購 69 檔、價平/價內 18 檔、認購金額 0.10 億，認購/認售比 99+，最近到期 11 天。"},{"code":"2324","name":"仁寶","underlyingCode":"2324","underlyingName":"仁寶","underlyingClose":37.75,"underlyingPercent":1.206434316353895,"callValue":9450090,"putValue":23170,"callCount":46,"putCount":1,"callPutRatio":407.86,"score":63,"finalScore":59,"warrantHeatScore":78,"stockSetupScore":62,"stockSetupLabel":"回檔觀察","branchPowerScore":0,"branchAvailable":false,"branchStatus":"待接分點","actionLabel":"候選觀察","signalGrade":"B","displayClose":37.75,"displayPercent":1.206434316353895,"tradeDate":"1150617","quoteDate":"20260618","reason":"B：候選觀察。權證熱度 78、股票型態 62（回檔觀察）、分點 待接分點；認購 46 檔、價平/價內 5 檔、認購金額 0.09 億，認購/認售比 99+，最近到期 11 天。"},{"code":"2059","name":"川湖","underlyingCode":"2059","underlyingName":"川湖","underlyingClose":6865,"underlyingPercent":3.7009063444108756,"callValue":8389470,"putValue":80910,"callCount":58,"putCount":3,"callPutRatio":103.69,"score":63,"finalScore":59,"warrantHeatScore":78,"stockSetupScore":62,"stockSetupLabel":"回檔觀察","branchPowerScore":0,"branchAvailable":false,"branchStatus":"待接分點","actionLabel":"候選觀察","signalGrade":"B","displayClose":6865,"displayPercent":3.7009063444108756,"tradeDate":"1150617","quoteDate":"20260618","reason":"B：候選觀察。權證熱度 78、股票型態 62（回檔觀察）、分點 待接分點；認購 58 檔、價平/價內 13 檔、認購金額 0.08 億，認購/認售比 99+，最近到期 11 天。"}]}
