{"ok":true,"updatedAt":"2026-06-18T13:12:23.575Z","source":"warrant-volume-page","page":8,"pageSize":25,"totalPages":8,"totalCount":189,"count":14,"rows":[{"code":"2059","name":"川湖","underlyingCode":"2059","underlyingName":"川湖","underlyingClose":6865,"underlyingPercent":3.7009063444108756,"callValue":11901250,"putValue":374910,"callVolume":4081000,"putVolume":1039000,"callCount":58,"putCount":4,"callPutRatio":31.74,"thirtyMinuteVolume":4081,"floatingUnits":58,"volumeMultiple":14.07,"score":63,"finalScore":59,"warrantHeatScore":78,"stockSetupScore":62,"stockSetupLabel":"回檔觀察","branchPowerScore":0,"branchAvailable":false,"branchStatus":"待接分點","actionLabel":"候選觀察","signalGrade":"B","displayClose":6865,"displayPercent":3.7009063444108756,"tradeDate":"1150618","quoteDate":"20260618","reason":"B：候選觀察。權證熱度 78、股票型態 62（回檔觀察）、分點 待接分點；認購 58 檔、價平/價內 13 檔、認購金額 0.12 億，認購/認售比 31.74，最近到期 20 天。"},{"code":"1303","name":"南亞","underlyingCode":"1303","underlyingName":"南亞","underlyingClose":115,"underlyingPercent":-1.71,"callValue":28450610,"putValue":166140,"callVolume":9325000,"putVolume":771000,"callCount":142,"putCount":5,"callPutRatio":171.24,"thirtyMinuteVolume":9325,"floatingUnits":142,"volumeMultiple":13.13,"score":42,"finalScore":49,"warrantHeatScore":82,"stockSetupScore":18,"stockSetupLabel":"已明顯過熱","branchPowerScore":0,"branchAvailable":false,"branchStatus":"待接分點","actionLabel":"只列熱度，不追價","signalGrade":"C","displayClose":115,"displayPercent":-1.71,"tradeDate":"1150618","quoteDate":"20260616","reason":"C：只列熱度，不追價。權證熱度 82、股票型態 18（已明顯過熱）、分點 待接分點；認購 142 檔、價平/價內 62 檔、認購金額 0.28 億，認購/認售比 99+，最近到期 15 天。"},{"code":"6116","name":"彩晶","underlyingCode":"6116","underlyingName":"彩晶","underlyingClose":16.6,"underlyingPercent":0.61,"callValue":5424590,"putValue":4160,"callVolume":1651000,"putVolume":22000,"callCount":26,"putCount":1,"callPutRatio":1303.99,"thirtyMinuteVolume":1651,"floatingUnits":26,"volumeMultiple":12.7,"score":39,"finalScore":46,"warrantHeatScore":77,"stockSetupScore":18,"stockSetupLabel":"已明顯過熱","branchPowerScore":0,"branchAvailable":false,"branchStatus":"待接分點","actionLabel":"只列熱度，不追價","signalGrade":"C","displayClose":16.6,"displayPercent":0.61,"tradeDate":"1150618","quoteDate":"20260616","reason":"C：只列熱度，不追價。權證熱度 77、股票型態 18（已明顯過熱）、分點 待接分點；認購 26 檔、價平/價內 9 檔、認購金額 0.05 億，認購/認售比 99+，最近到期 13 天。"},{"code":"6449","name":"鈺邦","underlyingCode":"6449","underlyingName":"鈺邦","underlyingClose":418.5,"underlyingPercent":-9.61,"callValue":4714430,"putValue":0,"callVolume":1320000,"putVolume":0,"callCount":21,"putCount":0,"callPutRatio":99,"thirtyMinuteVolume":1320,"floatingUnits":21,"volumeMultiple":12.57,"score":34,"finalScore":41,"warrantHeatScore":69,"stockSetupScore":18,"stockSetupLabel":"已明顯過熱","branchPowerScore":0,"branchAvailable":false,"branchStatus":"待接分點","actionLabel":"只列熱度，不追價","signalGrade":"C","displayClose":418.5,"displayPercent":-9.61,"tradeDate":"1150618","quoteDate":"20260616","reason":"C：只列熱度，不追價。權證熱度 69、股票型態 18（已明顯過熱）、分點 待接分點；認購 21 檔、價平/價內 2 檔、認購金額 0.05 億，認購/認售比 99+，最近到期 11 天。"},{"code":"2383","name":"台光電","underlyingCode":"2383","underlyingName":"台光電","underlyingClose":5120,"underlyingPercent":1.79,"callValue":9711710,"putValue":39840,"callVolume":2085000,"putVolume":864000,"callCount":34,"putCount":3,"callPutRatio":243.77,"thirtyMinuteVolume":2085,"floatingUnits":34,"volumeMultiple":12.26,"score":61,"finalScore":53,"warrantHeatScore":62,"stockSetupScore":76,"stockSetupLabel":"漲幅可控","branchPowerScore":0,"branchAvailable":false,"branchStatus":"待接分點","actionLabel":"候選觀察","signalGrade":"B","displayClose":5120,"displayPercent":1.79,"tradeDate":"1150618","quoteDate":"20260616","reason":"B：候選觀察。權證熱度 62、股票型態 76（漲幅可控）、分點 待接分點；認購 34 檔、價平/價內 0 檔、認購金額 0.10 億，認購/認售比 99+，最近到期 11 天。"},{"code":"2455","name":"全新","underlyingCode":"2455","underlyingName":"全新","underlyingClose":405.5,"underlyingPercent":9.89,"callValue":4086220,"putValue":0,"callVolume":878000,"putVolume":0,"callCount":15,"putCount":0,"callPutRatio":99,"thirtyMinuteVolume":878,"floatingUnits":15,"volumeMultiple":11.71,"score":44,"finalScore":41,"warrantHeatScore":61,"stockSetupScore":36,"stockSetupLabel":"追價風險高","branchPowerScore":0,"branchAvailable":false,"branchStatus":"待接分點","actionLabel":"只列熱度，不追價","signalGrade":"C","displayClose":405.5,"displayPercent":9.89,"tradeDate":"1150618","quoteDate":"20260616","reason":"C：只列熱度，不追價。權證熱度 61、股票型態 36（追價風險高）、分點 待接分點；認購 15 檔、價平/價內 0 檔、認購金額 0.04 億，認購/認售比 99+，最近到期 11 天。"},{"code":"3037","name":"欣興","underlyingCode":"3037","underlyingName":"欣興","underlyingClose":981,"underlyingPercent":2.19,"callValue":5850600,"putValue":1270,"callVolume":1405000,"putVolume":33000,"callCount":30,"putCount":4,"callPutRatio":4606.77,"thirtyMinuteVolume":1405,"floatingUnits":30,"volumeMultiple":9.37,"score":64,"finalScore":56,"warrantHeatScore":61,"stockSetupScore":88,"stockSetupLabel":"股票未噴，權證先熱","branchPowerScore":0,"branchAvailable":false,"branchStatus":"待接分點","actionLabel":"只列熱度，不追價","signalGrade":"C","displayClose":981,"displayPercent":2.19,"tradeDate":"1150618","quoteDate":"20260616","reason":"C：只列熱度，不追價。權證熱度 61、股票型態 88（股票未噴，權證先熱）、分點 待接分點；認購 30 檔、價平/價內 0 檔、認購金額 0.06 億，認購/認售比 99+，最近到期 39 天。"},{"code":"2478","name":"大毅","underlyingCode":"2478","underlyingName":"大毅","underlyingClose":207,"underlyingPercent":9.81,"callValue":4083770,"putValue":0,"callVolume":654000,"putVolume":0,"callCount":15,"putCount":0,"callPutRatio":99,"thirtyMinuteVolume":654,"floatingUnits":15,"volumeMultiple":8.72,"score":32,"finalScore":39,"warrantHeatScore":65,"stockSetupScore":18,"stockSetupLabel":"已明顯過熱","branchPowerScore":0,"branchAvailable":false,"branchStatus":"待接分點","actionLabel":"只列熱度，不追價","signalGrade":"C","displayClose":207,"displayPercent":9.81,"tradeDate":"1150618","quoteDate":"20260616","reason":"C：只列熱度，不追價。權證熱度 65、股票型態 18（已明顯過熱）、分點 待接分點；認購 15 檔、價平/價內 1 檔、認購金額 0.04 億，認購/認售比 99+，最近到期 40 天。"},{"code":"3090","name":"日電貿","underlyingCode":"3090","underlyingName":"日電貿","underlyingClose":275,"underlyingPercent":-2.31,"callValue":9794570,"putValue":0,"callVolume":1334000,"putVolume":0,"callCount":31,"putCount":0,"callPutRatio":99,"thirtyMinuteVolume":1334,"floatingUnits":31,"volumeMultiple":8.61,"score":30,"finalScore":37,"warrantHeatScore":62,"stockSetupScore":18,"stockSetupLabel":"已明顯過熱","branchPowerScore":0,"branchAvailable":false,"branchStatus":"待接分點","actionLabel":"只列熱度，不追價","signalGrade":"C","displayClose":275,"displayPercent":-2.31,"tradeDate":"1150618","quoteDate":"20260616","reason":"C：只列熱度，不追價。權證熱度 62、股票型態 18（已明顯過熱）、分點 待接分點；認購 31 檔、價平/價內 0 檔、認購金額 0.10 億，認購/認售比 99+，最近到期 25 天。"},{"code":"6531","name":"愛普*","underlyingCode":"6531","underlyingName":"愛普*","underlyingClose":1025,"underlyingPercent":9.860664523043944,"callValue":5572060,"putValue":400,"callVolume":1081000,"putVolume":10000,"callCount":28,"putCount":1,"callPutRatio":13930.15,"thirtyMinuteVolume":1081,"floatingUnits":28,"volumeMultiple":7.72,"score":73,"finalScore":65,"warrantHeatScore":77,"stockSetupScore":88,"stockSetupLabel":"股票未噴，權證先熱","branchPowerScore":0,"branchAvailable":false,"branchStatus":"待接分點","actionLabel":"候選觀察","signalGrade":"B","displayClose":1025,"displayPercent":9.860664523043944,"tradeDate":"1150618","quoteDate":"20260618","reason":"B：候選觀察。權證熱度 77、股票型態 88（股票未噴，權證先熱）、分點 待接分點；認購 28 檔、價平/價內 6 檔、認購金額 0.06 億，認購/認售比 99+，最近到期 18 天。"},{"code":"2481","name":"強茂","underlyingCode":"2481","underlyingName":"強茂","underlyingClose":140,"underlyingPercent":-1.75,"callValue":4736000,"putValue":0,"callVolume":2673000,"putVolume":0,"callCount":76,"putCount":0,"callPutRatio":99,"thirtyMinuteVolume":2673,"floatingUnits":76,"volumeMultiple":7.03,"score":63,"finalScore":57,"warrantHeatScore":77,"stockSetupScore":58,"stockSetupLabel":"短線偏熱","branchPowerScore":0,"branchAvailable":false,"branchStatus":"待接分點","actionLabel":"候選觀察","signalGrade":"B","displayClose":140,"displayPercent":-1.75,"tradeDate":"1150618","quoteDate":"20260616","reason":"B：候選觀察。權證熱度 77、股票型態 58（短線偏熱）、分點 待接分點；認購 76 檔、價平/價內 23 檔、認購金額 0.05 億，認購/認售比 99+，最近到期 32 天。"},{"code":"3189","name":"景碩","underlyingCode":"3189","underlyingName":"景碩","underlyingClose":642,"underlyingPercent":-2.73,"callValue":6397580,"putValue":96960,"callVolume":1467000,"putVolume":720000,"callCount":46,"putCount":4,"callPutRatio":65.98,"thirtyMinuteVolume":1467,"floatingUnits":46,"volumeMultiple":6.38,"score":29,"finalScore":36,"warrantHeatScore":61,"stockSetupScore":18,"stockSetupLabel":"已明顯過熱","branchPowerScore":0,"branchAvailable":false,"branchStatus":"待接分點","actionLabel":"只列熱度，不追價","signalGrade":"C","displayClose":642,"displayPercent":-2.73,"tradeDate":"1150618","quoteDate":"20260616","reason":"C：只列熱度，不追價。權證熱度 61、股票型態 18（已明顯過熱）、分點 待接分點；認購 46 檔、價平/價內 0 檔、認購金額 0.06 億，認購/認售比 65.98，最近到期 18 天。"},{"code":"8261","name":"富鼎","underlyingCode":"8261","underlyingName":"富鼎","underlyingClose":178,"underlyingPercent":-4.3,"callValue":3502080,"putValue":0,"callVolume":1368000,"putVolume":0,"callCount":45,"putCount":0,"callPutRatio":99,"thirtyMinuteVolume":1368,"floatingUnits":45,"volumeMultiple":6.08,"score":39,"finalScore":46,"warrantHeatScore":77,"stockSetupScore":18,"stockSetupLabel":"已明顯過熱","branchPowerScore":0,"branchAvailable":false,"branchStatus":"待接分點","actionLabel":"只列熱度，不追價","signalGrade":"C","displayClose":178,"displayPercent":-4.3,"tradeDate":"1150618","quoteDate":"20260616","reason":"C：只列熱度，不追價。權證熱度 77、股票型態 18（已明顯過熱）、分點 待接分點；認購 45 檔、價平/價內 12 檔、認購金額 0.04 億，認購/認售比 99+，最近到期 12 天。"},{"code":"2337","name":"旺宏","underlyingCode":"2337","underlyingName":"旺宏","underlyingClose":166.5,"underlyingPercent":4.72,"callValue":3816740,"putValue":4440,"callVolume":366000,"putVolume":32000,"callCount":14,"putCount":5,"callPutRatio":859.63,"thirtyMinuteVolume":366,"floatingUnits":14,"volumeMultiple":5.23,"score":34,"finalScore":39,"warrantHeatScore":61,"stockSetupScore":28,"stockSetupLabel":"股價偏弱","branchPowerScore":0,"branchAvailable":false,"branchStatus":"待接分點","actionLabel":"只列熱度，不追價","signalGrade":"C","displayClose":166.5,"displayPercent":4.72,"tradeDate":"1150618","quoteDate":"20260616","reason":"C：只列熱度，不追價。權證熱度 61、股票型態 28（股價偏弱）、分點 待接分點；認購 14 檔、價平/價內 0 檔、認購金額 0.04 億，認購/認售比 99+，最近到期 22 天。"}],"matches":[{"code":"2059","name":"川湖","underlyingCode":"2059","underlyingName":"川湖","underlyingClose":6865,"underlyingPercent":3.7009063444108756,"callValue":11901250,"putValue":374910,"callVolume":4081000,"putVolume":1039000,"callCount":58,"putCount":4,"callPutRatio":31.74,"thirtyMinuteVolume":4081,"floatingUnits":58,"volumeMultiple":14.07,"score":63,"finalScore":59,"warrantHeatScore":78,"stockSetupScore":62,"stockSetupLabel":"回檔觀察","branchPowerScore":0,"branchAvailable":false,"branchStatus":"待接分點","actionLabel":"候選觀察","signalGrade":"B","displayClose":6865,"displayPercent":3.7009063444108756,"tradeDate":"1150618","quoteDate":"20260618","reason":"B：候選觀察。權證熱度 78、股票型態 62（回檔觀察）、分點 待接分點；認購 58 檔、價平/價內 13 檔、認購金額 0.12 億，認購/認售比 31.74，最近到期 20 天。"},{"code":"1303","name":"南亞","underlyingCode":"1303","underlyingName":"南亞","underlyingClose":115,"underlyingPercent":-1.71,"callValue":28450610,"putValue":166140,"callVolume":9325000,"putVolume":771000,"callCount":142,"putCount":5,"callPutRatio":171.24,"thirtyMinuteVolume":9325,"floatingUnits":142,"volumeMultiple":13.13,"score":42,"finalScore":49,"warrantHeatScore":82,"stockSetupScore":18,"stockSetupLabel":"已明顯過熱","branchPowerScore":0,"branchAvailable":false,"branchStatus":"待接分點","actionLabel":"只列熱度，不追價","signalGrade":"C","displayClose":115,"displayPercent":-1.71,"tradeDate":"1150618","quoteDate":"20260616","reason":"C：只列熱度，不追價。權證熱度 82、股票型態 18（已明顯過熱）、分點 待接分點；認購 142 檔、價平/價內 62 檔、認購金額 0.28 億，認購/認售比 99+，最近到期 15 天。"},{"code":"6116","name":"彩晶","underlyingCode":"6116","underlyingName":"彩晶","underlyingClose":16.6,"underlyingPercent":0.61,"callValue":5424590,"putValue":4160,"callVolume":1651000,"putVolume":22000,"callCount":26,"putCount":1,"callPutRatio":1303.99,"thirtyMinuteVolume":1651,"floatingUnits":26,"volumeMultiple":12.7,"score":39,"finalScore":46,"warrantHeatScore":77,"stockSetupScore":18,"stockSetupLabel":"已明顯過熱","branchPowerScore":0,"branchAvailable":false,"branchStatus":"待接分點","actionLabel":"只列熱度，不追價","signalGrade":"C","displayClose":16.6,"displayPercent":0.61,"tradeDate":"1150618","quoteDate":"20260616","reason":"C：只列熱度，不追價。權證熱度 77、股票型態 18（已明顯過熱）、分點 待接分點；認購 26 檔、價平/價內 9 檔、認購金額 0.05 億，認購/認售比 99+，最近到期 13 天。"},{"code":"6449","name":"鈺邦","underlyingCode":"6449","underlyingName":"鈺邦","underlyingClose":418.5,"underlyingPercent":-9.61,"callValue":4714430,"putValue":0,"callVolume":1320000,"putVolume":0,"callCount":21,"putCount":0,"callPutRatio":99,"thirtyMinuteVolume":1320,"floatingUnits":21,"volumeMultiple":12.57,"score":34,"finalScore":41,"warrantHeatScore":69,"stockSetupScore":18,"stockSetupLabel":"已明顯過熱","branchPowerScore":0,"branchAvailable":false,"branchStatus":"待接分點","actionLabel":"只列熱度，不追價","signalGrade":"C","displayClose":418.5,"displayPercent":-9.61,"tradeDate":"1150618","quoteDate":"20260616","reason":"C：只列熱度，不追價。權證熱度 69、股票型態 18（已明顯過熱）、分點 待接分點；認購 21 檔、價平/價內 2 檔、認購金額 0.05 億，認購/認售比 99+，最近到期 11 天。"},{"code":"2383","name":"台光電","underlyingCode":"2383","underlyingName":"台光電","underlyingClose":5120,"underlyingPercent":1.79,"callValue":9711710,"putValue":39840,"callVolume":2085000,"putVolume":864000,"callCount":34,"putCount":3,"callPutRatio":243.77,"thirtyMinuteVolume":2085,"floatingUnits":34,"volumeMultiple":12.26,"score":61,"finalScore":53,"warrantHeatScore":62,"stockSetupScore":76,"stockSetupLabel":"漲幅可控","branchPowerScore":0,"branchAvailable":false,"branchStatus":"待接分點","actionLabel":"候選觀察","signalGrade":"B","displayClose":5120,"displayPercent":1.79,"tradeDate":"1150618","quoteDate":"20260616","reason":"B：候選觀察。權證熱度 62、股票型態 76（漲幅可控）、分點 待接分點；認購 34 檔、價平/價內 0 檔、認購金額 0.10 億，認購/認售比 99+，最近到期 11 天。"},{"code":"2455","name":"全新","underlyingCode":"2455","underlyingName":"全新","underlyingClose":405.5,"underlyingPercent":9.89,"callValue":4086220,"putValue":0,"callVolume":878000,"putVolume":0,"callCount":15,"putCount":0,"callPutRatio":99,"thirtyMinuteVolume":878,"floatingUnits":15,"volumeMultiple":11.71,"score":44,"finalScore":41,"warrantHeatScore":61,"stockSetupScore":36,"stockSetupLabel":"追價風險高","branchPowerScore":0,"branchAvailable":false,"branchStatus":"待接分點","actionLabel":"只列熱度，不追價","signalGrade":"C","displayClose":405.5,"displayPercent":9.89,"tradeDate":"1150618","quoteDate":"20260616","reason":"C：只列熱度，不追價。權證熱度 61、股票型態 36（追價風險高）、分點 待接分點；認購 15 檔、價平/價內 0 檔、認購金額 0.04 億，認購/認售比 99+，最近到期 11 天。"},{"code":"3037","name":"欣興","underlyingCode":"3037","underlyingName":"欣興","underlyingClose":981,"underlyingPercent":2.19,"callValue":5850600,"putValue":1270,"callVolume":1405000,"putVolume":33000,"callCount":30,"putCount":4,"callPutRatio":4606.77,"thirtyMinuteVolume":1405,"floatingUnits":30,"volumeMultiple":9.37,"score":64,"finalScore":56,"warrantHeatScore":61,"stockSetupScore":88,"stockSetupLabel":"股票未噴，權證先熱","branchPowerScore":0,"branchAvailable":false,"branchStatus":"待接分點","actionLabel":"只列熱度，不追價","signalGrade":"C","displayClose":981,"displayPercent":2.19,"tradeDate":"1150618","quoteDate":"20260616","reason":"C：只列熱度，不追價。權證熱度 61、股票型態 88（股票未噴，權證先熱）、分點 待接分點；認購 30 檔、價平/價內 0 檔、認購金額 0.06 億，認購/認售比 99+，最近到期 39 天。"},{"code":"2478","name":"大毅","underlyingCode":"2478","underlyingName":"大毅","underlyingClose":207,"underlyingPercent":9.81,"callValue":4083770,"putValue":0,"callVolume":654000,"putVolume":0,"callCount":15,"putCount":0,"callPutRatio":99,"thirtyMinuteVolume":654,"floatingUnits":15,"volumeMultiple":8.72,"score":32,"finalScore":39,"warrantHeatScore":65,"stockSetupScore":18,"stockSetupLabel":"已明顯過熱","branchPowerScore":0,"branchAvailable":false,"branchStatus":"待接分點","actionLabel":"只列熱度，不追價","signalGrade":"C","displayClose":207,"displayPercent":9.81,"tradeDate":"1150618","quoteDate":"20260616","reason":"C：只列熱度，不追價。權證熱度 65、股票型態 18（已明顯過熱）、分點 待接分點；認購 15 檔、價平/價內 1 檔、認購金額 0.04 億，認購/認售比 99+，最近到期 40 天。"},{"code":"3090","name":"日電貿","underlyingCode":"3090","underlyingName":"日電貿","underlyingClose":275,"underlyingPercent":-2.31,"callValue":9794570,"putValue":0,"callVolume":1334000,"putVolume":0,"callCount":31,"putCount":0,"callPutRatio":99,"thirtyMinuteVolume":1334,"floatingUnits":31,"volumeMultiple":8.61,"score":30,"finalScore":37,"warrantHeatScore":62,"stockSetupScore":18,"stockSetupLabel":"已明顯過熱","branchPowerScore":0,"branchAvailable":false,"branchStatus":"待接分點","actionLabel":"只列熱度，不追價","signalGrade":"C","displayClose":275,"displayPercent":-2.31,"tradeDate":"1150618","quoteDate":"20260616","reason":"C：只列熱度，不追價。權證熱度 62、股票型態 18（已明顯過熱）、分點 待接分點；認購 31 檔、價平/價內 0 檔、認購金額 0.10 億，認購/認售比 99+，最近到期 25 天。"},{"code":"6531","name":"愛普*","underlyingCode":"6531","underlyingName":"愛普*","underlyingClose":1025,"underlyingPercent":9.860664523043944,"callValue":5572060,"putValue":400,"callVolume":1081000,"putVolume":10000,"callCount":28,"putCount":1,"callPutRatio":13930.15,"thirtyMinuteVolume":1081,"floatingUnits":28,"volumeMultiple":7.72,"score":73,"finalScore":65,"warrantHeatScore":77,"stockSetupScore":88,"stockSetupLabel":"股票未噴，權證先熱","branchPowerScore":0,"branchAvailable":false,"branchStatus":"待接分點","actionLabel":"候選觀察","signalGrade":"B","displayClose":1025,"displayPercent":9.860664523043944,"tradeDate":"1150618","quoteDate":"20260618","reason":"B：候選觀察。權證熱度 77、股票型態 88（股票未噴，權證先熱）、分點 待接分點；認購 28 檔、價平/價內 6 檔、認購金額 0.06 億，認購/認售比 99+，最近到期 18 天。"},{"code":"2481","name":"強茂","underlyingCode":"2481","underlyingName":"強茂","underlyingClose":140,"underlyingPercent":-1.75,"callValue":4736000,"putValue":0,"callVolume":2673000,"putVolume":0,"callCount":76,"putCount":0,"callPutRatio":99,"thirtyMinuteVolume":2673,"floatingUnits":76,"volumeMultiple":7.03,"score":63,"finalScore":57,"warrantHeatScore":77,"stockSetupScore":58,"stockSetupLabel":"短線偏熱","branchPowerScore":0,"branchAvailable":false,"branchStatus":"待接分點","actionLabel":"候選觀察","signalGrade":"B","displayClose":140,"displayPercent":-1.75,"tradeDate":"1150618","quoteDate":"20260616","reason":"B：候選觀察。權證熱度 77、股票型態 58（短線偏熱）、分點 待接分點；認購 76 檔、價平/價內 23 檔、認購金額 0.05 億，認購/認售比 99+，最近到期 32 天。"},{"code":"3189","name":"景碩","underlyingCode":"3189","underlyingName":"景碩","underlyingClose":642,"underlyingPercent":-2.73,"callValue":6397580,"putValue":96960,"callVolume":1467000,"putVolume":720000,"callCount":46,"putCount":4,"callPutRatio":65.98,"thirtyMinuteVolume":1467,"floatingUnits":46,"volumeMultiple":6.38,"score":29,"finalScore":36,"warrantHeatScore":61,"stockSetupScore":18,"stockSetupLabel":"已明顯過熱","branchPowerScore":0,"branchAvailable":false,"branchStatus":"待接分點","actionLabel":"只列熱度，不追價","signalGrade":"C","displayClose":642,"displayPercent":-2.73,"tradeDate":"1150618","quoteDate":"20260616","reason":"C：只列熱度，不追價。權證熱度 61、股票型態 18（已明顯過熱）、分點 待接分點；認購 46 檔、價平/價內 0 檔、認購金額 0.06 億，認購/認售比 65.98，最近到期 18 天。"},{"code":"8261","name":"富鼎","underlyingCode":"8261","underlyingName":"富鼎","underlyingClose":178,"underlyingPercent":-4.3,"callValue":3502080,"putValue":0,"callVolume":1368000,"putVolume":0,"callCount":45,"putCount":0,"callPutRatio":99,"thirtyMinuteVolume":1368,"floatingUnits":45,"volumeMultiple":6.08,"score":39,"finalScore":46,"warrantHeatScore":77,"stockSetupScore":18,"stockSetupLabel":"已明顯過熱","branchPowerScore":0,"branchAvailable":false,"branchStatus":"待接分點","actionLabel":"只列熱度，不追價","signalGrade":"C","displayClose":178,"displayPercent":-4.3,"tradeDate":"1150618","quoteDate":"20260616","reason":"C：只列熱度，不追價。權證熱度 77、股票型態 18（已明顯過熱）、分點 待接分點；認購 45 檔、價平/價內 12 檔、認購金額 0.04 億，認購/認售比 99+，最近到期 12 天。"},{"code":"2337","name":"旺宏","underlyingCode":"2337","underlyingName":"旺宏","underlyingClose":166.5,"underlyingPercent":4.72,"callValue":3816740,"putValue":4440,"callVolume":366000,"putVolume":32000,"callCount":14,"putCount":5,"callPutRatio":859.63,"thirtyMinuteVolume":366,"floatingUnits":14,"volumeMultiple":5.23,"score":34,"finalScore":39,"warrantHeatScore":61,"stockSetupScore":28,"stockSetupLabel":"股價偏弱","branchPowerScore":0,"branchAvailable":false,"branchStatus":"待接分點","actionLabel":"只列熱度，不追價","signalGrade":"C","displayClose":166.5,"displayPercent":4.72,"tradeDate":"1150618","quoteDate":"20260616","reason":"C：只列熱度，不追價。權證熱度 61、股票型態 28（股價偏弱）、分點 待接分點；認購 14 檔、價平/價內 0 檔、認購金額 0.04 億，認購/認售比 99+，最近到期 22 天。"}]}
